# Blender MTL File: 'None'
# Material Count: 6

newmtl XCG.CCS.4
Ns 96.078431
Ka 1.000000 1.000000 1.000000
Kd 1.000000 1.000000 1.000000
Ks 0.500000 0.500000 0.500000
Ke 0.000000 0.000000 0.000000
Ni 1.000000
d 1.000000
illum 2
map_Kd minecraft:blocks/xcg_ccs_2

newmtl XCG.CCS.5
Ns 96.078431
Ka 1.000000 1.000000 1.000000
Kd 1.000000 1.000000 1.000000
Ks 0.500000 0.500000 0.500000
Ke 0.000000 0.000000 0.000000
Ni 1.000000
d 1.000000
illum 2
map_Kd minecraft:blocks/xcg.ccs.1

newmtl XCG.CCS.6
Ns 96.078431
Ka 1.000000 1.000000 1.000000
Kd 1.000000 1.000000 1.000000
Ks 0.500000 0.500000 0.500000
Ke 0.000000 0.000000 0.000000
Ni 1.000000
d 1.000000
illum 2
map_Kd minecraft:blocks/xcg_ccs_2

newmtl XCG.CCS.7
Ns 96.078431
Ka 1.000000 1.000000 1.000000
Kd 1.000000 1.000000 1.000000
Ks 0.500000 0.500000 0.500000
Ke 0.000000 0.000000 0.000000
Ni 1.000000
d 1.000000
illum 2
map_Kd minecraft:blocks/xcg.ccs.0

newmtl XCG.CCS.8
Ns 96.078431
Ka 1.000000 1.000000 1.000000
Kd 1.000000 1.000000 1.000000
Ks 0.500000 0.500000 0.500000
Ke 0.000000 0.000000 0.000000
Ni 1.000000
d 1.000000
illum 2
map_Kd minecraft:blocks/xcg.ccs.0

newmtl XCG.CCS.9
Ns 96.078431
Ka 1.000000 1.000000 1.000000
Kd 1.000000 1.000000 1.000000
Ks 0.500000 0.500000 0.500000
Ke 0.000000 0.000000 0.000000
Ni 1.000000
d 1.000000
illum 2
map_Kd minecraft:blocks/XCG.CCS.0
