# Blender v2.79 (sub 0) OBJ File: ''
# www.blender.org
mtllib w21gn13.mtl
o w21gn13
v 0.019900 0.027300 0.597500
v 0.026800 0.041100 0.880900
v 0.019900 0.027600 0.880900
v 0.026800 0.041100 0.597500
v 0.019900 0.027000 0.280600
v 0.026800 0.041100 0.280000
v 0.014600 0.015700 0.503700
v 0.014600 0.023600 0.880900
v 0.014600 0.015700 0.880900
v 0.014600 0.023600 0.597500
v 0.014600 0.023600 0.280600
v 0.017700 0.013900 0.270000
v 0.014600 0.015700 0.275300
v 0.008700 0.008600 0.268400
v 0.014600 -0.002700 0.497800
v 0.008700 -0.001100 0.510300
v 0.008700 -0.015800 0.514300
v 0.014600 -0.021800 0.502200
v 0.014600 -0.039300 0.520300
v 0.008700 -0.029600 0.528700
v 0.014600 -0.053000 0.554000
v 0.008700 -0.037100 0.629300
v 0.014600 -0.054600 0.591500
v 0.008700 -0.041400 0.591500
v 0.014600 -0.050200 0.631200
v 0.008700 -0.016800 0.659000
v 0.014600 -0.030800 0.664000
v 0.008700 0.009800 0.677200
v 0.014600 -0.004600 0.682200
v 0.014600 -0.004600 0.890600
v 0.008700 0.007000 1.003700
v 0.014600 -0.045500 0.739000
v 0.008700 -0.059300 0.758400
v 0.008700 -0.040800 0.558400
v 0.014600 -0.073000 0.687800
v 0.008700 -0.087400 0.697500
v 0.014600 -0.087400 0.641500
v 0.008700 -0.107100 0.641500
v 0.014600 -0.094300 0.593100
v 0.014600 -0.089300 0.538700
v 0.014600 -0.074600 0.483400
v 0.008700 -0.113300 0.593100
v 0.014600 -0.048300 0.445600
v 0.014600 -0.019600 0.425600
v 0.014600 0.004200 0.395900
v 0.008700 -0.021800 0.409700
v 0.008700 -0.058000 0.431500
v 0.008700 -0.088600 0.469300
v 0.008700 -0.106800 0.533100
v 0.008700 -0.004900 0.387500
v 0.026800 0.041100 0.890900
v 0.019900 0.054200 0.880900
v 0.019900 0.027600 0.890900
v 0.014600 0.023600 0.890900
v 0.014600 0.015700 0.890900
v 0.020500 0.013900 0.258400
v 0.008700 0.008600 0.258400
v 0.026800 0.041100 0.258400
v 0.020500 0.067600 0.258400
v 0.008700 0.015700 0.514700
v 0.003000 0.015700 0.880900
v -0.000100 0.013900 0.268400
v 0.003000 0.015700 0.275300
v 0.003000 0.015700 0.890900
v -0.003200 0.013900 0.258400
v 0.003000 0.015700 0.503700
v -0.009100 0.041100 0.890900
v -0.002600 0.027600 0.890900
v -0.002600 0.054200 0.890900
v 0.003000 0.023600 0.890900
v 0.018700 0.037300 0.889700
v 0.013700 0.045700 0.904700
v 0.018700 0.037300 0.904700
v 0.013700 0.045700 0.889700
v 0.004000 0.045700 0.904700
v 0.004000 0.045700 0.889700
v 0.004000 0.028600 0.889700
v 0.013700 0.028600 0.904700
v 0.004000 0.028600 0.904700
v 0.013700 0.028600 0.889700
v -0.001000 0.037300 0.904700
v 0.029300 0.083200 0.234700
v 0.008700 0.073200 0.258400
v 0.039600 0.038200 0.234700
v 0.008700 0.092900 0.234700
v -0.011600 0.083200 0.234700
v 0.008700 -0.017700 0.234700
v 0.029300 -0.008300 0.234700
v 0.008700 0.077000 0.234700
v -0.004800 0.070400 0.234700
v -0.012000 0.040400 0.234700
v -0.022300 0.038200 0.234700
v -0.004800 0.009200 0.234700
v -0.011600 -0.008300 0.234700
v 0.008700 0.002900 0.234700
v 0.022400 0.009200 0.234700
v 0.029300 0.040400 0.234700
v 0.022400 0.070400 0.234700
v 0.021800 0.069200 0.229700
v 0.028400 0.040700 0.229700
v 0.008700 0.075400 0.229700
v -0.004100 0.069200 0.229700
v 0.021800 0.010700 0.229700
v 0.008700 0.004800 0.229700
v 0.017100 0.050400 0.229700
v 0.017100 0.012600 0.229700
v 0.008700 0.054500 0.229700
v 0.000500 0.050400 0.229700
v 0.017100 0.050400 0.177200
v 0.008700 0.054500 0.177200
v 0.008700 0.062300 0.159300
v 0.000500 0.050400 0.177200
v 0.017100 0.012600 0.177200
v 0.011200 0.009800 0.229700
v 0.011200 0.009800 0.179000
v 0.017100 0.058200 0.160600
v 0.017100 0.047600 0.155300
v 0.008700 0.050100 0.153100
v -0.004100 0.010700 0.229700
v 0.000500 0.012600 0.229700
v 0.006200 0.009800 0.229700
v 0.006500 0.009800 0.179000
v 0.006200 0.000700 0.177200
v 0.011200 0.000700 0.177200
v 0.006200 -0.006400 0.180600
v 0.011200 -0.010200 0.188400
v 0.011200 -0.006400 0.180600
v 0.006500 -0.010200 0.188400
v 0.011200 -0.015200 0.166800
v 0.006200 -0.015200 0.166800
v 0.006200 -0.017100 0.141800
v 0.006200 -0.008600 0.111800
v 0.011200 -0.008600 0.111800
v 0.011200 -0.017100 0.141800
v 0.011200 0.014500 0.121200
v 0.011200 0.013600 0.135300
v 0.011200 0.015400 0.144000
v 0.011200 0.021100 0.151500
v 0.011200 0.044800 0.156200
v 0.006200 0.021100 0.151500
v 0.006200 0.044800 0.156200
v 0.006200 0.015400 0.144000
v 0.006200 0.013600 0.135300
v 0.006200 0.014500 0.121200
v 0.019600 -0.018000 0.068100
v 0.008700 -0.003000 0.064300
v 0.008700 -0.057700 -0.144100
v 0.017700 0.003200 0.118100
v 0.016800 -0.032100 0.071500
v 0.029600 -0.095800 -0.124100
v 0.019600 -0.119900 -0.075700
v 0.023400 -0.145500 -0.089400
v 0.016200 -0.014900 0.114700
v 0.001500 -0.014900 0.114700
v 0.000500 -0.032100 0.071500
v -0.005700 -0.145500 -0.089400
v -0.002000 -0.119900 -0.075700
v -0.012000 -0.095800 -0.124100
v 0.008700 0.024200 0.112800
v 0.008700 0.024800 0.130300
v 0.017700 0.014200 0.125000
v -0.000400 0.014200 0.125000
v -0.000400 0.003200 0.118100
v 0.012700 0.052300 0.214300
v 0.008700 0.067000 0.219700
v 0.012700 0.063600 0.221800
v 0.008700 0.052300 0.210600
v 0.004900 0.063600 0.221800
v 0.004900 0.052300 0.214300
v 0.008700 0.072000 0.231500
v 0.012700 0.067900 0.231500
v 0.004900 0.067900 0.231500
v 0.000500 0.047600 0.155300
v 0.000500 0.012600 0.177200
v -0.011000 0.040700 0.229700
v -0.001000 0.037300 0.889700
v -0.003200 0.067600 0.258400
v -0.009100 0.041100 0.258400
v -0.002300 -0.018000 0.068100
v 0.004900 0.052300 0.231500
v 0.012700 0.052300 0.231500
v 0.000500 0.058200 0.160600
v 0.019900 0.054800 0.597500
v 0.014600 0.058200 0.880900
v 0.019900 0.055100 0.280600
v 0.014600 0.066100 0.503700
v 0.014600 0.066100 0.880900
v 0.014600 0.058200 0.597500
v 0.014600 0.058200 0.280600
v 0.017700 0.067900 0.270000
v 0.014600 0.066100 0.275300
v 0.008700 0.073600 0.268400
v 0.014600 0.084500 0.497800
v 0.008700 0.097900 0.514300
v 0.008700 0.082900 0.510300
v 0.014600 0.103600 0.502200
v 0.014600 0.121400 0.520300
v 0.008700 0.111400 0.528700
v 0.014600 0.135100 0.554000
v 0.008700 0.119200 0.629300
v 0.008700 0.123600 0.591500
v 0.014600 0.137000 0.591500
v 0.008700 0.075100 1.003700
v 0.008700 0.072300 0.677200
v 0.014600 0.086700 0.890600
v 0.014600 0.086700 0.682200
v 0.014600 0.127900 0.739000
v 0.008700 0.141400 0.758400
v 0.008700 0.098600 0.659000
v 0.014600 0.132300 0.631200
v 0.008700 0.122900 0.558400
v 0.014600 0.155100 0.687800
v 0.014600 0.112900 0.664000
v 0.008700 0.169500 0.697500
v 0.014600 0.169500 0.641500
v 0.008700 0.189200 0.641500
v 0.014600 0.176400 0.593100
v 0.014600 0.171400 0.538700
v 0.008700 0.195400 0.593100
v 0.014600 0.156700 0.483400
v 0.014600 0.130400 0.445600
v 0.014600 0.101700 0.425600
v 0.014600 0.077600 0.395900
v 0.008700 0.103900 0.409700
v 0.008700 0.086700 0.387500
v 0.008700 0.140100 0.431500
v 0.008700 0.170700 0.469300
v 0.008700 0.188900 0.533100
v 0.019900 0.054200 0.890900
v 0.014600 0.058200 0.890900
v 0.014600 0.066100 0.890900
v -0.000100 0.067900 0.270000
v 0.008700 0.066100 0.514700
v 0.003000 0.066100 0.880900
v -0.000100 0.067900 0.268400
v 0.003000 0.066100 0.275300
v 0.003000 0.066100 0.890900
v 0.003000 0.066100 0.503700
v 0.003000 0.058200 0.890900
v -0.002600 0.027300 0.597500
v -0.002600 0.027600 0.880900
v -0.009100 0.041100 0.880900
v 0.003000 0.023600 0.880900
v -0.002600 0.027000 0.280600
v -0.009100 0.041100 0.597500
v -0.009100 0.041100 0.280000
v 0.003000 0.023600 0.597500
v 0.003000 0.023600 0.280600
v -0.000100 0.013900 0.270000
v 0.003000 -0.002700 0.497800
v 0.003000 -0.021800 0.502200
v 0.003000 -0.039300 0.520300
v 0.003000 -0.053000 0.554000
v 0.003000 -0.054600 0.591500
v 0.003000 -0.004600 0.890600
v 0.003000 -0.004600 0.682200
v 0.003000 -0.045500 0.739000
v 0.003000 -0.050200 0.631200
v 0.003000 -0.073000 0.687800
v 0.003000 -0.030800 0.664000
v 0.003000 -0.087400 0.641500
v 0.003000 -0.094300 0.593100
v 0.003000 -0.089300 0.538700
v 0.003000 -0.074600 0.483400
v 0.003000 -0.048300 0.445600
v 0.003000 -0.019600 0.425600
v 0.003000 0.004200 0.395900
v -0.002600 0.054200 0.880900
v -0.002600 0.054800 0.597500
v -0.002600 0.055100 0.280600
v 0.003000 0.058200 0.880900
v 0.003000 0.058200 0.597500
v 0.003000 0.058200 0.280600
v 0.003000 0.084500 0.497800
v 0.003000 0.103600 0.502200
v 0.003000 0.121400 0.520300
v 0.003000 0.135100 0.554000
v 0.003000 0.137000 0.591500
v 0.003000 0.132300 0.631200
v 0.003000 0.112900 0.664000
v 0.003000 0.086700 0.682200
v 0.003000 0.086700 0.890600
v 0.003000 0.127900 0.739000
v 0.003000 0.155100 0.687800
v 0.003000 0.169500 0.641500
v 0.003000 0.176400 0.593100
v 0.003000 0.171400 0.538700
v 0.003000 0.156700 0.483400
v 0.003000 0.130400 0.445600
v 0.003000 0.101700 0.425600
v 0.003000 0.077600 0.395900
vt 0.515600 0.164100
vt 0.562500 0.582000
vt 0.515600 0.582000
vt 0.562500 0.164100
vt 0.515600 0.574200
vt 0.562500 0.574200
vt 0.406300 0.531300
vt 0.453100 0.414100
vt 0.406300 0.414100
vt 0.453100 0.531300
vt 0.453100 0.835900
vt 0.476600 0.164100
vt 0.476600 0.574200
vt 0.515600 0.515600
vt 0.476600 0.515600
vt 0.515600 0.488300
vt 0.250000 0.746100
vt 0.250000 0.785200
vt 0.218800 0.785200
vt 0.218800 0.746100
vt 0.187500 0.746100
vt 0.187500 0.785200
vt 0.156300 0.746100
vt 0.085900 0.785200
vt 0.117200 0.746100
vt 0.117200 0.785200
vt 0.085900 0.746100
vt 0.046900 0.785200
vt 0.046900 0.746100
vt 0.007800 0.785200
vt 0.007800 0.746100
vt 0.296900 0.785200
vt 0.007800 0.785200
vt 0.007800 0.746100
vt 0.296900 0.746100
vt 0.281300 0.230500
vt 0.281300 0.027300
vt 0.187500 0.168000
vt 0.296900 0.746100
vt 0.296900 0.785200
vt 0.156300 0.785200
vt 0.101600 0.222700
vt 0.203100 0.257800
vt 0.007800 0.746100
vt 0.054700 0.785200
vt 0.054700 0.746100
vt 0.007800 0.785200
vt 0.046900 0.289100
vt 0.164100 0.300800
vt 0.078100 0.785200
vt 0.078100 0.746100
vt 0.109400 0.746100
vt 0.031300 0.375000
vt 0.164100 0.371100
vt 0.171900 0.437500
vt 0.046900 0.464800
vt 0.117200 0.550800
vt 0.226600 0.492200
vt 0.109400 0.785200
vt 0.125000 0.746100
vt 0.289100 0.527300
vt 0.210900 0.605500
vt 0.296900 0.644500
vt 0.351600 0.539100
vt 0.375000 0.691400
vt 0.406300 0.835900
vt 0.226600 0.785200
vt 0.281300 0.746100
vt 0.226600 0.746100
vt 0.195300 0.746100
vt 0.195300 0.785200
vt 0.156300 0.746100
vt 0.156300 0.785200
vt 0.125000 0.785200
vt 0.281300 0.785200
vt 0.554700 0.628900
vt 0.593800 0.589800
vt 0.554700 0.589800
vt 0.593800 0.589800
vt 0.593800 0.628900
vt 0.609400 0.589800
vt 0.609400 0.628900
vt 0.640600 0.589800
vt 0.640600 0.628900
vt 0.500000 0.003900
vt 0.460900 0.023400
vt 0.460900 0.003900
vt 0.500000 0.027300
vt 0.601600 0.046900
vt 0.546900 0.046900
vt 0.601600 0.003900
vt 0.703100 0.003900
vt 0.414100 0.253900
vt 0.445300 0.281300
vt 0.445300 0.164100
vt 0.382800 0.164100
vt 0.500000 0.500000
vt 0.500000 0.500000
vt 0.500000 0.500000
vt 0.500000 0.500000
vt 0.625000 0.746100
vt 0.554700 0.785200
vt 0.554700 0.746100
vt 0.625000 0.785200
vt 0.500000 0.500000
vt 0.500000 0.500000
vt 0.500000 0.500000
vt 0.382800 0.281300
vt 0.546900 0.636700
vt 0.546900 0.691400
vt 0.585900 0.683600
vt 0.585900 0.683600
vt 0.585900 0.644500
vt 0.601600 0.675800
vt 0.601600 0.652300
vt 0.632800 0.675800
vt 0.632800 0.652300
vt 0.546900 0.793000
vt 0.468800 0.843800
vt 0.546900 0.843800
vt 0.468800 0.793000
vt 0.476600 0.843800
vt 0.476600 0.793000
vt 0.625000 0.793000
vt 0.632800 0.843800
vt 0.625000 0.843800
vt 0.632800 0.793000
vt 0.632800 0.738300
vt 0.593800 0.699200
vt 0.507800 0.699200
vt 0.468800 0.738300
vt 0.593800 0.699200
vt 0.507800 0.699200
vt 0.132800 0.793000
vt 0.007800 0.878900
vt 0.179700 0.878900
vt 0.320300 0.793000
vt 0.007800 0.793000
vt 0.132800 0.793000
vt 0.007800 0.793000
vt 0.179700 0.878900
vt 0.007800 0.878900
vt 0.179700 0.878900
vt 0.132800 0.793000
vt 0.320300 0.878900
vt 0.023400 0.707000
vt 0.023400 0.710900
vt 0.023400 0.710900
vt 0.023400 0.710900
vt 0.023400 0.714800
vt 0.031300 0.714800
vt 0.023400 0.718800
vt 0.023400 0.718800
vt 0.023400 0.718800
vt 0.023400 0.722700
vt 0.023400 0.718800
vt 0.023400 0.718800
vt 0.031300 0.714800
vt 0.023400 0.714800
vt 0.023400 0.710900
vt 0.023400 0.710900
vt 0.250000 0.871100
vt 0.320300 0.882800
vt 0.250000 0.882800
vt 0.164100 0.871100
vt 0.320300 0.871100
vt 0.250000 0.871100
vt 0.164100 0.882800
vt 0.078100 0.871100
vt 0.078100 0.882800
vt 0.007800 0.871100
vt 0.007800 0.882800
vt 0.078100 0.882800
vt 0.039100 0.714800
vt 0.039100 0.710900
vt 0.046900 0.714800
vt 0.039100 0.718800
vt 0.039100 0.718800
vt 0.039100 0.710900
vt 0.039100 0.710900
vt 0.039100 0.710900
vt 0.039100 0.714800
vt 0.093800 0.668000
vt 0.265600 0.656300
vt 0.265600 0.668000
vt 0.093800 0.656300
vt 0.046900 0.640600
vt 0.093800 0.668000
vt 0.078100 0.726600
vt 0.265600 0.726600
vt 0.265600 0.738300
vt 0.078100 0.738300
vt 0.046900 0.652300
vt 0.007800 0.660200
vt 0.007800 0.648400
vt 0.039100 0.718800
vt 0.039100 0.718800
vt 0.039100 0.718800
vt 0.039100 0.718800
vt 0.250000 0.816400
vt 0.250000 0.816400
vt 0.250000 0.816400
vt 0.039100 0.718800
vt 0.265600 0.738300
vt 0.265600 0.742200
vt 0.218800 0.742200
vt 0.218800 0.738300
vt 0.992200 0.703100
vt 0.945300 0.703100
vt 0.945300 0.722700
vt 0.992200 0.722700
vt 0.945300 0.738300
vt 0.992200 0.746100
vt 0.992200 0.738300
vt 0.945300 0.746100
vt 0.992200 0.742200
vt 0.992200 0.707000
vt 0.945300 0.707000
vt 0.945300 0.742200
vt 0.945300 0.769500
vt 0.945300 0.683600
vt 0.992200 0.683600
vt 0.992200 0.769500
vt 0.843800 0.043000
vt 0.843800 0.085900
vt 0.992200 0.113300
vt 0.945300 0.003900
vt 0.835900 0.125000
vt 0.984400 0.191400
vt 0.882800 0.234400
vt 0.929700 0.238300
vt 0.945300 0.265600
vt 0.796900 0.148400
vt 0.859400 0.238300
vt 0.664100 0.160200
vt 0.992200 0.835900
vt 0.992200 0.777300
vt 0.945300 0.777300
vt 0.945300 0.835900
vt 0.992200 0.851600
vt 0.945300 0.851600
vt 0.992200 0.835900
vt 0.945300 0.835900
vt 0.992200 0.777300
vt 0.945300 0.777300
vt 0.031300 0.703100
vt 0.023400 0.707000
vt 0.039100 0.707000
vt 0.015600 0.703100
vt 0.015600 0.730500
vt 0.023400 0.734400
vt 0.320300 0.941400
vt 0.992200 0.972700
vt 0.320300 0.964800
vt 0.109400 0.937500
vt 0.320300 0.918000
vt 0.953100 0.894500
vt 0.757800 0.843800
vt 0.765600 0.804700
vt 0.148400 0.914100
vt 0.148400 0.898400
vt 0.320300 0.894500
vt 0.765600 0.847700
vt 0.734400 0.796900
vt 0.320300 0.914100
vt 0.734400 0.835900
vt 0.015600 0.710900
vt 0.031300 0.695300
vt 0.046900 0.710900
vt 0.046900 0.734400
vt 0.015600 0.734400
vt 0.125000 0.988300
vt 0.007800 0.976600
vt 0.054700 0.949200
vt 0.054700 0.949200
vt 0.125000 0.918000
vt 0.046900 0.714800
vt 0.015600 0.714800
vt 0.015600 0.730500
vt 0.015600 0.703100
vt 0.046900 0.730500
vt 0.046900 0.703100
vt 0.031300 0.695300
vt 0.156300 0.105500
vt 0.140600 0.035200
vt 0.101600 0.054700
vt 0.210900 0.105500
vt 0.101600 0.054700
vt 0.156300 0.105500
vt 0.007800 0.003900
vt 0.007800 0.027300
vt 0.007800 0.027300
vt 0.046900 0.703100
vt 0.046900 0.730500
vt 0.039100 0.734400
vt 0.031300 0.714800
vt 0.546900 0.793000
vt 0.546900 0.843800
vt 0.468800 0.843800
vt 0.468800 0.793000
vt 0.632800 0.793000
vt 0.632800 0.843800
vt 0.179700 0.878900
vt 0.320300 0.793000
vt 0.132800 0.793000
vt 0.320300 0.878900
vt 0.320300 0.941400
vt 0.109400 0.937500
vt 0.953100 0.894500
vt 0.320300 0.918000
vt 0.765600 0.847700
vt 0.773400 0.808600
vt 0.125000 0.918000
vt 0.007800 0.105500
vt 0.007800 0.105500
vt 0.265600 0.668000
vt 0.078100 0.726600
vt 0.265600 0.726600
vt 0.265600 0.738300
vt 0.046900 0.652300
vt 0.007800 0.660200
vt 0.078100 0.738300
vt 0.843800 0.043000
vt 0.992200 0.113300
vt 0.843800 0.085900
vt 0.945300 0.003900
vt 0.984400 0.191400
vt 0.835900 0.125000
vt 0.929700 0.238300
vt 0.882800 0.234400
vt 0.945300 0.265600
vt 0.796900 0.148400
vt 0.859400 0.238300
vt 0.664100 0.160200
vt 0.250000 0.882800
vt 0.164100 0.871100
vt 0.164100 0.882800
vt 0.078100 0.871100
vt 0.296900 0.785200
vt 0.296900 0.746100
vt 0.296900 0.746100
vt 0.007800 0.746100
vt 0.007800 0.785200
vt 0.296900 0.785200
vt 0.476600 0.582000
vt 0.601600 0.164100
vt 0.601600 0.582000
vt 0.632800 0.582000
vt 0.601600 0.574200
vt 0.406300 0.531300
vt 0.406300 0.414100
vt 0.453100 0.414100
vt 0.453100 0.531300
vt 0.632800 0.574200
vt 0.632800 0.164100
vt 0.601600 0.515600
vt 0.632800 0.515600
vt 0.601600 0.488300
vt 0.250000 0.746100
vt 0.218800 0.785200
vt 0.250000 0.785200
vt 0.218800 0.746100
vt 0.187500 0.746100
vt 0.187500 0.785200
vt 0.156300 0.746100
vt 0.085900 0.785200
vt 0.117200 0.785200
vt 0.117200 0.746100
vt 0.007800 0.785200
vt 0.296900 0.785200
vt 0.007800 0.746100
vt 0.281300 0.230500
vt 0.187500 0.168000
vt 0.281300 0.027300
vt 0.296900 0.746100
vt 0.296900 0.785200
vt 0.046900 0.785200
vt 0.085900 0.746100
vt 0.156300 0.785200
vt 0.101600 0.222700
vt 0.203100 0.257800
vt 0.007800 0.746100
vt 0.054700 0.746100
vt 0.054700 0.785200
vt 0.046900 0.289100
vt 0.164100 0.300800
vt 0.078100 0.785200
vt 0.078100 0.746100
vt 0.031300 0.375000
vt 0.164100 0.371100
vt 0.171900 0.437500
vt 0.046900 0.464800
vt 0.109400 0.746100
vt 0.109400 0.785200
vt 0.125000 0.746100
vt 0.117200 0.550800
vt 0.226600 0.492200
vt 0.289100 0.527300
vt 0.210900 0.605500
vt 0.296900 0.644500
vt 0.351600 0.539100
vt 0.281300 0.746100
vt 0.226600 0.785200
vt 0.226600 0.746100
vt 0.281300 0.785200
vt 0.195300 0.746100
vt 0.195300 0.785200
vt 0.156300 0.746100
vt 0.156300 0.785200
vt 0.125000 0.785200
vt 0.375000 0.691400
vt 0.007800 0.785200
vt 0.046900 0.746100
vt 0.007800 0.746100
vt 0.296900 0.746100
vt 0.007800 0.785200
vt 0.593800 0.628900
vt 0.609400 0.589800
vt 0.640600 0.589800
vt 0.609400 0.628900
vt 0.640600 0.628900
vt 0.742200 0.023400
vt 0.742200 0.003900
vt 0.703100 0.003900
vt 0.703100 0.027300
vt 0.656300 0.046900
vt 0.703100 0.027300
vt 0.453100 0.835900
vt 0.406300 0.835900
vt 0.445300 0.281300
vt 0.414100 0.253900
vt 0.445300 0.164100
vt 0.382800 0.164100
vt 0.500000 0.500000
vt 0.500000 0.500000
vt 0.500000 0.500000
vt 0.500000 0.500000
vt 0.554700 0.785200
vt 0.625000 0.746100
vt 0.554700 0.746100
vt 0.625000 0.785200
vt 0.500000 0.500000
vt 0.500000 0.500000
vt 0.500000 0.500000
vt 0.382800 0.281300
vt 0.585900 0.644500
vt 0.601600 0.675800
vt 0.601600 0.652300
vt 0.632800 0.675800
vt 0.632800 0.652300
vt 0.296900 0.785200
vt 0.296900 0.746100
vt 0.296900 0.746100
vt 0.007800 0.785200
vt 0.007800 0.746100
vt 0.296900 0.785200
vt 0.515600 0.164100
vt 0.515600 0.582000
vt 0.562500 0.582000
vt 0.476600 0.582000
vt 0.515600 0.574200
vt 0.562500 0.164100
vt 0.562500 0.574200
vt 0.406300 0.531300
vt 0.406300 0.414100
vt 0.453100 0.414100
vt 0.453100 0.531300
vt 0.476600 0.574200
vt 0.476600 0.164100
vt 0.515600 0.515600
vt 0.476600 0.515600
vt 0.250000 0.746100
vt 0.218800 0.746100
vt 0.187500 0.746100
vt 0.156300 0.746100
vt 0.117200 0.746100
vt 0.007800 0.746100
vt 0.281300 0.230500
vt 0.187500 0.168000
vt 0.281300 0.027300
vt 0.296900 0.746100
vt 0.085900 0.746100
vt 0.101600 0.222700
vt 0.203100 0.257800
vt 0.007800 0.746100
vt 0.054700 0.746100
vt 0.046900 0.289100
vt 0.164100 0.300800
vt 0.078100 0.746100
vt 0.031300 0.375000
vt 0.164100 0.371100
vt 0.171900 0.437500
vt 0.046900 0.464800
vt 0.109400 0.746100
vt 0.125000 0.746100
vt 0.117200 0.550800
vt 0.226600 0.492200
vt 0.289100 0.527300
vt 0.210900 0.605500
vt 0.296900 0.644500
vt 0.351600 0.539100
vt 0.281300 0.746100
vt 0.226600 0.746100
vt 0.195300 0.746100
vt 0.156300 0.746100
vt 0.375000 0.691400
vt 0.046900 0.746100
vt 0.007800 0.746100
vt 0.296900 0.746100
vt 0.554700 0.589800
vt 0.593800 0.589800
vt 0.554700 0.628900
vt 0.593800 0.589800
vt 0.593800 0.628900
vt 0.609400 0.589800
vt 0.640600 0.589800
vt 0.609400 0.628900
vt 0.640600 0.628900
vt 0.500000 0.003900
vt 0.546900 0.046900
vt 0.601600 0.046900
vt 0.500000 0.027300
vt 0.601600 0.003900
vt 0.453100 0.835900
vt 0.406300 0.835900
vt 0.500000 0.500000
vt 0.296900 0.746100
vt 0.296900 0.746100
vt 0.007800 0.746100
vt 0.601600 0.164100
vt 0.601600 0.582000
vt 0.601600 0.574200
vt 0.406300 0.531300
vt 0.453100 0.414100
vt 0.406300 0.414100
vt 0.453100 0.531300
vt 0.453100 0.835900
vt 0.632800 0.164100
vt 0.632800 0.574200
vt 0.601600 0.515600
vt 0.632800 0.515600
vt 0.250000 0.746100
vt 0.218800 0.746100
vt 0.187500 0.746100
vt 0.156300 0.746100
vt 0.117200 0.746100
vt 0.085900 0.746100
vt 0.046900 0.746100
vt 0.007800 0.746100
vt 0.007800 0.746100
vt 0.296900 0.746100
vt 0.281300 0.230500
vt 0.281300 0.027300
vt 0.187500 0.168000
vt 0.296900 0.746100
vt 0.101600 0.222700
vt 0.203100 0.257800
vt 0.007800 0.746100
vt 0.054700 0.746100
vt 0.046900 0.289100
vt 0.164100 0.300800
vt 0.078100 0.746100
vt 0.109400 0.746100
vt 0.031300 0.375000
vt 0.164100 0.371100
vt 0.171900 0.437500
vt 0.046900 0.464800
vt 0.117200 0.550800
vt 0.226600 0.492200
vt 0.125000 0.746100
vt 0.289100 0.527300
vt 0.210900 0.605500
vt 0.296900 0.644500
vt 0.351600 0.539100
vt 0.375000 0.691400
vt 0.406300 0.835900
vt 0.281300 0.746100
vt 0.226600 0.746100
vt 0.195300 0.746100
vt 0.156300 0.746100
vt 0.593800 0.628900
vt 0.609400 0.589800
vt 0.609400 0.628900
vt 0.640600 0.589800
vt 0.640600 0.628900
vt 0.656300 0.046900
vt 0.500000 0.500000
vt 0.296900 0.746100
vt 0.296900 0.746100
vt 0.007800 0.746100
vt 0.632800 0.582000
usemtl w21gn13_TEX_w21gn13
s 1
f 1/1 2/2 3/3
f 2/2 1/1 4/4
f 5/5 4/4 1/1
f 4/4 5/5 6/6
f 7/7 8/8 9/9
f 8/8 7/7 10/10
f 11/11 10/10 7/7
f 5/5 10/12 11/13
f 10/12 5/5 1/1
f 12/14 11/13 13/15
f 11/13 12/14 5/5
f 13/15 14/16 12/14
f 15/17 16/18 17/19
f 15/17 17/19 18/20
f 17/19 19/21 18/20
f 20/22 21/23 19/21
f 22/24 23/25 24/26
f 23/25 22/24 25/27
f 26/28 25/27 22/24
f 25/27 26/28 27/29
f 28/30 27/29 26/28
f 27/29 28/30 29/31
f 28/32 31/33 30/34
f 30/34 29/35 28/32
f 29/36 30/37 32/38
f 32/39 31/33 33/40
f 31/33 32/39 30/34
f 34/41 23/25 21/23
f 35/42 27/43 29/36
f 35/42 29/36 32/38
f 32/44 36/45 35/46
f 36/45 32/44 33/47
f 37/48 25/49 27/43
f 37/48 27/43 35/42
f 35/46 36/45 38/50
f 37/51 35/46 38/50
f 38/50 39/52 37/51
f 39/53 23/54 25/49
f 23/54 39/53 21/55
f 39/53 25/49 37/48
f 21/55 39/53 40/56
f 40/56 41/57 21/55
f 19/58 21/55 41/57
f 39/52 42/59 40/60
f 42/59 39/52 38/50
f 18/61 41/57 43/62
f 43/62 44/63 18/61
f 15/64 18/61 44/63
f 44/63 45/65 15/64
f 7/7 15/64 45/65
f 45/65 13/66 7/7
f 41/57 18/61 19/58
f 46/67 45/68 44/69
f 44/69 43/70 46/67
f 47/71 46/67 43/70
f 43/70 41/72 47/71
f 48/73 47/71 41/72
f 41/72 40/60 48/73
f 20/22 19/21 17/19
f 34/41 21/23 20/22
f 24/26 23/25 34/41
f 49/74 40/60 42/59
f 48/73 40/60 49/74
f 45/68 46/67 50/75
f 51/76 3/77 2/78
f 2/78 52/79 51/76
f 3/77 51/76 53/80
f 53/80 8/81 3/77
f 54/82 9/83 8/81
f 9/83 54/82 55/84
f 53/80 54/82 8/81
f 56/85 14/86 57/87
f 14/86 56/85 12/88
f 56/85 6/89 5/90
f 56/85 5/90 12/88
f 58/91 6/89 56/85
f 6/89 58/91 59/92
f 11/11 7/7 13/66
f 60/93 7/94 9/95
f 9/95 61/96 60/93
f 62/97 13/98 12/99
f 63/100 13/98 62/97
f 9/101 64/102 61/103
f 64/102 9/101 55/104
f 65/105 62/97 12/99
f 12/99 57/106 65/105
f 57/106 12/99 56/107
f 66/108 60/93 61/96
f 51/109 67/110 68/111
f 67/110 51/109 69/112
f 53/113 51/109 68/111
f 68/111 70/114 53/113
f 54/115 53/113 70/114
f 70/114 64/116 54/115
f 54/115 64/116 55/117
f 71/118 72/119 73/120
f 72/119 71/118 74/121
f 74/121 75/122 72/119
f 75/122 74/121 76/123
f 77/124 78/125 79/126
f 78/125 77/124 80/127
f 80/127 73/120 78/125
f 73/120 80/127 71/118
f 73/128 72/129 75/130
f 81/131 73/128 75/130
f 73/128 81/131 78/132
f 81/131 79/133 78/132
f 82/134 83/135 59/136
f 59/136 84/137 82/134
f 83/135 82/134 85/138
f 85/138 86/139 83/135
f 87/140 56/141 57/142
f 57/142 65/143 87/140
f 56/141 87/140 88/144
f 88/144 58/145 56/141
f 58/145 88/144 84/137
f 84/137 59/136 58/145
f 85/146 89/147 90/148
f 86/149 85/146 90/148
f 90/148 91/150 86/149
f 92/151 86/149 91/150
f 91/150 93/152 92/151
f 92/151 93/152 94/153
f 93/152 95/154 87/155
f 93/152 87/155 94/153
f 95/154 96/156 88/157
f 95/154 88/157 87/155
f 84/158 96/156 97/159
f 97/159 98/160 84/158
f 82/161 84/158 98/160
f 98/160 89/147 82/161
f 96/156 84/158 88/157
f 82/161 89/147 85/146
f 99/162 89/163 98/164
f 98/164 100/165 99/162
f 89/163 99/162 101/166
f 101/166 102/167 89/163
f 100/165 98/164 97/168
f 97/168 103/169 100/165
f 103/169 97/168 96/170
f 96/170 104/171 103/169
f 104/171 96/170 95/172
f 95/172 93/173 104/171
f 105/174 99/175 100/176
f 106/177 105/174 100/176
f 100/176 103/178 106/177
f 107/179 101/180 99/175
f 101/180 107/179 102/181
f 107/179 99/175 105/174
f 107/179 108/182 102/181
f 109/183 107/184 105/185
f 107/184 109/183 110/186
f 111/187 110/186 109/183
f 110/186 111/187 112/188
f 113/189 105/185 106/190
f 106/190 114/191 113/189
f 115/192 113/189 114/191
f 113/189 109/183 105/185
f 116/193 111/187 109/183
f 109/183 113/189 116/193
f 117/194 111/187 116/193
f 116/193 113/189 117/194
f 111/187 117/194 118/195
f 119/196 120/197 121/198
f 119/196 121/198 104/199
f 104/200 121/201 114/202
f 114/203 106/177 103/178
f 114/203 103/178 104/199
f 115/204 114/205 121/206
f 115/204 121/206 122/207
f 115/208 122/209 123/210
f 124/211 115/208 123/210
f 123/210 125/212 124/211
f 126/213 127/214 128/215
f 127/214 125/212 128/215
f 129/216 126/217 128/218
f 129/216 128/218 130/219
f 131/220 132/221 133/222
f 134/223 131/220 133/222
f 131/220 134/223 130/219
f 124/211 125/212 127/214
f 134/223 129/216 130/219
f 135/224 136/225 134/226
f 135/224 134/226 133/227
f 136/225 137/228 129/229
f 136/225 129/229 134/226
f 137/228 124/230 127/231
f 129/229 137/228 127/231
f 127/231 126/232 129/229
f 138/233 115/234 124/230
f 138/233 124/230 137/228
f 139/235 115/234 138/233
f 140/236 141/237 139/238
f 138/239 140/236 139/238
f 140/236 138/239 142/240
f 142/240 138/239 137/241
f 137/241 143/242 142/240
f 136/243 143/242 137/241
f 143/242 136/243 144/244
f 136/243 135/245 144/244
f 118/246 139/247 141/248
f 139/247 118/246 117/249
f 139/247 117/249 113/250
f 139/247 113/250 115/251
f 145/252 147/253 146/254
f 146/254 148/255 145/252
f 149/256 145/252 148/255
f 150/257 147/253 145/252
f 145/252 149/256 150/257
f 150/257 151/258 152/259
f 153/260 154/261 155/262
f 151/263 156/264 152/259
f 149/265 155/262 157/266
f 157/266 151/263 149/265
f 153/260 155/262 149/265
f 158/267 147/268 150/269
f 150/269 152/270 158/267
f 158/267 152/270 156/271
f 159/272 160/273 161/274
f 160/273 159/272 162/275
f 148/255 153/276 149/256
f 148/255 159/272 161/274
f 159/272 148/255 146/254
f 148/277 163/278 154/279
f 163/278 148/277 162/280
f 148/277 154/279 153/281
f 148/277 161/282 162/280
f 161/282 160/283 162/280
f 150/257 149/256 151/263
f 157/266 156/264 151/263
f 164/284 165/285 166/286
f 165/285 164/284 167/287
f 167/287 168/288 165/285
f 168/288 167/287 169/289
f 166/286 170/290 171/291
f 170/290 166/286 165/285
f 165/285 172/292 170/290
f 172/292 165/285 168/288
f 118/246 141/248 173/293
f 141/248 174/294 173/293
f 174/294 141/248 122/295
f 108/182 175/296 102/181
f 175/296 108/182 120/197
f 120/197 119/196 175/296
f 176/297 81/298 75/299
f 176/297 75/299 76/300
f 77/301 79/302 81/298
f 77/301 81/298 176/297
f 177/303 83/135 86/139
f 86/139 92/304 177/303
f 94/305 87/140 65/143
f 65/143 178/306 94/305
f 92/304 94/305 178/306
f 178/306 177/303 92/304
f 146/254 147/253 179/307
f 179/307 163/308 146/254
f 159/272 146/254 163/308
f 163/308 162/275 159/272
f 147/253 158/309 179/307
f 158/309 155/310 179/307
f 155/310 158/309 157/311
f 158/309 156/312 157/311
f 163/308 155/310 154/313
f 155/310 163/308 179/307
f 180/314 172/292 168/288
f 168/288 169/289 180/314
f 166/286 181/315 164/284
f 181/315 166/286 171/291
f 108/316 107/184 112/188
f 112/188 174/317 108/316
f 112/188 107/184 110/186
f 120/318 108/316 174/317
f 174/317 121/319 120/318
f 111/187 182/320 112/188
f 182/320 111/187 173/321
f 111/187 118/195 173/321
f 182/320 174/317 112/188
f 173/321 174/317 182/320
f 121/319 174/317 122/322
f 144/323 131/324 143/325
f 131/324 144/323 132/326
f 143/325 130/327 142/328
f 130/327 143/325 131/324
f 142/328 125/329 123/330
f 125/329 142/328 130/327
f 130/327 128/331 125/329
f 140/332 123/330 122/333
f 123/330 140/332 142/328
f 141/334 140/332 122/333
f 90/335 89/163 102/167
f 102/167 175/336 90/335
f 91/337 90/335 175/336
f 175/336 119/338 91/337
f 93/173 91/337 119/338
f 119/338 104/171 93/173
f 60/339 15/17 7/340
f 15/17 60/339 16/18
f 13/341 45/342 50/343
f 13/341 50/343 14/344
f 1/1 3/3 8/345
f 1/1 8/345 10/12
f 183/346 52/347 2/2
f 52/347 183/346 184/348
f 185/349 4/4 6/6
f 4/4 185/349 183/346
f 186/350 187/351 184/352
f 186/350 184/352 188/353
f 185/349 189/354 188/355
f 183/346 185/349 188/355
f 188/355 184/348 183/346
f 190/356 191/357 189/354
f 190/356 189/354 185/349
f 191/357 190/356 192/358
f 193/359 194/360 195/361
f 194/360 193/359 196/362
f 194/360 196/362 197/363
f 198/364 197/363 199/365
f 197/363 198/364 194/360
f 200/366 201/367 202/368
f 203/369 204/370 205/371
f 206/372 207/373 205/374
f 207/375 208/376 203/369
f 209/377 200/366 210/378
f 200/366 202/368 210/378
f 211/379 199/365 202/368
f 199/365 211/379 198/364
f 212/380 206/372 213/381
f 206/372 212/380 207/373
f 207/382 212/383 214/384
f 215/385 213/381 210/386
f 213/381 215/385 212/380
f 212/383 216/387 214/384
f 216/387 212/383 215/388
f 217/389 210/386 202/390
f 210/386 217/389 215/385
f 217/389 199/391 218/392
f 199/391 217/389 202/390
f 217/393 216/387 215/388
f 216/387 217/393 219/394
f 218/395 219/394 217/393
f 220/396 199/391 197/397
f 199/391 220/396 218/392
f 220/396 196/398 221/399
f 196/398 220/396 197/397
f 222/400 196/398 193/401
f 196/398 222/400 221/399
f 223/402 224/403 222/404
f 224/403 223/402 225/405
f 224/403 221/406 222/404
f 221/406 224/403 226/407
f 226/407 220/408 221/406
f 220/408 226/407 227/409
f 227/409 218/395 220/408
f 218/395 227/409 228/410
f 223/411 193/401 186/350
f 193/401 223/411 222/400
f 201/367 211/379 202/368
f 204/412 213/413 206/414
f 213/413 204/412 209/377
f 204/370 206/415 205/371
f 209/377 210/378 213/413
f 207/375 203/369 205/371
f 207/382 214/384 208/416
f 228/410 219/394 218/395
f 229/417 51/76 52/79
f 52/79 184/418 229/417
f 184/418 187/419 230/420
f 230/420 229/417 184/418
f 230/420 187/419 231/421
f 192/422 59/92 83/423
f 83/423 177/424 192/422
f 232/425 192/422 177/424
f 59/92 185/426 6/89
f 185/426 59/92 190/427
f 189/428 186/350 188/353
f 186/350 189/428 191/429
f 191/429 223/411 186/350
f 186/430 233/431 187/432
f 233/431 234/433 187/432
f 235/434 190/435 191/436
f 236/437 235/434 191/436
f 237/438 187/439 234/440
f 187/439 237/438 231/441
f 177/442 190/435 235/434
f 83/443 59/444 190/435
f 238/445 234/433 233/431
f 51/109 229/446 69/112
f 229/446 239/447 69/112
f 239/447 229/446 230/448
f 230/448 237/449 239/447
f 237/449 230/448 231/450
f 59/92 192/422 190/427
f 177/442 83/443 190/435
f 233/451 186/452 193/359
f 233/451 193/359 195/361
f 191/453 225/454 223/455
f 225/454 191/453 192/456
f 183/346 2/2 4/4
f 240/457 241/458 242/459
f 241/458 240/457 243/460
f 244/461 245/462 246/463
f 245/462 244/461 240/457
f 66/464 61/465 243/466
f 66/464 243/466 247/467
f 244/461 248/468 247/469
f 240/457 244/461 247/469
f 247/469 243/460 240/457
f 249/470 63/471 248/468
f 249/470 248/468 244/461
f 63/471 249/470 14/16
f 250/472 17/19 16/18
f 17/19 250/472 251/473
f 17/19 251/473 252/474
f 20/22 252/474 253/475
f 252/474 20/22 17/19
f 22/24 24/26 254/476
f 31/33 28/32 255/477
f 256/478 257/479 255/480
f 257/481 33/40 31/33
f 26/28 22/24 258/482
f 22/24 254/476 258/482
f 34/41 253/475 254/476
f 253/475 34/41 20/22
f 259/483 256/478 260/484
f 256/478 259/483 257/479
f 257/485 259/486 36/45
f 261/487 260/484 258/488
f 260/484 261/487 259/483
f 259/486 38/50 36/45
f 38/50 259/486 261/489
f 262/490 258/488 254/491
f 258/488 262/490 261/487
f 262/490 253/492 263/493
f 253/492 262/490 254/491
f 262/494 38/50 261/489
f 38/50 262/494 42/59
f 263/495 42/59 262/494
f 264/496 253/492 252/497
f 253/492 264/496 263/493
f 264/496 251/498 265/499
f 251/498 264/496 252/497
f 266/500 251/498 250/501
f 251/498 266/500 265/499
f 267/502 46/67 266/503
f 46/67 267/502 50/75
f 46/67 265/504 266/503
f 265/504 46/67 47/71
f 47/71 264/505 265/504
f 264/505 47/71 48/73
f 48/73 263/495 264/505
f 263/495 48/73 49/74
f 267/506 250/501 66/464
f 250/501 267/506 266/500
f 24/26 34/41 254/476
f 28/30 260/507 256/508
f 260/507 28/30 26/28
f 28/32 256/509 255/477
f 26/28 258/482 260/507
f 257/481 31/33 255/477
f 257/485 36/45 33/47
f 49/74 42/59 263/495
f 242/510 241/511 67/512
f 67/512 268/513 242/510
f 68/514 67/512 241/511
f 241/511 243/515 68/514
f 61/516 70/517 243/515
f 70/517 61/516 64/518
f 68/514 243/515 70/517
f 65/519 57/87 14/86
f 65/519 244/520 246/521
f 244/520 65/519 249/522
f 178/523 65/519 246/521
f 248/524 66/464 247/467
f 66/464 248/524 63/525
f 63/525 267/506 66/464
f 57/106 65/105 249/526
f 65/519 14/86 249/522
f 60/339 66/527 250/472
f 60/339 250/472 16/18
f 63/528 50/343 267/529
f 50/343 63/528 14/344
f 245/462 240/457 242/459
f 242/459 269/530 245/462
f 269/530 242/459 268/531
f 270/532 246/463 245/462
f 238/533 271/534 234/535
f 271/534 238/533 272/536
f 273/537 272/536 238/533
f 270/532 272/538 273/539
f 272/538 270/532 269/530
f 232/540 273/539 236/541
f 273/539 232/540 270/532
f 236/541 192/358 232/540
f 274/542 195/361 194/360
f 274/542 194/360 275/543
f 194/360 276/544 275/543
f 198/364 277/545 276/544
f 200/366 278/546 201/367
f 278/546 200/366 279/547
f 209/377 279/547 200/366
f 279/547 209/377 280/548
f 204/412 280/548 209/377
f 280/548 204/412 281/549
f 204/370 203/369 282/550
f 282/550 281/551 204/370
f 281/552 282/553 283/554
f 283/555 203/369 208/376
f 203/369 283/555 282/550
f 211/379 278/546 277/545
f 284/556 280/557 281/552
f 284/556 281/552 283/554
f 283/558 214/384 284/559
f 214/384 283/558 208/416
f 285/560 279/561 280/557
f 285/560 280/557 284/556
f 284/559 214/384 216/387
f 285/562 284/559 216/387
f 216/387 286/563 285/562
f 286/564 278/565 279/561
f 278/565 286/564 277/566
f 286/564 279/561 285/560
f 277/566 286/564 287/567
f 287/567 288/568 277/566
f 276/569 277/566 288/568
f 286/563 219/394 287/570
f 219/394 286/563 216/387
f 275/571 288/568 289/572
f 289/572 290/573 275/571
f 274/574 275/571 290/573
f 290/573 291/575 274/574
f 238/533 274/574 291/575
f 291/575 236/576 238/533
f 288/568 275/571 276/569
f 224/403 291/577 290/578
f 290/578 289/579 224/403
f 226/407 224/403 289/579
f 289/579 288/580 226/407
f 227/409 226/407 288/580
f 288/580 287/570 227/409
f 198/364 276/544 194/360
f 211/379 277/545 198/364
f 201/367 278/546 211/379
f 228/410 287/570 219/394
f 227/409 287/570 228/410
f 291/577 224/403 225/405
f 268/513 67/512 69/581
f 69/581 271/582 268/513
f 239/583 234/584 271/582
f 234/584 239/583 237/585
f 69/581 239/583 271/582
f 177/424 246/521 270/586
f 177/424 270/586 232/425
f 178/523 246/521 177/424
f 273/537 238/533 236/576
f 83/443 177/442 232/587
f 233/451 274/542 238/588
f 274/542 233/451 195/361
f 236/589 291/590 225/454
f 236/589 225/454 192/456
f 270/532 245/462 269/530
f 269/530 268/531 271/591
f 269/530 271/591 272/538
