# Blender v2.79 (sub 0) OBJ File: ''
# www.blender.org
mtllib w21gn09.mtl
o w21gn09
v 0.021800 -0.074900 0.135200
v -0.004500 -0.074900 0.135200
v -0.004500 -0.093900 0.112400
v 0.021800 -0.035800 0.202700
v -0.004500 -0.035800 0.202700
v 0.021800 -0.018900 0.271100
v -0.004500 -0.018900 0.271100
v 0.021800 -0.018900 0.111500
v -0.004500 -0.013300 -0.006400
v -0.004500 -0.018900 0.111500
v 0.021800 -0.013300 -0.006400
v 0.021800 0.001700 0.187100
v -0.004500 0.001700 0.187100
v 0.021800 0.044500 0.267700
v -0.004500 0.044500 0.267700
v -0.004500 -0.135800 0.049000
v -0.004500 -0.045200 -0.022300
v -0.004500 -0.120500 0.098300
v -0.004500 -0.093600 0.112100
v 0.021800 -0.120500 0.098300
v 0.008700 -0.162100 0.095800
v 0.021800 -0.135800 0.049000
v 0.021800 -0.093900 0.112100
v 0.021800 -0.045200 -0.022300
v -0.004500 -0.093900 0.112100
v 0.021800 -0.003900 0.286500
v -0.004500 0.011700 0.310200
v 0.021800 -0.003900 0.334000
v -0.004500 -0.003900 0.334000
v 0.021800 0.011700 0.310200
v -0.004500 -0.003900 0.286500
v -0.004500 0.032900 0.388000
v 0.021800 0.032900 0.388000
v -0.004500 -0.062100 0.333300
v -0.004500 -0.040200 0.399000
v -0.004500 -0.085800 0.360500
v 0.021800 -0.062100 0.333300
v 0.021800 -0.040200 0.399000
v -0.004500 -0.040200 0.442100
v 0.021800 -0.040200 0.442100
v 0.021800 -0.085800 0.360500
v 0.021800 -0.085800 0.439900
v -0.004500 -0.085800 0.439900
v 0.008700 -0.089900 0.542700
v 0.027100 -0.077400 0.838300
v 0.008700 -0.089900 0.838300
v 0.027100 -0.077400 0.542700
v 0.022100 -0.066400 0.542700
v 0.022100 -0.050800 0.838300
v 0.022100 -0.066400 0.838300
v 0.022100 -0.050800 0.542700
v 0.008700 -0.043000 0.838300
v 0.008700 -0.043000 0.542700
v -0.004800 -0.050800 0.838300
v -0.004800 -0.050800 0.542700
v -0.004800 -0.066400 0.838300
v -0.004800 -0.066400 0.542700
v -0.009500 -0.077400 0.542700
v -0.009500 -0.077400 0.838300
v 0.008700 -0.074300 0.838300
v 0.022100 -0.066400 0.892100
v 0.008700 -0.074300 0.892100
v 0.022100 -0.051100 0.892100
v 0.008700 -0.043000 0.892100
v -0.004800 -0.050800 0.892100
v -0.004800 -0.066400 0.892100
v 0.008700 -0.058900 0.892100
v -0.001000 -0.054900 0.308600
v 0.018700 -0.038000 0.343000
v -0.001000 -0.038000 0.343000
v 0.018700 -0.054900 0.308600
v -0.001000 -0.040500 0.279600
v 0.018700 -0.040500 0.279600
v -0.001000 -0.013900 0.274000
v 0.018700 -0.013900 0.274000
v 0.018700 -0.043900 0.308600
v -0.001000 -0.027700 0.343000
v 0.018700 -0.027700 0.343000
v -0.001000 -0.043900 0.308600
v 0.018700 -0.031800 0.286100
v -0.001000 -0.031800 0.286100
v 0.018700 -0.005500 0.280500
v -0.001000 -0.005500 0.280500
v 0.003000 -0.009600 0.289300
v 0.012100 -0.030200 0.301800
v 0.005500 -0.030200 0.301800
v 0.014600 -0.009600 0.289300
v 0.003000 0.012300 0.292700
v 0.014600 0.012300 0.292700
v 0.014600 -0.009900 0.297100
v 0.003000 -0.009900 0.297100
v 0.014600 0.016100 0.301100
v 0.003000 0.016100 0.301100
v 0.007700 0.047000 0.183000
v 0.030200 0.047000 0.183000
v 0.030200 0.033200 0.221800
v -0.012900 0.015700 0.252100
v 0.030200 -0.030800 0.251500
v -0.012900 -0.030800 0.251500
v 0.030200 0.015700 0.252100
v -0.012900 0.033200 0.221800
v 0.008700 0.033200 0.221800
v 0.008700 -0.016100 0.401500
v 0.030200 -0.046100 0.330200
v -0.012900 -0.046100 0.330200
v 0.030200 -0.016100 0.401500
v 0.008700 0.061700 0.252100
v -0.012900 0.066400 0.183000
v -0.012900 0.054200 0.252100
v 0.008700 0.073900 0.183000
v 0.030200 0.054200 0.252100
v 0.030200 0.066400 0.183000
v 0.008700 0.061700 0.417100
v -0.012900 0.054200 0.417100
v 0.030200 0.054200 0.417100
v 0.030200 0.015700 0.400200
v -0.012900 0.003600 0.282700
v -0.012900 -0.021400 0.275200
v -0.012900 0.015700 0.400200
v -0.012900 -0.028600 0.340500
v -0.012900 -0.016100 0.401500
v -0.012900 0.003600 0.339300
v -0.012900 0.019500 0.310800
v -0.012900 0.047000 0.183000
v 0.008700 0.015700 0.400200
v 0.030200 0.003600 0.339300
v 0.030200 -0.028600 0.340500
v 0.030200 0.019500 0.310800
v 0.030200 0.003600 0.282700
v 0.030200 -0.021400 0.275200
v -0.010700 -0.090200 0.584300
v -0.010700 -0.090800 0.395200
v -0.010700 -0.126400 0.423300
v -0.010700 -0.035800 0.584300
v -0.010700 -0.035200 0.419000
v 0.028000 -0.126400 0.423300
v 0.028000 -0.090800 0.395200
v 0.028000 -0.035800 0.584300
v 0.028000 -0.035200 0.419000
v 0.028000 -0.090200 0.584300
v 0.019900 -0.135800 0.461800
v -0.002600 -0.135800 0.461800
v 0.008700 -0.135800 0.421500
v 0.019900 -0.135800 0.604900
v -0.002600 -0.135800 0.604900
v -0.002600 -0.153000 0.618600
v 0.019900 -0.153000 0.618600
v -0.002600 -0.153000 0.775800
v 0.019900 -0.153000 0.775800
v -0.002600 -0.153600 0.870800
v 0.019900 -0.153600 0.870800
v -0.002600 -0.147100 0.986800
v 0.019900 -0.147100 0.986800
v 0.008700 -0.113600 0.971500
v -0.002600 -0.226400 0.438000
v 0.008700 -0.265200 0.461800
v 0.008700 -0.283000 0.397700
v -0.002600 -0.226800 0.559600
v -0.002600 -0.208900 0.380800
v 0.008700 -0.215200 0.313300
v 0.008700 -0.244300 0.363600
v 0.008700 -0.263900 0.559600
v 0.019900 -0.226800 0.559600
v -0.002600 -0.241400 0.604900
v 0.008700 -0.283300 0.604900
v -0.002600 -0.199600 0.762100
v 0.019900 -0.241400 0.604900
v 0.019900 -0.208900 0.380800
v 0.019900 -0.226400 0.438000
v 0.019900 -0.199600 0.762100
v 0.019900 -0.206400 0.815500
v 0.019900 -0.213300 0.870800
v 0.008700 -0.237400 0.744000
v -0.002600 -0.206400 0.815500
v -0.002600 -0.213300 0.870800
v -0.002600 -0.210500 0.986800
v 0.008700 -0.265800 0.879300
v 0.008700 -0.259600 0.997400
v 0.019900 -0.210500 0.986800
v -0.002600 -0.155800 1.102700
v -0.002600 -0.197400 1.102700
v 0.008700 -0.122700 1.133300
v 0.019900 -0.155800 1.102700
v -0.002600 -0.172400 1.162400
v 0.008700 -0.237100 1.144900
v 0.008700 -0.169900 1.303300
v 0.008700 -0.244600 0.774600
v -0.002000 -0.233000 0.817400
v 0.015900 -0.233000 0.817400
v 0.008700 -0.272100 0.755800
v 0.019900 -0.197400 1.102700
v 0.019900 -0.172400 1.162400
v 0.067700 -0.105200 0.479900
v 0.039900 -0.066400 0.514600
v 0.039900 -0.115800 0.530800
v 0.039900 -0.055800 0.463600
v 0.039900 -0.094600 0.429300
v 0.039900 -0.143900 0.445500
v 0.039900 -0.154600 0.496100
v -0.022600 -0.066400 0.514600
v -0.022600 -0.115800 0.530800
v -0.022600 -0.055800 0.463600
v -0.022600 -0.094600 0.429300
v -0.022600 -0.143900 0.445500
v -0.022600 -0.154600 0.496100
v -0.050400 -0.105200 0.479900
v 0.031800 -0.105200 0.479900
v 0.031800 -0.092400 0.419000
v 0.031800 -0.046100 0.460500
v 0.031800 -0.151800 0.438300
v 0.031800 -0.164600 0.499600
v 0.031800 -0.118000 0.541100
v -0.014100 -0.092400 0.419000
v -0.014100 -0.046100 0.460500
v -0.014100 -0.151800 0.438300
v -0.014100 -0.164600 0.499600
v -0.014100 -0.118000 0.541100
v -0.014100 -0.105200 0.479900
v -0.014100 -0.032700 0.541500
v -0.014100 -0.059600 0.555200
v 0.031800 -0.059600 0.555200
v 0.031800 -0.032700 0.541500
v -0.014100 -0.093300 0.583000
v 0.031800 -0.093300 0.583000
v 0.030200 -0.144600 0.783300
v -0.010700 -0.166400 0.785800
v 0.028000 -0.166400 0.785800
v -0.012600 -0.144600 0.783300
v -0.016600 -0.029300 0.453600
v 0.034300 -0.028600 0.498600
v 0.034300 -0.029300 0.453600
v -0.016600 -0.028600 0.498600
v 0.034300 -0.028600 0.548000
v -0.016600 -0.028600 0.548000
v -0.016600 -0.135800 0.494900
v -0.017300 -0.123900 0.550800
v -0.016600 -0.082400 0.518000
v -0.016600 -0.073300 0.467700
v -0.016600 -0.128600 0.449600
v 0.033400 -0.082400 0.518300
v 0.034900 -0.123900 0.550800
v 0.034300 -0.073300 0.467700
v 0.034300 -0.151800 0.397400
v -0.016600 -0.105800 0.403000
v 0.034300 -0.105800 0.403000
v -0.016600 -0.151800 0.397400
v 0.034300 -0.135800 0.494900
v 0.034300 -0.128600 0.449600
v -0.018200 -0.142400 0.568300
v 0.035900 -0.142400 0.568300
v -0.013800 -0.145500 0.651500
v 0.031500 -0.145500 0.651500
v -0.007600 -0.181400 0.555800
v -0.007600 -0.183300 0.651500
v 0.024900 -0.181400 0.555800
v 0.024900 -0.183300 0.651500
v -0.013800 -0.144600 0.732700
v 0.031500 -0.144600 0.732700
v -0.007600 -0.183300 0.732700
v 0.024900 -0.183300 0.732700
v -0.007600 -0.183300 0.769000
v 0.024900 -0.183300 0.769000
v 0.034300 -0.054600 0.749600
v -0.016600 -0.054600 0.749600
v -0.016600 -0.054600 0.699000
v 0.034300 -0.054600 0.699000
v 0.008700 -0.038000 0.699000
v 0.008700 -0.038000 0.749600
vt 0.156300 0.347700
vt 0.156300 0.511700
vt 0.273400 0.511700
vt 0.234400 0.347700
vt 0.390600 0.511700
vt 0.390600 0.347700
vt 0.234400 0.511700
vt 0.156300 0.347700
vt 0.156300 0.511700
vt 0.156300 0.347700
vt 0.335900 0.511700
vt 0.156300 0.511700
vt 0.335900 0.347700
vt 0.265600 0.347700
vt 0.390600 0.511700
vt 0.265600 0.511700
vt 0.156300 0.347700
vt 0.390600 0.347700
vt 0.156300 0.511700
vt 0.617200 0.265600
vt 0.656300 0.316400
vt 0.515600 0.418000
vt 0.445300 0.394500
vt 0.414100 0.359400
vt 0.421900 0.253900
vt 0.476600 0.449200
vt 0.648400 0.511700
vt 0.476600 0.511700
vt 0.648400 0.394500
vt 0.671900 0.382800
vt 0.492200 0.511700
vt 0.679700 0.511700
vt 0.468800 0.449200
vt 0.468800 0.449200
vt 0.679700 0.511700
vt 0.492200 0.511700
vt 0.671900 0.382800
vt 0.648400 0.394500
vt 0.476600 0.511700
vt 0.648400 0.511700
vt 0.476600 0.449200
vt 0.445300 0.394500
vt 0.445300 0.437500
vt 0.515600 0.418000
vt 0.414100 0.359400
vt 0.421900 0.253900
vt 0.367200 0.332000
vt 0.390600 0.511700
vt 0.203100 0.347700
vt 0.203100 0.511700
vt 0.390600 0.347700
vt 0.156300 0.433600
vt 0.617200 0.265600
vt 0.656300 0.316400
vt 0.367200 0.511700
vt 0.390600 0.437500
vt 0.367200 0.347700
vt 0.273400 0.347700
vt 0.414100 0.359400
vt 0.335900 0.765600
vt 0.429700 0.765600
vt 0.429700 0.781300
vt 0.335900 0.796900
vt 0.429700 0.812500
vt 0.335900 0.812500
vt 0.429700 0.796900
vt 0.335900 0.781300
vt 0.156300 0.347700
vt 0.242200 0.511700
vt 0.320300 0.511700
vt 0.156300 0.347700
vt 0.500000 0.347700
vt 0.156300 0.347700
vt 0.156300 0.511700
vt 0.320300 0.511700
vt 0.500000 0.347700
vt 0.242200 0.511700
vt 0.156300 0.511700
vt 0.335900 0.511700
vt 0.335900 0.511700
vt 0.250000 0.511700
vt 0.335900 0.347700
vt 0.250000 0.511700
vt 0.429700 0.832000
vt 0.335900 0.832000
vt 0.335900 0.347700
vt 0.250000 0.511700
vt 0.335900 0.511700
vt 0.250000 0.347700
vt 0.390600 0.511700
vt 0.390600 0.347700
vt 0.250000 0.511700
vt 0.156300 0.347700
vt 0.156300 0.511700
vt 0.273400 0.511700
vt 0.390600 0.347700
vt 0.390600 0.511700
vt 0.273400 0.347700
vt 0.156300 0.511700
vt 0.156300 0.347700
vt 0.250000 0.511700
vt 0.156300 0.347700
vt 0.156300 0.511700
vt 0.335900 0.511700
vt 0.156300 0.511700
vt 0.750000 0.230500
vt 0.007800 0.210900
vt 0.007800 0.230500
vt 0.750000 0.210900
vt 0.742200 0.171900
vt 0.125000 0.140600
vt 0.125000 0.171900
vt 0.742200 0.140600
vt 0.125000 0.125000
vt 0.742200 0.125000
vt 0.125000 0.140600
vt 0.742200 0.140600
vt 0.125000 0.171900
vt 0.742200 0.171900
vt 0.750000 0.210900
vt 0.007800 0.210900
vt 0.125000 0.187500
vt 0.007800 0.171900
vt 0.007800 0.187500
vt 0.007800 0.140600
vt 0.007800 0.125000
vt 0.007800 0.140600
vt 0.007800 0.171900
vt 0.140600 0.289100
vt 0.007800 0.238300
vt 0.007800 0.339800
vt 0.007800 0.238300
vt 0.007800 0.339800
vt 0.007800 0.238300
vt 0.007800 0.339800
vt 0.007800 0.238300
vt 0.007800 0.339800
vt 0.007800 0.238300
vt 0.007800 0.339800
vt 0.007800 0.238300
vt 0.007800 0.339800
vt 0.500000 0.156300
vt 0.695300 0.132800
vt 0.695300 0.156300
vt 0.500000 0.187500
vt 0.500000 0.125000
vt 0.750000 0.195300
vt 0.007800 0.195300
vt 0.007800 0.195300
vt 0.750000 0.195300
vt 0.695300 0.179700
vt 0.304700 0.511700
vt 0.390600 0.347700
vt 0.390600 0.511700
vt 0.304700 0.347700
vt 0.226600 0.511700
vt 0.226600 0.347700
vt 0.156300 0.511700
vt 0.156300 0.347700
vt 0.304700 0.347700
vt 0.390600 0.511700
vt 0.390600 0.347700
vt 0.304700 0.511700
vt 0.226600 0.347700
vt 0.226600 0.511700
vt 0.156300 0.347700
vt 0.156300 0.511700
vt 0.226600 0.511700
vt 0.156300 0.347700
vt 0.156300 0.511700
vt 0.226600 0.347700
vt 0.304700 0.511700
vt 0.304700 0.347700
vt 0.390600 0.511700
vt 0.390600 0.347700
vt 0.226600 0.347700
vt 0.156300 0.511700
vt 0.156300 0.347700
vt 0.226600 0.511700
vt 0.304700 0.347700
vt 0.304700 0.511700
vt 0.390600 0.347700
vt 0.390600 0.511700
vt 0.265600 0.511700
vt 0.390600 0.347700
vt 0.390600 0.511700
vt 0.265600 0.347700
vt 0.156300 0.511700
vt 0.156300 0.347700
vt 0.265600 0.347700
vt 0.265600 0.511700
vt 0.156300 0.347700
vt 0.156300 0.511700
vt 0.304700 0.347700
vt 0.304700 0.511700
vt 0.304700 0.511700
vt 0.304700 0.347700
vt 0.390600 0.347700
vt 0.156300 0.511700
vt 0.156300 0.347700
vt 0.273400 0.511700
vt 0.367200 0.332000
vt 0.414100 0.359400
vt 0.585900 0.851600
vt 0.570300 0.863300
vt 0.664100 0.918000
vt 0.414100 0.765600
vt 0.335900 0.832000
vt 0.335900 0.765600
vt 0.414100 0.832000
vt 0.335900 0.765600
vt 0.335900 0.800800
vt 0.429700 0.800800
vt 0.335900 0.765600
vt 0.335900 0.832000
vt 0.429700 0.832000
vt 0.562500 0.996100
vt 0.460900 0.968800
vt 0.562500 0.968800
vt 0.460900 0.996100
vt 0.562500 0.968800
vt 0.460900 0.968800
vt 0.078100 0.996100
vt 0.078100 0.968800
vt 0.078100 0.968800
vt 0.093800 0.867200
vt 0.453100 0.839800
vt 0.570300 0.781300
vt 0.468800 0.789100
vt 0.558600 0.871100
vt 0.093800 0.867200
vt 0.289100 0.777300
vt 0.101600 0.804700
vt 0.296900 0.843800
vt 0.375000 0.871100
vt 0.734400 0.941400
vt 0.652300 0.921900
vt 0.695300 0.988300
vt 0.789100 0.957000
vt 0.031300 0.867200
vt 0.031300 0.808600
vt 0.101600 0.804700
vt 0.007800 0.968800
vt 0.296900 0.843800
vt 0.289100 0.777300
vt 0.375000 0.871100
vt 0.558600 0.871100
vt 0.453100 0.839800
vt 0.570300 0.781300
vt 0.695300 0.988300
vt 0.652300 0.921900
vt 0.734400 0.941400
vt 0.750000 1.000000
vt 0.695300 0.906300
vt 0.335900 0.832000
vt 0.359400 0.765600
vt 0.414100 0.765600
vt 0.414100 0.832000
vt 0.359400 0.832000
vt 0.382800 0.832000
vt 0.468800 0.789100
vt 0.570300 0.750000
vt 0.468800 0.757800
vt 0.414100 0.765600
vt 0.335900 0.832000
vt 0.335900 0.765600
vt 0.414100 0.832000
vt 0.382800 0.765600
vt 0.328100 0.742200
vt 0.328100 0.742200
vt 0.156300 0.347700
vt 0.390600 0.347700
vt 0.390600 0.511700
vt 0.156300 0.511700
vt 0.390600 0.511700
vt 0.359400 0.765600
vt 0.414100 0.832000
vt 0.414100 0.765600
vt 0.359400 0.832000
vt 0.156300 0.511700
vt 0.156300 0.347700
vt 0.390600 0.511700
vt 0.156300 0.347700
vt 0.390600 0.511700
vt 0.390600 0.347700
vt 0.390600 0.347700
vt 0.335900 0.832000
vt 0.414100 0.832000
vt 0.414100 0.765600
vt 0.335900 0.765600
vt 0.710900 0.820300
vt 0.703100 0.785200
vt 0.703100 0.820300
vt 0.710900 0.726600
vt 0.703100 0.726600
vt 0.703100 0.683600
vt 0.710900 0.683600
vt 0.703100 0.531300
vt 0.710900 0.531300
vt 0.703100 0.406300
vt 0.710900 0.406300
vt 0.703100 0.363300
vt 0.710900 0.363300
vt 0.710900 0.386700
vt 0.921900 0.882800
vt 0.992200 0.898400
vt 0.992200 0.832000
vt 0.890600 0.761700
vt 0.882800 0.941400
vt 0.882800 0.996100
vt 0.953100 0.941400
vt 0.710900 0.875000
vt 0.710900 0.863300
vt 0.992200 0.765600
vt 0.890600 0.761700
vt 0.914100 0.699200
vt 0.992200 0.707000
vt 0.851600 0.546900
vt 0.710900 0.683600
vt 0.710900 0.726600
vt 0.914100 0.699200
vt 0.882800 0.941400
vt 0.921900 0.882800
vt 0.710900 0.863300
vt 0.710900 0.531300
vt 0.851600 0.546900
vt 0.851600 0.464800
vt 0.875000 0.410200
vt 0.726600 0.324200
vt 0.937500 0.566400
vt 0.851600 0.464800
vt 0.710900 0.406300
vt 0.875000 0.410200
vt 0.882800 0.320300
vt 0.992200 0.410200
vt 0.992200 0.320300
vt 0.882800 0.320300
vt 0.726600 0.324200
vt 0.867200 0.195300
vt 0.765600 0.195300
vt 0.718800 0.175800
vt 0.695300 0.324200
vt 0.765600 0.195300
vt 0.812500 0.136700
vt 0.992200 0.140600
vt 0.843800 0.003900
vt 0.937500 0.539100
vt 0.929700 0.464800
vt 0.929700 0.464800
vt 0.992200 0.543000
vt 0.867200 0.195300
vt 0.812500 0.136700
vt 0.554700 0.117200
vt 0.554700 0.003900
vt 0.359400 0.058600
vt 0.750000 0.058600
vt 0.554700 0.003900
vt 0.359400 0.058600
vt 0.750000 0.058600
vt 0.554700 0.003900
vt 0.359400 0.058600
vt 0.750000 0.058600
vt 0.234400 0.347700
vt 0.156300 0.511700
vt 0.234400 0.511700
vt 0.156300 0.347700
vt 0.390600 0.347700
vt 0.312500 0.511700
vt 0.390600 0.511700
vt 0.312500 0.347700
vt 0.234400 0.511700
vt 0.234400 0.347700
vt 0.156300 0.511700
vt 0.156300 0.347700
vt 0.390600 0.347700
vt 0.312500 0.511700
vt 0.390600 0.511700
vt 0.312500 0.347700
vt 0.554700 0.117200
vt 0.359400 0.058600
vt 0.554700 0.003900
vt 0.750000 0.058600
vt 0.359400 0.058600
vt 0.554700 0.003900
vt 0.750000 0.058600
vt 0.359400 0.058600
vt 0.554700 0.003900
vt 0.750000 0.058600
vt 0.250000 0.003900
vt 0.164100 0.113300
vt 0.343800 0.113300
vt 0.343800 0.113300
vt 0.164100 0.113300
vt 0.343800 0.113300
vt 0.281300 0.003900
vt 0.257800 0.019500
vt 0.281300 0.019500
vt 0.257800 0.003900
vt 0.195300 0.019500
vt 0.195300 0.003900
vt 0.164100 0.019500
vt 0.164100 0.003900
vt 0.195300 0.019500
vt 0.195300 0.003900
vt 0.250000 0.003900
vt 0.343800 0.113300
vt 0.164100 0.113300
vt 0.343800 0.113300
vt 0.164100 0.113300
vt 0.343800 0.113300
vt 0.164100 0.003900
vt 0.164100 0.019500
vt 0.281300 0.019500
vt 0.281300 0.003900
vt 0.164100 0.003900
vt 0.281300 0.003900
vt 0.164100 0.113300
vt 0.281300 0
vt 0.171900 0.011700
vt 0.250000 0.113300
vt 0.343800 0.046900
vt 0.320300 0.113300
vt 0.703100 0.015600
vt 0.734400 0.015600
vt 0.734400 0.015600
vt 0.703100 0.015600
vt 0.312500 0.113300
vt 0.195300 0.046900
vt 0.312500 0.046900
vt 0.195300 0.113300
vt 0.250000 0.113300
vt 0.171900 0.011700
vt 0.281300 0
vt 0.320300 0.113300
vt 0.164100 0.113300
vt 0.343800 0.046900
vt 0.335900 0.765600
vt 0.335900 0.832000
vt 0.429700 0.765600
vt 0.570300 0.863300
vt 0.664100 0.918000
vt 0.335900 0.765600
vt 0.335900 0.832000
vt 0.156300 0.519500
vt 0.265600 0.578100
vt 0.265600 0.519500
vt 0.156300 0.578100
vt 0.007800 0.113300
vt 0.125000 0.003900
vt 0.007800 0.003900
vt 0.125000 0.113300
vt 0.148400 0.109400
vt 0.007800 0.003900
vt 0.148400 0.003900
vt 0.007800 0.109400
vt 0.406300 0.648400
vt 0.539100 0.574200
vt 0.179700 0.574200
vt 0.140600 0.339800
vt 0.140600 0.238300
vt 0.054700 0.238300
vt 0.054700 0.339800
vt 0.031300 0.003900
vt 0.148400 0.003900
vt 0.148400 0.113300
vt 0.007800 0.003900
vt 0.148400 0.003900
vt 0.007800 0.113300
vt 0.500000 0.578100
vt 0.679700 0.519500
vt 0.679700 0.578100
vt 0.500000 0.519500
vt 0.250000 0.339800
vt 0.156300 0.238300
vt 0.250000 0.238300
vt 0.156300 0.339800
vt 0.007800 0.113300
vt 0.148400 0.113300
vt 0.148400 0.003900
vt 0.031300 0.003900
vt 0.007800 0.113300
vt 0.148400 0.003900
vt 0.148400 0.113300
vt 0.007800 0.003900
vt 0.156300 0.339800
vt 0.250000 0.238300
vt 0.156300 0.238300
vt 0.250000 0.339800
vt 0.140600 0.238300
vt 0.054700 0.238300
vt 0.054700 0.339800
vt 0.156300 0.339800
vt 0.250000 0.238300
vt 0.156300 0.238300
vt 0.250000 0.339800
vt 0.007800 0.043000
vt 0.148400 0.113300
vt 0.007800 0.113300
vt 0.148400 0
vt 0.156300 0.238300
vt 0.250000 0.238300
vt 0.007800 0.043000
vt 0.148400 0
vt 0.140600 0.339800
vt 0.406300 0.648400
vt 0.179700 0.574200
vt 0.539100 0.574200
vt 0.398400 0.578100
vt 0.398400 0.519500
vt 0.679700 0.519500
vt 0.679700 0.578100
vt 0.375000 0.578100
vt 0.375000 0.519500
vt 0.648400 0.574200
vt 0.687500 0.648400
vt 0.375000 0.648400
vt 0.375000 0.574200
vt 0.648400 0.574200
vt 0.687500 0.648400
vt 0.375000 0.574200
vt 0.375000 0.648400
vt 0.250000 0.519500
vt 0.250000 0.574200
vt 0.375000 0.574200
vt 0.375000 0.519500
vt 0.156300 0.519500
vt 0.156300 0.574200
vt 0.156300 0.578100
vt 0.156300 0.519500
vt 0.140600 0.648400
vt 0.140600 0.574200
vt 0.250000 0.519500
vt 0.250000 0.574200
vt 0.140600 0.574200
vt 0.140600 0.648400
vt 0.070300 0.648400
vt 0.007800 0.625000
vt 0.375000 0.519500
vt 0.375000 0.574200
vt 0.007800 0.625000
vt 0.007800 0.589800
vt 0.070300 0.648400
vt 0.007800 0.589800
vt 0.375000 0.578100
vt 0.679700 0.578100
vt 0.156300 0.519500
vt 0.156300 0.578100
vt 0.679700 0.519500
vt 0.375000 0.578100
vt 0.171900 0.519500
vt 0.171900 0.578100
vt 0.375000 0.519500
vt 0.007800 0.421900
vt 0.140600 0.414100
vt 0.007800 0.421900
vt 0.140600 0.414100
vt 0.156300 0.546900
vt 0.007800 0.347700
vt 0.140600 0.347700
vt 0.140600 0.546900
usemtl w21gn09_TEX_w21gn09
s 1
f 1/1 2/2 3/3
f 4/4 2/5 1/6
f 2/5 4/4 5/7
f 6/8 5/7 4/4
f 5/7 6/8 7/9
f 8/10 9/11 10/12
f 9/11 8/10 11/13
f 12/14 10/15 13/16
f 13/16 14/17 12/14
f 12/14 8/18 10/15
f 13/16 15/19 14/17
f 9/20 17/21 16/22
f 16/22 18/23 9/20
f 9/20 19/24 10/25
f 19/24 9/20 18/23
f 13/26 2/27 5/28
f 2/27 13/26 10/29
f 15/30 5/31 7/32
f 5/31 15/30 13/33
f 12/34 6/35 4/36
f 6/35 12/34 14/37
f 8/38 4/39 1/40
f 4/39 8/38 12/41
f 20/42 21/43 22/44
f 23/45 8/46 1/47
f 17/48 22/49 16/50
f 22/49 17/48 24/51
f 9/11 24/51 17/48
f 24/51 9/11 11/13
f 16/50 22/49 21/52
f 18/23 16/22 21/43
f 11/53 23/45 20/42
f 23/45 11/53 8/46
f 11/53 22/44 24/54
f 22/44 11/53 20/42
f 18/55 21/56 20/57
f 20/57 23/58 18/55
f 25/59 19/24 18/23
f 7/60 6/61 26/62
f 27/63 28/64 29/65
f 28/64 27/63 30/66
f 31/67 30/66 27/63
f 30/66 31/67 26/62
f 7/60 26/62 31/67
f 15/68 7/9 31/69
f 27/70 32/71 15/72
f 33/73 28/74 30/75
f 30/75 14/76 33/73
f 14/17 26/77 6/78
f 26/77 14/17 30/79
f 34/80 32/71 29/81
f 32/71 34/80 35/82
f 36/83 35/82 34/80
f 37/84 29/65 28/64
f 29/65 37/84 34/85
f 38/86 28/87 33/73
f 28/87 38/86 37/88
f 35/89 33/90 32/91
f 33/90 35/89 38/92
f 39/93 38/92 35/89
f 38/92 39/93 40/94
f 41/95 34/96 37/97
f 34/96 41/95 36/98
f 42/99 36/98 41/95
f 36/98 42/99 43/100
f 38/86 41/101 37/88
f 41/101 38/86 42/99
f 40/102 42/99 38/86
f 43/103 35/82 36/83
f 35/82 43/103 39/93
f 15/68 31/69 27/104
f 32/71 27/70 29/105
f 44/106 45/107 46/108
f 45/107 44/106 47/109
f 48/110 49/111 50/112
f 49/111 48/110 51/113
f 51/113 52/114 49/111
f 52/114 51/113 53/115
f 53/115 54/116 52/114
f 54/116 53/115 55/117
f 55/117 56/118 54/116
f 56/118 55/117 57/119
f 58/120 46/108 59/121
f 46/108 58/120 44/106
f 60/122 61/123 62/124
f 61/123 60/122 50/112
f 50/112 49/111 63/125
f 49/111 64/126 63/125
f 64/126 49/111 52/114
f 52/114 65/127 64/126
f 65/127 52/114 54/116
f 54/116 66/128 65/127
f 66/128 54/116 56/118
f 56/118 62/124 66/128
f 62/124 56/118 60/122
f 67/129 63/130 64/131
f 67/129 64/132 65/133
f 67/129 65/134 66/135
f 67/129 66/136 62/137
f 67/129 62/138 61/139
f 67/129 61/140 63/141
f 50/112 63/125 61/123
f 46/142 50/143 60/144
f 60/144 59/145 46/142
f 46/142 45/146 50/143
f 45/107 48/147 50/148
f 48/147 45/107 47/109
f 58/120 56/149 57/150
f 56/149 58/120 59/121
f 60/144 56/151 59/145
f 68/152 69/153 70/154
f 69/153 68/152 71/155
f 72/156 71/155 68/152
f 71/155 72/156 73/157
f 74/158 73/157 72/156
f 73/157 74/158 75/159
f 76/160 77/161 78/162
f 77/161 76/160 79/163
f 80/164 79/163 76/160
f 79/163 80/164 81/165
f 82/166 81/165 80/164
f 81/165 82/166 83/167
f 71/168 78/169 69/170
f 78/169 71/168 76/171
f 73/172 76/171 71/168
f 76/171 73/172 80/173
f 75/174 80/173 73/172
f 80/173 75/174 82/175
f 79/176 70/177 77/178
f 70/177 79/176 68/179
f 81/180 68/179 79/176
f 68/179 81/180 72/181
f 83/182 72/181 81/180
f 72/181 83/182 74/183
f 84/184 85/185 86/186
f 85/185 84/184 87/187
f 88/188 87/187 84/184
f 87/187 88/188 89/189
f 90/190 86/186 85/185
f 86/186 90/190 91/191
f 92/192 91/191 90/190
f 91/191 92/192 93/193
f 87/194 90/195 85/185
f 91/196 84/197 86/198
f 89/189 90/195 87/194
f 90/195 89/189 92/199
f 93/193 84/197 91/196
f 84/197 93/193 88/200
f 25/201 18/55 23/58
f 23/58 1/1 25/201
f 3/3 25/201 1/1
f 2/202 10/25 19/24
f 3/203 2/202 19/24
f 19/24 25/59 3/203
f 94/204 95/205 96/206
f 97/207 98/208 99/209
f 98/208 97/207 100/210
f 101/211 100/210 97/207
f 100/210 101/211 102/212
f 103/213 105/214 104/215
f 104/215 106/216 103/213
f 107/217 108/218 109/219
f 108/218 107/217 110/220
f 111/221 110/220 107/217
f 110/220 111/221 112/222
f 113/223 109/219 114/224
f 109/219 113/223 107/217
f 115/225 107/217 113/223
f 107/217 115/225 111/221
f 116/226 111/221 115/225
f 117/227 99/228 118/229
f 99/228 117/227 97/230
f 119/231 120/232 121/233
f 120/232 119/231 122/234
f 123/235 122/234 119/231
f 109/219 124/236 101/237
f 101/237 123/235 109/219
f 114/224 109/219 123/235
f 124/236 109/219 108/238
f 108/238 94/239 124/236
f 114/224 123/235 119/231
f 119/231 125/240 114/224
f 116/226 103/241 106/242
f 103/241 116/226 125/240
f 115/225 125/240 116/226
f 125/240 115/225 113/243
f 126/244 106/242 127/245
f 106/242 126/244 116/226
f 128/246 116/226 126/244
f 116/226 128/246 111/221
f 100/247 129/248 98/249
f 129/248 100/247 128/246
f 112/250 96/251 95/252
f 95/252 94/239 112/250
f 96/251 112/250 111/221
f 111/221 128/246 96/251
f 110/253 112/250 94/239
f 94/239 108/238 110/253
f 94/204 96/206 102/254
f 102/212 96/255 100/210
f 123/235 101/237 97/230
f 97/230 117/227 123/235
f 126/256 127/257 120/258
f 126/256 120/258 122/259
f 126/256 122/259 123/260
f 130/261 99/262 98/249
f 100/247 96/251 128/246
f 118/263 99/262 130/261
f 129/264 118/265 130/266
f 118/265 129/264 117/267
f 128/268 117/267 129/264
f 129/248 130/261 98/249
f 123/260 117/267 128/268
f 126/256 123/260 128/268
f 106/242 104/269 127/245
f 121/233 120/232 105/270
f 131/271 132/272 133/273
f 132/272 134/274 135/275
f 134/274 132/272 131/271
f 136/276 132/277 137/278
f 132/277 136/276 133/279
f 138/280 140/281 139/282
f 139/282 134/283 138/280
f 140/281 136/284 137/285
f 139/282 135/286 134/283
f 139/282 140/281 137/285
f 134/287 131/288 140/289
f 134/287 140/289 138/290
f 141/291 143/292 142/293
f 142/293 144/294 141/291
f 144/294 142/293 145/295
f 145/295 146/296 144/294
f 147/297 144/294 146/296
f 146/296 148/298 147/297
f 149/299 147/297 148/298
f 148/298 150/300 149/299
f 151/301 149/299 150/300
f 150/300 152/302 151/301
f 153/303 151/301 152/302
f 152/302 154/304 153/303
f 155/305 157/306 156/307
f 156/307 158/308 155/305
f 159/309 160/310 161/311
f 160/310 159/309 143/312
f 142/313 143/312 159/309
f 156/307 162/314 158/308
f 162/314 156/307 163/315
f 164/316 162/314 165/317
f 165/317 166/318 164/316
f 146/319 164/316 166/318
f 164/316 158/308 162/314
f 158/308 142/313 155/305
f 142/313 158/308 145/320
f 159/309 155/305 142/313
f 155/305 159/309 161/311
f 145/320 158/308 164/316
f 164/316 146/319 145/320
f 163/315 165/317 162/314
f 165/317 163/315 167/321
f 144/294 167/321 163/315
f 168/322 169/323 161/311
f 169/323 168/322 141/324
f 143/312 141/324 168/322
f 169/323 156/307 157/306
f 157/306 161/311 169/323
f 163/315 156/307 169/323
f 169/323 141/324 163/315
f 144/294 163/315 141/324
f 168/322 160/310 143/312
f 160/310 168/322 161/311
f 157/306 155/305 161/311
f 166/318 148/325 146/319
f 149/299 170/326 147/297
f 170/326 149/299 171/327
f 151/301 171/327 149/299
f 171/327 151/301 172/328
f 153/329 172/328 151/301
f 167/321 147/297 170/326
f 170/326 173/330 167/321
f 165/317 167/321 173/330
f 173/330 166/318 165/317
f 174/331 148/325 166/318
f 148/325 174/331 150/332
f 175/333 150/332 174/331
f 176/334 150/332 175/333
f 175/333 177/335 176/334
f 178/336 176/334 177/335
f 177/335 172/328 178/336
f 179/337 178/336 172/328
f 152/338 181/339 180/340
f 180/340 182/341 152/338
f 154/342 152/338 182/341
f 182/341 183/343 154/342
f 153/329 154/342 183/343
f 183/343 179/337 153/329
f 184/344 180/340 181/339
f 181/339 185/345 184/344
f 186/346 184/344 185/345
f 152/338 150/332 176/334
f 176/334 181/339 152/338
f 187/347 166/318 173/330
f 166/318 187/347 174/331
f 188/348 174/331 187/347
f 174/331 188/348 175/333
f 177/335 175/333 188/348
f 171/327 187/347 170/326
f 187/347 171/327 189/349
f 170/326 187/347 173/330
f 189/349 190/350 187/347
f 190/350 189/349 177/335
f 172/328 177/335 189/349
f 171/327 172/328 189/349
f 188/348 187/347 190/350
f 188/348 190/350 177/335
f 178/336 181/339 176/334
f 181/339 178/336 185/345
f 179/337 185/345 178/336
f 185/345 179/337 191/351
f 183/343 191/351 179/337
f 186/346 185/345 192/352
f 192/352 182/341 186/346
f 184/344 186/346 182/341
f 182/341 180/340 184/344
f 191/351 192/352 185/345
f 192/352 191/351 183/343
f 192/352 183/343 182/341
f 167/321 144/294 147/297
f 193/353 194/354 195/355
f 194/354 193/353 196/356
f 193/353 197/357 196/358
f 197/357 193/353 198/359
f 193/353 199/360 198/361
f 199/360 193/353 195/362
f 195/363 200/364 201/365
f 200/364 195/363 194/366
f 194/367 202/368 200/369
f 202/368 194/367 196/370
f 196/370 203/371 202/368
f 203/371 196/370 197/372
f 197/372 204/373 203/371
f 204/373 197/372 198/374
f 198/375 205/376 204/377
f 205/376 198/375 199/378
f 199/378 201/365 205/376
f 201/365 199/378 195/363
f 206/379 201/380 200/381
f 206/379 200/381 202/382
f 206/379 202/383 203/384
f 206/379 203/384 204/385
f 206/379 204/386 205/387
f 206/379 205/387 201/388
f 207/389 208/390 209/391
f 208/390 207/389 210/392
f 207/389 211/393 210/392
f 211/393 207/389 212/394
f 209/395 213/396 214/397
f 213/396 209/395 208/398
f 208/398 215/399 213/396
f 215/399 208/398 210/400
f 210/400 216/401 215/399
f 216/401 210/400 211/402
f 211/402 217/403 216/401
f 217/403 211/402 212/404
f 218/405 214/406 213/407
f 218/405 213/407 215/408
f 218/405 215/408 216/409
f 218/405 216/409 217/410
f 219/411 220/412 221/413
f 219/411 221/413 222/414
f 220/412 223/415 224/416
f 220/412 224/416 221/413
f 222/417 207/418 209/419
f 207/418 222/417 221/420
f 221/420 212/421 207/418
f 212/421 221/420 224/422
f 219/423 209/424 214/425
f 209/424 219/423 222/426
f 224/427 217/428 212/429
f 217/428 224/427 223/430
f 220/431 214/432 218/433
f 218/433 223/434 220/431
f 220/431 219/435 214/432
f 218/433 217/436 223/434
f 172/328 153/329 179/337
f 139/437 137/278 132/277
f 139/437 132/277 135/438
f 114/224 125/240 113/243
f 103/241 119/231 121/233
f 119/231 103/241 125/240
f 103/213 121/439 105/214
f 124/440 102/254 101/441
f 102/254 124/440 94/204
f 127/257 104/442 105/443
f 127/257 105/443 120/258
f 225/444 226/445 227/446
f 226/445 225/444 228/447
f 229/448 230/449 231/450
f 230/449 229/448 232/451
f 232/452 233/453 230/454
f 233/453 232/452 234/455
f 235/456 236/457 237/458
f 235/459 237/460 238/461
f 238/461 239/462 235/459
f 232/463 229/464 238/465
f 238/465 234/466 232/467
f 234/466 238/465 237/468
f 236/469 240/470 237/471
f 240/470 236/469 241/472
f 237/473 233/474 234/475
f 233/474 237/473 240/476
f 240/477 230/454 233/453
f 230/454 240/477 242/478
f 231/479 230/480 242/478
f 243/481 244/482 245/483
f 244/482 243/481 246/484
f 242/485 229/486 231/487
f 229/486 242/485 238/488
f 247/489 248/490 242/491
f 248/492 246/493 243/494
f 246/493 248/492 239/495
f 239/496 244/497 246/498
f 244/497 239/496 238/499
f 238/488 245/500 244/501
f 245/500 238/488 242/485
f 248/502 245/483 242/503
f 245/483 248/502 243/481
f 240/504 247/489 242/491
f 247/505 240/506 241/507
f 239/462 248/490 247/489
f 235/459 239/462 247/489
f 249/508 250/509 241/472
f 241/472 236/469 249/508
f 250/510 249/511 251/512
f 251/512 252/513 250/510
f 235/456 249/514 236/457
f 249/514 235/456 253/515
f 254/516 251/517 249/514
f 249/514 253/515 254/516
f 241/507 250/518 247/505
f 255/519 247/505 250/518
f 255/519 250/518 252/520
f 252/520 256/521 255/519
f 255/522 253/523 235/524
f 235/524 247/525 255/522
f 256/526 253/523 255/522
f 253/523 256/526 254/527
f 252/513 257/528 258/529
f 257/528 252/513 251/512
f 259/530 257/531 251/517
f 251/517 254/516 259/530
f 254/527 260/532 259/533
f 260/532 254/527 256/526
f 258/534 260/535 256/521
f 256/521 252/520 258/534
f 261/536 226/537 257/531
f 257/531 259/530 261/536
f 259/533 262/538 261/539
f 262/538 259/533 260/532
f 227/540 258/534 225/541
f 258/534 227/540 262/542
f 262/542 260/535 258/534
f 228/543 257/531 226/537
f 261/544 227/446 226/445
f 227/446 261/544 262/538
f 228/545 263/546 264/547
f 263/546 228/545 225/548
f 258/549 265/550 266/551
f 265/550 258/549 257/552
f 264/553 265/554 257/531
f 257/531 228/543 264/553
f 258/534 263/555 225/541
f 263/555 258/534 266/556
f 266/551 265/550 267/557
f 265/554 268/558 267/559
f 268/558 265/554 264/553
f 264/547 263/546 268/560
f 266/556 268/558 263/555
f 268/558 266/556 267/559
