# Blender v2.79 (sub 0) OBJ File: ''
# www.blender.org
mtllib w21gn14.mtl
o w21gn14
v 0.008700 0.101400 1.120200
v 0.008700 0.139200 1.311200
v 0.022100 0.103200 1.306500
v 0.022100 0.073200 1.120200
v 0.022100 0.053600 1.300500
v 0.008700 0.026700 1.528400
v 0.022100 0.026700 1.452400
v 0.045900 0.026700 1.298700
v 0.039900 0.037300 1.311200
v 0.045900 0.026700 1.311200
v 0.039900 0.037300 1.298700
v 0.028000 0.037300 1.311200
v 0.028000 0.037300 1.298700
v 0.022100 0.026700 1.310900
v 0.022100 0.026700 1.298700
v 0.034000 0.026700 1.311200
v 0.039900 0.016100 1.311200
v 0.022100 0.075100 0.820200
v 0.008700 0.094500 0.820200
v 0.022400 0.091700 0.670200
v 0.008700 0.115700 0.681800
v 0.008700 0.192600 0.635200
v 0.022100 0.070700 0.670200
v 0.022100 0.058900 0.820200
v 0.022100 0.087300 0.649300
v 0.022100 0.164800 0.620900
v 0.045200 0.047900 0.820200
v 0.045200 0.044500 1.300500
v 0.045200 0.056400 0.670200
v 0.045200 0.072000 0.613000
v 0.045200 0.107900 0.590200
v 0.054600 0.026700 0.820200
v 0.054600 0.026700 1.300500
v 0.022100 0.138600 0.609900
v 0.045200 0.059500 0.429900
v 0.059000 0.026700 0.520200
v 0.053400 0.026700 0.438700
v 0.045200 0.092600 0.520200
v 0.022100 0.072900 0.423700
v 0.022100 0.114500 0.514600
v 0.022100 0.212000 0.387400
v 0.022100 0.185700 0.465500
v 0.022100 0.179800 0.419600
v 0.015500 0.242300 0.486800
v 0.008700 0.306400 0.434600
v 0.008700 0.233200 0.494300
v 0.008700 0.188900 0.480500
v 0.008700 0.248200 0.519300
v 0.008700 0.178900 0.402100
v 0.022100 0.112600 0.405500
v 0.008700 0.124800 0.386200
v 0.022100 0.068900 0.347700
v 0.008700 0.086700 0.344600
v 0.022100 0.077300 0.301200
v 0.008700 0.098200 0.295200
v 0.008700 0.250400 0.309900
v 0.008700 0.212600 0.386800
v 0.022100 0.131400 0.511800
v 0.008700 0.150100 0.515200
v 0.022100 0.026700 0.357700
v 0.038000 0.026700 0.435900
v 0.022100 -0.023300 0.423700
v 0.045200 -0.009900 0.429900
v 0.008700 -0.032100 0.361800
v 0.022100 -0.054600 0.413700
v 0.008700 -0.066800 0.399000
v 0.020200 -0.023300 0.362700
v 0.008700 -0.035800 0.325900
v 0.022100 0.029800 0.276800
v 0.008700 0.047600 0.269900
v 0.022100 0.018600 0.249900
v 0.008700 0.035400 0.244900
v 0.008700 0.050100 0.202700
v 0.019600 0.022900 0.213400
v 0.021200 -0.023000 0.301200
v 0.021200 -0.023900 0.238400
v 0.021200 -0.035800 0.325900
v 0.020200 -0.023600 0.302100
v -0.003800 -0.023000 0.301200
v -0.003800 -0.023900 0.238400
v 0.000200 -0.051400 0.244600
v 0.017400 -0.051400 0.244600
v 0.001200 -0.060200 0.254600
v 0.016500 -0.060200 0.254600
v 0.001200 -0.064900 0.301800
v 0.016500 -0.064900 0.301800
v 0.001200 -0.061800 0.311200
v 0.016500 -0.061800 0.311200
v 0.008700 -0.032700 0.224000
v 0.008700 -0.055200 0.237100
v 0.008700 -0.068600 0.252700
v 0.008700 -0.073300 0.302100
v 0.008700 -0.068300 0.317400
v 0.016500 -0.031400 0.323400
v 0.008700 -0.033900 0.332400
v 0.008700 0.014800 0.027400
v 0.008700 0.038200 0.131800
v 0.018000 0.005700 0.140200
v -0.000700 0.005700 0.140200
v 0.018000 -0.014600 0.046200
v 0.008700 -0.021400 0.148000
v 0.008700 -0.040500 0.063700
v -0.000700 -0.014600 0.046200
v 0.008700 -0.090500 0.011800
v -0.000400 -0.077400 -0.017600
v 0.008700 -0.158300 0.003000
v -0.001000 -0.160500 -0.031600
v 0.017700 -0.077400 -0.017600
v 0.018700 -0.160500 -0.031600
v 0.008700 -0.062400 -0.051000
v 0.008700 -0.162100 -0.069100
v 0.008700 -0.226800 0.015500
v -0.001000 -0.232100 -0.018200
v 0.008700 -0.237100 -0.054800
v 0.018400 -0.232100 -0.018200
v 0.008700 -0.233300 0.008700
v 0.008700 -0.240500 -0.043200
v 0.014000 -0.026800 0.284000
v 0.008700 -0.014600 0.275900
v 0.014000 -0.014600 0.283000
v 0.008700 -0.023300 0.276500
v 0.012700 -0.037100 0.271800
v 0.008700 -0.036100 0.266500
v 0.003400 -0.026800 0.284000
v 0.003400 -0.014600 0.283000
v 0.004600 -0.037100 0.271800
v 0.005900 -0.048300 0.275200
v 0.011800 -0.048300 0.275200
v 0.008700 -0.051800 0.272400
v 0.008700 -0.057400 0.287100
v -0.002000 0.022900 0.213400
v 0.045200 -0.039600 0.520200
v 0.022100 -0.061400 0.514600
v 0.008700 0.302900 0.559000
v 0.015500 0.262000 0.568700
v 0.002100 0.262000 0.568700
v 0.008700 0.328900 0.673000
v 0.022100 -0.121800 0.464600
v 0.022100 -0.114900 0.416500
v 0.022100 -0.158600 0.387400
v 0.022100 -0.077100 0.509600
v 0.008700 -0.119600 0.399000
v 0.008700 -0.159900 0.385500
v 0.008700 -0.197100 0.309900
v -0.004800 -0.158600 0.387400
v 0.018700 -0.177700 0.478700
v 0.008700 -0.253000 0.427100
v 0.015500 -0.201100 0.515900
v 0.008700 -0.201100 0.515900
v 0.008700 -0.256800 0.503400
v 0.008700 -0.250800 0.584300
v 0.015500 -0.217100 0.594600
v 0.002100 -0.217100 0.594600
v 0.008700 -0.275500 0.673000
v 0.022100 0.026700 1.300900
v 0.022100 -0.000500 1.300500
v 0.045200 0.008600 1.300500
v -0.004800 0.212000 0.387400
v 0.022100 -0.049900 1.306500
v 0.022100 -0.020200 1.120200
v 0.039900 0.016100 1.298700
v 0.028000 0.016100 1.311200
v 0.028000 0.016100 1.298700
v 0.022100 -0.005800 0.820200
v 0.022100 -0.021800 0.820200
v 0.022100 -0.017700 0.670200
v 0.022400 -0.038600 0.670200
v 0.045200 0.005100 0.820200
v 0.045200 -0.003000 0.670200
v 0.045200 -0.018900 0.613000
v 0.022100 -0.033900 0.632700
v 0.045200 -0.054600 0.590200
v 0.022100 -0.085200 0.605900
v 0.022100 -0.111400 0.620900
v 0.001200 -0.031400 0.323400
v 0.058400 0.026700 0.590200
v 0.056200 0.026700 0.670200
v 0.008700 -0.048000 1.120200
v 0.008700 -0.085800 1.311200
v 0.008700 -0.041400 0.820200
v 0.008700 -0.063000 0.682100
v 0.008700 -0.139600 0.635200
v 0.008700 -0.094900 0.514000
v 0.008700 -0.126400 0.479300
v 0.008700 -0.168900 0.488700
v -0.004800 0.103200 1.306500
v -0.004800 0.073200 1.120200
v -0.004800 0.053600 1.300500
v -0.004800 0.026700 1.452400
v -0.028500 0.026700 1.298700
v -0.028500 0.026700 1.311200
v -0.022300 0.037300 1.311200
v -0.022300 0.016100 1.311200
v -0.022300 0.037300 1.298700
v -0.010400 0.037300 1.311200
v -0.010400 0.037300 1.298700
v -0.004500 0.026700 1.310900
v -0.004800 0.026700 1.298700
v -0.010400 0.016100 1.298700
v -0.016300 0.026700 1.311200
v -0.010400 0.016100 1.311200
v -0.004800 0.075100 0.820200
v -0.004800 0.091700 0.670200
v -0.004500 0.070700 0.670200
v -0.004500 0.058900 0.820200
v -0.004500 0.087300 0.649300
v -0.004800 0.164800 0.620900
v -0.027600 0.044500 1.300500
v -0.027600 0.047900 0.820200
v -0.037300 0.026700 0.820200
v -0.027600 0.056400 0.670200
v -0.027600 0.072000 0.613000
v -0.027600 0.107900 0.590200
v -0.004800 0.138600 0.609900
v -0.037300 0.026700 1.300500
v -0.027600 0.008600 1.300500
v -0.004800 0.131400 0.511800
v -0.004800 0.185700 0.465500
v 0.002100 0.242300 0.486800
v -0.041300 0.026700 0.520200
v -0.035700 0.026700 0.438700
v -0.027600 0.059500 0.429900
v -0.027600 -0.009900 0.429900
v -0.027600 -0.039600 0.520200
v -0.004800 -0.023300 0.423700
v -0.004800 -0.061400 0.514600
v -0.004800 0.072900 0.423700
v -0.027600 0.092600 0.520200
v -0.004800 0.114500 0.514600
v -0.004800 0.179800 0.419600
v -0.004800 0.112600 0.405500
v -0.004800 0.077300 0.301200
v -0.004800 0.068900 0.347700
v -0.004800 0.026700 0.357700
v -0.020400 0.026700 0.435900
v -0.004800 0.029800 0.276800
v -0.004800 -0.054600 0.413700
v -0.004800 -0.114900 0.416500
v -0.002900 -0.023300 0.362700
v -0.004800 0.018600 0.249900
v -0.003800 -0.035800 0.325900
v -0.004800 -0.121800 0.464600
v -0.001300 -0.177700 0.478700
v -0.004800 -0.077100 0.509600
v 0.002100 -0.201100 0.515900
v -0.004800 0.026700 1.300900
v -0.004800 -0.020200 1.120200
v -0.004800 -0.049900 1.306500
v -0.004800 -0.000500 1.300500
v -0.022300 0.016100 1.298700
v -0.004500 -0.017700 0.670200
v -0.004800 -0.021800 0.820200
v -0.004500 -0.005800 0.820200
v -0.004800 -0.038600 0.670200
v -0.004500 -0.033900 0.632700
v -0.027600 0.005100 0.820200
v -0.027600 -0.003000 0.670200
v -0.027600 -0.018900 0.613000
v -0.027600 -0.054600 0.590200
v -0.004800 -0.085200 0.605900
v -0.004800 -0.111400 0.620900
v -0.040700 0.026700 0.590200
v -0.038500 0.026700 0.670200
vt 0.929700 0.394500
vt 0.929700 0.230500
vt 0.992200 0.230500
vt 0.992200 0.394500
vt 0.914100 0.050800
vt 0.554700 0.015600
vt 0.570300 0.078100
vt 0.929700 0.003900
vt 0.992200 0.003900
vt 0.304700 0.265600
vt 0.226600 0.210900
vt 0.226600 0.265600
vt 0.304700 0.210900
vt 0.226600 0.168000
vt 0.304700 0.168000
vt 0.226600 0.210900
vt 0.304700 0.210900
vt 0.250000 0.160200
vt 0.242200 0.109400
vt 0.257800 0.109400
vt 0.257800 0.109400
vt 0.242200 0.109400
vt 0.257800 0.109400
vt 0.992200 0.664100
vt 0.929700 0.664100
vt 0.992200 0.800800
vt 0.929700 0.800800
vt 0.929700 0.843800
vt 0.164100 0.703100
vt 0.171900 0.531300
vt 0.117200 0.531300
vt 0.203100 0.707000
vt 0.210900 0.746100
vt 0.335900 0.777300
vt 0.078100 0.531300
vt 0.093800 0.003900
vt 0.062500 0.003900
vt 0.101600 0.703100
vt 0.132800 0.765600
vt 0.210900 0.789100
vt 0.007800 0.531300
vt 0.007800 0.003900
vt 0.296900 0.781300
vt 0.992200 0.843800
vt 0.085900 0.964800
vt 0.007800 0.871100
vt 0.007800 0.960900
vt 0.156300 0.871100
vt 0.109400 0.976600
vt 0.203100 0.875000
vt 0.789100 0.894500
vt 0.617200 0.859400
vt 0.734400 0.855500
vt 0.546900 0.906300
vt 0.648400 0.980500
vt 0.992200 0.957000
vt 0.929700 0.957000
vt 0.929700 0.918000
vt 0.929700 0.996100
vt 0.992200 0.918000
vt 0.929700 0.496100
vt 0.992200 0.496100
vt 0.992200 0.636700
vt 0.929700 0.636700
vt 0.992200 0.496100
vt 0.929700 0.496100
vt 0.992200 0.347700
vt 0.929700 0.347700
vt 0.304700 0.328100
vt 0.273400 0.441400
vt 0.304700 0.441400
vt 0.992200 0.347700
vt 0.234400 0.878900
vt 0.929700 0.882800
vt 0.992200 0.882800
vt 0.273400 0.523400
vt 0.789100 0.800800
vt 0.546900 0.808600
vt 0.632800 0.691400
vt 0.421900 0.765600
vt 0.343800 0.691400
vt 0.570300 0.199200
vt 0.414100 0.164100
vt 0.375000 0.199200
vt 0.562500 0.257800
vt 0.125000 0.992200
vt 0.007800 0.976600
vt 0.078100 0.968800
vt 0.421900 0.765600
vt 0.929700 0.769500
vt 0.992200 0.597700
vt 0.929700 0.597700
vt 0.992200 0.769500
vt 0.929700 0.894500
vt 0.992200 0.496100
vt 0.929700 0.496100
vt 0.992200 0.636700
vt 0.929700 0.636700
vt 0.929700 0.769500
vt 0.992200 0.769500
vt 0.718800 0.312500
vt 0.812500 0.226600
vt 0.781300 0.214800
vt 0.710900 0.175800
vt 0.843800 0.281300
vt 0.328100 0.250000
vt 0.328100 0.226600
vt 0.335900 0.250000
vt 0.328100 0.261700
vt 0.328100 0.261700
vt 0.343800 0.261700
vt 0.343800 0.304700
vt 0.328100 0.304700
vt 0.640600 0.554700
vt 0.625000 0.562500
vt 0.640600 0.562500
vt 0.625000 0.554700
vt 0.640600 0.546900
vt 0.625000 0.546900
vt 0.640600 0.496100
vt 0.625000 0.496100
vt 0.640600 0.488300
vt 0.625000 0.488300
vt 0.546900 0.472700
vt 0.507800 0.445300
vt 0.500000 0.468800
vt 0.562500 0.460900
vt 0.570300 0.492200
vt 0.609400 0.488300
vt 0.578100 0.539100
vt 0.609400 0.543000
vt 0.570300 0.550800
vt 0.593800 0.562500
vt 0.531300 0.566400
vt 0.554700 0.578100
vt 0.914100 0.535200
vt 0.914100 0.476600
vt 0.789100 0.472700
vt 0.789100 0.472700
vt 0.789100 0.535200
vt 0.664100 0.472700
vt 0.664100 0.535200
vt 0.789100 0.535200
vt 0.664100 0.621100
vt 0.789100 0.621100
vt 0.664100 0.691400
vt 0.789100 0.691400
vt 0.789100 0.621100
vt 0.789100 0.691400
vt 0.914100 0.621100
vt 0.914100 0.691400
vt 0.398400 0.425800
vt 0.523400 0.328100
vt 0.398400 0.328100
vt 0.523400 0.328100
vt 0.523400 0.425800
vt 0.648400 0.328100
vt 0.648400 0.425800
vt 0.523400 0.425800
vt 0.421900 0.437500
vt 0.601600 0.437500
vt 0.359400 0.605500
vt 0.343800 0.585900
vt 0.343800 0.605500
vt 0.359400 0.585900
vt 0.445300 0.605500
vt 0.445300 0.589800
vt 0.398400 0.644500
vt 0.343800 0.613300
vt 0.343800 0.644500
vt 0.398400 0.613300
vt 0.492200 0.644500
vt 0.492200 0.613300
vt 0.578100 0.644500
vt 0.578100 0.613300
vt 0.531300 0.605500
vt 0.531300 0.593800
vt 0.445300 0.605500
vt 0.359400 0.605500
vt 0.343800 0.605500
vt 0.648400 0.605500
vt 0.531300 0.605500
vt 0.914100 0.375000
vt 0.820300 0.363300
vt 0.820300 0.363300
vt 0.695300 0.328100
vt 0.664100 0.367200
vt 0.085900 0.964800
vt 0.109400 0.976600
vt 0.156300 0.871100
vt 0.203100 0.875000
vt 0.382800 0.964800
vt 0.359400 0.918000
vt 0.257800 0.433600
vt 0.226600 0.488300
vt 0.257800 0.523400
vt 0.203100 0.433600
vt 0.195300 0.984400
vt 0.234400 0.328100
vt 0.609400 0.859400
vt 0.773400 0.886700
vt 0.726600 0.843800
vt 0.757800 0.781300
vt 0.539100 0.808600
vt 0.757800 0.757800
vt 0.531300 0.785200
vt 0.929700 0.437500
vt 0.992200 0.437500
vt 0.929700 0.316400
vt 0.304700 0.335900
vt 0.304700 0.453100
vt 0.273400 0.453100
vt 0.273400 0.453100
vt 0.570300 0.898400
vt 0.703100 0.980500
vt 0.890600 0.937500
vt 0.273400 0.523400
vt 0.257800 0.507800
vt 0.257800 0.523400
vt 0.226600 0.507800
vt 0.531300 0.972700
vt 0.500000 0.914100
vt 0.343800 0.960900
vt 0.328100 0.918000
vt 0.257800 0.433600
vt 0.203100 0.433600
vt 0.195300 0.984400
vt 0.328100 0.918000
vt 0.234400 0.324200
vt 0.453100 0.882800
vt 0.343800 0.824200
vt 0.343800 0.882800
vt 0.343800 0.824200
vt 0.429700 0.847700
vt 0.429700 0.847700
vt 0.125000 0.992200
vt 0.078100 0.968800
vt 0.898400 0.937500
vt 0.789100 0.894500
vt 0.554700 0.015600
vt 0.914100 0.050800
vt 0.570300 0.078100
vt 0.273400 0.113300
vt 0.226600 0.320300
vt 0.304700 0.320300
vt 0.226600 0.265600
vt 0.304700 0.265600
vt 0.242200 0.109400
vt 0.117200 0.531300
vt 0.171900 0.531300
vt 0.164100 0.703100
vt 0.148400 0.207000
vt 0.203100 0.707000
vt 0.062500 0.003900
vt 0.093800 0.003900
vt 0.078100 0.531300
vt 0.101600 0.703100
vt 0.132800 0.765600
vt 0.210900 0.746100
vt 0.210900 0.789100
vt 0.296900 0.781300
vt 0.148400 0.207000
vt 0.335900 0.777300
vt 0.234400 0.878900
vt 0.640600 0.472700
vt 0.625000 0.472700
vt 0.648400 0.628900
vt 0.421900 0.289100
vt 0.437500 0.320300
vt 0.562500 0.304700
vt 0.648400 0.320300
vt 0.914100 0.218800
vt 0.570300 0.113300
vt 0.546900 0.785200
vt 0.773400 0.757800
vt 0.007800 0.796900
vt 0.007800 0.703100
vt 0.929700 0.394500
vt 0.992200 0.230500
vt 0.929700 0.230500
vt 0.992200 0.394500
vt 0.992200 0.664100
vt 0.929700 0.664100
vt 0.992200 0.800800
vt 0.929700 0.800800
vt 0.929700 0.843800
vt 0.992200 0.843800
vt 0.929700 0.882800
vt 0.992200 0.882800
vt 0.929700 0.918000
vt 0.992200 0.918000
vt 0.992200 0.957000
vt 0.929700 0.957000
vt 0.929700 0.996100
vt 0.992200 0.230500
vt 0.992200 0.394500
vt 0.554700 0.015600
vt 0.914100 0.050800
vt 0.570300 0.078100
vt 0.273400 0.113300
vt 0.992200 0.003900
vt 0.304700 0.265600
vt 0.226600 0.265600
vt 0.226600 0.210900
vt 0.226600 0.320300
vt 0.304700 0.210900
vt 0.226600 0.168000
vt 0.304700 0.168000
vt 0.226600 0.210900
vt 0.304700 0.210900
vt 0.304700 0.265600
vt 0.250000 0.160200
vt 0.257800 0.109400
vt 0.242200 0.109400
vt 0.242200 0.109400
vt 0.257800 0.109400
vt 0.242200 0.109400
vt 0.992200 0.664100
vt 0.992200 0.800800
vt 0.171900 0.531300
vt 0.164100 0.703100
vt 0.117200 0.531300
vt 0.203100 0.707000
vt 0.210900 0.746100
vt 0.335900 0.777300
vt 0.062500 0.003900
vt 0.093800 0.003900
vt 0.078100 0.531300
vt 0.007800 0.531300
vt 0.101600 0.703100
vt 0.132800 0.765600
vt 0.210900 0.789100
vt 0.296900 0.781300
vt 0.007800 0.003900
vt 0.062500 0.003900
vt 0.992200 0.843800
vt 0.992200 0.882800
vt 0.992200 0.918000
vt 0.992200 0.957000
vt 0.007800 0.871100
vt 0.085900 0.964800
vt 0.007800 0.960900
vt 0.085900 0.964800
vt 0.156300 0.871100
vt 0.109400 0.976600
vt 0.203100 0.875000
vt 0.109400 0.976600
vt 0.156300 0.871100
vt 0.203100 0.875000
vt 0.617200 0.859400
vt 0.734400 0.855500
vt 0.789100 0.800800
vt 0.546900 0.808600
vt 0.992200 0.636700
vt 0.992200 0.496100
vt 0.992200 0.347700
vt 0.273400 0.441400
vt 0.273400 0.523400
vt 0.234400 0.878900
vt 0.546900 0.906300
vt 0.992200 0.496100
vt 0.632800 0.691400
vt 0.343800 0.691400
vt 0.421900 0.765600
vt 0.570300 0.199200
vt 0.375000 0.199200
vt 0.414100 0.164100
vt 0.562500 0.257800
vt 0.710900 0.175800
vt 0.718800 0.312500
vt 0.781300 0.214800
vt 0.007800 0.976600
vt 0.125000 0.992200
vt 0.078100 0.968800
vt 0.421900 0.765600
vt 0.992200 0.597700
vt 0.992200 0.437500
vt 0.992200 0.769500
vt 0.992200 0.496100
vt 0.992200 0.636700
vt 0.992200 0.769500
vt 0.812500 0.226600
vt 0.843800 0.281300
vt 0.914100 0.218800
vt 0.343800 0.250000
vt 0.343800 0.226600
vt 0.546900 0.472700
vt 0.500000 0.468800
vt 0.570300 0.492200
vt 0.578100 0.539100
vt 0.570300 0.550800
vt 0.531300 0.566400
vt 0.695300 0.328100
vt 0.359400 0.918000
vt 0.257800 0.433600
vt 0.257800 0.523400
vt 0.773400 0.886700
vt 0.609400 0.859400
vt 0.726600 0.843800
vt 0.570300 0.898400
vt 0.273400 0.523400
vt 0.757800 0.781300
vt 0.539100 0.808600
vt 0.257800 0.507800
vt 0.257800 0.523400
vt 0.500000 0.914100
vt 0.257800 0.433600
vt 0.343800 0.824200
vt 0.453100 0.882800
vt 0.343800 0.882800
vt 0.429700 0.847700
vt 0.078100 0.968800
vt 0.125000 0.992200
vt 0.914100 0.050800
vt 0.554700 0.015600
vt 0.570300 0.078100
vt 0.304700 0.320300
vt 0.226600 0.265600
vt 0.257800 0.109400
vt 0.343800 0.824200
vt 0.429700 0.847700
vt 0.164100 0.703100
vt 0.171900 0.531300
vt 0.117200 0.531300
vt 0.203100 0.707000
vt 0.210900 0.746100
vt 0.078100 0.531300
vt 0.093800 0.003900
vt 0.101600 0.703100
vt 0.132800 0.765600
vt 0.210900 0.789100
vt 0.148400 0.207000
vt 0.148400 0.207000
vt 0.296900 0.781300
vt 0.335900 0.777300
vt 0.234400 0.878900
vt 0.437500 0.320300
vt 0.421900 0.289100
vt 0.562500 0.304700
vt 0.648400 0.320300
vt 0.570300 0.113300
vt 0.546900 0.785200
vt 0.773400 0.757800
vt 0.757800 0.757800
vt 0.531300 0.785200
vt 0.007800 0.796900
vt 0.007800 0.703100
vt 0.992200 0.230500
vt 0.992200 0.394500
vt 0.992200 0.664100
vt 0.992200 0.800800
vt 0.992200 0.843800
vt 0.992200 0.957000
vt 0.992200 0.918000
vt 0.992200 0.882800
usemtl w21gn14_TEX_w21gn14
s 1
f 1/1 2/2 3/3
f 1/1 3/3 4/4
f 4/5 3/6 5/7
f 2/2 6/8 7/9
f 2/2 7/9 3/3
f 8/10 9/11 10/12
f 9/11 8/10 11/13
f 11/13 12/14 9/11
f 12/14 11/13 13/15
f 13/15 14/16 12/14
f 14/16 13/15 15/17
f 16/18 10/19 9/20
f 10/19 16/18 17/21
f 16/18 9/20 12/22
f 16/18 12/22 14/23
f 18/24 1/1 4/4
f 1/1 18/24 19/25
f 20/26 19/25 18/24
f 19/25 20/26 21/27
f 22/28 21/27 20/26
f 23/29 18/30 24/31
f 18/30 23/29 20/32
f 25/33 20/32 23/29
f 20/32 25/33 26/34
f 27/35 5/36 28/37
f 5/36 27/35 24/31
f 29/38 24/31 27/35
f 24/31 29/38 23/29
f 30/39 23/29 29/38
f 23/29 30/39 25/33
f 31/40 25/33 30/39
f 32/41 28/37 33/42
f 28/37 32/41 27/35
f 29/38 27/35 32/41
f 34/43 25/33 31/40
f 22/28 20/26 26/44
f 35/45 36/46 37/47
f 36/46 35/45 38/48
f 39/49 38/48 35/45
f 38/48 39/49 40/50
f 41/51 42/52 43/53
f 42/52 41/51 44/54
f 45/55 44/54 41/51
f 44/56 46/57 47/58
f 46/57 44/56 48/59
f 44/56 47/58 42/60
f 49/61 43/62 50/63
f 51/64 49/61 50/63
f 50/63 52/65 51/64
f 53/66 54/67 55/68
f 54/67 53/66 52/65
f 51/64 52/65 53/66
f 56/69 41/70 57/71
f 57/72 43/62 49/61
f 40/50 34/43 31/40
f 38/48 40/50 31/40
f 31/40 36/46 38/48
f 40/50 58/73 26/34
f 34/43 40/50 26/34
f 26/34 25/33 34/43
f 59/74 22/28 26/44
f 59/74 26/44 58/75
f 47/58 59/74 58/75
f 47/58 58/75 42/60
f 41/70 43/76 57/71
f 50/77 43/53 42/52
f 50/77 42/52 58/78
f 60/79 39/80 61/81
f 52/82 50/83 39/84
f 52/82 39/84 60/85
f 62/86 61/87 63/88
f 61/87 37/47 63/88
f 62/89 60/79 61/81
f 64/90 65/91 66/92
f 65/91 64/90 67/93
f 68/94 67/93 64/90
f 55/68 54/67 69/95
f 70/96 55/68 69/95
f 69/95 71/97 70/96
f 72/98 70/96 71/97
f 71/97 73/99 72/98
f 73/99 71/97 74/100
f 75/101 71/102 69/103
f 69/103 54/104 75/101
f 60/85 75/101 54/104
f 71/102 75/101 76/105
f 77/106 67/107 68/108
f 75/109 77/106 68/108
f 75/109 78/110 79/111
f 78/110 75/109 68/108
f 75/109 79/111 80/112
f 75/109 80/112 76/113
f 81/114 76/115 80/116
f 76/115 81/114 82/117
f 83/118 82/117 81/114
f 82/117 83/118 84/119
f 85/120 84/119 83/118
f 84/119 85/120 86/121
f 87/122 86/121 85/120
f 86/121 87/122 88/123
f 82/124 89/125 76/126
f 89/125 82/124 90/127
f 84/128 90/127 82/124
f 90/127 84/128 91/129
f 86/130 91/129 84/128
f 91/129 86/130 92/131
f 88/132 92/131 86/130
f 92/131 88/132 93/133
f 94/134 93/133 88/132
f 93/133 94/134 95/135
f 96/136 97/137 98/138
f 97/137 96/136 99/139
f 100/140 96/136 98/138
f 98/138 101/141 100/140
f 102/142 100/140 101/141
f 101/141 103/143 102/142
f 104/144 102/142 103/143
f 103/143 105/145 104/144
f 106/146 104/144 105/145
f 105/145 107/147 106/146
f 104/144 100/140 102/142
f 100/140 104/144 108/148
f 106/146 108/148 104/144
f 108/148 106/146 109/149
f 108/148 96/136 100/140
f 96/136 108/148 110/150
f 109/149 110/150 108/148
f 110/150 109/149 111/151
f 112/152 109/153 106/154
f 106/154 107/155 112/152
f 113/156 112/152 107/155
f 107/155 111/157 113/156
f 114/158 113/156 111/157
f 111/157 109/153 115/159
f 115/159 109/153 112/152
f 112/152 116/160 115/159
f 111/157 115/159 114/158
f 114/158 115/159 117/161
f 117/161 113/156 114/158
f 118/162 119/163 120/164
f 119/163 118/162 121/165
f 122/166 121/165 118/162
f 121/165 122/166 123/167
f 124/168 120/169 125/170
f 120/169 124/168 118/171
f 126/172 118/171 124/168
f 118/171 126/172 122/173
f 127/174 122/173 126/172
f 122/173 127/174 128/175
f 122/166 128/176 129/177
f 123/167 122/166 129/177
f 129/177 126/178 123/167
f 121/165 123/167 126/178
f 126/178 124/179 121/165
f 119/163 121/165 124/179
f 124/179 125/180 119/163
f 129/177 128/176 130/181
f 130/181 127/182 129/177
f 97/137 73/183 74/184
f 73/183 97/137 131/185
f 97/137 74/184 98/138
f 98/138 76/186 89/187
f 101/141 98/138 89/187
f 89/187 99/139 101/141
f 63/188 37/47 36/46
f 62/189 132/190 133/191
f 132/190 62/189 63/188
f 63/188 36/46 132/190
f 134/192 135/193 44/54
f 134/192 44/54 45/55
f 135/194 48/195 44/196
f 48/195 135/194 136/197
f 137/198 135/193 134/192
f 135/194 137/199 136/197
f 138/200 140/201 139/202
f 139/202 65/203 138/200
f 141/204 138/200 65/203
f 65/203 62/205 141/204
f 133/206 141/204 62/205
f 142/207 65/91 139/208
f 65/91 142/207 66/92
f 143/209 142/207 139/208
f 144/210 143/211 140/212
f 143/211 144/210 145/213
f 140/201 138/200 146/214
f 140/201 146/214 147/215
f 144/216 140/201 147/215
f 140/212 143/211 139/217
f 148/218 146/219 149/220
f 146/214 150/221 147/215
f 150/221 146/214 148/222
f 151/223 148/222 152/224
f 148/222 151/223 150/221
f 152/225 148/218 149/220
f 152/225 149/220 153/226
f 154/227 151/223 152/224
f 151/223 154/227 153/228
f 152/225 153/226 154/229
f 33/230 5/231 155/232
f 155/232 156/233 33/230
f 157/234 33/230 156/233
f 5/231 33/230 28/235
f 39/236 35/237 61/87
f 56/238 45/55 41/51
f 45/55 56/238 158/239
f 159/240 160/241 156/242
f 156/242 7/243 159/240
f 8/10 10/12 17/244
f 161/245 8/10 17/244
f 17/244 162/246 161/245
f 163/247 161/245 162/246
f 162/246 14/16 163/247
f 163/247 14/16 15/17
f 16/18 162/248 17/21
f 162/248 16/18 14/23
f 164/249 165/250 166/251
f 165/250 164/249 160/252
f 166/251 165/250 167/253
f 157/254 156/255 168/256
f 168/256 32/41 157/254
f 164/249 168/256 156/255
f 168/256 164/249 169/257
f 166/251 169/257 164/249
f 169/257 166/251 170/258
f 171/259 170/258 166/251
f 170/258 171/259 172/260
f 173/261 172/260 171/259
f 157/254 32/41 33/42
f 18/30 4/262 5/36
f 18/30 5/36 24/31
f 164/249 156/255 160/252
f 174/263 171/259 167/253
f 171/259 174/263 173/261
f 133/191 173/261 174/263
f 133/191 172/260 173/261
f 172/260 133/191 132/190
f 133/191 174/263 141/264
f 35/237 37/47 61/87
f 87/122 175/265 94/266
f 87/122 94/266 88/123
f 54/104 52/82 60/85
f 117/161 115/159 116/160
f 127/174 130/267 128/175
f 60/85 62/268 65/269
f 60/85 65/269 67/270
f 75/101 60/85 67/270
f 75/101 67/270 77/271
f 74/184 76/186 98/138
f 74/272 71/102 76/105
f 5/7 3/6 7/243
f 7/243 155/273 5/7
f 155/273 7/243 156/242
f 50/77 58/78 40/274
f 50/77 40/274 39/275
f 78/110 68/108 79/111
f 171/259 166/251 167/253
f 176/276 31/40 30/39
f 30/39 177/277 176/276
f 170/258 176/276 177/277
f 176/276 170/258 172/260
f 29/38 177/277 30/39
f 177/277 29/38 32/41
f 177/277 169/257 170/258
f 169/257 177/277 168/256
f 177/277 32/41 168/256
f 36/46 176/276 172/260
f 176/276 36/46 31/40
f 36/46 172/260 132/190
f 178/278 159/279 179/280
f 159/279 178/278 160/281
f 179/280 7/9 6/8
f 7/9 179/280 159/279
f 178/278 165/282 160/281
f 180/283 165/282 178/278
f 165/282 180/283 167/284
f 181/285 167/284 180/283
f 182/286 167/284 181/285
f 167/284 182/286 174/287
f 183/288 174/287 182/286
f 174/287 183/288 141/289
f 184/290 141/289 183/288
f 141/289 184/290 138/291
f 146/292 138/291 184/290
f 146/292 184/290 185/293
f 146/292 185/293 149/294
f 1/1 186/295 2/2
f 186/295 1/1 187/296
f 186/297 187/298 188/299
f 188/299 189/300 186/297
f 2/2 189/301 6/8
f 189/301 2/2 186/295
f 190/302 191/303 192/304
f 191/303 190/302 193/305
f 194/306 190/302 192/304
f 192/304 195/307 194/306
f 196/308 194/306 195/307
f 195/307 197/309 196/308
f 198/310 196/308 197/309
f 197/309 199/311 198/310
f 200/312 192/313 191/314
f 192/313 200/312 195/315
f 200/312 197/316 195/315
f 197/316 200/312 201/317
f 1/1 202/318 187/296
f 19/25 202/318 1/1
f 202/318 19/25 203/319
f 21/27 203/319 19/25
f 202/320 204/321 205/322
f 203/323 204/321 202/320
f 204/321 203/323 206/324
f 207/325 206/324 203/323
f 208/326 188/327 209/328
f 209/328 210/329 208/326
f 205/322 209/328 188/327
f 209/328 205/322 211/330
f 204/321 211/330 205/322
f 211/330 204/321 212/331
f 206/324 212/331 204/321
f 212/331 206/324 213/332
f 214/333 213/332 206/324
f 215/334 208/326 210/329
f 210/329 216/335 215/334
f 22/28 203/319 21/27
f 203/319 22/28 207/336
f 59/74 207/336 22/28
f 207/336 59/74 217/337
f 47/58 217/337 59/74
f 217/337 47/58 218/338
f 219/339 218/338 47/58
f 220/340 222/341 221/342
f 221/342 223/343 220/340
f 224/344 220/340 223/343
f 223/343 225/345 224/344
f 226/346 224/344 225/345
f 227/347 228/348 229/349
f 228/348 227/347 222/341
f 222/341 220/340 228/348
f 218/350 158/239 230/351
f 230/351 231/352 218/350
f 217/353 218/350 231/352
f 219/339 47/58 46/57
f 219/339 46/57 48/59
f 49/61 231/354 230/355
f 231/354 49/61 51/64
f 53/66 55/68 232/356
f 158/357 56/69 57/71
f 57/71 230/358 158/357
f 57/72 49/61 230/355
f 229/349 213/332 214/333
f 213/332 229/349 228/348
f 229/349 207/325 217/359
f 207/325 229/349 214/333
f 158/239 218/350 219/360
f 51/64 233/361 231/354
f 233/361 51/64 53/66
f 234/362 235/363 227/364
f 233/365 227/366 231/367
f 227/366 233/365 234/368
f 232/369 234/368 233/365
f 234/368 232/369 79/370
f 236/371 79/370 232/369
f 235/372 225/373 223/374
f 223/374 221/342 235/372
f 225/375 235/363 234/362
f 237/376 64/90 66/92
f 66/92 142/207 237/376
f 238/377 237/376 142/207
f 142/207 143/209 238/377
f 64/90 237/376 239/378
f 55/68 236/379 232/356
f 236/379 55/68 70/96
f 70/96 240/380 236/379
f 240/380 70/96 72/98
f 73/99 240/380 72/98
f 240/380 73/99 131/381
f 53/66 232/356 233/361
f 240/382 79/370 236/371
f 79/370 240/382 80/383
f 131/384 80/383 240/382
f 241/385 68/108 239/386
f 68/94 64/90 239/378
f 89/125 81/387 80/388
f 90/127 81/387 89/125
f 81/387 90/127 83/389
f 91/129 83/389 90/127
f 83/389 91/129 85/390
f 92/131 85/390 91/129
f 85/390 92/131 87/391
f 93/133 87/391 92/131
f 87/391 93/133 175/392
f 95/135 175/392 93/133
f 96/136 103/143 99/139
f 103/143 96/136 105/145
f 110/150 105/145 96/136
f 105/145 110/150 107/147
f 111/151 107/147 110/150
f 103/143 101/141 99/139
f 113/156 116/160 112/152
f 126/178 129/177 127/182
f 131/185 97/137 99/139
f 99/139 80/393 131/185
f 99/139 89/187 80/393
f 134/192 219/360 136/394
f 219/360 134/192 45/55
f 136/395 219/396 48/195
f 137/198 134/192 136/394
f 145/397 242/398 238/399
f 242/398 145/397 243/400
f 243/400 145/397 147/215
f 147/215 150/221 243/400
f 144/216 147/215 145/397
f 145/213 238/401 143/211
f 237/402 238/399 242/398
f 237/402 242/398 244/403
f 245/404 149/220 243/405
f 245/406 243/400 150/221
f 150/221 151/223 245/406
f 153/228 245/406 151/223
f 153/407 149/220 245/404
f 188/408 215/409 246/410
f 215/409 188/408 208/411
f 222/412 227/413 235/372
f 235/372 221/342 222/412
f 45/55 158/239 219/360
f 247/414 248/415 249/416
f 190/302 250/417 193/305
f 250/417 201/418 193/305
f 201/418 250/417 199/311
f 199/311 197/309 201/418
f 200/312 191/314 193/419
f 200/312 193/419 201/317
f 249/420 246/410 215/409
f 249/420 215/409 216/421
f 251/422 252/423 253/424
f 252/423 251/422 254/425
f 255/426 254/425 251/422
f 256/427 249/428 216/335
f 249/428 256/427 253/424
f 257/429 253/424 256/427
f 253/424 257/429 251/422
f 258/430 251/422 257/429
f 251/422 258/430 255/426
f 259/431 255/426 258/430
f 210/329 256/427 216/335
f 202/320 188/327 187/432
f 188/327 202/320 205/322
f 253/424 247/433 249/428
f 247/433 253/424 252/423
f 260/434 255/426 259/431
f 261/435 254/425 255/426
f 261/435 255/426 260/434
f 226/346 260/434 259/431
f 224/344 226/346 259/431
f 259/431 220/340 224/344
f 226/346 244/436 261/435
f 226/346 261/435 260/434
f 117/161 116/160 113/156
f 234/368 237/437 225/438
f 237/437 234/368 239/439
f 79/370 239/439 234/368
f 239/439 79/370 241/440
f 246/441 189/300 188/299
f 189/300 246/441 249/416
f 248/415 189/300 249/416
f 231/352 229/442 217/353
f 229/442 231/352 227/443
f 225/444 244/403 226/445
f 244/403 225/444 237/402
f 206/324 207/325 214/333
f 212/331 213/332 262/446
f 262/446 263/447 212/331
f 211/330 212/331 263/447
f 263/447 210/329 211/330
f 262/446 259/431 258/430
f 263/447 258/430 257/429
f 258/430 263/447 262/446
f 263/447 256/427 210/329
f 256/427 263/447 257/429
f 211/330 210/329 209/328
f 220/340 259/431 262/446
f 220/340 213/332 228/348
f 213/332 220/340 262/446
f 178/278 179/280 248/448
f 178/278 248/448 247/449
f 179/280 6/8 189/301
f 179/280 189/301 248/448
f 252/450 178/278 247/449
f 178/278 252/450 180/283
f 254/451 180/283 252/450
f 180/283 254/451 181/285
f 182/286 181/285 254/451
f 182/286 254/451 261/452
f 243/453 185/293 184/290
f 185/293 243/453 149/294
f 243/453 184/290 242/454
f 183/288 182/286 261/452
f 183/288 261/452 244/455
f 184/290 183/288 244/455
f 184/290 244/455 242/454
f 68/108 241/385 79/111
