# Blender v2.79 (sub 0) OBJ File: ''
# www.blender.org
mtllib w21kt10.mtl
o MDL_shadow00_w21kt10
v 0.018100 0.217900 -0.021500
v 0.018100 0.072600 -0.024700
v 0.018100 0.102000 -0.080600
v 0.018100 0.217600 0.008200
v 0.018100 0.416700 0.017200
v 0.018100 -0.008000 -0.009700
v 0.018100 0.416700 -0.050300
v 0.018100 0.615700 0.109100
v 0.018100 0.615700 -0.020600
v 0.018100 0.814800 0.064700
v 0.018100 0.814800 -0.060300
v 0.018100 1.013900 0.093800
v 0.018100 1.013900 -0.051200
v 0.018100 1.213900 0.074700
v 0.018100 1.212000 -0.046500
v 0.018100 1.438900 -0.070900
v 0.018100 1.485700 -0.037800
v 0.018100 1.602000 -0.126800
v -0.006900 0.217900 -0.021500
v -0.006900 0.072600 -0.024700
v -0.006900 0.102000 -0.080600
v -0.006900 0.217600 0.008200
v -0.006900 -0.008000 -0.009700
v -0.006900 0.416700 0.017200
v -0.006900 0.416700 -0.050300
v -0.006900 0.615700 0.109100
v -0.006900 0.615700 -0.020600
v -0.006900 0.814800 0.064700
v -0.006900 0.814800 -0.060300
v -0.006900 1.013900 0.093800
v -0.006900 1.013900 -0.051200
v -0.006900 1.213900 0.074700
v -0.006900 1.212000 -0.046500
v -0.006900 1.485700 -0.037800
v -0.006900 1.438900 -0.070900
v -0.006900 1.602000 -0.126800
v 0.010000 0.633900 0.017800
v 0.010000 0.609200 -0.002200
v 0.006600 0.774200 -0.192200
v 0.003100 0.609200 -0.002200
v 0.003100 0.633900 0.017800
v 0.010000 0.618500 0.035000
v 0.010000 0.558200 0.041600
v 0.006600 0.580400 -0.155900
v 0.003100 0.558200 0.041600
v 0.003100 0.618500 0.035000
v 0.010000 0.592300 0.016900
v 0.010000 0.544800 0.054400
v 0.006600 0.489200 -0.087500
v 0.003100 0.544800 0.054400
v 0.003100 0.592300 0.016900
v 0.010000 0.587000 0.031000
v 0.010000 0.598900 0.090300
v 0.006600 0.307300 0.085300
v 0.003100 0.598900 0.090300
v 0.003100 0.587000 0.031000
v 0.010000 0.545100 0.032500
v 0.010000 0.589500 0.073800
v 0.006600 0.419500 0.188500
v 0.003100 0.589500 0.073800
v 0.003100 0.545100 0.032500
v 0.010000 0.569500 0.050000
v 0.010000 0.606400 0.037500
v 0.006600 0.615100 0.157500
v 0.003100 0.606400 0.037500
v 0.003100 0.569500 0.050000
vt 0.000000 1.000000
vt 0.000000 1.000000
vt 0.000000 1.000000
vt 0.000000 1.000000
vt 0.000000 1.000000
vt 0.000000 1.000000
vt 0.000000 1.000000
vt 0.000000 1.000000
vt 0.000000 1.000000
vt 0.000000 1.000000
vt 0.000000 1.000000
vt 0.000000 1.000000
vt 0.000000 1.000000
vt 0.000000 1.000000
vt 0.000000 1.000000
vt 0.000000 1.000000
vt 0.000000 1.000000
vt 0.000000 1.000000
vt 0.000000 1.000000
vt 0.000000 1.000000
vt 0.000000 1.000000
vt 0.000000 1.000000
vt 0.000000 1.000000
vt 0.000000 1.000000
vt 0.000000 1.000000
vt 0.000000 1.000000
vt 0.000000 1.000000
vt 0.000000 1.000000
vt 0.000000 1.000000
vt 0.000000 1.000000
vt 0.000000 1.000000
vt 0.000000 1.000000
vt 0.000000 1.000000
vt 0.000000 1.000000
vt 0.000000 1.000000
vt 0.000000 1.000000
vt 0.000000 1.000000
vt 0.000000 1.000000
vt 0.000000 1.000000
vt 0.000000 1.000000
vt 0.000000 1.000000
vt 0.000000 1.000000
vt 0.000000 1.000000
vt 0.000000 1.000000
vt 0.000000 1.000000
vt 0.000000 1.000000
vt 0.000000 1.000000
vt 0.000000 1.000000
vt 0.000000 1.000000
vt 0.000000 1.000000
vt 0.000000 1.000000
vt 0.000000 1.000000
vt 0.000000 1.000000
vt 0.000000 1.000000
vt 0.000000 1.000000
vt 0.000000 1.000000
vt 0.000000 1.000000
vt 0.000000 1.000000
vt 0.000000 1.000000
vt 0.000000 1.000000
vt 0.000000 1.000000
vt 0.000000 1.000000
vt 0.000000 1.000000
vt 0.000000 1.000000
vt 0.000000 1.000000
vt 0.000000 1.000000
vn 0.8120 0.1553 -0.5626
vn 0.7390 -0.3082 -0.5990
vn 0.4065 -0.5349 -0.7407
vn 0.7071 -0.0399 0.7059
vn 0.7130 -0.2100 0.6690
vn 0.6840 -0.2333 0.6912
vn 0.7105 -0.0330 -0.7030
vn 0.7238 0.0039 0.6900
vn 0.7118 0.0237 -0.7020
vn 0.7123 -0.0170 0.7017
vn 0.7094 -0.0817 -0.7000
vn 0.7094 0.0108 0.7048
vn 0.7071 0.0271 -0.7065
vn 0.7106 0.2037 0.6735
vn 0.7078 -0.0140 -0.7063
vn 0.5568 -0.1498 -0.8170
vn 0.7098 0.3780 0.5944
vn 0.6732 -0.0274 -0.7390
vn -0.8120 0.0340 -0.5826
vn -0.4065 0.0095 -0.9136
vn -0.7390 -0.4811 -0.4715
vn -0.7071 -0.0479 0.7054
vn -0.6840 -0.3043 -0.6630
vn -0.7130 -0.1211 0.6906
vn -0.7105 0.0360 -0.7028
vn -0.7238 -0.1498 0.6736
vn -0.7118 -0.0578 -0.7000
vn -0.7123 0.0690 0.6985
vn -0.7094 -0.0247 -0.7044
vn -0.7094 -0.0459 0.7033
vn -0.7071 0.0220 -0.7067
vn -0.7106 0.1356 0.6904
vn -0.7078 -0.0448 -0.7050
vn -0.7098 0.3247 0.6251
vn -0.5568 -0.2103 -0.8036
vn -0.6732 0.5999 0.4323
vn 0.5983 0.1261 0.7913
vn 0.4149 -0.8319 0.3685
vn 0.0002 0.6114 -0.7914
vn -0.5868 -0.8072 0.0649
vn -0.4233 -0.1770 0.8885
vn 0.5983 0.6508 0.4673
vn 0.4444 -0.3459 0.8264
vn 0.0000 -0.0494 -0.9988
vn -0.6282 -0.5572 0.5431
vn -0.4233 0.5065 0.7512
vn 0.6043 0.7958 0.0386
vn 0.4583 0.1347 0.8785
vn 0.0000 -0.5530 -0.8332
vn -0.6474 -0.2113 0.7323
vn -0.4276 0.8280 0.3628
vn 0.5784 0.4501 -0.6803
vn 0.4426 0.8553 0.2695
vn 0.0002 -0.9950 0.0997
vn -0.6257 0.5953 0.5041
vn -0.4091 0.7192 -0.5616
vn 0.5948 -0.0651 -0.8013
vn 0.4455 0.8511 -0.2776
vn 0.0000 -0.7305 0.6829
vn -0.6298 0.7737 0.0690
vn -0.4208 0.2404 -0.8747
vn 0.5977 -0.7367 -0.3163
vn 0.4519 0.1651 -0.8767
vn 0.0001 0.2479 0.9688
vn -0.6383 0.4382 -0.6329
vn -0.4229 -0.6569 -0.6242
usemtl TEX_w21kt10
s 1
f 1/1/1 2/2/2 3/3/3
f 4/4/4 2/2/2 1/1/1
f 1/1/1 5/5/5 4/4/4
f 4/4/4 6/6/6 2/2/2
f 5/5/5 1/1/1 7/7/7
f 7/7/7 8/8/8 5/5/5
f 8/8/8 7/7/7 9/9/9
f 9/9/9 10/10/10 8/8/8
f 10/10/10 9/9/9 11/11/11
f 11/11/11 12/12/12 10/10/10
f 12/12/12 11/11/11 13/13/13
f 13/13/13 14/14/14 12/12/12
f 13/13/13 15/15/15 14/14/14
f 15/15/15 16/16/16 17/17/17
f 15/15/15 17/17/17 14/14/14
f 16/16/16 18/18/18 17/17/17
f 19/19/19 21/20/20 20/21/21
f 20/21/21 22/22/22 19/19/19
f 20/21/21 23/23/23 22/22/22
f 24/24/24 19/19/19 22/22/22
f 19/19/19 24/24/24 25/25/25
f 26/26/26 25/25/25 24/24/24
f 25/25/25 26/26/26 27/27/27
f 28/28/28 27/27/27 26/26/26
f 27/27/27 28/28/28 29/29/29
f 30/30/30 29/29/29 28/28/28
f 29/29/29 30/30/30 31/31/31
f 32/32/32 31/31/31 30/30/30
f 31/31/31 32/32/32 33/33/33
f 34/34/34 35/35/35 33/33/33
f 35/35/35 34/34/34 36/36/36
f 32/32/32 34/34/34 33/33/33
f 20/21/21 3/3/3 2/2/2
f 2/2/2 23/23/23 20/21/21
f 20/21/21 21/20/20 3/3/3
f 2/2/2 6/6/6 23/23/23
f 22/22/22 6/6/6 4/4/4
f 4/4/4 24/24/24 22/22/22
f 22/22/22 23/23/23 6/6/6
f 24/24/24 4/4/4 5/5/5
f 5/5/5 26/26/26 24/24/24
f 26/26/26 5/5/5 8/8/8
f 8/8/8 28/28/28 26/26/26
f 28/28/28 8/8/8 10/10/10
f 10/10/10 30/30/30 28/28/28
f 30/30/30 10/10/10 12/12/12
f 12/12/12 32/32/32 30/30/30
f 12/12/12 14/14/14 32/32/32
f 34/34/34 14/14/14 17/17/17
f 17/17/17 36/36/36 34/34/34
f 34/34/34 32/32/32 14/14/14
f 17/17/17 18/18/18 36/36/36
f 35/35/35 18/18/18 16/16/16
f 16/16/16 33/33/33 35/35/35
f 35/35/35 36/36/36 18/18/18
f 33/33/33 16/16/16 15/15/15
f 15/15/15 31/31/31 33/33/33
f 31/31/31 15/15/15 13/13/13
f 13/13/13 29/29/29 31/31/31
f 29/29/29 13/13/13 11/11/11
f 11/11/11 27/27/27 29/29/29
f 27/27/27 11/11/11 9/9/9
f 9/9/9 25/25/25 27/27/27
f 25/25/25 9/9/9 7/7/7
f 7/7/7 19/19/19 25/25/25
f 19/19/19 7/7/7 1/1/1
f 1/1/1 21/20/20 19/19/19
f 1/1/1 3/3/3 21/20/20
f 37/37/37 38/38/38 39/39/39
f 39/39/39 40/40/40 41/41/41
f 39/39/39 38/38/38 40/40/40
f 41/41/41 38/38/38 37/37/37
f 38/38/38 41/41/41 40/40/40
f 39/39/39 41/41/41 37/37/37
f 42/42/42 43/43/43 44/44/44
f 44/44/44 45/45/45 46/46/46
f 44/44/44 43/43/43 45/45/45
f 46/46/46 43/43/43 42/42/42
f 43/43/43 46/46/46 45/45/45
f 44/44/44 46/46/46 42/42/42
f 47/47/47 48/48/48 49/49/49
f 49/49/49 50/50/50 51/51/51
f 49/49/49 48/48/48 50/50/50
f 51/51/51 48/48/48 47/47/47
f 48/48/48 51/51/51 50/50/50
f 49/49/49 51/51/51 47/47/47
f 52/52/52 53/53/53 54/54/54
f 54/54/54 55/55/55 56/56/56
f 54/54/54 53/53/53 55/55/55
f 56/56/56 53/53/53 52/52/52
f 53/53/53 56/56/56 55/55/55
f 54/54/54 56/56/56 52/52/52
f 57/57/57 58/58/58 59/59/59
f 59/59/59 60/60/60 61/61/61
f 59/59/59 58/58/58 60/60/60
f 61/61/61 58/58/58 57/57/57
f 58/58/58 61/61/61 60/60/60
f 59/59/59 61/61/61 57/57/57
f 62/62/62 63/63/63 64/64/64
f 64/64/64 65/65/65 66/66/66
f 64/64/64 63/63/63 65/65/65
f 66/66/66 63/63/63 62/62/62
f 63/63/63 66/66/66 65/65/65
f 64/64/64 66/66/66 62/62/62
o MDL_w21kt10_body
v 0.000000 0.209100 0.011900
v 0.015600 0.260900 -0.001900
v 0.000000 0.260900 0.018100
v 0.000000 0.158400 -0.006900
v 0.015600 0.164700 -0.025600
v 0.015600 0.213400 -0.006900
v 0.000000 0.260900 -0.021900
v 0.000000 0.217800 -0.026200
v 0.000000 0.170900 -0.044400
v -0.015600 0.164700 -0.025600
v -0.015600 0.213400 -0.006900
v 0.015600 0.309700 -0.011300
v 0.000000 0.315900 0.007500
v 0.000000 0.304100 -0.030600
v 0.016200 0.354700 -0.026200
v 0.000000 0.357800 -0.006300
v 0.000000 0.350900 -0.046300
v 0.016900 0.410300 -0.028100
v 0.000000 0.405900 -0.006900
v 0.000000 0.414700 -0.049400
v 0.000000 0.411600 0.000000
v 0.021900 0.432800 -0.022500
v 0.000000 0.427200 0.003700
v 0.021900 0.417200 -0.026200
v 0.000000 0.438400 -0.049400
v 0.000000 0.422800 -0.053100
v 0.000000 0.434700 0.002500
v 0.018800 0.439700 -0.020600
v -0.018800 0.439700 -0.020600
v -0.021300 0.432800 -0.022500
v 0.000000 0.444100 -0.044400
v 0.000000 0.150900 -0.003700
v 0.020600 0.159100 -0.028100
v 0.000000 0.132800 -0.011300
v 0.020600 0.140900 -0.035600
v 0.000000 0.128400 -0.016900
v 0.017500 0.135300 -0.037500
v 0.000000 0.167200 -0.051900
v 0.000000 0.149100 -0.060000
v 0.000000 0.142800 -0.058700
v 0.018100 0.120900 -0.044400
v 0.000000 0.126600 -0.069400
v 0.018800 0.107200 -0.054400
v 0.000000 0.102800 -0.089400
v 0.000000 0.046600 -0.008100
v 0.000000 0.069700 -0.018100
v 0.008800 0.047800 0.000000
v -0.008100 0.047800 0.000000
v 0.000000 -0.007800 -0.006900
v 0.000000 0.084100 -0.036900
v 0.014400 0.078400 -0.007500
v -0.013700 0.078400 -0.007500
v 0.018100 0.097200 -0.025000
v -0.018800 0.107200 -0.054400
v -0.017500 0.120900 -0.044400
v 0.000000 0.112800 -0.017500
v 0.000000 0.085300 0.000600
v 0.000000 0.049700 0.006300
v -0.017500 0.135300 -0.037500
v 0.000000 0.520900 0.008100
v -0.013100 0.510300 0.015600
v 0.000000 0.511600 -0.000600
v -0.013100 0.564100 0.014400
v 0.000000 0.563400 0.006900
v -0.013100 0.608400 0.013100
v 0.000000 0.610900 -0.002500
v -0.013100 0.664100 0.018800
v 0.000000 0.663400 0.000600
v 0.000000 0.570900 0.103100
v -0.012500 0.521600 0.079400
v 0.000000 0.521600 0.086200
v -0.012500 0.570900 0.094400
v 0.000000 0.615300 0.103700
v -0.012500 0.615300 0.094400
v -0.012500 0.669100 0.080600
v -0.012500 0.744100 0.056200
v -0.013100 0.739100 0.006900
v -0.012500 0.838400 0.037500
v -0.013100 0.834100 -0.039400
v 0.000000 0.669700 0.090000
v 0.012500 0.669100 0.080600
v 0.013700 0.614700 0.094400
v 0.000000 0.744700 0.071900
v 0.000000 0.839100 0.056200
v 0.000000 0.935900 0.075600
v -0.012500 0.951600 0.058700
v 0.000000 1.054700 0.088700
v -0.012500 1.053400 0.067500
v 0.000000 1.179100 0.071900
v 0.012500 0.744100 0.056200
v 0.012500 0.838400 0.037500
v 0.012500 0.951600 0.058700
v 0.012500 1.053400 0.067500
v 0.012500 1.160900 0.055600
v 0.011300 1.273400 0.031300
v 0.000000 1.276600 0.050600
v 0.010000 1.362200 0.005600
v 0.000000 1.367200 0.021900
v 0.009400 1.444100 -0.028100
v 0.000000 1.450300 -0.014400
v 0.006300 1.547800 -0.101300
v 0.000000 0.738400 -0.013700
v 0.000000 0.833400 -0.060000
v -0.013100 1.054100 -0.023700
v 0.000000 1.052800 -0.041300
v -0.011200 1.266600 -0.025000
v 0.000000 1.264100 -0.042500
v -0.010600 1.351600 -0.035600
v 0.000000 1.346600 -0.051200
v -0.009400 1.433400 -0.055600
v 0.000000 1.427800 -0.069400
v 0.000000 1.605300 -0.133100
v 0.010000 1.433400 -0.055600
v 0.013100 0.739100 0.001200
v 0.013100 0.834100 -0.039400
v 0.013100 1.054100 -0.023700
v 0.011300 1.266600 -0.025000
v 0.010600 1.351600 -0.035600
v -0.012500 1.162200 0.055600
v -0.010600 1.273400 0.031300
v -0.010000 1.362200 0.005600
v -0.009400 1.444100 -0.028100
v -0.005600 1.547800 -0.101300
v 0.011900 0.778400 -0.198100
v 0.013700 0.658400 -0.011300
v 0.027500 0.639100 -0.016200
v 0.013100 0.621600 -0.025600
v 0.001900 0.641600 -0.020000
v 0.013100 0.807800 -0.005000
v 0.023100 0.739100 0.014400
v 0.013100 0.741600 0.025600
v 0.029400 0.664700 0.016200
v 0.013100 0.666600 -0.001900
v 0.014400 0.582800 -0.149400
v 0.013700 0.605300 -0.026900
v 0.034400 0.587800 -0.021900
v 0.021300 0.567800 -0.026900
v 0.001900 0.583400 -0.027500
v 0.033800 0.589700 0.004400
v 0.013100 0.664700 0.031900
v 0.038800 0.492200 -0.086900
v 0.025000 0.550300 -0.019400
v 0.041300 0.544100 -0.005000
v 0.030600 0.525300 0.000000
v 0.014400 0.540300 -0.005000
v 0.015000 0.585900 0.015000
v 0.018800 0.555300 0.023100
v 0.037500 0.554700 0.015600
v 0.042500 0.460300 0.031300
v 0.034400 0.505900 0.025600
v 0.046300 0.508400 0.040000
v 0.034400 0.504700 0.049400
v 0.023700 0.505300 0.037500
v 0.040600 0.537800 0.049400
v 0.029400 0.542200 0.050600
v 0.031900 0.547800 0.085000
v 0.043100 0.512200 0.073700
v 0.043100 0.457800 0.083800
v 0.033800 0.505300 0.062500
v 0.028800 0.509100 0.087500
v 0.022500 0.502800 0.070600
v 0.032500 0.554700 0.099400
v 0.027500 0.548400 0.095000
v 0.043700 0.535900 0.130000
v 0.026900 0.559700 0.105600
v 0.022500 0.570300 0.100000
v 0.021900 0.552200 0.100600
v 0.018100 0.614700 0.150000
v 0.018800 0.594100 0.103700
v 0.021900 0.604700 0.097500
v 0.012500 0.597200 0.098800
v 0.040000 0.422800 0.183800
v 0.032500 0.522800 0.101300
v 0.021300 0.532800 0.110000
v 0.016900 0.522200 0.098100
v 0.028100 0.569700 0.093800
v 0.017500 0.634700 0.071900
v 0.015000 0.569700 0.096200
v 0.022500 0.457800 0.107500
v 0.012500 0.521600 0.079400
v 0.005600 0.570300 0.104400
v 0.013100 0.532800 0.015600
v 0.013100 0.510900 0.015000
v 0.013100 0.458400 -0.003700
v 0.013100 0.459700 -0.023700
v 0.000000 0.441600 0.009400
v 0.000000 0.442800 0.016900
v 0.000000 0.454700 -0.041300
v 0.000000 0.474100 -0.038800
v 0.000000 0.439100 0.021900
v 0.000000 0.426600 0.028100
v 0.010600 0.441600 0.031900
v -0.010000 0.441600 0.031900
v 0.013100 0.460900 0.010600
v 0.000000 0.441600 0.043100
v -0.012500 0.460900 0.040600
v 0.000000 0.455300 0.050600
v 0.012500 0.460900 0.040600
v 0.013700 0.483400 0.026900
v 0.013700 0.468400 0.053100
v -0.013100 0.460900 0.010600
v 0.000000 0.474700 0.004400
v 0.000000 0.473400 -0.005600
v 0.000000 0.487800 0.013700
v 0.000000 0.474100 -0.014400
v 0.000000 0.478400 -0.030000
v 0.000000 0.500900 0.008800
v 0.000000 0.458400 0.053800
v -0.013700 0.468400 0.053100
v -0.013100 0.483400 0.026900
v 0.013700 0.459700 0.076300
v 0.000000 0.454700 0.060600
v 0.013100 0.429100 0.075600
v 0.000000 0.441600 0.061900
v 0.000000 0.421600 0.085600
v -0.013700 0.459700 0.076300
v 0.000000 0.427800 0.046900
v 0.000000 0.415900 0.062500
v 0.000000 0.402200 0.066900
v 0.010000 0.404100 0.084400
v 0.000000 0.301600 0.080600
v 0.000000 0.404700 0.100000
v -0.010000 0.404100 0.084400
v 0.000000 0.437800 0.086200
v -0.013100 0.429100 0.075600
v 0.000000 0.442800 0.096200
v 0.000000 0.431600 0.110600
v 0.010000 0.456600 0.105000
v -0.009400 0.456600 0.105000
v 0.000000 0.460300 0.111200
v 0.000000 0.470300 0.101300
v -0.010600 0.466600 0.095000
v 0.011300 0.466600 0.095000
v -0.015600 0.260900 -0.001900
v -0.015600 0.309700 -0.011300
v -0.015600 0.354700 -0.026200
v -0.016900 0.410300 -0.028100
v -0.021300 0.417200 -0.026200
v -0.020000 0.159100 -0.028100
v -0.020000 0.140900 -0.035600
v -0.017500 0.097200 -0.025000
v -0.013100 0.458400 -0.003700
v -0.013100 0.459700 -0.023700
v 0.028100 0.562200 0.040000
v 0.016200 0.565900 0.030600
v 0.017500 0.573400 0.041900
v 0.020000 0.552800 0.030000
v 0.023700 0.547200 0.041900
v 0.025000 0.554100 0.053100
v 0.021900 0.567200 0.053100
v 0.020600 0.591600 0.029400
v 0.015000 0.595300 0.022500
v 0.015000 0.599700 0.030000
v 0.015600 0.586600 0.022500
v 0.016900 0.582200 0.030000
v 0.016900 0.587200 0.037500
v 0.016200 0.595300 0.037500
v 0.019400 0.619700 0.037500
v 0.013700 0.624100 0.031300
v 0.014400 0.627800 0.038100
v 0.014400 0.615900 0.031300
v 0.015000 0.611600 0.038100
v 0.015600 0.615900 0.045000
v 0.015600 0.624100 0.045000
vt 0.890600 0.781300
vt 0.523400 0.718800
vt 0.523400 0.781300
vt 0.890600 0.781300
vt 0.890600 0.718800
vt 0.523400 0.718800
vt 0.890600 0.718800
vt 0.523400 0.652300
vt 0.523400 0.652300
vt 0.890600 0.652300
vt 0.890600 0.718800
vt 0.523400 0.718800
vt 0.523400 0.781300
vt 0.890600 0.781300
vt 0.523400 0.718800
vt 0.523400 0.781300
vt 0.890600 0.718800
vt 0.523400 0.652300
vt 0.890600 0.652300
vt 0.890600 0.781300
vt 0.515600 0.718800
vt 0.515600 0.781300
vt 0.890600 0.718800
vt 0.515600 0.652300
vt 0.890600 0.652300
vt 0.210900 0.718800
vt 0.210900 0.781300
vt 0.210900 0.652300
vt 0.156300 0.781300
vt 0.054700 0.714800
vt 0.054700 0.781300
vt 0.156300 0.714800
vt 0.187500 0.781300
vt 0.054700 0.652300
vt 0.156300 0.652300
vt 0.187500 0.714800
vt 0.187500 0.652300
vt 0.007800 0.714800
vt 0.007800 0.781300
vt 0.007800 0.714800
vt 0.054700 0.714800
vt 0.007800 0.652300
vt 0.890600 0.652300
vt 0.890600 0.718800
vt 0.046900 0.781300
vt 0.007800 0.718800
vt 0.007800 0.781300
vt 0.046900 0.718800
vt 0.164100 0.781300
vt 0.164100 0.718800
vt 0.203100 0.781300
vt 0.203100 0.718800
vt 0.007800 0.652300
vt 0.046900 0.652300
vt 0.164100 0.652300
vt 0.203100 0.652300
vt 0.703100 0.027300
vt 0.703100 0.066400
vt 0.664100 0.062500
vt 0.656300 0.023400
vt 0.617200 0.054700
vt 0.578100 0.007800
vt 0.570300 0.191400
vt 0.562500 0.148400
vt 0.601600 0.195300
vt 0.601600 0.195300
vt 0.601600 0.285200
vt 0.562500 0.109400
vt 0.601600 0.152300
vt 0.601600 0.152300
vt 0.609400 0.113300
vt 0.617200 0.054700
vt 0.664100 0.062500
vt 0.664100 0.117200
vt 0.648400 0.160200
vt 0.632800 0.199200
vt 0.703100 0.109400
vt 0.703100 0.066400
vt 0.679700 0.386700
vt 0.664100 0.398400
vt 0.703100 0.398400
vt 0.703100 0.332000
vt 0.679700 0.332000
vt 0.726600 0.285200
vt 0.695300 0.285200
vt 0.750000 0.230500
vt 0.718800 0.230500
vt 0.968800 0.332000
vt 0.890600 0.398400
vt 0.921900 0.398400
vt 0.937500 0.332000
vt 0.976600 0.285200
vt 0.945300 0.285200
vt 0.906300 0.230500
vt 0.898400 0.140600
vt 0.781300 0.140600
vt 0.898400 0.003900
vt 0.734400 0.003900
vt 0.921900 0.230500
vt 0.960900 0.285200
vt 0.906300 0.230500
vt 0.945300 0.285200
vt 0.007800 0.558600
vt 0.031300 0.644500
vt 0.007800 0.644500
vt 0.031300 0.558600
vt 0.007800 0.480500
vt 0.031300 0.480500
vt 0.007800 0.410200
vt 0.031300 0.410200
vt 0.007800 0.339800
vt 0.031300 0.339800
vt 0.007800 0.261700
vt 0.031300 0.558600
vt 0.031300 0.644500
vt 0.031300 0.480500
vt 0.031300 0.410200
vt 0.031300 0.339800
vt 0.031300 0.261700
vt 0.031300 0.199200
vt 0.007800 0.199200
vt 0.031300 0.140600
vt 0.007800 0.140600
vt 0.031300 0.093800
vt 0.007800 0.093800
vt 0.031300 0.043000
vt 0.031300 0.558600
vt 0.007800 0.644500
vt 0.031300 0.644500
vt 0.007800 0.558600
vt 0.031300 0.480500
vt 0.007800 0.480500
vt 0.031300 0.339800
vt 0.007800 0.339800
vt 0.031300 0.199200
vt 0.007800 0.199200
vt 0.031300 0.140600
vt 0.007800 0.140600
vt 0.031300 0.093800
vt 0.007800 0.093800
vt 0.007800 0.003900
vt 0.031300 0.093800
vt 0.031300 0.558600
vt 0.031300 0.480500
vt 0.078100 0.117200
vt 0.296900 0.250000
vt 0.132800 0.250000
vt 0.296900 0.003900
vt 0.054700 0.003900
vt 0.328100 0.003900
vt 0.125000 0.265600
vt 0.328100 0.265600
vt 0.078100 0.117200
vt 0.062500 0.003900
vt 0.031300 0.339800
vt 0.031300 0.199200
vt 0.031300 0.140600
vt 0.226600 0.019500
vt 0.222700 0.019500
vt 0.222700 0.015600
vt 0.222700 0.015600
vt 0.226600 0.015600
vt 0.031300 0.261700
vt 0.031300 0.199200
vt 0.125000 0.011700
vt 0.109400 0.019500
vt 0.250000 0.019500
vt 0.238300 0.003900
vt 0.132800 0.003900
vt 0.226600 0.078100
vt 0.148400 0.078100
vt 0.214800 0.144500
vt 0.171900 0.144500
vt 0.207000 0.207000
vt 0.148400 0.078100
vt 0.238300 0.003900
vt 0.132800 0.003900
vt 0.226600 0.078100
vt 0.171900 0.144500
vt 0.214800 0.144500
vt 0.207000 0.207000
vt 0.031300 0.140600
vt 0.031300 0.093800
vt 0.031300 0.043000
vt 0.015600 0.855500
vt 0.601600 0.804700
vt 0.601600 0.890600
vt 0.601600 0.804700
vt 0.601600 0.890600
vt 0.601600 0.804700
vt 0.601600 0.890600
vt 0.445300 0.003900
vt 0.437500 0.113300
vt 0.484400 0.113300
vt 0.406300 0.113300
vt 0.429700 0.199200
vt 0.500000 0.199200
vt 0.500000 0.234400
vt 0.523400 0.214800
vt 0.015600 0.843800
vt 0.601600 0.804700
vt 0.601600 0.882800
vt 0.601600 0.804700
vt 0.601600 0.882800
vt 0.601600 0.804700
vt 0.601600 0.882800
vt 0.539100 0.281300
vt 0.539100 0.253900
vt 0.500000 0.293000
vt 0.429700 0.293000
vt 0.390600 0.199200
vt 0.015600 0.843800
vt 0.601600 0.804700
vt 0.601600 0.882800
vt 0.601600 0.804700
vt 0.601600 0.882800
vt 0.601600 0.882800
vt 0.601600 0.804700
vt 0.500000 0.371100
vt 0.539100 0.351600
vt 0.539100 0.320300
vt 0.382800 0.293000
vt 0.382800 0.371100
vt 0.429700 0.371100
vt 0.015600 0.843800
vt 0.601600 0.882800
vt 0.601600 0.804700
vt 0.601600 0.882800
vt 0.601600 0.804700
vt 0.601600 0.804700
vt 0.601600 0.882800
vt 0.500000 0.464800
vt 0.539100 0.441400
vt 0.429700 0.464800
vt 0.539100 0.394500
vt 0.382800 0.464800
vt 0.429700 0.578100
vt 0.500000 0.539100
vt 0.210900 0.851600
vt 0.601600 0.875000
vt 0.601600 0.816400
vt 0.601600 0.875000
vt 0.601600 0.816400
vt 0.601600 0.796900
vt 0.601600 0.890600
vt 0.601600 0.890600
vt 0.539100 0.519500
vt 0.539100 0.484400
vt 0.515600 0.843800
vt 0.273400 0.843800
vt 0.515600 0.808600
vt 0.601600 0.789100
vt 0.515600 0.878900
vt 0.601600 0.894500
vt 0.515600 0.843800
vt 0.250000 0.847700
vt 0.593800 0.800800
vt 0.593800 0.847700
vt 0.593800 0.902300
vt 0.593800 0.847700
vt 0.210900 0.855500
vt 0.601600 0.820300
vt 0.601600 0.878900
vt 0.601600 0.820300
vt 0.601600 0.878900
vt 0.601600 0.878900
vt 0.601600 0.867200
vt 0.062500 0.566400
vt 0.054700 0.566400
vt 0.062500 0.613300
vt 0.070300 0.613300
vt 0.132800 0.519500
vt 0.070300 0.546900
vt 0.109400 0.476600
vt 0.265600 0.480500
vt 0.093800 0.636700
vt 0.195300 0.640600
vt 0.125000 0.378900
vt 0.218800 0.375000
vt 0.234400 0.293000
vt 0.062500 0.566400
vt 0.070300 0.613300
vt 0.210900 0.855500
vt 0.601600 0.824200
vt 0.601600 0.886700
vt 0.601600 0.824200
vt 0.601600 0.886700
vt 0.585900 0.824200
vt 0.585900 0.886700
vt 0.593800 0.835900
vt 0.601600 0.824200
vt 0.601600 0.886700
vt 0.601600 0.867200
vt 0.468800 0.347700
vt 0.468800 0.281300
vt 0.523400 0.300800
vt 0.523400 0.359400
vt 0.562500 0.820300
vt 0.562500 0.878900
vt 0.593800 0.878900
vt 0.593800 0.816400
vt 0.937500 0.332000
vt 0.960900 0.375000
vt 0.937500 0.355500
vt 0.960900 0.332000
vt 0.945300 0.308600
vt 0.468800 0.378900
vt 0.539100 0.425800
vt 0.515600 0.449200
vt 0.539100 0.382800
vt 0.515600 0.531300
vt 0.539100 0.343800
vt 0.539100 0.316400
vt 0.679700 0.382800
vt 0.703100 0.375000
vt 0.703100 0.398400
vt 0.679700 0.355500
vt 0.890600 0.398400
vt 0.007800 0.644500
vt 0.281300 0.390600
vt 0.500000 0.234400
vt 0.656300 0.464800
vt 0.671900 0.511700
vt 0.617200 0.511700
vt 0.609400 0.472700
vt 0.687500 0.492200
vt 0.710900 0.492200
vt 0.570300 0.476600
vt 0.585900 0.453100
vt 0.570300 0.511700
vt 0.726600 0.500000
vt 0.750000 0.496100
vt 0.742200 0.515600
vt 0.750000 0.496100
vt 0.687500 0.457000
vt 0.773400 0.496100
vt 0.765600 0.468800
vt 0.765600 0.468800
vt 0.789100 0.488300
vt 0.718800 0.429700
vt 0.796900 0.457000
vt 0.687500 0.457000
vt 0.656300 0.441400
vt 0.671900 0.437500
vt 0.695300 0.429700
vt 0.640600 0.441400
vt 0.601600 0.445300
vt 0.687500 0.414100
vt 0.796900 0.484400
vt 0.796900 0.457000
vt 0.718800 0.429700
vt 0.843800 0.472700
vt 0.812500 0.492200
vt 0.843800 0.519500
vt 0.812500 0.503900
vt 0.882800 0.527300
vt 0.843800 0.472700
vt 0.781300 0.519500
vt 0.804700 0.535200
vt 0.820300 0.550800
vt 0.859400 0.550800
vt 0.867200 0.644500
vt 0.906300 0.550800
vt 0.859400 0.550800
vt 0.882800 0.507800
vt 0.843800 0.519500
vt 0.906300 0.500000
vt 0.929700 0.484400
vt 0.945300 0.523400
vt 0.929700 0.484400
vt 0.960900 0.480500
vt 0.937500 0.449200
vt 0.906300 0.453100
vt 0.906300 0.453100
vt 0.500000 0.601600
vt 0.539100 0.570300
vt 0.429700 0.609400
vt 0.320300 0.578100
vt 0.273400 0.625000
vt 0.468800 0.199200
vt 0.429700 0.644500
vt 0.500000 0.644500
vt 0.468800 0.535200
vt 0.523400 0.718800
vt 0.523400 0.718800
vt 0.890600 0.718800
vt 0.515600 0.718800
vt 0.890600 0.718800
vt 0.210900 0.718800
vt 0.156300 0.714800
vt 0.187500 0.714800
vt 0.007800 0.718800
vt 0.046900 0.718800
vt 0.164100 0.718800
vt 0.203100 0.718800
vt 0.609400 0.113300
vt 0.656300 0.464800
vt 0.617200 0.511700
vt 0.609400 0.472700
vt 0.601600 0.625000
vt 0.640600 0.613300
vt 0.601600 0.601600
vt 0.640600 0.636700
vt 0.601600 0.644500
vt 0.554700 0.636700
vt 0.554700 0.613300
vt 0.601600 0.625000
vt 0.640600 0.613300
vt 0.601600 0.601600
vt 0.640600 0.636700
vt 0.601600 0.644500
vt 0.554700 0.636700
vt 0.554700 0.613300
vt 0.601600 0.621100
vt 0.640600 0.613300
vt 0.601600 0.601600
vt 0.640600 0.632800
vt 0.601600 0.644500
vt 0.554700 0.632800
vt 0.554700 0.613300
vn 0.0000 -0.1923 0.9813
vn 0.9991 -0.0418 0.0052
vn -0.0000 0.0879 0.9961
vn 0.0000 -0.0849 0.9964
vn 0.9395 0.3278 0.0997
vn 0.9994 -0.0338 -0.0030
vn 0.0000 0.0019 -1.0000
vn -0.0000 0.2753 -0.9614
vn -0.0085 0.7915 -0.6111
vn -0.9468 0.3088 0.0905
vn -0.9994 -0.0338 -0.0030
vn 0.9998 -0.0205 0.0078
vn -0.0031 0.2701 0.9628
vn -0.0000 -0.2351 -0.9720
vn 0.9996 0.0272 -0.0039
vn -0.0060 0.1136 0.9935
vn -0.0064 -0.2313 -0.9729
vn 0.9621 -0.2682 -0.0484
vn -0.0078 -0.6000 0.8000
vn -0.0027 -0.1855 -0.9826
vn -0.0072 -0.4486 0.8937
vn 0.9785 0.1974 0.0596
vn -0.0074 0.0444 0.9990
vn 0.9532 -0.2922 -0.0776
vn -0.0070 0.3920 -0.9199
vn -0.0084 -0.2363 -0.9717
vn 0.9715 0.1739 0.1608
vn -0.0000 -0.3274 0.9449
vn -0.9764 0.1519 0.1534
vn -0.9838 0.1719 0.0510
vn -0.0050 0.4728 -0.8812
vn -0.0095 0.1680 0.9857
vn 0.9393 0.3162 0.1329
vn -0.0075 -0.5437 0.8393
vn 0.9724 -0.2174 -0.0841
vn -0.0078 -0.5812 0.8137
vn 0.9834 -0.1700 -0.0639
vn -0.0077 0.6191 -0.7853
vn -0.0094 -0.0136 -0.9999
vn -0.0029 0.2668 -0.9637
vn 0.9622 0.2603 -0.0804
vn -0.0034 0.6161 -0.7877
vn 0.9302 -0.1479 -0.3360
vn -0.0000 -0.4045 -0.9145
vn -0.0211 -0.2148 -0.9764
vn -0.0159 -0.5442 -0.8388
vn 0.9658 -0.2144 -0.1460
vn -0.9701 -0.2042 -0.1316
vn -0.1394 -0.9094 0.3919
vn -0.0068 -0.8831 -0.4692
vn 0.9659 -0.1854 0.1805
vn -0.9676 -0.1819 0.1752
vn 0.9599 0.0328 0.2784
vn -0.9367 -0.1375 -0.3219
vn -0.9641 0.2545 -0.0764
vn -0.0065 0.2676 0.9635
vn -0.0108 0.4388 0.8985
vn -0.0169 0.0123 0.9998
vn -0.9862 -0.1547 -0.0595
vn -0.0031 0.2052 -0.9787
vn -0.0122 -0.0017 -0.9999
vn -0.8676 -0.0878 -0.4895
vn -0.8660 -0.0133 -0.4999
vn -0.7103 -0.1875 -0.6784
vn -0.9205 -0.0161 -0.3905
vn -0.8930 0.0274 -0.4493
vn -0.9502 0.0021 -0.3118
vn -0.6101 0.0778 -0.7885
vn -0.4073 -0.2218 0.8860
vn -0.9237 -0.0353 0.3816
vn -0.0050 0.0710 0.9975
vn -0.8870 -0.0481 0.4592
vn 0.0266 0.1223 0.9921
vn -0.8919 0.0746 0.4461
vn -0.9094 0.1080 0.4017
vn -0.9454 0.0731 0.3175
vn -0.9574 -0.0762 -0.2787
vn -0.9570 -0.0169 0.2896
vn -0.9595 -0.0806 -0.2698
vn 0.0397 0.2532 0.9666
vn 0.8633 0.1638 0.4774
vn 0.6128 0.4589 0.6433
vn 0.0612 0.2188 0.9739
vn 0.0196 -0.0052 0.9998
vn 0.0096 -0.1471 0.9891
vn -0.9592 -0.0359 0.2805
vn 0.0001 0.0118 0.9999
vn -0.9435 0.0179 0.3308
vn 0.0057 0.1709 0.9853
vn 0.9450 0.0825 0.3166
vn 0.9646 0.0180 0.2632
vn 0.9368 -0.0542 0.3458
vn 0.9437 -0.0102 0.3306
vn 0.9608 0.0469 0.2732
vn 0.9635 0.0716 0.2580
vn -0.0020 0.2621 0.9650
vn 0.9629 0.0939 0.2531
vn -0.0096 0.3488 0.9372
vn 0.9426 0.1633 0.2914
vn -0.2354 0.5084 0.8283
vn 0.9817 0.1503 0.1170
vn -0.3184 -0.3237 -0.8910
vn -0.0211 -0.1887 -0.9818
vn -0.9743 0.0152 -0.2246
vn 0.0002 0.0393 -0.9992
vn -0.9583 -0.0057 -0.2857
vn -0.0112 -0.0538 -0.9985
vn -0.9601 -0.0351 -0.2773
vn 0.0001 -0.1625 -0.9867
vn -0.9374 -0.0855 -0.3376
vn 0.2834 -0.2575 -0.9238
vn -0.0731 -0.0054 -0.9973
vn 0.9637 -0.0705 -0.2576
vn 0.7579 -0.0808 -0.6474
vn 0.9577 -0.0217 -0.2870
vn 0.9744 0.0066 -0.2246
vn 0.9588 -0.0152 -0.2837
vn 0.9589 -0.0475 -0.2799
vn -0.9444 0.0641 0.3223
vn -0.9670 0.0757 0.2432
vn -0.9619 0.1013 0.2541
vn -0.9742 0.1233 0.1891
vn -0.9823 0.1470 0.1165
vn -0.4572 0.5628 -0.6887
vn 0.0612 0.9766 -0.2064
vn 0.8047 0.2793 -0.5238
vn 0.0206 -0.2552 -0.9667
vn -0.8369 0.2163 -0.5029
vn 0.9990 0.0443 0.0071
vn 0.9742 0.1050 0.1996
vn 0.9333 0.0917 0.3472
vn 0.9913 0.1174 0.0588
vn 0.2210 0.5299 -0.8188
vn 0.0057 -0.2175 -0.9760
vn -0.3059 0.3846 -0.8709
vn 0.9023 0.0489 -0.4283
vn 0.1879 -0.7216 -0.6663
vn -0.8653 -0.2180 -0.4513
vn 0.8304 0.1653 0.5321
vn 0.9481 0.0285 0.3166
vn -0.1266 -0.3875 -0.9131
vn 0.0444 -0.1017 -0.9938
vn 0.9726 -0.0374 -0.2295
vn -0.1181 -0.9628 -0.2431
vn -0.8217 -0.4665 -0.3272
vn 0.9050 0.0468 0.4229
vn 0.6890 0.5750 0.4412
vn 0.7571 0.4842 0.4385
vn -0.0157 -0.9974 0.0700
vn 0.0582 -0.6105 -0.7899
vn 0.9180 -0.3964 -0.0149
vn 0.0631 -0.8627 0.5018
vn -0.6681 -0.7315 -0.1364
vn 0.7966 0.5883 0.1391
vn 0.8215 0.5656 -0.0722
vn 0.9653 0.2319 0.1202
vn 0.9619 -0.1538 0.2260
vn 0.2011 -0.9336 -0.2965
vn 0.2614 -0.9306 -0.2564
vn 0.7422 -0.4577 0.4895
vn -0.5687 -0.7581 -0.3190
vn 0.9745 0.1656 0.1514
vn 0.4201 -0.7493 0.5119
vn 0.8612 -0.4387 0.2567
vn 0.0131 0.5976 0.8017
vn 0.3031 0.1909 0.9337
vn -0.1423 0.0761 0.9869
vn 0.2888 -0.4544 0.8427
vn 0.0495 -0.4304 0.9013
vn 0.9620 0.2164 0.1663
vn -0.1572 -0.1487 0.9763
vn -0.0871 -0.2257 0.9703
vn 0.9015 0.1216 0.4153
vn 0.2155 0.3353 0.9171
vn -0.8170 -0.2276 0.5299
vn 0.9500 0.2409 0.1988
vn 0.9680 0.2028 0.1479
vn 0.0407 0.0924 0.9949
vn -0.3314 -0.8126 0.4794
vn 0.4960 -0.5635 0.6607
vn 0.0948 -0.0064 0.9955
vn -0.3403 -0.6232 -0.7042
vn 0.8179 -0.0878 -0.5686
vn 0.9822 -0.0338 0.1849
vn 0.8740 0.4200 -0.2442
vn -0.0000 -0.8970 0.4421
vn -0.0000 -0.9883 -0.1527
vn 0.0000 0.2068 -0.9784
vn 0.0000 0.5609 -0.8279
vn -0.0084 -0.7022 -0.7120
vn 0.8750 -0.4836 0.0215
vn -0.0245 -0.9956 -0.0907
vn -0.8768 -0.4803 0.0218
vn 0.9541 0.0244 -0.2985
vn -0.0083 -0.5706 0.8212
vn -0.9073 -0.3001 0.2946
vn 0.9050 -0.3007 0.3010
vn 0.0000 -0.7214 0.6925
vn 0.9697 0.0040 -0.2442
vn 0.8748 -0.4826 0.0426
vn -0.9560 0.0245 -0.2925
vn 0.0000 0.9992 -0.0398
vn -0.0000 0.8508 -0.5255
vn -0.0082 0.0879 -0.9961
vn 0.0000 0.9853 0.1711
vn 0.0000 0.9975 -0.0707
vn -0.0052 -0.5083 -0.8611
vn 0.0000 -0.9895 0.1442
vn -0.8770 -0.4790 0.0378
vn -0.9703 0.0114 -0.2414
vn 0.9696 -0.2319 0.0783
vn 0.0000 -0.7608 -0.6490
vn 0.9845 -0.0556 -0.1662
vn -0.0000 0.2059 -0.9786
vn 0.0000 0.1974 0.9803
vn -0.9696 -0.2288 0.0867
vn -0.0000 -0.0467 -0.9989
vn -0.0000 -0.5678 -0.8232
vn 0.0000 -0.3218 -0.9468
vn 0.9718 0.0523 0.2300
vn -0.0000 -0.9584 0.2853
vn 0.0000 0.2892 0.9573
vn -0.9718 0.0523 0.2300
vn 0.0000 -0.4240 0.9057
vn -0.9845 -0.0556 -0.1662
vn -0.0095 -0.9972 -0.0740
vn 0.9158 0.0786 0.3938
vn -0.0276 -0.6211 0.7832
vn -0.9209 0.0811 0.3812
vn -0.0155 0.3623 0.9319
vn -0.0150 0.5621 0.8269
vn -0.8712 0.0494 0.4884
vn 0.8725 0.0455 0.4865
vn -0.9991 -0.0418 0.0052
vn -0.9998 -0.0155 0.0095
vn -0.9996 0.0274 -0.0050
vn -0.9667 -0.2520 -0.0448
vn -0.9603 -0.2702 -0.0697
vn -0.9481 0.2940 0.1213
vn -0.9793 -0.1892 -0.0714
vn -0.9591 0.0335 0.2810
vn -0.9822 -0.0338 0.1849
vn -0.8740 0.4200 -0.2442
vn 0.9443 0.2364 -0.2292
vn 0.6363 0.4440 -0.6308
vn 0.6915 0.6905 -0.2124
vn 0.7962 -0.0441 -0.6035
vn 0.9372 -0.2979 -0.1816
vn 0.9767 -0.0305 0.2123
vn 0.8556 0.4649 0.2275
vn 0.9910 0.1041 -0.0844
vn 0.8124 0.3177 -0.4890
vn 0.8182 0.5708 -0.0691
vn 0.8505 -0.1583 -0.5016
vn 0.9268 -0.3692 -0.0691
vn 0.9271 -0.1373 0.3489
vn 0.8854 0.3249 0.3325
vn 0.9925 0.0337 -0.1172
vn 0.7987 0.2979 -0.5229
vn 0.8410 0.5279 -0.1185
vn 0.8199 -0.2100 -0.5325
vn 0.8732 -0.4804 -0.0820
vn 0.9098 -0.2355 0.3417
vn 0.9135 0.2699 0.3045
usemtl MDL_w21kt10_body_TEX_w21kt10
s 1
f 67/67/67 68/68/68 69/69/69
f 70/70/70 71/71/71 72/72/72
f 72/73/72 73/74/73 68/68/68
f 74/75/74 71/71/71 75/76/75
f 75/76/75 76/77/76 74/75/74
f 77/78/77 74/75/74 76/77/76
f 76/77/76 70/70/70 77/78/77
f 67/79/67 77/78/77 70/70/70
f 69/80/69 78/81/78 79/82/79
f 78/81/78 69/80/69 68/83/68
f 68/83/68 80/84/80 78/81/78
f 80/84/80 68/83/68 73/85/73
f 79/86/79 81/87/81 82/88/82
f 81/87/81 79/86/79 78/89/78
f 78/89/78 83/90/83 81/87/81
f 83/90/83 78/89/78 80/91/80
f 82/88/82 84/92/84 85/93/85
f 84/92/84 82/88/82 81/87/81
f 81/87/81 86/94/86 84/92/84
f 86/94/86 81/87/81 83/90/83
f 87/95/87 88/96/88 89/97/89
f 88/96/88 87/95/87 90/98/90
f 85/99/85 90/98/90 87/95/87
f 90/98/90 91/100/91 88/96/88
f 91/100/91 90/98/90 92/101/92
f 84/102/84 92/101/92 90/98/90
f 92/101/92 84/102/84 86/103/86
f 90/98/90 85/99/85 84/102/84
f 89/97/89 94/104/93 93/105/94
f 93/105/94 95/106/95 89/97/89
f 96/107/96 89/97/89 95/106/95
f 95/106/95 97/108/97 96/107/96
f 91/100/91 96/107/96 97/108/97
f 94/104/93 89/97/89 88/96/88
f 97/108/97 94/104/93 88/96/88
f 97/108/97 88/96/88 91/100/91
f 72/73/72 68/68/68 67/67/67
f 70/70/70 72/72/72 67/79/67
f 74/109/74 73/74/73 72/73/72
f 73/74/73 74/109/74 77/110/77
f 71/71/71 74/75/74 72/72/72
f 98/111/98 71/112/71 70/113/70
f 71/112/71 98/111/98 99/114/99
f 100/115/100 99/114/99 98/111/98
f 99/114/99 100/115/100 101/116/101
f 102/117/102 101/116/101 100/115/100
f 101/116/101 102/117/102 103/118/103
f 99/114/99 75/119/75 71/112/71
f 75/119/75 99/114/99 104/120/104
f 101/116/101 104/120/104 99/114/99
f 104/120/104 101/116/101 105/121/105
f 103/118/103 105/121/105 101/116/101
f 105/121/105 103/118/103 106/122/106
f 106/123/106 103/124/103 107/125/107
f 108/126/108 109/127/109 110/128/110
f 109/127/109 108/126/108 107/125/107
f 106/123/106 107/125/107 108/126/108
f 111/129/111 112/130/112 113/131/113
f 112/130/112 111/129/111 114/132/114
f 115/133/115 114/132/114 111/129/111
f 112/130/112 116/134/116 117/135/117
f 116/134/116 112/130/112 118/136/118
f 114/132/114 118/136/118 112/130/112
f 116/134/116 109/127/109 119/137/119
f 119/137/119 117/135/117 116/134/116
f 110/128/110 109/127/109 116/134/116
f 116/134/116 120/138/120 110/128/110
f 108/126/108 110/128/110 120/138/120
f 120/138/120 121/139/121 108/126/108
f 115/133/115 111/129/111 113/131/113
f 122/140/122 119/137/119 107/125/107
f 119/137/119 122/140/122 123/141/123
f 123/141/123 117/135/117 119/137/119
f 117/135/117 123/141/123 124/142/124
f 124/142/124 113/131/113 117/135/117
f 113/131/113 124/142/124 115/133/115
f 122/140/122 103/124/103 102/143/102
f 102/143/102 125/144/125 122/140/122
f 121/139/121 122/140/122 125/144/125
f 125/144/125 106/123/106 121/139/121
f 108/126/108 121/139/121 106/123/106
f 103/124/103 122/140/122 107/125/107
f 126/145/126 128/146/127 127/147/128
f 127/147/128 129/148/129 126/145/126
f 130/149/130 126/145/126 129/148/129
f 129/148/129 131/150/131 130/149/130
f 132/151/132 130/149/130 131/150/131
f 131/150/131 133/152/133 132/151/132
f 134/153/134 132/151/132 133/152/133
f 135/154/135 136/155/136 137/156/137
f 136/155/136 135/154/135 138/157/138
f 139/158/139 138/157/138 135/154/135
f 138/157/138 139/158/139 140/159/140
f 138/157/138 127/147/128 136/155/136
f 127/147/128 138/157/138 129/148/129
f 140/159/140 129/148/129 138/157/138
f 129/148/129 140/159/140 131/150/131
f 141/160/141 131/150/131 140/159/140
f 131/150/131 141/160/141 133/152/133
f 142/161/142 133/152/133 141/160/141
f 133/152/133 142/161/142 143/162/143
f 144/163/144 143/162/143 142/161/142
f 143/162/143 144/163/144 145/164/145
f 146/165/146 140/159/140 139/166/139
f 139/166/139 147/167/147 146/165/146
f 146/165/146 141/160/141 140/159/140
f 139/166/139 148/168/148 147/167/147
f 149/169/149 141/170/141 146/171/146
f 141/170/141 149/169/149 142/172/142
f 150/173/150 142/172/142 149/169/149
f 142/172/142 150/173/150 144/174/144
f 151/175/151 144/174/144 150/173/150
f 144/174/144 151/175/151 152/176/152
f 153/177/153 152/176/152 151/175/151
f 152/176/152 153/177/153 154/178/154
f 155/179/155 154/178/154 153/177/153
f 156/180/156 146/171/146 147/181/147
f 146/171/146 156/180/156 149/169/149
f 157/182/157 149/169/149 156/180/156
f 149/169/149 157/182/157 150/173/150
f 158/183/158 150/173/150 157/182/157
f 150/173/150 158/183/158 151/175/151
f 159/184/159 151/175/151 158/183/158
f 151/175/151 159/184/159 153/177/153
f 160/185/160 153/177/153 159/184/159
f 153/177/153 160/185/160 155/179/155
f 161/186/161 155/179/155 160/185/160
f 155/179/155 161/186/161 162/187/162
f 163/188/163 162/187/162 161/186/161
f 162/187/162 163/188/163 164/189/164
f 165/190/165 164/189/164 163/188/163
f 164/189/164 165/190/165 166/191/166
f 167/192/167 166/191/166 165/190/165
f 143/193/143 134/194/134 133/195/133
f 134/194/134 143/193/143 168/196/168
f 145/197/145 168/196/168 143/193/143
f 168/196/168 145/197/145 169/198/169
f 170/199/170 169/198/169 145/197/145
f 169/198/169 170/199/170 171/200/171
f 172/201/172 171/200/171 170/199/170
f 171/200/171 172/201/172 173/202/173
f 174/203/174 173/202/173 172/201/172
f 173/202/173 174/203/174 175/204/175
f 176/205/176 175/204/175 174/203/174
f 175/204/175 176/205/176 177/206/177
f 178/207/178 177/206/177 176/205/176
f 177/206/177 178/207/178 179/208/179
f 169/198/169 180/209/180 168/196/168
f 180/209/180 169/198/169 181/210/181
f 171/200/171 181/210/181 169/198/169
f 152/211/152 145/212/145 144/213/144
f 145/212/145 152/211/152 170/214/170
f 154/215/154 170/214/170 152/211/152
f 182/216/182 157/217/157 181/218/181
f 157/217/157 182/216/182 158/219/158
f 182/216/182 159/220/159 158/219/158
f 182/221/182 181/210/181 171/200/171
f 171/200/171 173/202/173 182/221/182
f 183/222/183 182/221/182 173/202/173
f 173/202/173 175/204/175 183/222/183
f 184/223/184 183/222/183 175/204/175
f 175/204/175 177/206/177 184/223/184
f 179/208/179 184/223/184 177/206/177
f 170/224/170 154/225/154 185/226/185
f 186/227/186 172/228/172 170/224/170
f 185/229/185 154/178/154 155/179/155
f 155/179/155 162/187/162 185/229/185
f 186/230/186 185/229/185 162/187/162
f 162/187/162 164/189/164 186/230/186
f 160/231/160 159/232/159 182/233/182
f 182/233/182 183/234/183 160/231/160
f 161/235/161 160/231/160 183/234/183
f 183/234/183 184/236/184 161/235/161
f 163/237/163 161/235/161 184/236/184
f 184/236/184 179/238/179 163/237/163
f 165/239/165 163/237/163 179/238/179
f 179/238/179 167/240/167 165/239/165
f 187/241/187 172/242/172 186/243/186
f 172/242/172 187/241/187 174/244/174
f 188/245/188 174/244/174 187/241/187
f 174/244/174 188/245/188 176/246/176
f 189/247/189 176/246/176 188/245/188
f 187/248/187 186/230/186 164/189/164
f 164/189/164 166/191/166 187/248/187
f 188/249/188 187/248/187 166/191/166
f 178/207/178 166/191/166 167/192/167
f 167/192/167 179/208/179 178/207/178
f 166/191/166 189/250/189 188/249/188
f 189/250/189 166/191/166 178/207/178
f 178/207/178 176/205/176 189/250/189
f 190/251/190 191/252/191 192/253/192
f 190/251/190 192/254/192 193/255/193
f 190/251/190 193/255/193 194/256/194
f 194/257/194 191/252/191 190/251/190
f 195/258/195 196/259/196 180/260/180
f 196/259/196 195/258/195 197/261/197
f 180/260/180 196/259/196 198/262/198
f 199/263/199 180/260/180 198/262/198
f 198/262/198 192/264/192 199/263/199
f 199/263/199 192/264/192 191/265/191
f 200/266/200 201/267/201 202/268/202
f 200/266/200 202/269/202 203/270/203
f 204/271/204 200/266/200 203/270/203
f 200/266/200 204/271/204 201/272/201
f 192/264/192 201/273/201 193/274/193
f 201/273/201 192/264/192 202/275/202
f 198/262/198 202/275/202 192/264/192
f 202/275/202 198/262/198 205/276/205
f 196/259/196 197/261/197 206/277/206
f 207/278/207 208/279/208 209/280/209
f 207/278/207 209/281/209 210/282/210
f 211/283/211 207/278/207 210/284/210
f 207/278/207 211/283/211 208/279/208
f 202/275/202 209/285/209 208/286/208
f 202/275/202 208/286/208 203/287/203
f 198/262/198 206/277/206 212/288/212
f 196/259/196 206/277/206 198/262/198
f 205/276/205 198/262/198 212/288/212
f 212/288/212 213/289/213 205/276/205
f 205/276/205 213/289/213 214/290/214
f 215/291/215 216/292/216 217/293/217
f 215/291/215 217/294/217 218/295/218
f 219/296/219 215/291/215 218/297/218
f 215/291/215 219/296/219 216/292/216
f 209/285/209 217/298/217 216/299/216
f 217/298/217 209/285/209 220/300/220
f 209/285/209 216/299/216 210/301/210
f 220/300/220 213/289/213 221/302/221
f 221/302/221 222/303/222 220/300/220
f 223/304/223 220/300/220 222/303/222
f 214/290/214 213/289/213 220/300/220
f 220/300/220 209/285/209 214/290/214
f 224/305/224 225/306/225 223/307/223
f 224/305/224 223/308/223 226/309/226
f 227/310/227 224/305/224 226/311/226
f 224/305/224 227/310/227 225/312/225
f 217/298/217 225/313/225 218/314/218
f 225/313/225 217/298/217 223/304/223
f 220/300/220 223/304/223 217/298/217
f 228/315/228 230/316/229 229/317/230
f 229/317/230 222/318/222 228/315/228
f 231/319/231 230/316/229 228/315/228
f 228/315/228 232/320/232 231/319/231
f 233/321/233 231/319/231 232/320/232
f 233/321/233 230/316/229 231/319/231
f 230/316/229 233/321/233 229/317/230
f 234/322/234 235/323/235 236/324/236
f 234/322/234 236/324/236 148/325/148
f 237/326/237 234/322/234 148/325/148
f 234/322/234 237/326/237 235/323/235
f 238/327/238 226/328/226 239/329/239
f 238/327/238 239/330/239 240/331/240
f 241/332/241 226/328/226 238/327/238
f 242/333/242 232/320/232 228/315/228
f 228/315/228 222/318/222 242/333/242
f 236/334/236 235/335/235 232/336/232
f 236/334/236 232/336/232 242/337/242
f 243/338/243 148/339/148 236/334/236
f 148/339/148 243/338/243 147/340/147
f 206/341/206 147/340/147 243/338/243
f 242/337/242 222/342/222 221/343/221
f 156/344/156 206/341/206 197/345/197
f 197/345/197 195/346/195 156/344/156
f 157/217/157 156/344/156 195/346/195
f 195/346/195 181/218/181 157/217/157
f 206/341/206 156/344/156 147/340/147
f 235/335/235 237/347/237 244/348/244
f 235/335/235 244/348/244 232/336/232
f 245/349/245 227/350/227 226/351/226
f 245/349/245 226/352/226 241/353/241
f 246/354/246 245/349/245 241/355/241
f 241/355/241 135/356/135 246/354/246
f 246/357/246 227/358/227 245/349/245
f 232/320/232 244/359/244 233/321/233
f 130/360/130 132/361/132 204/362/204
f 204/362/204 211/363/211 130/360/130
f 241/364/241 238/327/238 240/365/240
f 240/365/240 247/366/247 241/364/241
f 135/367/135 241/364/241 247/366/247
f 244/368/244 240/369/240 233/370/233
f 240/369/240 244/368/244 247/371/247
f 237/372/237 247/371/247 244/368/244
f 247/371/247 237/372/237 139/158/139
f 148/168/148 139/158/139 237/372/237
f 248/373/248 216/374/216 219/375/219
f 216/374/216 248/373/248 210/376/210
f 211/363/211 210/376/210 248/373/248
f 219/375/219 218/314/218 225/313/225
f 219/375/219 225/313/225 227/377/227
f 204/362/204 208/378/208 211/363/211
f 208/378/208 204/362/204 203/379/203
f 126/380/126 248/381/248 249/382/249
f 249/382/249 128/146/127 126/380/126
f 248/381/248 126/380/126 130/383/130
f 130/360/130 211/363/211 248/373/248
f 135/154/135 137/156/137 246/384/246
f 247/371/247 139/158/139 135/154/135
f 186/227/186 170/224/170 185/226/185
f 180/209/180 134/194/134 168/196/168
f 134/194/134 180/209/180 199/385/199
f 181/218/181 195/346/195 180/386/180
f 194/387/194 193/274/193 201/273/201
f 194/387/194 201/273/201 132/361/132
f 250/388/250 93/389/94 94/390/93
f 94/390/93 251/391/251 250/388/250
f 250/388/250 252/392/252 93/389/94
f 252/392/252 250/388/250 253/393/253
f 251/391/251 254/394/254 255/395/255
f 254/394/254 251/391/251 97/396/97
f 94/390/93 97/396/97 251/391/251
f 256/397/256 258/398/257 257/399/258
f 257/399/258 259/400/259 256/397/256
f 250/388/250 260/401/260 253/393/253
f 261/402/261 257/399/258 258/398/257
f 257/399/258 261/402/261 259/400/259
f 262/403/262 259/400/259 261/402/261
f 261/402/261 264/404/263 263/405/264
f 263/405/264 262/403/262 261/402/261
f 264/404/263 261/402/261 258/398/257
f 260/401/260 258/398/257 256/397/256
f 258/398/257 260/401/260 264/404/263
f 265/406/265 264/404/263 260/401/260
f 264/404/263 265/406/265 266/407/266
f 253/393/253 260/401/260 256/397/256
f 256/397/256 267/408/267 253/393/253
f 260/401/260 269/409/268 268/410/269
f 268/410/269 270/411/270 260/401/260
f 265/406/265 260/401/260 270/411/270
f 270/411/270 249/382/249 265/406/265
f 246/384/246 265/406/265 249/382/249
f 249/382/249 248/381/248 246/384/246
f 269/409/268 250/388/250 251/391/251
f 250/388/250 269/409/268 260/401/260
f 271/412/271 269/409/268 251/391/251
f 251/391/251 272/413/272 271/412/271
f 249/382/249 273/414/273 128/146/127
f 273/414/273 249/382/249 270/411/270
f 263/405/264 266/407/266 274/415/274
f 274/415/274 275/416/275 263/405/264
f 262/403/262 263/405/264 275/416/275
f 275/416/275 276/417/276 262/403/262
f 267/408/267 262/403/262 276/417/276
f 276/417/276 270/411/270 267/408/267
f 268/410/269 267/408/267 270/411/270
f 266/407/266 263/405/264 264/404/263
f 266/407/266 277/418/277 278/419/278
f 274/415/274 266/407/266 278/419/278
f 278/419/278 275/416/275 274/415/274
f 277/418/277 279/420/279 280/421/280
f 279/420/279 277/418/277 281/422/281
f 278/419/278 277/418/277 280/421/280
f 280/421/280 282/423/282 278/419/278
f 283/424/283 280/421/280 279/420/279
f 279/420/279 284/425/284 283/424/283
f 285/426/285 286/427/286 287/428/287
f 287/428/287 286/427/286 288/429/288
f 288/429/288 289/430/289 287/428/287
f 281/422/281 288/429/288 286/427/286
f 288/429/288 281/422/281 289/430/289
f 279/420/279 281/422/281 286/427/286
f 286/427/286 285/426/285 279/420/279
f 281/422/281 277/418/277 290/431/290
f 290/431/290 282/423/282 281/422/281
f 291/432/291 281/422/281 282/423/282
f 292/433/292 294/434/293 293/435/294
f 293/435/294 295/436/295 292/433/292
f 296/437/296 293/435/294 294/434/293
f 293/435/294 296/437/296 295/436/295
f 297/438/297 295/436/295 296/437/296
f 295/436/295 297/438/297 298/439/298
f 137/156/137 298/439/298 297/438/297
f 298/439/298 137/156/137 136/155/136
f 297/438/297 296/437/296 294/434/293
f 299/440/299 297/438/297 294/434/293
f 294/434/293 292/433/292 299/440/299
f 277/418/277 299/440/299 292/433/292
f 246/384/246 137/156/137 299/440/299
f 299/440/299 277/418/277 246/384/246
f 266/407/266 246/384/246 277/418/277
f 265/406/265 246/384/246 266/407/266
f 137/156/137 297/438/297 299/440/299
f 239/441/239 226/442/226 223/304/223
f 222/303/222 239/441/239 223/304/223
f 239/441/239 222/303/222 229/443/230
f 212/444/212 236/334/236 213/445/213
f 236/334/236 221/343/221 213/445/213
f 221/343/221 236/334/236 242/337/242
f 134/446/134 194/387/194 132/361/132
f 199/263/199 191/265/191 194/387/194
f 199/263/199 194/387/194 134/446/134
f 239/441/239 229/443/230 233/447/233
f 239/441/239 233/447/233 240/448/240
f 246/449/246 248/373/248 219/375/219
f 246/449/246 219/375/219 227/377/227
f 113/131/113 112/130/112 117/135/117
f 107/125/107 119/137/119 109/127/109
f 272/413/272 251/391/251 255/395/255
f 292/433/292 290/431/290 277/418/277
f 290/431/290 292/433/292 282/423/282
f 284/425/284 279/420/279 285/426/285
f 285/426/285 291/432/291 284/425/284
f 67/67/67 69/69/69 300/450/300
f 77/110/77 300/450/300 73/74/73
f 300/450/300 77/110/77 67/67/67
f 69/80/69 79/82/79 301/451/301
f 300/452/300 69/80/69 301/451/301
f 301/451/301 80/84/80 300/452/300
f 300/452/300 80/84/80 73/85/73
f 79/86/79 82/88/82 302/453/302
f 301/454/301 79/86/79 302/453/302
f 302/453/302 83/90/83 301/454/301
f 301/454/301 83/90/83 80/91/80
f 82/88/82 85/93/85 303/455/303
f 302/453/302 82/88/82 303/455/303
f 303/455/303 86/94/86 302/453/302
f 302/453/302 86/94/86 83/90/83
f 87/95/87 89/97/89 96/107/96
f 304/456/304 87/95/87 96/107/96
f 96/107/96 91/100/91 304/456/304
f 92/101/92 304/456/304 91/100/91
f 304/456/304 92/101/92 303/457/303
f 92/101/92 86/103/86 303/457/303
f 304/456/304 85/99/85 87/95/87
f 85/99/85 304/456/304 303/457/303
f 76/458/76 98/111/98 70/113/70
f 305/459/305 98/111/98 76/458/76
f 98/111/98 305/459/305 100/115/100
f 306/460/306 100/115/100 305/459/305
f 100/115/100 306/460/306 102/117/102
f 125/461/125 102/117/102 306/460/306
f 75/119/75 305/459/305 76/458/76
f 104/120/104 305/459/305 75/119/75
f 305/459/305 104/120/104 306/460/306
f 105/121/105 306/460/306 104/120/104
f 306/460/306 105/121/105 125/461/125
f 106/122/106 125/461/125 105/121/105
f 307/462/307 120/138/120 116/134/116
f 116/134/116 118/136/118 307/462/307
f 122/140/122 121/139/121 307/462/307
f 123/141/123 307/462/307 118/136/118
f 124/142/124 118/136/118 114/132/114
f 124/142/124 114/132/114 115/133/115
f 93/389/94 308/463/308 95/464/95
f 308/463/308 93/389/94 252/392/252
f 309/465/309 255/395/255 254/394/254
f 308/463/308 252/392/252 253/393/253
f 308/463/308 253/393/253 267/408/267
f 267/408/267 256/397/256 259/400/259
f 269/409/268 267/408/267 268/410/269
f 267/408/267 269/409/268 308/463/308
f 269/409/268 309/465/309 308/463/308
f 309/465/309 269/409/268 271/412/271
f 271/412/271 272/413/272 309/465/309
f 95/464/95 309/465/309 97/396/97
f 309/465/309 254/394/254 97/396/97
f 127/147/128 128/146/127 273/414/273
f 127/147/128 270/411/270 276/417/276
f 270/411/270 127/147/128 273/414/273
f 282/423/282 275/416/275 278/419/278
f 275/416/275 282/423/282 136/155/136
f 298/439/298 136/155/136 282/423/282
f 282/423/282 280/421/280 291/432/291
f 280/421/280 283/424/283 291/432/291
f 283/424/283 284/425/284 291/432/291
f 285/426/285 287/428/287 289/430/289
f 281/422/281 291/432/291 289/430/289
f 276/417/276 275/416/275 136/155/136
f 127/147/128 276/417/276 136/155/136
f 122/140/122 307/462/307 123/141/123
f 123/141/123 118/136/118 124/142/124
f 121/139/121 120/138/120 307/462/307
f 272/413/272 255/395/255 309/465/309
f 308/463/308 309/465/309 95/464/95
f 298/439/298 292/433/292 295/436/295
f 292/433/292 298/439/298 282/423/282
f 267/408/267 259/400/259 262/403/262
f 291/432/291 285/426/285 289/430/289
f 201/273/201 204/362/204 132/361/132
f 310/466/310 311/467/311 312/468/312
f 311/467/311 310/466/310 313/469/313
f 310/466/310 314/470/314 313/469/313
f 314/470/314 310/466/310 315/471/315
f 310/466/310 316/472/316 315/471/315
f 316/472/316 310/466/310 312/468/312
f 317/473/317 318/474/318 319/475/319
f 318/474/318 317/473/317 320/476/320
f 317/473/317 321/477/321 320/476/320
f 321/477/321 317/473/317 322/478/322
f 317/473/317 323/479/323 322/478/322
f 323/479/323 317/473/317 319/475/319
f 324/480/324 325/481/325 326/482/326
f 325/481/325 324/480/324 327/483/327
f 324/480/324 328/484/328 327/483/327
f 328/484/328 324/480/324 329/485/329
f 324/480/324 330/486/330 329/485/329
f 330/486/330 324/480/324 326/482/326
f 205/276/205 214/290/214 209/285/209
f 205/276/205 209/285/209 202/275/202
f 243/338/243 212/444/212 206/341/206
f 212/444/212 243/338/243 236/334/236
