# Blender v2.79 (sub 0) OBJ File: ''
# www.blender.org
mtllib w21kt02.mtl
o MDL_w21kt02_bod00
v -0.015000 0.551600 0.084700
v 0.000000 0.619400 0.075300
v 0.000000 0.647800 0.046300
v 0.000000 0.517500 0.116600
v 0.000000 0.470600 0.117200
v -0.014100 0.547800 0.042800
v 0.000000 0.479100 0.068100
v -0.005600 0.508700 -0.010300
v 0.000000 0.561600 0.017200
v 0.005900 0.508700 -0.010300
v -0.007800 0.461600 0.101600
v 0.000000 0.158700 -0.006300
v 0.000000 0.170600 -0.015600
v -0.018100 0.180600 0.018400
v 0.018400 0.180600 0.018400
v 0.014400 0.167200 0.022500
v 0.000000 0.190600 0.052500
v 0.000000 0.175600 0.050900
v -0.014100 0.167200 0.022500
v 0.000000 0.173400 -0.005300
v -0.010600 0.180300 0.018100
v 0.010900 0.180300 0.018100
v 0.000000 0.186200 0.039400
v -0.005600 0.063100 0.033800
v 0.000000 0.062500 0.049100
v 0.000000 0.009400 0.007500
v 0.000000 0.063700 0.020900
v -0.021600 0.369100 -0.002200
v -0.005900 0.345600 0.048700
v -0.006900 0.356200 0.047800
v -0.010900 0.358400 -0.004400
v -0.015300 0.375000 -0.023700
v 0.000000 0.362800 -0.027500
v -0.011600 0.368400 -0.001600
v 0.000000 0.362500 0.021600
v 0.000000 0.360000 0.032500
v 0.007200 0.356200 0.047800
v 0.011600 0.368400 -0.001600
v 0.000000 0.374700 -0.024100
v -0.017200 0.464400 0.024100
v -0.016900 0.449400 0.015900
v 0.000000 0.492500 -0.022800
v 0.000000 0.379700 0.056200
v 0.000000 0.344400 0.055600
v 0.011300 0.358400 -0.004400
v 0.000000 0.354100 0.018800
v 0.016900 0.449400 0.015900
v 0.000000 0.390900 0.027800
v 0.000000 0.235900 0.101300
v 0.000000 0.348100 0.035000
v 0.000000 0.591200 -0.080300
v 0.000000 0.406600 -0.078100
v 0.000000 0.370300 0.091600
v 0.005900 0.345600 0.048700
v 0.000000 0.607800 -0.001200
v -0.010000 0.627800 0.022500
v 0.015000 0.551600 0.084700
v 0.014100 0.547800 0.042800
v 0.007800 0.461600 0.101600
v 0.005600 0.063100 0.033800
v 0.021600 0.369100 -0.002200
v 0.015300 0.375000 -0.023700
v 0.017200 0.464400 0.024100
v 0.000000 1.404100 0.081900
v 0.000000 1.463100 0.129700
v -0.004100 1.487500 0.116900
v 0.004100 1.487500 0.116900
v 0.008100 1.444100 0.034100
v -0.007800 1.444100 0.034100
v 0.000000 1.499700 0.216900
v 0.010000 1.407200 0.008100
v -0.009700 1.407200 0.008100
v -0.030000 0.523100 -0.027200
v 0.000000 0.512200 -0.058100
v 0.000000 0.534100 -0.046900
v -0.034700 0.478400 -0.045600
v 0.000000 0.544700 -0.022500
v -0.004400 0.540600 -0.018100
v 0.030000 0.523100 -0.027200
v 0.034700 0.478400 -0.045600
v 0.000000 0.514400 0.005300
v 0.000000 0.445600 -0.026900
v 0.000000 0.407800 -0.052500
v -0.015600 0.408100 -0.045900
v -0.009100 0.394700 -0.036900
v -0.012800 0.452500 -0.038400
v 0.000000 0.452800 -0.048100
v 0.000000 0.392200 -0.040300
v 0.000000 0.539400 -0.011300
v 0.000000 0.562800 0.002200
v 0.004400 0.540600 -0.018100
v -0.069400 0.423700 -0.068400
v -0.009700 0.425900 -0.039100
v -0.056900 0.413400 -0.058700
v -0.062500 0.428400 -0.055600
v -0.072200 0.419400 -0.061900
v -0.011300 0.380900 0.035900
v -0.043400 0.492500 -0.020000
v -0.046900 0.507200 -0.025000
v -0.001600 0.437500 -0.031900
v -0.048700 0.506600 -0.019100
v -0.011300 0.444100 0.041900
v -0.035000 0.502500 -0.016900
v -0.072800 0.469400 -0.056200
v -0.008800 0.430900 -0.035600
v -0.064400 0.456200 -0.045600
v -0.058400 0.470600 -0.043400
v -0.076900 0.468400 -0.048700
v -0.019100 0.418100 0.040300
v -0.048100 0.373100 -0.041900
v -0.066900 0.373400 -0.048400
v -0.001900 0.422800 -0.036200
v -0.070000 0.369100 -0.042200
v -0.023400 0.360600 0.022800
v -0.056600 0.382500 -0.037200
v 0.012800 0.452500 -0.038400
v 0.009400 0.394700 -0.036900
v 0.015600 0.408100 -0.045900
v 0.056900 0.413400 -0.058700
v 0.069400 0.423700 -0.068400
v 0.009700 0.425900 -0.039100
v 0.072500 0.419400 -0.061900
v 0.011300 0.380900 0.035900
v 0.062500 0.428400 -0.055600
v 0.043700 0.492500 -0.020000
v 0.047200 0.507200 -0.025000
v 0.001600 0.437500 -0.031900
v 0.049100 0.506600 -0.019100
v 0.011600 0.444100 0.041900
v 0.035000 0.502500 -0.016900
v 0.064400 0.456200 -0.045600
v 0.073100 0.469400 -0.056200
v 0.009100 0.430900 -0.035600
v 0.076900 0.468400 -0.048700
v 0.019400 0.418100 0.040300
v 0.058700 0.470600 -0.043400
v 0.002200 0.422800 -0.036200
v 0.067200 0.373400 -0.048400
v 0.048100 0.373100 -0.041900
v 0.056900 0.382500 -0.037200
v 0.070300 0.369100 -0.042200
v 0.023700 0.360600 0.022800
v -0.006300 0.738700 0.006900
v 0.000000 0.705300 0.014400
v 0.000000 0.742500 0.056200
v -0.011600 0.726200 -0.055000
v 0.000000 0.683700 -0.043700
v -0.009400 0.694700 -0.014700
v 0.000000 0.686900 -0.108800
v -0.009400 0.770000 -0.026600
v 0.000000 0.770000 -0.057500
v 0.000000 0.770000 0.004400
v 0.006600 0.738700 0.006900
v 0.011600 0.726200 -0.055000
v 0.009400 0.694400 -0.014700
v -0.006300 0.804100 0.008800
v 0.000000 0.790600 0.056200
v -0.011600 0.813400 -0.053800
v 0.000000 0.795000 -0.117800
v -0.009400 0.845300 -0.011600
v 0.000000 0.855600 -0.040900
v 0.000000 0.834700 0.017200
v 0.006600 0.804100 0.008800
v 0.011600 0.813400 -0.053800
v 0.009700 0.770000 -0.026600
v -0.006300 0.676600 0.027800
v 0.000000 0.696900 0.072800
v -0.011600 0.643700 -0.026200
v 0.000000 0.588100 -0.063100
v 0.006600 0.676600 0.027800
v 0.011600 0.643700 -0.026200
v 0.010300 0.627800 0.022500
v -0.006300 0.865000 0.033400
v 0.000000 0.836200 0.073400
v -0.011600 0.895300 -0.022200
v 0.000000 0.899700 -0.088700
v -0.009400 0.910600 0.027800
v 0.000000 0.930600 0.004100
v 0.000000 0.890600 0.051600
v 0.006600 0.865000 0.033400
v 0.011600 0.895300 -0.022200
v 0.009700 0.845300 -0.011600
v -0.006200 1.250600 0.037200
v 0.000000 1.217200 0.044700
v 0.000000 1.254100 0.086200
v -0.011600 1.238100 -0.024700
v 0.000000 1.195600 -0.013400
v -0.009400 1.206600 0.015600
v 0.000000 1.198700 -0.078400
v -0.009400 1.281900 0.003400
v 0.000000 1.281900 -0.027500
v 0.000000 1.281900 0.034700
v 0.006600 1.250600 0.037200
v 0.011600 1.238100 -0.024700
v 0.009700 1.206600 0.015300
v -0.006200 1.315900 0.039100
v 0.000000 1.302500 0.086600
v -0.011600 1.325300 -0.023400
v 0.000000 1.306900 -0.087500
v -0.009400 1.357200 0.018400
v 0.000000 1.367500 -0.010600
v 0.000000 1.346600 0.047500
v 0.006600 1.315900 0.039100
v 0.011600 1.325300 -0.023400
v 0.009700 1.281900 0.003400
v -0.006200 1.182500 0.063100
v 0.000000 1.154100 0.081900
v 0.000000 1.196600 0.108800
v -0.011600 1.155600 0.004100
v 0.000000 1.117500 0.032800
v -0.009400 1.135900 0.057200
v 0.000000 1.109100 -0.036200
v 0.006600 1.182500 0.063100
v 0.011600 1.155600 0.004100
v 0.009700 1.135900 0.057200
v -0.006200 1.376900 0.063700
v 0.000000 1.348100 0.103400
v 0.000000 1.411600 -0.058400
v 0.006600 1.376900 0.063700
v 0.009700 1.357200 0.018400
v 0.006600 1.021600 0.043100
v 0.000000 0.988100 0.035900
v 0.000000 1.025300 -0.005600
v 0.009700 0.977500 0.065000
v 0.013400 1.009100 0.105300
v 0.000000 0.966900 0.094100
v 0.000000 0.969700 0.159100
v -0.006200 1.021600 0.043100
v -0.009400 0.977500 0.065000
v -0.013400 1.009100 0.105300
v -0.013400 0.926600 0.076600
v -0.009400 1.053100 0.076900
v 0.000000 1.053100 0.045900
v 0.000000 1.052800 0.108100
v 0.006600 1.086900 0.041300
v 0.000000 1.073700 -0.005900
v 0.009700 1.053100 0.076900
v 0.013400 1.096600 0.104100
v 0.000000 1.077800 0.168100
v -0.006200 1.086900 0.041300
v -0.013400 1.096600 0.104100
v 0.006600 0.959700 0.022500
v 0.000000 0.979700 -0.022500
v 0.009700 0.910600 0.027800
v 0.013400 0.926600 0.076600
v 0.000000 0.871200 0.113800
v -0.006300 0.959700 0.022500
vt 0.816400 0.722700
vt 0.914100 0.605500
vt 0.910200 0.515600
vt 0.847700 0.789100
vt 0.730500 0.906300
vt 0.710900 0.687500
vt 0.652300 0.804700
vt 0.460900 0.691400
vt 0.679700 0.613300
vt 0.460900 0.691400
vt 0.679700 0.871100
vt 0.781300 0.964800
vt 0.886700 0.918000
vt 0.781300 0.918000
vt 0.886700 0.918000
vt 0.886700 0.964800
vt 0.992200 0.918000
vt 0.992200 0.964800
vt 0.886700 0.964800
vt 0.890600 0.878900
vt 0.781300 0.878900
vt 0.890600 0.878900
vt 0.992200 0.878900
vt 0.226600 0.863300
vt 0.293000 0.632800
vt 0.226600 0.632800
vt 0.293000 0.863300
vt 0.234400 0.992200
vt 0.164100 0.863300
vt 0.164100 0.632800
vt 0.125000 0.347700
vt 0.066400 0.621100
vt 0.125000 0.621100
vt 0.066400 0.347700
vt 0.125000 0.222700
vt 0.062500 0.187500
vt 0.019500 0.507800
vt 0.050800 0.441400
vt 0.050800 0.363300
vt 0.003900 0.363300
vt 0.050800 0.535200
vt 0.019500 0.507800
vt 0.050800 0.363300
vt 0.003900 0.171900
vt 0.050800 0.195300
vt 0.230500 0.261700
vt 0.175800 0.144500
vt 0.175800 0.261700
vt 0.230500 0.371100
vt 0.230500 0.144500
vt 0.175800 0.398400
vt 0.230500 0.441400
vt 0.003900 0.996100
vt 0.070300 0.632800
vt 0.003900 0.632800
vt 0.070300 0.632800
vt 0.074200 0.996100
vt 0.152300 0.632800
vt 0.152300 0.996100
vt 0.074200 0.996100
vt 0.300800 0.992200
vt 0.382800 0.726600
vt 0.300800 0.632800
vt 0.382800 0.726600
vt 0.371100 0.992200
vt 0.445300 0.902300
vt 0.445300 0.992200
vt 0.371100 0.992200
vt 0.140600 0.328100
vt 0.175800 0.304700
vt 0.175800 0.441400
vt 0.230500 0.621100
vt 0.140600 0.441400
vt 0.175800 0.621100
vt 0.230500 0.019500
vt 0.054700 0.019500
vt 0.066400 0.187500
vt 0.488300 1.000000
vt 0.460900 0.800800
vt 0.460900 0.914100
vt 0.050800 0.441400
vt 0.019500 0.507800
vt 0.050800 0.359400
vt 0.050800 0.535200
vt 0.019500 0.507800
vt 0.707000 0.515600
vt 0.808600 0.515600
vt 0.140600 0.398400
vt 0.816400 0.722700
vt 0.710900 0.687500
vt 0.679700 0.871100
vt 0.226600 0.863300
vt 0.226600 0.632800
vt 0.066400 0.621100
vt 0.125000 0.347700
vt 0.125000 0.621100
vt 0.066400 0.347700
vt 0.003900 0.171900
vt 0.003900 0.363300
vt 0.230500 0.261700
vt 0.175800 0.261700
vt 0.230500 0.144500
vt 0.175800 0.398400
vt 0.175800 0.304700
vt 0.175800 0.441400
vt 0.125000 0.222700
vt 0.460900 0.800800
vt 0.050800 0.359400
vt 0.207000 0.144500
vt 0.984400 0.250000
vt 0.976600 0.093800
vt 0.878900 0.093800
vt 0.878900 0.093800
vt 0.773400 0.250000
vt 0.773400 0.250000
vt 0.980500 0.007800
vt 0.933600 0.515600
vt 0.996100 0.664100
vt 0.933600 0.664100
vt 0.996100 0.515600
vt 0.933600 0.613300
vt 0.996100 0.613300
vt 0.968800 0.863300
vt 0.679700 0.128900
vt 0.664100 0.003900
vt 0.585900 0.003900
vt 0.496100 0.128900
vt 0.746100 0.003900
vt 0.746100 0.054700
vt 0.679700 0.128900
vt 0.496100 0.128900
vt 0.679700 0.250000
vt 0.406300 0.250000
vt 0.480500 0.464800
vt 0.406300 0.503900
vt 0.480500 0.531300
vt 0.601600 0.531300
vt 0.601600 0.464800
vt 0.398400 0.464800
vt 0.601600 0.609400
vt 0.449200 0.570300
vt 0.746100 0.152300
vt 0.507800 0.414100
vt 0.410200 0.406300
vt 0.410200 0.433600
vt 0.410200 0.433600
vt 0.410200 0.457000
vt 0.320300 0.371100
vt 0.386700 0.457000
vt 0.390600 0.363300
vt 0.390600 0.363300
vt 0.320300 0.351600
vt 0.355500 0.015600
vt 0.390600 0.363300
vt 0.320300 0.371100
vt 0.386700 0.457000
vt 0.320300 0.351600
vt 0.355500 0.015600
vt 0.390600 0.363300
vt 0.320300 0.371100
vt 0.386700 0.457000
vt 0.390600 0.363300
vt 0.390600 0.363300
vt 0.320300 0.351600
vt 0.355500 0.015600
vt 0.390600 0.363300
vt 0.320300 0.371100
vt 0.386700 0.457000
vt 0.320300 0.351600
vt 0.355500 0.015600
vt 0.390600 0.363300
vt 0.406300 0.066400
vt 0.406300 0.003900
vt 0.406300 0.066400
vt 0.445300 0.597700
vt 0.449200 0.570300
vt 0.746100 0.054700
vt 0.406300 0.503900
vt 0.480500 0.531300
vt 0.601600 0.531300
vt 0.390600 0.363300
vt 0.386700 0.457000
vt 0.320300 0.371100
vt 0.320300 0.351600
vt 0.355500 0.015600
vt 0.390600 0.363300
vt 0.390600 0.363300
vt 0.386700 0.457000
vt 0.320300 0.371100
vt 0.320300 0.351600
vt 0.355500 0.015600
vt 0.390600 0.363300
vt 0.390600 0.363300
vt 0.386700 0.457000
vt 0.320300 0.371100
vt 0.320300 0.351600
vt 0.355500 0.015600
vt 0.390600 0.363300
vt 0.386700 0.457000
vt 0.320300 0.371100
vt 0.390600 0.363300
vt 0.390600 0.363300
vt 0.320300 0.351600
vt 0.355500 0.015600
vt 0.824200 0.265600
vt 0.824200 0.410200
vt 0.984400 0.355500
vt 0.621100 0.265600
vt 0.621100 0.410200
vt 0.722700 0.410200
vt 0.441400 0.355500
vt 0.722700 0.410200
vt 0.621100 0.410200
vt 0.621100 0.503900
vt 0.824200 0.503900
vt 0.824200 0.410200
vt 0.824200 0.265600
vt 0.621100 0.265600
vt 0.722700 0.410200
vt 0.996100 0.605500
vt 0.968800 0.863300
vt 0.933600 0.605500
vt 0.964800 0.515600
vt 0.933600 0.605500
vt 0.968800 0.863300
vt 0.996100 0.605500
vt 0.964800 0.515600
vt 0.824200 0.265600
vt 0.984400 0.355500
vt 0.621100 0.265600
vt 0.441400 0.355500
vt 0.722700 0.410200
vt 0.621100 0.410200
vt 0.621100 0.503900
vt 0.824200 0.503900
vt 0.824200 0.410200
vt 0.824200 0.265600
vt 0.621100 0.265600
vt 0.722700 0.410200
vt 0.996100 0.605500
vt 0.968800 0.863300
vt 0.933600 0.605500
vt 0.964800 0.515600
vt 0.933600 0.605500
vt 0.968800 0.863300
vt 0.996100 0.605500
vt 0.964800 0.515600
vt 0.824200 0.265600
vt 0.824200 0.410200
vt 0.984400 0.355500
vt 0.621100 0.265600
vt 0.621100 0.410200
vt 0.722700 0.410200
vt 0.441400 0.355500
vt 0.621100 0.503900
vt 0.824200 0.503900
vt 0.824200 0.265600
vt 0.621100 0.265600
vt 0.722700 0.410200
vt 0.996100 0.605500
vt 0.968800 0.863300
vt 0.933600 0.605500
vt 0.964800 0.515600
vt 0.933600 0.605500
vt 0.968800 0.863300
vt 0.996100 0.605500
vt 0.964800 0.515600
vt 0.824200 0.265600
vt 0.984400 0.355500
vt 0.621100 0.265600
vt 0.441400 0.355500
vt 0.722700 0.410200
vt 0.621100 0.410200
vt 0.621100 0.503900
vt 0.824200 0.503900
vt 0.824200 0.410200
vt 0.824200 0.265600
vt 0.621100 0.265600
vt 0.722700 0.410200
vt 0.996100 0.605500
vt 0.968800 0.863300
vt 0.933600 0.605500
vt 0.964800 0.515600
vt 0.933600 0.605500
vt 0.968800 0.863300
vt 0.996100 0.605500
vt 0.964800 0.515600
vt 0.824200 0.265600
vt 0.824200 0.410200
vt 0.984400 0.355500
vt 0.621100 0.265600
vt 0.621100 0.410200
vt 0.722700 0.410200
vt 0.441400 0.355500
vt 0.722700 0.410200
vt 0.621100 0.410200
vt 0.621100 0.503900
vt 0.824200 0.503900
vt 0.824200 0.410200
vt 0.824200 0.265600
vt 0.621100 0.265600
vt 0.722700 0.410200
vt 0.996100 0.605500
vt 0.968800 0.863300
vt 0.933600 0.605500
vt 0.964800 0.515600
vt 0.933600 0.605500
vt 0.968800 0.863300
vt 0.996100 0.605500
vt 0.964800 0.515600
vt 0.824200 0.265600
vt 0.984400 0.355500
vt 0.621100 0.265600
vt 0.441400 0.355500
vt 0.722700 0.410200
vt 0.621100 0.410200
vt 0.621100 0.503900
vt 0.824200 0.503900
vt 0.824200 0.410200
vt 0.824200 0.265600
vt 0.621100 0.265600
vt 0.722700 0.410200
vt 0.996100 0.605500
vt 0.968800 0.863300
vt 0.933600 0.605500
vt 0.964800 0.515600
vt 0.933600 0.605500
vt 0.968800 0.863300
vt 0.996100 0.605500
vt 0.964800 0.515600
vt 0.824200 0.265600
vt 0.824200 0.410200
vt 0.984400 0.355500
vt 0.621100 0.265600
vt 0.621100 0.410200
vt 0.722700 0.410200
vt 0.441400 0.355500
vt 0.621100 0.503900
vt 0.824200 0.503900
vt 0.824200 0.265600
vt 0.621100 0.265600
vt 0.722700 0.410200
vt 0.996100 0.605500
vt 0.968800 0.863300
vt 0.933600 0.605500
vt 0.964800 0.515600
vt 0.933600 0.605500
vt 0.968800 0.863300
vt 0.996100 0.605500
vt 0.964800 0.515600
vt 0.824200 0.265600
vt 0.984400 0.355500
vt 0.621100 0.265600
vt 0.441400 0.355500
vt 0.824200 0.265600
vt 0.621100 0.265600
vt 0.722700 0.410200
vt 0.996100 0.605500
vt 0.968800 0.863300
vt 0.933600 0.605500
vt 0.964800 0.515600
vt 0.968800 0.863300
vt 0.824200 0.265600
vt 0.824200 0.410200
vt 0.984400 0.355500
vt 0.722700 0.410200
vt 0.621100 0.265600
vt 0.441400 0.355500
vt 0.621100 0.410200
vt 0.824200 0.265600
vt 0.722700 0.410200
vt 0.621100 0.265600
vt 0.621100 0.503900
vt 0.722700 0.410200
vt 0.824200 0.410200
vt 0.824200 0.503900
vt 0.996100 0.605500
vt 0.968800 0.863300
vt 0.933600 0.605500
vt 0.964800 0.515600
vt 0.933600 0.605500
vt 0.968800 0.863300
vt 0.996100 0.605500
vt 0.964800 0.515600
vt 0.824200 0.265600
vt 0.984400 0.355500
vt 0.722700 0.410200
vt 0.621100 0.265600
vt 0.441400 0.355500
vt 0.621100 0.410200
vt 0.824200 0.265600
vt 0.621100 0.265600
vt 0.718800 0.410200
vt 0.824200 0.410200
vt 0.824200 0.503900
vt 0.996100 0.605500
vt 0.968800 0.863300
vt 0.933600 0.605500
vt 0.964800 0.515600
vt 0.933600 0.605500
vt 0.968800 0.863300
vt 0.996100 0.605500
vt 0.964800 0.515600
vt 0.824200 0.265600
vt 0.824200 0.410200
vt 0.984400 0.355500
vt 0.722700 0.410200
vt 0.621100 0.265600
vt 0.441400 0.355500
vt 0.621100 0.410200
vt 0.824200 0.265600
vt 0.621100 0.265600
vt 0.824200 0.503900
vt 0.996100 0.605500
vt 0.968800 0.863300
vt 0.933600 0.605500
vt 0.964800 0.515600
vt 0.933600 0.605500
vt 0.968800 0.863300
vt 0.996100 0.605500
vt 0.964800 0.515600
vt 0.621100 0.410200
vt 0.824200 0.503900
vt 0.824200 0.410200
vt 0.621100 0.503900
vt 0.621100 0.503900
vt 0.718800 0.410200
vt 0.621100 0.503900
vt 0.621100 0.410200
vt 0.808600 0.515600
vt 0.621100 0.503900
vt 0.621100 0.503900
vt 0.621100 0.503900
vt 0.621100 0.503900
vt 0.621100 0.503900
vt 0.621100 0.503900
vt 0.824200 0.503900
vt 0.621100 0.503900
vt 0.718800 0.410200
vt 0.824200 0.503900
vt 0.621100 0.503900
vt 0.621100 0.503900
vt 0.824200 0.503900
vt 0.824200 0.503900
vt 0.621100 0.410200
vt 0.621100 0.503900
vt 0.824200 0.503900
vt 0.824200 0.503900
vt 0.824200 0.503900
vt 0.824200 0.503900
vt 0.824200 0.503900
vt 0.824200 0.503900
vt 0.718800 0.414100
vt 0.824200 0.503900
vt 0.621100 0.503900
vn -0.9758 0.0483 0.2135
vn 0.0000 0.4988 0.8667
vn -0.0043 0.3801 0.9249
vn -0.0000 0.2372 0.9715
vn 0.0000 -0.0807 0.9967
vn -0.9935 0.0141 -0.1129
vn 0.0000 -0.9169 0.3990
vn -0.8993 0.3076 -0.3108
vn -0.0001 0.2064 -0.9785
vn 0.8995 0.3043 -0.3136
vn -0.9908 -0.0815 0.1084
vn -0.0037 -0.5700 -0.8216
vn -0.7248 0.6133 -0.3139
vn -0.0004 0.8725 -0.4887
vn 0.7235 0.6135 -0.3163
vn 0.9881 -0.1451 0.0505
vn -0.0027 0.7791 0.6269
vn -0.0032 -0.0629 0.9980
vn -0.9884 -0.1436 0.0492
vn -0.6614 0.7449 -0.0870
vn -0.0002 0.6134 -0.7898
vn 0.6595 0.7470 -0.0839
vn -0.0009 0.9967 -0.0810
vn -0.9953 -0.0662 0.0708
vn -0.0000 -0.3619 0.9322
vn 0.0000 -0.9156 -0.4022
vn -0.0016 -0.1155 -0.9933
vn -0.9634 0.2347 0.1299
vn -0.8511 -0.5163 0.0957
vn -0.8502 0.4455 0.2805
vn -0.8089 -0.5222 -0.2701
vn -0.8889 0.4422 -0.1193
vn -0.0020 -0.6857 -0.7279
vn -0.0004 0.9017 0.4323
vn -0.5387 0.7812 0.3156
vn -0.0041 0.9749 -0.2228
vn 0.8522 0.4413 0.2812
vn 0.5387 0.7811 0.3157
vn -0.0000 0.9996 -0.0295
vn -0.9998 -0.0080 0.0162
vn -0.0028 -0.0449 -0.9990
vn -0.9914 -0.0577 -0.1176
vn -0.0056 -0.0583 0.9983
vn -0.0032 0.1194 0.9928
vn 0.8113 -0.5176 -0.2720
vn -0.0022 -0.9841 0.1777
vn 0.9915 -0.0566 -0.1173
vn -0.0096 -0.9065 -0.4221
vn -0.0000 0.1112 0.9938
vn 0.0000 -0.8327 -0.5537
vn -0.0093 0.8056 0.5924
vn -0.0000 0.9991 -0.0434
vn 0.0000 -0.5930 0.8052
vn 0.8488 -0.5203 0.0938
vn -0.0020 -0.6898 -0.7240
vn -0.9977 -0.0379 0.0569
vn 0.9758 0.0483 0.2135
vn 0.9937 0.0136 -0.1112
vn 0.9908 -0.0815 0.1084
vn 0.9951 -0.0671 0.0726
vn 0.9645 0.2313 0.1275
vn 0.8860 0.4472 -0.1226
vn 0.9998 -0.0103 0.0163
vn -0.0019 -0.4129 0.9108
vn -0.0000 -0.7939 0.6081
vn -0.7570 0.6225 -0.1986
vn 0.8822 0.4617 -0.0921
vn 0.7376 0.5846 -0.3380
vn -0.7437 0.5097 -0.4326
vn 0.0003 1.0000 -0.0094
vn 0.8201 0.4025 -0.4068
vn -0.9136 0.3147 -0.2577
vn -0.8099 0.5821 -0.0723
vn 0.0000 0.7376 -0.6752
vn -0.0000 0.2271 -0.9739
vn -0.9205 -0.3670 -0.1338
vn -0.0000 0.9662 -0.2578
vn -0.8308 0.4339 0.3485
vn 0.8099 0.5821 -0.0723
vn 0.9205 -0.3670 -0.1338
vn 0.0000 0.1395 0.9902
vn 0.0021 -0.2945 0.9557
vn -0.0015 -0.2856 -0.9584
vn -0.6633 -0.7459 0.0595
vn -0.9657 -0.2252 -0.1292
vn -0.8973 -0.2726 -0.3473
vn 0.0000 -0.2684 -0.9633
vn -0.0017 -0.9654 0.2609
vn 0.0000 0.0817 0.9967
vn -0.0000 0.8344 0.5512
vn 0.8308 0.4339 0.3485
vn -0.1629 0.2753 -0.9475
vn 0.3931 0.3945 -0.8306
vn -0.0321 -0.7775 -0.6281
vn -0.5436 0.8288 0.1329
vn -0.9458 -0.3244 -0.0123
vn -0.8278 -0.4466 0.3396
vn -0.8881 -0.3750 -0.2658
vn -0.4062 0.4176 -0.8128
vn -0.0466 0.0684 -0.9966
vn -0.7569 0.5254 0.3886
vn -0.6469 0.2980 0.7019
vn 0.4149 0.9052 0.0915
vn -0.2091 0.0816 -0.9745
vn 0.2482 -0.1029 -0.9632
vn -0.5313 -0.7558 -0.3827
vn 0.0603 0.9982 0.0022
vn -0.9655 0.1943 0.1736
vn -0.8266 0.0431 0.5612
vn 0.2444 -0.7393 -0.6275
vn -0.4843 0.2601 -0.8353
vn -0.2186 0.4953 -0.8408
vn -0.8555 -0.5123 -0.0757
vn -0.6695 -0.6272 0.3980
vn -0.6997 0.6875 0.1942
vn 0.8973 -0.2726 -0.3473
vn 0.6676 -0.7427 0.0518
vn 0.9664 -0.2191 -0.1345
vn 0.0275 -0.7760 -0.6302
vn -0.3931 0.3945 -0.8306
vn 0.1504 0.2831 -0.9472
vn 0.9486 -0.3156 -0.0227
vn 0.8277 -0.4439 0.3432
vn 0.5310 0.8378 0.1269
vn 0.8843 -0.3783 -0.2737
vn 0.0505 0.0656 -0.9966
vn 0.4052 0.4099 -0.8172
vn 0.7618 0.5231 0.3822
vn 0.6504 0.2936 0.7006
vn -0.4083 0.9085 0.0890
vn 0.5346 -0.7573 -0.3751
vn -0.2467 -0.1054 -0.9633
vn 0.2202 0.0783 -0.9723
vn 0.9648 0.1884 0.1834
vn 0.8285 0.0410 0.5584
vn -0.0572 0.9984 0.0042
vn 0.2208 0.4976 -0.8388
vn 0.4858 0.2626 -0.8337
vn -0.2416 -0.7386 -0.6293
vn 0.6997 0.6875 0.1942
vn 0.8562 -0.5111 -0.0750
vn 0.6702 -0.6261 0.3986
vn -0.9156 0.2002 0.3488
vn -0.0021 0.2166 0.9763
vn -0.0028 0.9584 0.2854
vn -0.9267 0.0836 -0.3664
vn -0.0002 -0.5448 -0.8386
vn -0.9995 0.0113 0.0282
vn 0.0001 0.4069 -0.9135
vn -0.9996 0.0006 0.0300
vn -0.0019 -0.2248 -0.9744
vn -0.0046 -0.1322 0.9912
vn 0.9153 0.1976 0.3510
vn 0.9256 0.0815 -0.3697
vn 0.9996 0.0106 0.0256
vn -0.9151 0.0685 0.3974
vn -0.0029 0.8000 0.6001
vn -0.9266 0.2038 -0.3161
vn -0.0002 0.6930 -0.7209
vn -0.9995 -0.0108 0.0294
vn -0.0019 0.1273 -0.9919
vn -0.0046 -0.4677 0.8839
vn 0.9140 0.0667 0.4001
vn 0.9248 0.2046 -0.3207
vn 0.9996 0.0007 0.0285
vn -0.9136 0.3131 0.2595
vn -0.0028 0.9984 -0.0572
vn -0.9249 -0.0483 -0.3772
vn 0.0001 0.0643 -0.9979
vn 0.9132 0.3139 0.2599
vn 0.9236 -0.0485 -0.3804
vn 0.9975 -0.0404 0.0577
vn -0.9154 -0.0719 0.3961
vn -0.0029 0.5472 0.8370
vn -0.9268 0.2991 -0.2272
vn 0.0001 0.8982 -0.4395
vn -0.9999 -0.0049 -0.0101
vn -0.0037 0.4945 -0.8692
vn -0.0027 -0.8034 0.5954
vn 0.9143 -0.0745 0.3980
vn 0.9250 0.3013 -0.2313
vn 0.9996 -0.0102 0.0279
vn -0.9153 0.2007 0.3492
vn -0.0045 0.2224 0.9749
vn -0.0038 0.9574 0.2886
vn -0.9269 0.0820 -0.3661
vn -0.0024 -0.5435 -0.8394
vn -0.9995 0.0086 0.0292
vn 0.0001 0.4051 -0.9143
vn -0.9996 0.0006 0.0297
vn -0.0019 -0.2262 -0.9741
vn -0.0053 -0.1326 0.9912
vn 0.9146 0.1992 0.3518
vn 0.9249 0.0808 -0.3715
vn 0.9996 0.0071 0.0256
vn -0.9155 0.0691 0.3962
vn -0.0037 0.8035 0.5953
vn -0.9266 0.2040 -0.3159
vn 0.0001 0.6946 -0.7194
vn -0.9996 0.0021 0.0276
vn -0.0031 0.1828 -0.9832
vn -0.0054 -0.4671 0.8842
vn 0.9146 0.0669 0.3988
vn 0.9247 0.2048 -0.3210
vn 0.9996 0.0007 0.0274
vn -0.9086 0.3186 0.2701
vn -0.0039 0.3103 0.9506
vn -0.0034 0.9981 0.0622
vn -0.9275 -0.0315 -0.3725
vn -0.0039 -0.5804 -0.8143
vn -0.9999 0.0090 -0.0083
vn 0.0001 0.1684 -0.9857
vn 0.9079 0.3181 0.2731
vn 0.9254 -0.0345 -0.3774
vn 0.9999 0.0089 -0.0082
vn -0.9268 -0.0300 0.3743
vn -0.0038 0.5464 0.8375
vn -0.0021 0.9379 -0.3470
vn 0.9257 -0.0337 0.3767
vn 0.9997 0.0010 0.0256
vn 0.9103 0.2018 -0.3615
vn -0.0052 0.2209 -0.9753
vn -0.0038 0.9579 -0.2871
vn 0.9993 0.0136 -0.0354
vn 0.9291 0.0763 0.3619
vn 0.0002 0.3016 0.9534
vn -0.0018 -0.5672 0.8236
vn -0.9113 0.2031 -0.3583
vn -0.9992 0.0148 -0.0370
vn -0.9310 0.0773 0.3568
vn -0.9308 -0.0483 0.3624
vn -0.9992 0.0004 -0.0407
vn -0.0054 -0.1310 -0.9914
vn -0.0018 -0.2505 0.9681
vn 0.9054 0.0571 -0.4208
vn -0.0038 0.8026 -0.5966
vn 0.9993 0.0005 -0.0385
vn 0.9319 0.1970 0.3044
vn -0.0001 0.6109 0.7917
vn -0.9066 0.0595 -0.4177
vn -0.9338 0.1959 0.2993
vn 0.9097 0.3149 -0.2706
vn -0.0027 0.9987 0.0518
vn 0.9999 -0.0048 -0.0100
vn 0.9291 -0.0507 0.3664
vn -0.0001 -0.0389 0.9992
vn -0.9108 0.3146 -0.2674
usemtl MDL_w21kt02_bod00_TEX_w21kt02
s 1
f 1/1/1 2/2/2 3/3/3
f 2/2/2 1/1/1 4/4/4
f 5/5/5 4/4/4 1/1/1
f 6/6/6 7/7/7 1/1/1
f 1/1/1 3/3/3 6/6/6
f 8/8/8 6/6/6 9/9/9
f 9/9/9 10/10/10 8/8/8
f 11/11/11 1/1/1 7/7/7
f 12/12/12 14/13/13 13/14/14
f 13/14/14 15/15/15 12/12/12
f 16/16/16 12/12/12 15/15/15
f 15/15/15 17/17/17 16/16/16
f 18/18/18 16/16/16 17/17/17
f 17/17/17 19/19/19 18/18/18
f 14/13/13 12/12/12 19/19/19
f 19/19/19 17/17/17 14/13/13
f 13/14/14 21/20/20 20/21/21
f 20/21/21 22/22/22 13/14/14
f 15/15/15 13/14/14 22/22/22
f 22/22/22 23/23/23 15/15/15
f 17/17/17 15/15/15 23/23/23
f 23/23/23 14/13/13 17/17/17
f 21/20/20 13/14/14 14/13/13
f 14/13/13 23/23/23 21/20/20
f 24/24/24 18/25/18 19/26/19
f 18/25/18 24/24/24 25/27/25
f 26/28/26 25/27/25 24/24/24
f 19/26/19 27/29/27 24/24/24
f 27/29/27 19/26/19 12/30/12
f 28/31/28 29/32/29 30/33/30
f 29/32/29 28/31/28 31/34/31
f 32/35/32 31/34/31 28/31/28
f 31/34/31 32/35/32 33/36/33
f 30/37/30 35/38/34 34/39/35
f 34/39/35 28/40/28 30/37/30
f 35/38/34 30/37/30 36/41/36
f 36/41/36 37/42/37 35/38/34
f 38/43/38 35/38/34 37/42/37
f 34/39/35 32/44/32 28/40/28
f 32/44/32 34/39/35 39/45/39
f 40/46/40 42/47/41 41/48/42
f 41/48/42 43/49/43 40/46/40
f 40/46/40 8/50/8 42/47/41
f 43/49/43 41/48/42 30/51/30
f 30/51/30 44/52/44 43/49/43
f 26/28/26 24/24/24 27/29/27
f 20/53/21 31/54/31 33/55/33
f 33/55/33 45/56/45 20/53/21
f 22/57/22 20/53/21 45/56/45
f 45/56/45 46/58/46 22/57/22
f 23/59/23 22/57/22 46/58/46
f 46/58/46 21/60/20 23/59/23
f 31/54/31 20/53/21 21/60/20
f 21/60/20 46/58/46 31/54/31
f 39/61/39 41/62/42 42/63/41
f 42/63/41 47/64/47 39/61/39
f 38/65/38 39/61/39 47/64/47
f 47/64/47 48/66/48 38/65/38
f 35/67/34 38/65/38 48/66/48
f 48/66/48 34/68/35 35/67/34
f 41/62/42 39/61/39 34/68/35
f 34/68/35 48/66/48 41/62/42
f 48/69/48 30/51/30 41/70/42
f 29/71/29 49/72/49 44/52/44
f 50/73/50 49/74/49 29/71/29
f 8/50/8 51/75/51 42/47/41
f 32/44/32 39/45/39 52/76/52
f 29/71/29 44/52/44 30/51/30
f 32/35/32 52/77/52 33/36/33
f 5/5/5 1/1/1 11/11/11
f 11/11/11 53/78/53 5/5/5
f 53/78/53 11/11/11 7/7/7
f 40/79/40 7/7/7 6/6/6
f 43/80/43 7/7/7 40/79/40
f 40/79/40 6/6/6 8/8/8
f 46/81/46 29/82/29 31/83/31
f 29/82/29 46/81/46 50/84/50
f 54/85/54 50/84/50 46/81/46
f 55/86/55 9/9/9 6/6/6
f 6/6/6 56/87/56 55/86/55
f 6/6/6 3/3/3 56/87/56
f 36/88/36 30/51/30 48/69/48
f 57/89/57 7/7/7 58/90/58
f 7/7/7 57/89/57 59/91/59
f 5/5/5 59/91/59 57/89/57
f 59/91/59 5/5/5 53/78/53
f 9/9/9 58/90/58 10/10/10
f 58/90/58 9/9/9 55/86/55
f 18/25/18 60/92/60 16/93/16
f 60/92/60 18/25/18 25/27/25
f 27/29/27 16/93/16 60/92/60
f 16/93/16 27/29/27 12/30/12
f 54/94/54 61/95/61 37/96/37
f 61/95/61 54/94/54 45/97/45
f 62/98/62 38/43/38 61/99/61
f 38/43/38 62/98/62 39/45/39
f 52/76/52 39/45/39 62/98/62
f 42/47/41 63/100/63 47/101/47
f 63/100/63 42/47/41 10/102/10
f 51/75/51 10/102/10 42/47/41
f 43/49/43 37/103/37 47/101/47
f 37/103/37 43/49/43 44/52/44
f 47/101/47 63/100/63 43/49/43
f 60/92/60 26/28/26 27/29/27
f 26/28/26 60/92/60 25/27/25
f 37/103/37 48/69/48 47/104/47
f 48/69/48 37/103/37 36/88/36
f 44/52/44 49/72/49 54/105/54
f 54/105/54 37/103/37 44/52/44
f 49/74/49 50/73/50 54/105/54
f 62/106/62 45/97/45 33/36/33
f 33/36/33 52/77/52 62/106/62
f 62/106/62 61/95/61 45/97/45
f 57/89/57 4/4/4 5/5/5
f 4/4/4 57/89/57 2/2/2
f 59/91/59 53/78/53 7/7/7
f 7/7/7 63/107/63 58/90/58
f 63/107/63 7/7/7 43/80/43
f 58/90/58 63/107/63 10/10/10
f 37/42/37 61/99/61 38/43/38
f 46/81/46 45/108/45 54/85/54
f 51/75/51 8/50/8 10/109/10
f 64/110/64 65/111/65 66/112/66
f 65/111/65 64/110/64 67/113/67
f 68/114/68 67/113/67 64/110/64
f 66/112/66 69/115/69 64/110/64
f 70/116/70 66/112/66 65/111/65
f 68/117/68 66/118/66 67/119/67
f 66/118/66 68/117/68 69/120/69
f 71/121/71 69/120/69 68/117/68
f 69/120/69 71/121/71 72/122/72
f 67/119/67 66/118/66 70/123/70
f 73/124/73 75/125/74 74/126/75
f 74/126/75 76/127/76 73/124/73
f 77/128/77 73/124/73 78/129/78
f 73/124/73 77/128/77 75/125/74
f 79/130/79 75/125/74 77/128/77
f 75/125/74 79/130/79 74/126/75
f 80/131/80 74/126/75 79/130/79
f 76/127/76 81/132/81 73/124/73
f 81/132/81 76/127/76 82/133/82
f 83/134/83 85/135/84 84/136/85
f 84/136/85 86/137/86 83/134/83
f 87/138/87 83/134/83 86/137/86
f 83/134/83 88/139/88 85/135/84
f 84/136/85 82/140/82 86/137/86
f 82/140/82 84/136/85 85/141/84
f 78/129/78 81/132/81 89/142/89
f 81/132/81 78/129/78 73/124/73
f 90/143/90 77/144/77 78/145/78
f 77/144/77 90/143/90 91/146/91
f 90/143/90 78/145/78 89/147/89
f 92/148/92 93/149/93 94/150/94
f 93/149/93 92/148/92 95/151/95
f 96/152/96 95/151/95 92/148/92
f 96/152/96 94/150/94 97/153/97
f 94/150/94 96/152/96 92/148/92
f 97/153/97 95/151/95 96/152/96
f 98/154/98 99/155/99 100/156/100
f 101/157/101 98/154/98 102/158/102
f 98/154/98 101/157/101 99/155/99
f 103/159/103 99/155/99 101/157/101
f 99/155/99 103/159/103 100/156/100
f 102/158/102 103/159/103 101/157/101
f 104/160/104 105/161/105 106/162/106
f 105/161/105 104/160/104 107/163/107
f 108/164/108 107/163/107 104/160/104
f 108/164/108 106/162/106 109/165/109
f 106/162/106 108/164/108 104/160/104
f 109/165/109 107/163/107 108/164/108
f 110/166/110 111/167/111 112/168/112
f 111/167/111 110/166/110 113/169/113
f 114/170/114 113/169/113 110/166/110
f 113/169/113 114/170/114 115/171/115
f 111/167/111 115/171/115 112/168/112
f 115/171/115 111/167/111 113/169/113
f 76/127/76 86/172/86 82/133/82
f 87/173/87 76/127/76 74/126/75
f 74/126/75 80/131/80 87/173/87
f 116/174/116 87/173/87 80/131/80
f 87/173/87 86/172/86 76/127/76
f 82/140/82 85/141/84 88/175/88
f 88/175/88 117/176/117 82/140/82
f 79/130/79 77/128/77 91/177/91
f 91/177/91 81/132/81 79/130/79
f 81/132/81 80/131/80 79/130/79
f 80/131/80 81/132/81 82/133/82
f 117/178/117 83/134/83 118/179/118
f 83/134/83 117/178/117 88/139/88
f 82/140/82 118/179/118 116/180/116
f 118/179/118 82/140/82 117/176/117
f 116/180/116 83/134/83 87/138/87
f 83/134/83 116/180/116 118/179/118
f 91/177/91 89/142/89 81/132/81
f 90/143/90 89/147/89 91/146/91
f 119/181/119 121/182/120 120/183/121
f 120/183/121 122/184/122 119/181/119
f 123/185/123 119/181/119 122/184/122
f 122/184/122 124/186/124 123/185/123
f 124/186/124 120/183/121 121/182/120
f 120/183/121 124/186/124 122/184/122
f 125/187/125 127/188/126 126/189/127
f 126/189/127 128/190/128 125/187/125
f 129/191/129 125/187/125 128/190/128
f 128/190/128 130/192/130 129/191/129
f 130/192/130 126/189/127 127/188/126
f 126/189/127 130/192/130 128/190/128
f 131/193/131 133/194/132 132/195/133
f 132/195/133 134/196/134 131/193/131
f 135/197/135 131/193/131 134/196/134
f 134/196/134 136/198/136 135/197/135
f 136/198/136 132/195/133 133/194/132
f 132/195/133 136/198/136 134/196/134
f 137/199/137 138/200/138 139/201/139
f 138/200/138 137/199/137 140/202/140
f 141/203/141 139/201/139 138/200/138
f 139/201/139 141/203/141 142/204/142
f 140/202/140 142/204/142 141/203/141
f 141/203/141 138/200/138 140/202/140
f 80/131/80 82/133/82 116/174/116
f 143/205/143 144/206/144 145/207/145
f 146/208/146 147/209/147 148/210/148
f 149/211/149 147/209/147 146/208/146
f 150/212/150 151/213/151 146/214/146
f 146/214/146 143/215/143 150/212/150
f 152/216/152 150/212/150 143/215/143
f 144/206/144 153/217/153 145/207/145
f 154/218/154 147/209/147 149/211/149
f 147/209/147 154/218/154 155/219/155
f 153/217/153 155/219/155 154/218/154
f 143/220/143 145/221/145 153/222/153
f 152/223/152 143/220/143 153/222/153
f 154/224/154 149/225/149 146/226/146
f 151/227/151 154/224/154 146/226/146
f 156/228/156 152/216/152 157/229/157
f 158/230/158 151/213/151 150/212/150
f 159/231/159 151/213/151 158/230/158
f 160/232/160 161/233/161 158/234/158
f 158/234/158 156/235/156 160/232/160
f 162/236/162 160/232/160 156/235/156
f 152/216/152 163/237/163 157/229/157
f 164/238/164 151/213/151 159/231/159
f 151/213/151 164/238/164 165/239/165
f 163/237/163 165/239/165 164/238/164
f 156/240/156 157/241/157 163/242/163
f 162/243/162 156/240/156 163/242/163
f 164/244/164 159/245/159 158/246/158
f 161/247/161 164/244/164 158/246/158
f 166/248/166 3/249/3 167/250/167
f 168/251/168 55/252/55 56/253/56
f 169/254/169 55/252/55 168/251/168
f 148/210/148 147/209/147 168/255/168
f 168/255/168 166/256/166 148/210/148
f 144/206/144 148/210/148 166/256/166
f 3/249/3 170/257/170 167/250/167
f 171/258/171 55/252/55 169/254/169
f 55/252/55 171/258/171 172/259/172
f 170/257/170 172/259/172 171/258/171
f 166/260/166 167/261/167 170/262/170
f 144/263/144 166/260/166 170/262/170
f 171/264/171 169/265/169 168/266/168
f 147/267/147 171/264/171 168/266/168
f 173/268/173 162/236/162 174/269/174
f 175/270/175 161/233/161 160/232/160
f 176/271/176 161/233/161 175/270/175
f 177/272/177 178/273/178 175/274/175
f 175/274/175 173/275/173 177/272/177
f 179/276/179 177/272/177 173/275/173
f 162/236/162 180/277/180 174/269/174
f 181/278/181 161/233/161 176/271/176
f 161/233/161 181/278/181 182/279/182
f 180/277/180 182/279/182 181/278/181
f 173/280/173 174/281/174 180/282/180
f 179/283/179 173/280/173 180/282/180
f 181/284/181 176/285/176 175/286/175
f 178/287/178 181/284/181 175/286/175
f 183/288/183 184/289/184 185/290/185
f 186/291/186 187/292/187 188/293/188
f 189/294/189 187/292/187 186/291/186
f 190/295/190 191/296/191 186/297/186
f 186/297/186 183/298/183 190/295/190
f 192/299/192 190/295/190 183/298/183
f 184/289/184 193/300/193 185/290/185
f 194/301/194 187/292/187 189/294/189
f 187/292/187 194/301/194 195/302/195
f 193/300/193 195/302/195 194/301/194
f 183/303/183 185/304/185 193/305/193
f 192/306/192 183/303/183 193/305/193
f 194/307/194 189/308/189 186/309/186
f 191/310/191 194/307/194 186/309/186
f 196/311/196 192/299/192 197/312/197
f 198/313/198 191/296/191 190/295/190
f 199/314/199 191/296/191 198/313/198
f 200/315/200 201/316/201 198/317/198
f 198/317/198 196/318/196 200/315/200
f 202/319/202 200/315/200 196/318/196
f 192/299/192 203/320/203 197/312/197
f 204/321/204 191/296/191 199/314/199
f 191/296/191 204/321/204 205/322/205
f 203/320/203 205/322/205 204/321/204
f 196/323/196 197/324/197 203/325/203
f 202/326/202 196/323/196 203/325/203
f 204/327/204 199/328/199 198/329/198
f 201/330/201 204/327/204 198/329/198
f 206/331/206 207/332/207 208/333/208
f 209/334/209 210/335/210 211/336/211
f 212/337/212 210/335/210 209/334/209
f 188/293/188 187/292/187 209/338/209
f 209/338/209 206/339/206 188/293/188
f 184/289/184 188/293/188 206/339/206
f 207/332/207 213/340/213 208/333/208
f 214/341/214 210/335/210 212/337/212
f 210/335/210 214/341/214 215/342/215
f 213/340/213 215/342/215 214/341/214
f 206/343/206 208/344/208 213/345/213
f 184/346/184 206/343/206 213/345/213
f 214/347/214 212/348/212 209/349/209
f 187/350/187 214/347/214 209/349/209
f 216/351/216 202/319/202 217/352/217
f 72/353/72 201/316/201 200/315/200
f 218/354/218 201/316/201 72/353/72
f 202/319/202 219/355/219 217/352/217
f 71/356/71 201/316/201 218/354/218
f 201/316/201 71/356/71 220/357/220
f 219/355/219 220/357/220 71/356/71
f 216/358/216 217/359/217 219/360/219
f 64/361/64 216/358/216 219/360/219
f 71/121/71 218/362/218 72/122/72
f 221/363/221 222/364/222 223/365/223
f 222/364/222 221/363/221 224/366/224
f 225/367/225 224/366/224 221/363/221
f 225/367/225 227/368/226 226/369/227
f 226/369/227 224/366/224 225/367/225
f 222/364/222 228/370/228 223/365/223
f 229/371/229 230/372/230 228/370/228
f 230/372/230 229/371/229 226/369/227
f 231/373/231 226/369/227 229/371/229
f 226/369/227 227/368/226 230/372/230
f 232/374/232 233/375/233 228/376/228
f 221/377/221 223/378/223 228/379/228
f 233/380/233 221/377/221 228/379/228
f 230/381/230 227/382/226 225/383/225
f 234/384/234 230/381/230 225/383/225
f 235/385/235 233/375/233 236/386/236
f 233/375/233 235/385/235 237/387/237
f 238/388/238 237/387/237 235/385/235
f 238/388/238 239/389/239 234/390/234
f 234/390/234 237/387/237 238/388/238
f 233/375/233 240/391/240 236/386/236
f 240/391/240 233/375/233 232/374/232
f 234/390/234 239/389/239 241/392/241
f 211/393/211 210/394/210 240/395/240
f 235/396/235 236/397/236 240/398/240
f 210/399/210 235/396/235 240/398/240
f 241/400/241 239/401/239 238/402/238
f 207/403/207 241/400/241 238/402/238
f 242/404/242 178/405/178 243/406/243
f 178/405/178 242/404/242 244/407/244
f 245/408/245 244/407/244 242/404/242
f 245/408/245 246/409/246 179/410/179
f 179/410/179 244/407/244 245/408/245
f 178/405/178 247/411/247 243/406/243
f 247/411/247 178/405/178 177/272/177
f 179/410/179 246/409/246 231/412/231
f 229/371/229 247/413/247 231/373/231
f 247/413/247 229/371/229 222/364/222
f 228/370/228 222/364/222 229/371/229
f 242/414/242 243/415/243 247/416/247
f 222/417/222 242/414/242 247/416/247
f 231/418/231 246/419/246 245/420/245
f 226/421/227 231/418/231 245/420/245
f 69/422/69 216/423/216 64/424/64
f 216/423/216 69/422/69 72/425/72
f 56/253/56 166/248/166 168/251/168
f 166/248/166 56/253/56 3/249/3
f 148/210/148 143/205/143 146/208/146
f 143/205/143 148/210/148 144/206/144
f 150/212/150 156/228/156 158/230/158
f 156/228/156 150/212/150 152/216/152
f 160/232/160 173/268/173 175/270/175
f 173/268/173 160/232/160 162/236/162
f 177/272/177 231/412/231 247/411/247
f 231/412/231 177/272/177 179/410/179
f 232/374/232 228/376/228 230/426/230
f 232/427/232 230/426/230 234/390/234
f 234/390/234 241/392/241 232/427/232
f 241/392/241 240/391/240 232/374/232
f 241/428/241 211/393/211 240/395/240
f 211/393/211 241/428/241 207/429/207
f 211/336/211 206/331/206 209/334/209
f 206/331/206 211/336/211 207/332/207
f 188/293/188 183/288/183 186/291/186
f 183/288/183 188/293/188 184/289/184
f 190/295/190 196/311/196 198/313/198
f 196/311/196 190/295/190 192/299/192
f 200/315/200 216/351/216 72/353/72
f 216/351/216 200/315/200 202/319/202
f 57/89/57 3/3/3 2/2/2
f 58/90/58 3/3/3 57/89/57
f 3/3/3 58/90/58 172/430/172
f 55/86/55 172/430/172 58/90/58
f 70/116/70 65/111/65 67/113/67
f 151/213/151 165/239/165 154/431/154
f 161/233/161 182/279/182 164/432/164
f 178/273/178 244/407/244 181/433/181
f 191/296/191 205/322/205 194/434/194
f 201/316/201 220/357/220 204/435/204
f 187/292/187 195/302/195 214/436/214
f 237/387/237 221/437/221 233/375/233
f 221/437/221 237/387/237 225/438/225
f 234/390/234 225/438/225 237/387/237
f 215/439/215 235/440/235 210/394/210
f 235/440/235 215/439/215 238/441/238
f 207/429/207 238/441/238 215/439/215
f 245/442/245 224/366/224 226/369/227
f 224/366/224 245/442/245 242/443/242
f 219/444/219 68/445/68 64/424/64
f 68/445/68 219/444/219 71/446/71
f 172/259/172 170/257/170 3/249/3
f 165/239/165 153/447/153 154/431/154
f 153/447/153 165/239/165 152/216/152
f 165/239/165 163/237/163 152/216/152
f 182/279/182 163/448/163 164/432/164
f 163/448/163 182/279/182 162/236/162
f 182/279/182 180/277/180 162/236/162
f 244/407/244 180/449/180 181/433/181
f 180/449/180 244/407/244 179/276/179
f 224/366/224 242/443/242 222/364/222
f 215/342/215 213/340/213 207/332/207
f 195/302/195 213/450/213 214/436/214
f 213/450/213 195/302/195 184/289/184
f 195/302/195 193/300/193 184/289/184
f 205/322/205 193/451/193 194/434/194
f 193/451/193 205/322/205 192/299/192
f 205/322/205 203/320/203 192/299/192
f 220/357/220 203/452/203 204/435/204
f 203/452/203 220/357/220 202/319/202
f 220/357/220 219/355/219 202/319/202
f 155/453/155 170/454/170 171/455/171
f 147/209/147 155/453/155 171/455/171
f 155/219/155 153/217/153 144/206/144
f 170/454/170 155/219/155 144/206/144
