# Blender v2.79 (sub 0) OBJ File: ''
# www.blender.org
mtllib w21kt11.mtl
o MDL_w21kt11_bod00
v 0.020000 0.567200 0.048700
v 0.000000 0.507200 0.033800
v 0.020000 0.507200 0.016900
v 0.000000 0.559700 0.060600
v 0.020000 0.605900 0.107500
v 0.000000 0.605900 0.119400
v -0.019400 0.399700 0.120000
v -0.019400 0.374100 0.068800
v -0.019400 0.349700 0.095000
v -0.019400 0.399700 0.090000
v 0.000000 0.409700 0.090000
v 0.020000 0.399700 0.120000
v 0.020000 0.349700 0.095000
v 0.020000 0.374100 0.068800
v 0.006900 0.303400 0.126900
v 0.000000 0.403400 0.177500
v -0.006300 0.303400 0.126900
v 0.020000 0.399700 0.090000
v 0.000000 0.409700 0.120000
v -0.019400 0.507200 0.016900
v -0.020000 0.550900 -0.110600
v -0.020000 0.477800 -0.101900
v -0.040600 0.615900 0.018100
v -0.019400 0.567200 0.048700
v -0.019400 0.605900 0.107500
v -0.019400 0.445300 0.023700
v -0.020000 0.414100 -0.048700
v -0.019400 0.389700 0.025000
v 0.000000 0.450900 0.038800
v 0.000000 0.401600 -0.070600
v 0.020000 0.414100 -0.048700
v 0.020000 0.477800 -0.101900
v 0.020000 0.445300 0.023700
v 0.020000 0.550900 -0.110600
v 0.000000 0.550900 -0.130600
v 0.000000 0.470300 -0.125000
v 0.000000 0.365900 0.060000
v 0.000000 0.380900 0.020000
v -0.019400 0.416600 0.048100
v 0.020000 0.389700 0.025000
v 0.020000 0.416600 0.048100
v 0.000000 0.423400 0.055600
v 0.000000 0.343400 0.090600
v 0.000000 0.297200 0.117500
v 0.041300 0.615900 0.018100
v 0.046300 0.661600 -0.011300
v -0.045600 0.661600 -0.011300
v 0.039400 0.710900 -0.035000
v -0.038800 0.710900 -0.035000
v 0.020000 0.759700 -0.055000
v -0.020000 0.759700 -0.054400
v 0.000000 0.759700 -0.075000
v -0.020000 0.637200 -0.071900
v 0.020000 0.637200 -0.071900
v 0.000000 0.637200 -0.091900
v 0.000000 0.399700 0.075600
v 0.000000 0.459100 0.087500
v -0.008800 0.459100 0.091300
v 0.013700 0.399700 0.081200
v -0.013700 0.399700 0.081200
v -0.012500 0.459100 0.100000
v -0.019400 0.399700 0.095000
v -0.008800 0.459100 0.109400
v -0.013700 0.399700 0.108800
v 0.000000 0.459100 0.113100
v 0.000000 0.399700 0.114400
v 0.009400 0.459100 0.109400
v 0.013700 0.399700 0.108800
v 0.013100 0.459100 0.100000
v 0.019400 0.399700 0.095000
v 0.009400 0.459100 0.091300
v 0.000000 0.550900 0.095000
v 0.010000 0.115300 -0.006900
v 0.010000 0.125300 0.051900
v 0.010000 0.162200 0.030600
v 0.000000 0.090900 0.027500
v 0.010000 0.157200 0.000600
v -0.010000 0.115300 -0.006900
v -0.010000 0.157200 0.000600
v -0.009400 0.125300 0.051900
v -0.009400 0.162200 0.030600
v 0.010000 0.334700 -0.010000
v 0.007500 0.289100 0.014400
v 0.006900 0.289700 -0.010000
v 0.010000 0.329700 0.020000
v -0.010000 0.334700 -0.009400
v -0.006900 0.289700 -0.009400
v -0.009400 0.329700 0.020000
v -0.006900 0.289100 0.014400
v 0.015000 0.359700 -0.020000
v 0.015000 0.350300 0.038100
v 0.011300 0.362800 0.031300
v -0.015000 0.359700 -0.019400
v 0.011300 0.369100 -0.005600
v -0.014400 0.350300 0.038100
v -0.010600 0.369100 -0.005600
v -0.010600 0.362800 0.031300
v 0.006300 0.230300 -0.006900
v 0.006900 0.230300 0.016200
v -0.006300 0.230300 -0.006900
v -0.006300 0.230300 0.016200
v 0.010000 0.374700 0.030000
v 0.010000 0.379700 0.000000
v -0.010000 0.379700 0.000000
v -0.009400 0.374700 0.030000
v 0.000000 0.600900 0.085000
v 0.000000 0.659700 0.073100
v 0.010000 0.659700 0.046300
v -0.009400 0.659700 0.046300
v -0.009400 0.590300 0.058100
v 0.010000 0.590300 0.058100
v -0.010000 0.659700 -0.043700
v 0.010000 0.590300 -0.060000
v -0.010000 0.590300 -0.060000
v 0.010000 0.659700 -0.043700
v -0.010000 1.062200 -0.033100
v 0.010000 1.062200 -0.033100
v 0.010000 1.062200 0.017500
v 0.000000 1.062200 0.042500
v 0.000000 1.291600 0.028800
v 0.000000 0.734700 0.062500
v 0.010000 0.734700 0.035000
v 0.010000 1.291600 0.003100
v 0.000000 1.530300 0.005000
v -0.010000 1.291600 -0.036900
v 0.010000 1.291600 -0.036900
v -0.010000 1.499700 -0.050000
v 0.010000 1.499700 -0.050000
v 0.000000 1.609700 -0.060000
v 0.010000 1.561600 -0.033100
v 0.000000 1.578400 -0.022500
v 0.010000 1.520300 -0.017500
v -0.010000 1.062200 0.017500
v -0.010000 1.291600 0.003100
v -0.010000 0.734700 0.035000
v -0.010000 1.561600 -0.033100
v -0.010000 1.520300 -0.017500
v -0.025000 0.399700 -0.019400
v 0.025000 0.427800 -0.008100
v 0.025000 0.399700 -0.020000
v -0.025000 0.427800 -0.008100
v 0.025000 0.439700 0.020000
v -0.024400 0.439700 0.020000
v 0.025000 0.427800 0.048100
v -0.024400 0.427800 0.048100
v 0.025000 0.399700 0.060000
v -0.024400 0.399700 0.060000
v 0.025000 0.371600 0.048100
v -0.024400 0.371600 0.048100
v 0.025000 0.359700 0.020000
v -0.024400 0.359700 0.020000
v 0.025000 0.371600 -0.008100
v -0.025000 0.371600 -0.008100
v 0.030000 0.424100 0.044400
v 0.030000 0.424100 -0.004400
v 0.030000 0.399700 -0.014400
v 0.030000 0.434100 0.020000
v 0.030000 0.399700 0.054400
v 0.030000 0.375300 -0.004400
v 0.030000 0.375300 0.044400
v 0.030000 0.365300 0.020000
v -0.029400 0.424100 0.044400
v -0.030000 0.424100 -0.004400
v -0.029400 0.434100 0.020000
v -0.029400 0.399700 0.054400
v -0.030000 0.399700 -0.014400
v -0.029400 0.375300 0.044400
v -0.030000 0.375300 -0.004400
v -0.029400 0.365300 0.020000
vt 0.679700 0.546900
vt 0.648400 0.644500
vt 0.601600 0.644500
vt 0.718800 0.558600
vt 0.773400 0.500000
vt 0.804700 0.500000
vt 0.859400 0.843800
vt 0.726600 0.863300
vt 0.796900 0.898400
vt 0.773400 0.843800
vt 0.796900 0.828100
vt 0.859400 0.843800
vt 0.796900 0.898400
vt 0.726600 0.863300
vt 0.867200 0.976600
vt 0.992200 0.843800
vt 0.921900 0.988300
vt 0.773400 0.843800
vt 0.867200 0.828100
vt 0.867200 0.976600
vt 0.601600 0.644500
vt 0.375000 0.589800
vt 0.375000 0.699200
vt 0.640600 0.500000
vt 0.679700 0.546900
vt 0.773400 0.500000
vt 0.617200 0.757800
vt 0.500000 0.804700
vt 0.625000 0.835900
vt 0.656300 0.750000
vt 0.453100 0.820300
vt 0.500000 0.804700
vt 0.375000 0.699200
vt 0.617200 0.757800
vt 0.375000 0.589800
vt 0.328100 0.589800
vt 0.328100 0.710900
vt 0.710900 0.878900
vt 0.617200 0.855500
vt 0.679700 0.800800
vt 0.625000 0.835900
vt 0.679700 0.800800
vt 0.710900 0.785200
vt 0.781300 0.910200
vt 0.851600 0.988300
vt 0.937500 0.789100
vt 0.968800 0.789100
vt 0.984400 0.746100
vt 0.906300 0.789100
vt 0.890600 0.746100
vt 0.992200 0.668000
vt 0.882800 0.668000
vt 0.984400 0.617200
vt 0.890600 0.617200
vt 0.968800 0.589800
vt 0.906300 0.589800
vt 0.937500 0.566400
vt 0.476600 0.253900
vt 0.445300 0.468800
vt 0.523400 0.332000
vt 0.578100 0.410200
vt 0.476600 0.253900
vt 0.523400 0.332000
vt 0.445300 0.468800
vt 0.578100 0.410200
vt 0.640600 0.500000
vt 0.390600 0.464800
vt 0.421900 0.253900
vt 0.820300 0.183600
vt 0.875000 0.109400
vt 0.851600 0.109400
vt 0.843800 0.183600
vt 0.843800 0.183600
vt 0.906300 0.109400
vt 0.906300 0.183600
vt 0.937500 0.109400
vt 0.960900 0.183600
vt 0.960900 0.109400
vt 0.992200 0.183600
vt 0.937500 0.109400
vt 0.960900 0.183600
vt 0.906300 0.109400
vt 0.906300 0.183600
vt 0.875000 0.109400
vt 0.906300 0.003900
vt 0.804700 0.035200
vt 0.570300 0.121100
vt 0.570300 0.035200
vt 0.687500 0.003900
vt 0.804700 0.121100
vt 0.804700 0.035200
vt 0.570300 0.121100
vt 0.570300 0.035200
vt 0.804700 0.121100
vt 0.804700 0.035200
vt 0.570300 0.121100
vt 0.570300 0.035200
vt 0.804700 0.121100
vt 0.804700 0.035200
vt 0.570300 0.121100
vt 0.570300 0.035200
vt 0.804700 0.121100
vt 0.554700 0.003900
vt 0.320300 0.062500
vt 0.554700 0.062500
vt 0.320300 0.003900
vt 0.554700 0.003900
vt 0.320300 0.062500
vt 0.554700 0.062500
vt 0.320300 0.003900
vt 0.554700 0.003900
vt 0.320300 0.062500
vt 0.554700 0.062500
vt 0.320300 0.003900
vt 0.554700 0.003900
vt 0.320300 0.062500
vt 0.554700 0.062500
vt 0.320300 0.003900
vt 0.804700 0.070300
vt 0.570300 0.121100
vt 0.804700 0.121100
vt 0.570300 0.070300
vt 0.570300 0.027300
vt 0.804700 0.070300
vt 0.570300 0.121100
vt 0.804700 0.121100
vt 0.570300 0.070300
vt 0.570300 0.027300
vt 0.804700 0.070300
vt 0.570300 0.121100
vt 0.804700 0.121100
vt 0.570300 0.070300
vt 0.570300 0.027300
vt 0.804700 0.070300
vt 0.570300 0.121100
vt 0.804700 0.121100
vt 0.570300 0.070300
vt 0.570300 0.027300
vt 0.554700 0.148400
vt 0.320300 0.246100
vt 0.554700 0.246100
vt 0.320300 0.148400
vt 0.554700 0.148400
vt 0.320300 0.246100
vt 0.554700 0.246100
vt 0.320300 0.148400
vt 0.554700 0.148400
vt 0.320300 0.246100
vt 0.554700 0.246100
vt 0.320300 0.148400
vt 0.554700 0.148400
vt 0.320300 0.246100
vt 0.554700 0.246100
vt 0.320300 0.148400
vt 0.804700 0.027300
vt 0.570300 0.003900
vt 0.804700 0.003900
vt 0.804700 0.027300
vt 0.570300 0.003900
vt 0.804700 0.003900
vt 0.804700 0.027300
vt 0.570300 0.003900
vt 0.804700 0.003900
vt 0.804700 0.027300
vt 0.570300 0.003900
vt 0.804700 0.003900
vt 0.304700 0.003900
vt 0.187500 0.085900
vt 0.304700 0.085900
vt 0.187500 0.085900
vt 0.187500 0.003900
vt 0.187500 0.003900
vt 0.304700 0.937500
vt 0.187500 0.996100
vt 0.304700 0.996100
vt 0.187500 0.937500
vt 0.304700 0.503900
vt 0.187500 0.503900
vt 0.187500 0.496100
vt 0.304700 0.250000
vt 0.304700 0.496100
vt 0.304700 0.160200
vt 0.187500 0.160200
vt 0.187500 0.250000
vt 0.304700 0.062500
vt 0.304700 0.800800
vt 0.187500 0.992200
vt 0.304700 0.992200
vt 0.187500 0.800800
vt 0.304700 0.570300
vt 0.187500 0.570300
vt 0.250000 0.503900
vt 0.187500 0.031300
vt 0.187500 0.003900
vt 0.265600 0.019500
vt 0.187500 0.062500
vt 0.007800 0.933600
vt 0.179700 0.996100
vt 0.007800 0.996100
vt 0.179700 0.933600
vt 0.179700 0.859400
vt 0.179700 0.250000
vt 0.007800 0.500000
vt 0.007800 0.250000
vt 0.007800 0.074200
vt 0.179700 0.074200
vt 0.148400 0.019500
vt 0.179700 0.500000
vt 0.187500 0.496100
vt 0.187500 0.250000
vt 0.187500 0.160200
vt 0.187500 0.031300
vt 0.187500 0.062500
vt 0.007800 0.933600
vt 0.179700 0.996100
vt 0.179700 0.933600
vt 0.179700 0.859400
vt 0.007800 0.996100
vt 0.179700 0.250000
vt 0.007800 0.500000
vt 0.179700 0.500000
vt 0.007800 0.250000
vt 0.007800 0.074200
vt 0.179700 0.074200
vt 0.148400 0.019500
vt 0.007800 0.003900
vt 0.570300 0.246100
vt 0.687500 0.191400
vt 0.570300 0.191400
vt 0.687500 0.246100
vt 0.804700 0.191400
vt 0.804700 0.246100
vt 0.570300 0.246100
vt 0.687500 0.191400
vt 0.570300 0.191400
vt 0.687500 0.246100
vt 0.804700 0.191400
vt 0.804700 0.246100
vt 0.570300 0.246100
vt 0.687500 0.191400
vt 0.570300 0.191400
vt 0.687500 0.246100
vt 0.804700 0.191400
vt 0.804700 0.246100
vt 0.570300 0.246100
vt 0.687500 0.191400
vt 0.570300 0.191400
vt 0.687500 0.246100
vt 0.804700 0.191400
vt 0.804700 0.246100
vt 0.773400 0.144500
vt 0.570300 0.183600
vt 0.601600 0.144500
vt 0.687500 0.128900
vt 0.804700 0.183600
vt 0.601600 0.144500
vt 0.773400 0.144500
vt 0.687500 0.128900
vt 0.773400 0.144500
vt 0.687500 0.128900
vt 0.601600 0.144500
vt 0.804700 0.183600
vt 0.570300 0.183600
vt 0.773400 0.144500
vt 0.601600 0.144500
vt 0.687500 0.128900
vt 0.570300 0.246100
vt 0.687500 0.246100
vt 0.804700 0.246100
vt 0.687500 0.246100
vt 0.804700 0.246100
vt 0.570300 0.246100
vt 0.570300 0.246100
vt 0.687500 0.246100
vt 0.804700 0.246100
vt 0.687500 0.246100
vt 0.804700 0.246100
vt 0.570300 0.246100
vt 0.687500 0.191400
vt 0.804700 0.246100
vt 0.804700 0.191400
vt 0.687500 0.246100
vt 0.570300 0.191400
vt 0.570300 0.246100
vt 0.570300 0.191400
vt 0.687500 0.246100
vt 0.687500 0.191400
vt 0.570300 0.246100
vt 0.804700 0.246100
vt 0.804700 0.191400
vt 0.687500 0.191400
vt 0.804700 0.246100
vt 0.804700 0.191400
vt 0.687500 0.246100
vt 0.570300 0.191400
vt 0.570300 0.246100
vt 0.570300 0.191400
vt 0.687500 0.246100
vt 0.687500 0.191400
vt 0.570300 0.246100
vt 0.804700 0.246100
vt 0.804700 0.191400
vn 0.7542 -0.4069 0.5154
vn 0.2482 -0.1896 0.9500
vn 0.9565 -0.1039 0.2727
vn -0.0622 -0.6529 0.7549
vn 0.7742 -0.3029 0.5557
vn -0.2686 -0.1024 0.9578
vn -0.9019 0.4173 0.1112
vn -0.9214 -0.3328 -0.2008
vn -0.7923 -0.4687 -0.3906
vn -0.9112 0.4043 0.0791
vn -0.1684 0.9677 0.1878
vn 0.9426 0.3078 0.1297
vn 0.7844 -0.4746 -0.3993
vn 0.9029 -0.3813 -0.1983
vn 0.7269 -0.5196 0.4490
vn -0.0067 0.5388 0.8424
vn -0.7292 -0.5133 0.4526
vn 0.7253 0.6757 0.1314
vn 0.0950 0.9945 0.0434
vn -0.9089 -0.1177 0.4000
vn -0.9131 0.0139 -0.4074
vn -0.9182 -0.1889 -0.3481
vn -0.9091 0.2353 0.3438
vn -0.7170 -0.4939 0.4919
vn -0.7142 0.4971 0.4927
vn -0.9418 0.1325 0.3089
vn -0.9129 -0.3712 -0.1696
vn -0.8974 -0.4165 -0.1454
vn -0.2352 0.3370 0.9117
vn 0.0994 -0.8305 -0.5481
vn 0.9598 -0.2355 -0.1529
vn 0.8921 -0.1679 -0.4194
vn 0.8634 0.1848 0.4695
vn 0.9042 0.0764 -0.4202
vn 0.0209 0.1759 -0.9842
vn -0.2177 -0.3034 -0.9277
vn -0.0793 -0.8517 -0.5180
vn -0.0395 -0.9528 -0.3009
vn -0.7615 0.5145 0.3942
vn 0.8754 -0.4626 -0.1400
vn 0.9110 0.3351 0.2404
vn 0.1990 0.7712 0.6047
vn -0.0051 -0.6675 -0.7446
vn -0.0089 -0.8471 -0.5314
vn 0.8539 0.4785 0.2048
vn 0.6325 0.4054 0.6600
vn -0.6314 0.3687 0.6823
vn 0.6226 0.4582 0.6344
vn -0.6213 0.4356 0.6513
vn 0.6055 0.7633 0.2253
vn -0.7511 0.5573 -0.3541
vn 0.2708 0.5037 -0.8204
vn -0.8500 0.0821 -0.5203
vn 0.8486 0.0498 -0.5267
vn -0.0093 0.2795 -0.9601
vn -0.1390 0.1956 -0.9708
vn -0.6411 0.1473 -0.7532
vn 0.0711 0.1502 -0.9861
vn 0.5921 0.1772 -0.7862
vn -0.7844 0.1658 -0.5977
vn -0.9873 0.1296 -0.0919
vn -0.9860 0.1025 0.1312
vn -0.7651 0.1072 0.6349
vn -0.6033 0.0411 0.7964
vn -0.0907 0.0911 0.9917
vn 0.1305 0.0218 0.9912
vn 0.6421 0.0942 0.7608
vn 0.7989 0.0528 0.5992
vn 0.9912 0.1119 0.0714
vn 0.9836 0.1165 -0.1379
vn 0.7519 0.1352 -0.6453
vn -0.0431 0.9966 -0.0701
vn 0.8554 -0.2765 -0.4380
vn 0.8963 0.1786 0.4059
vn 0.5991 0.0332 0.8000
vn -0.0014 -0.9850 0.1723
vn 0.4495 0.0446 -0.8921
vn -0.6014 -0.2369 -0.7631
vn -0.8990 0.0408 -0.4360
vn -0.8523 -0.1079 0.5118
vn -0.4469 0.3292 0.8318
vn 0.6804 -0.2538 -0.6875
vn 0.7140 -0.0513 0.6982
vn 0.6833 -0.0341 -0.7293
vn 0.7009 -0.3348 0.6299
vn -0.7036 -0.2010 -0.6816
vn -0.8059 -0.0487 -0.5900
vn -0.6953 -0.4231 0.5810
vn -0.5549 -0.0873 0.8273
vn 0.9237 0.1584 -0.3488
vn 0.5060 -0.0692 0.8598
vn 0.6594 0.3213 0.6797
vn -0.5358 0.2866 -0.7942
vn 0.6679 0.6040 -0.4348
vn -0.9135 0.0122 0.4067
vn -0.6566 0.5631 -0.5017
vn -0.6720 0.3516 0.6518
vn 0.6952 -0.0277 -0.7183
vn 0.7168 0.1104 0.6885
vn -0.5550 -0.0571 -0.8299
vn -0.7989 0.0692 0.5974
vn 0.8780 0.1463 0.4558
vn 0.4381 0.4613 -0.7715
vn -0.8857 0.2771 -0.3726
vn -0.4361 0.1411 0.8888
vn -0.0098 0.1835 0.9830
vn 0.9722 0.0384 0.2312
vn -0.0100 0.1693 0.9855
vn -0.9740 0.0345 0.2238
vn -0.9939 0.0178 0.1087
vn 0.9936 0.0189 0.1109
vn -0.8600 0.0820 -0.5037
vn 0.4472 0.2045 -0.8707
vn -0.7090 0.1613 -0.6866
vn 0.8585 0.0483 -0.5105
vn -0.7072 0.0085 -0.7070
vn 0.7072 -0.0016 -0.7070
vn 0.9776 0.0125 0.2102
vn -0.0000 0.0738 0.9973
vn 0.0000 0.0603 0.9982
vn -0.0026 0.0975 0.9952
vn 0.9847 0.0177 0.1734
vn 0.9866 0.0137 0.1626
vn -0.0000 0.2811 0.9597
vn -0.5548 -0.0266 -0.8316
vn 0.5548 -0.0395 -0.8310
vn -0.7748 -0.0293 -0.6315
vn 0.8711 -0.0192 -0.4908
vn 0.0000 0.6338 -0.7735
vn 0.9709 0.1653 0.1733
vn -0.0000 0.6360 0.7717
vn 0.9808 0.0430 0.1901
vn -0.9776 0.0125 0.2102
vn -0.9866 0.0137 0.1626
vn -0.9845 0.0140 0.1751
vn -0.9709 0.1653 0.1733
vn -0.9808 0.0430 0.1901
vn -0.3934 0.1258 -0.9107
vn 0.4009 0.5521 -0.7310
vn 0.4057 -0.1239 -0.9056
vn -0.4033 0.7282 -0.5541
vn 0.4095 0.9034 -0.1270
vn -0.4097 0.9030 0.1296
vn 0.4023 0.7285 0.5544
vn -0.4023 0.5544 0.7285
vn 0.4095 0.1270 0.9034
vn -0.4095 -0.1270 0.9034
vn 0.4023 -0.5544 0.7285
vn -0.4023 -0.7285 0.5544
vn 0.4095 -0.9034 0.1270
vn -0.4091 -0.9044 -0.1214
vn 0.4023 -0.7285 -0.5544
vn -0.3960 -0.5521 -0.7337
vn 0.9321 0.2205 0.2875
vn 0.9336 0.0511 -0.3546
vn 0.9004 0.3453 -0.2648
vn 0.8465 0.5269 0.0759
vn 0.9336 -0.0511 0.3546
vn 0.9321 -0.2205 -0.2875
vn 0.9004 -0.3453 0.2648
vn 0.8465 -0.5269 -0.0759
vn -0.8967 0.3516 0.2691
vn -0.8421 0.5354 -0.0648
vn -0.9293 0.2300 -0.2888
vn -0.9318 0.0506 0.3593
vn -0.9290 -0.0497 -0.3668
vn -0.9293 -0.2251 0.2928
vn -0.9006 -0.3532 -0.2534
vn -0.8423 -0.5326 0.0832
usemtl MDL_w21kt11_bod00_TEX_w21kt11
s 1
f 1/1/1 2/2/2 3/3/3
f 2/2/2 1/1/1 4/4/4
f 5/5/5 4/4/4 1/1/1
f 4/4/4 5/5/5 6/6/6
f 7/7/7 8/8/8 9/9/9
f 8/8/8 7/7/7 10/10/10
f 11/11/11 10/10/10 7/7/7
f 12/12/12 13/13/13 14/14/14
f 13/13/13 12/12/12 15/15/15
f 16/16/16 15/15/15 12/12/12
f 15/15/15 16/16/16 17/17/17
f 12/12/12 14/14/14 18/18/18
f 18/18/18 19/19/19 12/12/12
f 11/11/11 7/7/7 19/19/19
f 19/19/19 18/18/18 11/11/11
f 17/20/17 7/7/7 9/9/9
f 7/7/7 17/20/17 16/16/16
f 20/21/20 21/22/21 22/23/22
f 21/22/21 20/21/20 23/24/23
f 24/25/24 23/24/23 20/21/20
f 23/24/23 24/25/24 25/26/25
f 6/6/6 25/26/25 24/25/24
f 26/27/26 27/28/27 28/29/28
f 27/28/27 26/27/26 20/21/20
f 29/30/29 20/21/20 26/27/26
f 27/28/27 20/21/20 22/23/22
f 22/23/22 30/31/30 27/28/27
f 3/3/3 31/32/31 32/33/32
f 31/32/31 3/3/3 33/34/33
f 2/2/2 33/34/33 3/3/3
f 33/34/33 2/2/2 29/30/29
f 20/21/20 29/30/29 2/2/2
f 34/35/34 3/3/3 32/33/32
f 32/33/32 35/36/35 34/35/34
f 36/37/36 21/22/21 35/36/35
f 21/22/21 36/37/36 22/23/22
f 30/31/30 22/23/22 36/37/36
f 32/33/32 36/37/36 35/36/35
f 37/38/37 28/29/28 38/39/38
f 38/39/38 14/14/14 37/38/37
f 28/29/28 37/38/37 8/8/8
f 8/8/8 10/10/10 28/29/28
f 39/40/39 28/29/28 10/10/10
f 10/10/10 11/11/11 39/40/39
f 14/14/14 38/39/38 40/41/40
f 40/41/40 41/42/41 14/14/14
f 18/18/18 14/14/14 41/42/41
f 41/42/41 42/43/42 18/18/18
f 11/11/11 18/18/18 42/43/42
f 42/43/42 39/40/39 11/11/11
f 13/13/13 43/44/43 37/38/37
f 43/44/43 13/13/13 44/45/44
f 15/15/15 44/45/44 13/13/13
f 37/38/37 14/14/14 13/13/13
f 9/9/9 37/38/37 43/44/43
f 37/38/37 9/9/9 8/8/8
f 44/45/44 9/9/9 43/44/43
f 9/9/9 44/45/44 17/20/17
f 19/19/19 7/7/7 16/16/16
f 38/39/38 27/28/27 30/31/30
f 30/31/30 40/41/40 38/39/38
f 38/39/38 28/29/28 27/28/27
f 40/41/40 30/31/30 31/32/31
f 31/32/31 33/34/33 40/41/40
f 32/33/32 30/31/30 36/37/36
f 30/31/30 32/33/32 31/32/31
f 17/17/17 44/45/44 15/15/15
f 6/46/6 5/47/5 45/48/45
f 25/49/25 45/48/45 23/50/23
f 45/48/45 25/49/25 6/46/6
f 46/51/46 23/50/23 45/48/45
f 23/50/23 46/51/46 47/52/47
f 48/53/48 47/52/47 46/51/46
f 47/52/47 48/53/48 49/54/49
f 50/55/50 49/54/49 48/53/48
f 49/54/49 50/55/50 51/56/51
f 50/55/50 52/57/52 51/56/51
f 51/58/51 53/59/53 49/60/49
f 53/59/53 47/61/47 49/60/49
f 23/24/23 53/59/53 21/22/21
f 53/59/53 23/24/23 47/61/47
f 50/62/50 48/63/48 54/64/54
f 54/64/54 48/63/48 46/65/46
f 46/65/46 45/66/45 54/64/54
f 1/1/1 45/66/45 5/5/5
f 45/66/45 1/1/1 3/3/3
f 45/66/45 34/35/34 54/64/54
f 34/35/34 45/66/45 3/3/3
f 51/58/51 55/67/55 53/59/53
f 55/67/55 51/58/51 52/68/52
f 35/36/35 53/59/53 55/67/55
f 55/67/55 34/35/34 35/36/35
f 35/36/35 21/22/21 53/59/53
f 55/67/55 54/64/54 34/35/34
f 52/68/52 54/64/54 55/67/55
f 54/64/54 52/68/52 50/62/50
f 26/27/26 28/29/28 39/40/39
f 29/30/29 39/40/39 42/43/42
f 42/43/42 33/34/33 29/30/29
f 29/30/29 26/27/26 39/40/39
f 41/42/41 40/41/40 33/34/33
f 33/34/33 42/43/42 41/42/41
f 56/69/56 58/70/57 57/71/58
f 57/71/58 59/72/59 56/69/56
f 58/70/57 56/69/56 60/73/60
f 60/73/60 61/74/61 58/70/57
f 61/74/61 60/73/60 62/75/62
f 62/75/62 63/76/63 61/74/61
f 63/76/63 62/75/62 64/77/64
f 64/77/64 65/78/65 63/76/63
f 65/78/65 64/77/64 66/79/66
f 66/79/66 67/80/67 65/78/65
f 67/80/67 66/79/66 68/81/68
f 68/81/68 69/82/69 67/80/67
f 69/82/69 68/81/68 70/83/70
f 70/83/70 71/84/71 69/82/69
f 71/84/71 70/83/70 59/72/59
f 59/72/59 57/71/58 71/84/71
f 72/85/72 57/71/58 58/70/57
f 57/71/58 72/85/72 71/84/71
f 72/85/72 58/70/57 61/74/61
f 72/85/72 61/74/61 63/76/63
f 72/85/72 63/76/63 65/78/65
f 72/85/72 65/78/65 67/80/67
f 72/85/72 67/80/67 69/82/69
f 72/85/72 69/82/69 71/84/71
f 73/86/73 75/87/74 74/88/75
f 74/88/75 76/89/76 73/86/73
f 73/86/73 77/90/77 75/87/74
f 78/91/78 77/92/77 73/93/73
f 73/93/73 76/89/76 78/91/78
f 78/91/78 79/94/79 77/92/77
f 80/95/80 79/96/79 78/97/78
f 78/97/78 76/89/76 80/95/80
f 80/95/80 81/98/81 79/96/79
f 74/99/75 81/100/81 80/101/80
f 80/101/80 76/89/76 74/99/75
f 74/99/75 75/102/74 81/100/81
f 82/103/82 83/104/83 84/105/84
f 83/104/83 82/103/82 85/106/85
f 86/107/86 84/108/84 87/109/87
f 84/108/84 86/107/86 82/110/82
f 88/111/88 87/112/87 89/113/89
f 87/112/87 88/111/88 86/114/86
f 85/115/85 89/116/89 83/117/83
f 89/116/89 85/115/85 88/118/88
f 90/119/90 85/120/85 82/121/82
f 85/120/85 90/119/90 91/122/91
f 92/123/92 91/122/91 90/119/90
f 93/124/93 82/125/82 86/126/86
f 82/125/82 93/124/93 90/127/90
f 94/128/94 90/127/90 93/124/93
f 95/129/95 86/130/86 88/131/88
f 86/130/86 95/129/95 93/132/93
f 96/133/96 93/132/93 95/129/95
f 91/134/91 88/135/88 85/136/85
f 88/135/88 91/134/91 95/137/95
f 97/138/97 95/137/95 91/134/91
f 98/139/98 75/140/74 77/141/77
f 75/140/74 98/139/98 99/142/99
f 84/105/84 99/142/99 98/139/98
f 99/142/99 84/105/84 83/104/83
f 100/143/100 77/144/77 79/145/79
f 77/144/77 100/143/100 98/146/98
f 87/109/87 98/146/98 100/143/100
f 98/146/98 87/109/87 84/108/84
f 101/147/101 79/148/79 81/149/81
f 79/148/79 101/147/101 100/150/100
f 87/112/87 100/150/100 101/147/101
f 99/151/99 81/152/81 75/153/74
f 81/152/81 99/151/99 101/154/101
f 83/117/83 101/154/101 99/151/99
f 101/154/101 83/117/83 89/116/89
f 92/123/92 90/119/90 94/155/94
f 94/155/94 102/156/102 92/123/92
f 94/155/94 103/157/103 102/156/102
f 94/128/94 93/124/93 96/158/96
f 96/158/96 103/159/103 94/128/94
f 96/158/96 104/160/104 103/159/103
f 96/133/96 95/129/95 97/161/97
f 97/161/97 104/162/104 96/133/96
f 97/161/97 105/163/105 104/162/104
f 97/138/97 91/134/91 92/164/92
f 92/164/92 105/165/105 97/138/97
f 92/164/92 102/166/102 105/165/105
f 101/147/101 89/113/89 87/112/87
f 106/167/106 108/168/107 107/169/108
f 107/169/108 109/170/109 106/167/106
f 110/171/110 106/167/106 109/170/109
f 106/167/106 111/172/111 108/168/107
f 112/173/112 113/174/113 114/175/114
f 113/174/113 112/173/112 115/176/115
f 116/177/116 115/176/115 112/173/112
f 115/176/115 116/177/116 117/178/117
f 118/179/118 120/180/119 119/181/120
f 119/181/120 121/182/121 118/179/118
f 122/183/122 118/179/118 121/182/121
f 121/182/121 108/168/107 122/183/122
f 120/180/119 118/179/118 123/184/123
f 123/184/123 124/185/124 120/180/119
f 125/186/125 117/187/117 116/188/116
f 117/187/117 125/186/125 126/189/126
f 127/190/127 126/189/126 125/186/125
f 126/189/126 127/190/127 128/191/128
f 129/192/129 128/191/128 127/190/127
f 121/182/121 107/169/108 108/168/107
f 130/193/130 129/194/129 131/195/131
f 131/195/131 124/185/124 130/193/130
f 132/196/132 130/193/130 124/185/124
f 124/185/124 123/184/123 132/196/132
f 115/197/115 111/198/111 113/199/113
f 111/198/111 115/197/115 108/200/107
f 122/201/122 108/200/107 115/197/115
f 123/202/123 117/203/117 126/204/126
f 126/204/126 128/205/128 123/202/123
f 132/206/132 123/202/123 128/205/128
f 128/205/128 130/207/130 132/206/132
f 117/203/117 123/202/123 118/208/118
f 118/208/118 115/197/115 117/203/117
f 118/208/118 122/201/122 115/197/115
f 133/209/133 120/180/119 134/210/134
f 120/180/119 133/209/133 119/181/120
f 121/182/121 119/181/120 133/209/133
f 109/170/109 121/182/121 135/211/135
f 121/182/121 109/170/109 107/169/108
f 136/212/136 131/195/131 129/194/129
f 134/210/134 124/185/124 137/213/137
f 124/185/124 134/210/134 120/180/119
f 136/212/136 124/185/124 131/195/131
f 124/185/124 136/212/136 137/213/137
f 112/214/112 110/215/110 109/216/109
f 109/216/109 135/217/135 112/214/112
f 112/214/112 114/218/114 110/215/110
f 134/219/134 116/220/116 133/221/133
f 116/220/116 134/219/134 125/222/125
f 127/223/127 125/222/125 134/219/134
f 127/223/127 134/219/134 137/224/137
f 137/224/137 136/225/136 127/223/127
f 133/209/133 135/211/135 121/182/121
f 112/214/112 133/221/133 116/220/116
f 133/221/133 112/214/112 135/217/135
f 128/205/128 129/226/129 130/207/130
f 129/226/129 127/223/127 136/225/136
f 138/227/138 139/228/139 140/229/140
f 139/228/139 138/227/138 141/230/141
f 141/230/141 142/231/142 139/228/139
f 142/231/142 141/230/141 143/232/143
f 143/233/143 144/234/144 142/235/142
f 144/234/144 143/233/143 145/236/145
f 145/236/145 146/237/146 144/234/144
f 146/237/146 145/236/145 147/238/147
f 147/239/147 148/240/148 146/241/146
f 148/240/148 147/239/147 149/242/149
f 149/242/149 150/243/150 148/240/148
f 150/243/150 149/242/149 151/244/151
f 151/245/151 152/246/152 150/247/150
f 152/246/152 151/245/151 153/248/153
f 153/248/153 140/249/140 152/246/152
f 140/249/140 153/248/153 138/250/138
f 154/251/154 156/252/155 155/253/156
f 155/253/156 157/254/157 154/251/154
f 156/252/155 154/251/154 158/255/158
f 158/255/158 159/256/159 156/252/155
f 159/256/159 158/255/158 160/257/160
f 160/257/160 161/258/161 159/256/159
f 162/259/162 164/260/163 163/261/164
f 163/261/164 165/262/165 162/259/162
f 165/262/165 163/261/164 166/263/166
f 166/263/166 167/264/167 165/262/165
f 167/264/167 166/263/166 168/265/168
f 168/265/168 169/266/169 167/264/167
f 139/228/139 156/267/155 140/229/140
f 156/267/155 139/228/139 155/268/156
f 142/231/142 155/268/156 139/228/139
f 155/268/156 142/231/142 157/269/157
f 146/237/146 154/270/154 144/234/144
f 154/270/154 146/237/146 158/271/158
f 144/234/144 157/272/157 142/235/142
f 157/272/157 144/234/144 154/270/154
f 148/240/148 158/273/158 146/241/146
f 158/273/158 148/240/148 160/274/160
f 150/243/150 160/274/160 148/240/148
f 160/274/160 150/243/150 161/275/161
f 140/249/140 159/276/159 152/246/152
f 159/276/159 140/249/140 156/277/155
f 152/246/152 161/278/161 150/247/150
f 161/278/161 152/246/152 159/276/159
f 141/279/141 164/280/163 143/281/143
f 164/280/163 141/279/141 163/282/164
f 138/283/138 163/282/164 141/279/141
f 163/282/164 138/283/138 166/284/166
f 143/285/143 162/286/162 145/287/145
f 162/286/162 143/285/143 164/288/163
f 145/287/145 165/289/165 147/290/147
f 165/289/165 145/287/145 162/286/162
f 153/291/153 166/292/166 138/293/138
f 166/292/166 153/291/153 168/294/168
f 151/295/151 168/294/168 153/291/153
f 168/294/168 151/295/151 169/296/169
f 147/297/147 167/298/167 149/299/149
f 167/298/167 147/297/147 165/300/165
f 149/299/149 169/301/169 151/302/151
f 169/301/169 149/299/149 167/298/167
f 24/25/24 4/4/4 6/6/6
f 20/21/20 4/4/4 24/25/24
f 4/4/4 20/21/20 2/2/2
f 12/12/12 19/19/19 16/16/16
