# Blender v2.79 (sub 0) OBJ File: ''
# www.blender.org
mtllib w21kt03.mtl
o MDL_w21kt03_bod00
v 0.000000 1.259100 0.018800
v -0.005600 1.259100 -0.012200
v 0.002200 1.530000 -0.045600
v -0.005600 1.009100 0.000000
v 0.005900 1.259100 -0.012200
v 0.000000 1.009100 0.034400
v -0.005600 0.758700 0.000000
v 0.000000 0.758700 0.036200
v -0.005600 0.597800 -0.010900
v 0.005900 1.009100 0.000000
v 0.005900 0.758700 0.000000
v 0.005900 0.597800 -0.010900
v 0.000000 0.595300 0.027800
v -0.005600 0.511600 -0.020600
v 0.000000 0.510900 0.020600
v 0.005900 0.511600 -0.020600
v 0.000000 0.456200 -0.040000
v -0.020000 0.468700 -0.004400
v 0.000000 0.487500 0.029700
v -0.025300 0.453100 -0.020900
v -0.014700 0.456200 -0.033100
v -0.032200 0.432800 -0.029400
v -0.020000 0.430300 -0.055000
v -0.032500 0.403400 -0.019400
v 0.000000 0.429100 -0.067200
v 0.014700 0.456200 -0.033100
v 0.025600 0.453100 -0.020900
v 0.000000 0.389400 -0.040900
v -0.022500 0.395600 -0.031300
v 0.022800 0.395600 -0.031300
v 0.000000 0.338100 -0.030600
v 0.000000 0.364700 -0.017200
v -0.015000 0.364700 0.000900
v 0.015000 0.364700 0.000900
v 0.023400 0.338100 0.000900
v 0.000000 0.366200 0.019400
v 0.000000 0.338100 0.032500
v -0.023100 0.338100 0.000900
v 0.000000 0.336600 -0.021600
v -0.014100 0.336600 0.000900
v 0.000000 0.326600 -0.012500
v -0.009100 0.326600 0.000900
v 0.000000 0.291900 -0.011600
v -0.007500 0.291900 0.000900
v 0.000000 0.168700 -0.005900
v 0.000000 0.203400 -0.010600
v -0.005000 0.203400 -0.000600
v 0.005000 0.203400 -0.000600
v 0.007500 0.168700 0.006600
v 0.000000 0.203400 0.010300
v -0.007500 0.168700 0.006600
v 0.000000 0.107200 -0.010000
v 0.000000 0.168700 0.019400
v 0.000000 0.283400 0.012800
v -0.006900 0.283400 0.000600
v 0.000000 0.291900 0.013700
v -0.005900 0.109400 0.000000
v -0.008800 0.060600 0.009100
v 0.000000 0.111600 0.010600
v 0.005900 0.109400 0.000000
v 0.000000 0.050000 -0.003100
v 0.008800 0.060600 0.009100
v 0.000000 0.071600 0.021300
v -0.011600 0.021600 0.036200
v 0.000000 0.036900 0.050600
v 0.000000 0.006200 0.023100
v 0.011900 0.021600 0.036200
v 0.000000 0.336600 0.024100
v 0.000000 0.326600 0.015600
v 0.000000 0.375600 0.043100
v -0.020300 0.387800 0.034100
v 0.020300 0.387800 0.034100
v 0.017500 0.414100 0.056600
v 0.025000 0.429100 0.047200
v -0.025000 0.429100 0.047200
v -0.028400 0.399700 0.025000
v 0.000000 0.395900 0.066200
v -0.017200 0.414100 0.056600
v 0.000000 0.416600 0.087500
v -0.012200 0.431900 0.084400
v 0.012500 0.431900 0.084400
v -0.018400 0.446900 0.081600
v -0.009100 0.430300 0.115300
v -0.013700 0.440900 0.118700
v -0.007500 0.416200 0.143700
v -0.005600 0.411900 0.138400
v 0.000000 0.419700 0.111600
v 0.009100 0.430300 0.115300
v 0.000000 0.407200 0.133100
v 0.005600 0.411900 0.138400
v 0.000000 0.362800 0.149400
v 0.000000 0.429100 0.084400
v 0.000000 0.428100 0.114400
v 0.000000 0.412500 0.056200
v 0.000000 0.410300 0.137200
v -0.007800 0.391600 0.025300
v 0.000000 0.401900 0.023700
v 0.007800 0.391600 0.025300
v -0.010900 0.382500 0.000900
v 0.000000 0.395300 0.001600
v 0.000000 0.406600 -0.015300
v -0.010300 0.401600 -0.023100
v 0.000000 0.432800 -0.024100
v -0.030000 0.394700 0.000900
v -0.010000 0.431600 -0.033800
v -0.008100 0.455300 -0.023700
v -0.004400 0.470300 -0.003700
v 0.000000 0.485300 0.019100
v 0.000000 0.450900 -0.017500
v 0.000000 0.465900 -0.001900
v 0.020300 0.468700 -0.004400
v 0.005300 0.454400 -0.004100
v -0.005000 0.454400 -0.004100
v -0.005000 0.459100 0.010300
v 0.005300 0.441900 -0.013100
v 0.005300 0.459100 0.010300
v -0.005000 0.454400 0.024700
v -0.005000 0.441900 -0.013100
v 0.005300 0.426600 -0.012800
v -0.005000 0.426600 -0.012800
v 0.005300 0.414400 -0.003700
v -0.005000 0.414400 -0.003700
v 0.005300 0.409400 0.010300
v -0.005000 0.409400 0.010300
v 0.005300 0.414100 0.024700
v -0.005000 0.414100 0.024700
v 0.005300 0.426600 0.033800
v -0.005000 0.426600 0.033800
v 0.005300 0.441900 0.033800
v -0.005000 0.441900 0.033800
v 0.005300 0.454400 0.024700
v -0.010000 0.434400 0.010300
v 0.014400 0.336600 0.000900
v 0.009400 0.326600 0.000900
v 0.001900 0.412800 -0.020600
v 0.001900 0.420600 -0.008800
v 0.000000 0.422800 -0.010000
v 0.000000 0.410600 -0.019100
v 0.000000 0.414700 -0.022200
v -0.001900 0.420600 -0.008800
v 0.000000 0.418400 -0.007200
v -0.001900 0.412800 -0.020600
v -0.001900 0.403400 0.033100
v -0.001900 0.415600 0.024100
v 0.000000 0.417500 0.026600
v 0.000000 0.401900 0.030600
v 0.000000 0.405300 0.035300
v 0.001900 0.415600 0.024100
v 0.000000 0.414100 0.021900
v 0.001900 0.403400 0.033100
v -0.001900 0.452500 -0.004100
v -0.001900 0.460000 -0.009700
v 0.000000 0.462200 -0.007800
v 0.000000 0.450900 -0.006300
v 0.000000 0.454100 -0.001900
v 0.001900 0.460000 -0.009700
v 0.000000 0.458100 -0.011900
v 0.001900 0.452500 -0.004100
v -0.022800 0.384100 -0.018100
v -0.023100 0.379700 0.000900
v 0.023100 0.384100 -0.018100
v -0.021900 0.383100 0.022200
v 0.013700 0.440900 0.118700
v 0.018800 0.446900 0.081600
v 0.007800 0.416200 0.143700
v 0.028800 0.399700 0.025000
v 0.010900 0.382500 0.000900
v 0.030000 0.394700 0.000900
v 0.010600 0.401600 -0.023100
v 0.032500 0.403400 -0.019400
v 0.010000 0.431600 -0.033800
v 0.032500 0.432800 -0.029400
v 0.008400 0.455300 -0.023700
v 0.004400 0.470300 -0.003700
v 0.020300 0.430300 -0.055000
v 0.021900 0.383100 0.022200
v 0.023100 0.379700 0.000900
v 0.010300 0.434400 0.010300
v 0.000000 0.283400 -0.011300
v 0.006900 0.283400 0.000600
v 0.007500 0.291900 0.000900
vt 0.976600 0.687500
vt 0.906300 0.535200
vt 0.906300 0.687500
vt 0.914100 0.816400
vt 0.867200 0.687500
vt 0.914100 0.687500
vt 0.914100 0.535200
vt 0.992200 0.816400
vt 0.914100 0.933600
vt 0.992200 0.933600
vt 0.914100 0.996100
vt 0.867200 0.816400
vt 0.867200 0.933600
vt 0.867200 0.996100
vt 0.914100 0.816400
vt 0.914100 0.933600
vt 0.992200 0.996100
vt 0.453100 0.003900
vt 0.203100 0.164100
vt 0.453100 0.160200
vt 0.203100 0.003900
vt 0.132800 0.164100
vt 0.132800 0.003900
vt 0.039100 0.300800
vt 0.203100 0.003900
vt 0.203100 0.164100
vt 0.328100 0.269500
vt 0.453100 0.234400
vt 0.226600 0.320300
vt 0.101600 0.308600
vt 0.203100 0.363300
vt 0.078100 0.363300
vt 0.289100 0.453100
vt 0.007800 0.363300
vt 0.101600 0.308600
vt 0.226600 0.320300
vt 0.125000 0.507800
vt 0.195300 0.484400
vt 0.195300 0.484400
vt 0.703100 0.671900
vt 0.781300 0.609400
vt 0.703100 0.609400
vt 0.781300 0.609400
vt 0.781300 0.671900
vt 0.851600 0.609400
vt 0.851600 0.671900
vt 0.781300 0.671900
vt 0.703100 0.675800
vt 0.781300 0.675800
vt 0.703100 0.707000
vt 0.781300 0.707000
vt 0.703100 0.765600
vt 0.781300 0.765600
vt 0.398400 0.937500
vt 0.312500 0.910200
vt 0.312500 0.937500
vt 0.312500 0.910200
vt 0.398400 0.910200
vt 0.312500 0.882800
vt 0.398400 0.910200
vt 0.640600 0.937500
vt 0.398400 0.882800
vt 0.156300 0.882800
vt 0.156300 0.910200
vt 0.101600 0.882800
vt 0.101600 0.910200
vt 0.640600 0.910200
vt 0.851600 0.910200
vt 0.640600 0.882800
vt 0.640600 0.910200
vt 0.851600 0.937500
vt 0.851600 0.910200
vt 0.851600 0.882800
vt 0.992200 0.082000
vt 0.875000 0.082000
vt 0.875000 0.289100
vt 0.992200 0.289100
vt 0.757800 0.289100
vt 0.757800 0.078100
vt 0.875000 0.082000
vt 0.875000 0.289100
vt 0.851600 0.675800
vt 0.851600 0.707000
vt 0.851600 0.765600
vt 0.742200 0.562500
vt 0.703100 0.523400
vt 0.593800 0.605500
vt 0.703100 0.523400
vt 0.835900 0.429700
vt 0.757800 0.382800
vt 0.757800 0.382800
vt 0.640600 0.468800
vt 0.898400 0.488300
vt 0.835900 0.429700
vt 0.992200 0.464800
vt 0.992200 0.394500
vt 0.992200 0.394500
vt 0.960900 0.312500
vt 0.218800 0.664100
vt 0.234400 0.605500
vt 0.015600 0.695300
vt 0.468800 0.679700
vt 0.429700 0.707000
vt 0.210900 0.699200
vt 0.015600 0.718800
vt 0.218800 0.664100
vt 0.390600 0.726600
vt 0.429700 0.707000
vt 0.546900 0.875000
vt 0.742200 0.109400
vt 0.632800 0.105500
vt 0.632800 0.144500
vt 0.742200 0.144500
vt 0.632800 0.171900
vt 0.742200 0.082000
vt 0.632800 0.070300
vt 0.632800 0.050800
vt 0.742200 0.164100
vt 0.632800 0.195300
vt 0.742200 0.050800
vt 0.617200 0.199200
vt 0.617200 0.175800
vt 0.570300 0.175800
vt 0.570300 0.175800
vt 0.531300 0.148400
vt 0.617200 0.148400
vt 0.617200 0.109400
vt 0.507800 0.109400
vt 0.617200 0.074200
vt 0.632800 0.023400
vt 0.742200 0.023400
vt 0.742200 0.003900
vt 0.632800 0.003900
vt 0.742200 0.050800
vt 0.632800 0.050800
vt 0.742200 0.085900
vt 0.632800 0.085900
vt 0.742200 0.140600
vt 0.632800 0.140600
vt 0.742200 0.187500
vt 0.523400 0.074200
vt 0.617200 0.046900
vt 0.539100 0.046900
vt 0.617200 0.027300
vt 0.562500 0.027300
vt 0.617200 0.003900
vt 0.742200 0.203100
vt 0.632800 0.140600
vt 0.398400 0.988300
vt 0.398400 0.945300
vt 0.492200 0.945300
vt 0.304700 0.988300
vt 0.492200 0.988300
vt 0.398400 0.945300
vt 0.304700 0.945300
vt 0.203100 0.988300
vt 0.203100 0.945300
vt 0.101600 0.988300
vt 0.101600 0.945300
vt 0.007800 0.988300
vt 0.007800 0.945300
vt 0.101600 0.988300
vt 0.101600 0.945300
vt 0.203100 0.988300
vt 0.203100 0.945300
vt 0.304700 0.988300
vt 0.304700 0.945300
vt 0.398400 0.988300
vt 0.375000 0.281300
vt 0.484400 0.363300
vt 0.484400 0.265600
vt 0.304700 0.332000
vt 0.304700 0.390600
vt 0.367200 0.437500
vt 0.484400 0.460900
vt 0.601600 0.441400
vt 0.671900 0.390600
vt 0.671900 0.332000
vt 0.593800 0.281300
vt 0.781300 0.675800
vt 0.781300 0.707000
vt 0.632800 0.222700
vt 0.742200 0.210900
vt 0.742200 0.222700
vt 0.632800 0.234400
vt 0.632800 0.210900
vt 0.742200 0.222700
vt 0.742200 0.234400
vt 0.632800 0.222700
vt 0.632800 0.222700
vt 0.742200 0.210900
vt 0.742200 0.222700
vt 0.632800 0.234400
vt 0.632800 0.210900
vt 0.742200 0.222700
vt 0.742200 0.234400
vt 0.632800 0.222700
vt 0.742200 0.222700
vt 0.632800 0.210900
vt 0.632800 0.222700
vt 0.742200 0.234400
vt 0.742200 0.210900
vt 0.632800 0.222700
vt 0.632800 0.234400
vt 0.742200 0.222700
vt 0.460900 0.488300
vt 0.296900 0.531300
vt 0.460900 0.546900
vt 0.453100 0.605500
vt 0.312500 0.605500
vt 0.296900 0.531300
vt 0.015600 0.601600
vt 0.617200 0.546900
vt 0.632800 0.144500
vt 0.632800 0.105500
vt 0.632800 0.070300
vt 0.632800 0.171900
vt 0.632800 0.050800
vt 0.742200 0.050800
vt 0.531300 0.148400
vt 0.632800 0.023400
vt 0.742200 0.023400
vt 0.507800 0.109400
vt 0.742200 0.003900
vt 0.632800 0.003900
vt 0.742200 0.050800
vt 0.632800 0.050800
vt 0.523400 0.074200
vt 0.539100 0.046900
vt 0.742200 0.085900
vt 0.632800 0.085900
vt 0.742200 0.140600
vt 0.562500 0.027300
vt 0.914100 0.996100
vt 0.328100 0.269500
vt 0.203100 0.363300
vt 0.078100 0.363300
vt 0.289100 0.453100
vt 0.640600 0.468800
vt 0.617200 0.546900
vt 0.960900 0.312500
vt 0.015600 0.695300
vt 0.234400 0.605500
vt 0.468800 0.679700
vt 0.460900 0.488300
vt 0.460900 0.546900
vt 0.453100 0.605500
vt 0.015600 0.601600
vt 0.484400 0.363300
vt 0.375000 0.281300
vt 0.484400 0.265600
vt 0.593800 0.281300
vt 0.671900 0.332000
vt 0.304700 0.332000
vt 0.304700 0.390600
vt 0.367200 0.437500
vt 0.484400 0.460900
vt 0.601600 0.441400
vt 0.671900 0.390600
vt 0.156300 0.937500
vt 0.101600 0.937500
vt 0.156300 0.910200
vt 0.101600 0.910200
vt 0.781300 0.765600
vt 0.992200 0.074200
vt 0.875000 0.043000
vt 0.757800 0.074200
vt 0.875000 0.043000
vn -0.0040 0.1173 0.9931
vn -0.0003 -0.0564 -0.9984
vn -0.7681 -0.0438 -0.6389
vn -0.6456 -0.0172 -0.7635
vn 0.5995 -0.0532 -0.7986
vn -0.0042 0.0234 0.9997
vn -0.7603 0.0323 -0.6488
vn -0.7898 -0.0189 0.6131
vn -0.7572 0.0657 -0.6499
vn 0.8948 -0.0088 -0.4465
vn 0.8586 0.0109 -0.5125
vn 0.7576 0.0532 -0.6505
vn -0.0069 -0.0748 0.9972
vn -0.8278 0.2666 -0.4936
vn 0.4672 0.4831 0.7405
vn 0.6680 0.2886 -0.6859
vn 0.0001 0.4794 -0.8776
vn -0.6509 -0.4760 0.5915
vn 0.0015 -0.7470 0.6648
vn -0.9643 -0.1421 0.2235
vn -0.5334 0.4968 -0.6846
vn -0.5152 -0.0940 0.8519
vn -0.7756 0.1416 -0.6152
vn -0.9575 0.0852 0.2755
vn -0.0028 0.1235 -0.9923
vn 0.5279 0.4982 -0.6879
vn 0.9655 -0.1412 0.2189
vn -0.0027 -0.6684 -0.7438
vn -0.6201 -0.4865 -0.6155
vn 0.6219 -0.4853 -0.6146
vn -0.0027 -0.2948 -0.9556
vn -0.9497 -0.2940 -0.1080
vn -0.0013 -0.5003 -0.8658
vn 0.9502 -0.2928 -0.1062
vn 0.7904 -0.5998 0.1246
vn -0.0009 -0.6011 0.7992
vn -0.0025 -0.8878 0.4603
vn -0.7895 -0.6011 0.1243
vn -0.0019 -0.9544 -0.2986
vn -0.5770 -0.8141 -0.0661
vn 0.2022 -0.4141 -0.8875
vn -0.9669 -0.2540 -0.0221
vn 0.0121 -0.0466 -0.9988
vn -0.9989 -0.0478 0.0011
vn -0.0000 -0.0482 -0.9988
vn -0.9999 -0.0020 -0.0162
vn -0.3529 -0.0586 -0.9338
vn 0.9800 0.0000 -0.1991
vn 0.9988 0.0435 -0.0239
vn 0.2629 0.1533 0.9526
vn -0.9988 0.0435 -0.0239
vn 0.0000 -0.0191 -0.9998
vn 0.0000 -0.0163 0.9999
vn -0.0167 -0.0830 0.9964
vn -0.9991 -0.0422 0.0072
vn -0.0086 -0.0941 0.9955
vn -0.9947 -0.0060 0.1027
vn -0.9950 -0.0049 -0.0994
vn 0.0000 0.1325 0.9912
vn 0.9947 -0.0060 0.1027
vn -0.0000 -0.3108 -0.9505
vn 0.9948 -0.0045 -0.1019
vn -0.0007 0.5278 0.8494
vn -0.9288 -0.1043 0.3556
vn -0.0028 -0.2986 0.9544
vn -0.0033 -0.9937 -0.1122
vn 0.9294 -0.1019 0.3548
vn -0.0032 -0.8390 0.5442
vn -0.3097 -0.3241 0.8939
vn -0.0011 -0.7827 0.6225
vn -0.7567 -0.4978 0.4237
vn 0.7539 -0.5014 0.4245
vn 0.8141 -0.3852 0.4345
vn 0.9694 0.2457 -0.0030
vn -0.9700 0.2431 0.0019
vn -0.9380 0.2795 -0.2049
vn -0.0048 -0.7345 0.6785
vn -0.8131 -0.3835 0.4380
vn -0.0041 -0.9454 0.3259
vn -0.8543 -0.4575 0.2469
vn 0.8496 -0.4627 0.2530
vn -0.5760 0.8154 -0.0583
vn -0.8661 -0.4964 -0.0583
vn -0.5648 0.7304 0.3842
vn -0.5054 0.3479 0.7896
vn -0.8714 -0.3692 -0.3232
vn -0.0000 -0.9538 -0.3004
vn 0.8624 -0.5025 -0.0615
vn 0.0000 -0.6411 -0.7675
vn 0.8636 -0.3757 -0.3362
vn 0.0032 -0.7858 -0.6185
vn 0.0036 0.9880 -0.1543
vn 0.0034 0.9076 0.4198
vn 0.0018 0.8019 -0.5975
vn 0.0103 0.5395 0.8420
vn -0.1098 0.9214 -0.3727
vn 0.0000 0.9641 -0.2654
vn 0.1124 0.9218 -0.3709
vn -0.4410 0.8812 0.1702
vn -0.0000 0.9871 0.1601
vn -0.0048 0.6716 0.7409
vn -0.2480 0.6117 0.7512
vn -0.0027 0.1111 0.9938
vn -0.5189 0.8443 0.1339
vn -0.2912 -0.0019 0.9566
vn -0.2879 -0.5575 0.7787
vn -0.2471 -0.7507 0.6126
vn 0.0013 -0.8795 0.4759
vn -0.0059 -0.4763 0.8792
vn -0.0035 -0.7182 0.6958
vn 0.6500 -0.4744 0.5936
vn 0.5141 0.7375 -0.4380
vn -0.5141 0.6412 -0.5697
vn -0.5142 0.8538 -0.0816
vn 0.5145 0.3334 -0.7900
vn 0.5142 0.8538 0.0816
vn -0.5139 0.7384 0.4368
vn -0.5145 0.1745 -0.8396
vn 0.5130 -0.2013 -0.8344
vn -0.5130 -0.3530 -0.7824
vn 0.5115 -0.6432 -0.5698
vn -0.5115 -0.7332 -0.4481
vn 0.5162 -0.8509 -0.0972
vn -0.5162 -0.8533 0.0734
vn 0.5144 -0.7381 0.4365
vn -0.5144 -0.6429 0.5675
vn 0.5143 -0.3415 0.7867
vn -0.5143 -0.1868 0.8370
vn 0.5141 0.1870 0.8371
vn -0.5141 0.3416 0.7868
vn 0.5138 0.6433 0.5676
vn -1.0000 -0.0001 -0.0011
vn 0.5738 -0.8161 -0.0683
vn 0.9495 -0.2572 0.1797
vn 0.9668 0.2128 -0.1413
vn 0.3990 0.7643 -0.5067
vn 0.9755 -0.1842 0.1207
vn 0.4271 -0.7556 0.4966
vn -0.3995 0.7641 -0.5065
vn -0.9662 0.2149 -0.1427
vn -0.4264 -0.7559 0.4968
vn -0.9758 -0.1811 0.1227
vn -0.9796 0.1166 0.1638
vn -0.4667 0.5173 0.7174
vn -0.9715 -0.1377 -0.1927
vn -0.4368 -0.5262 -0.7297
vn 0.4683 0.5169 0.7166
vn 0.9818 0.1116 0.1537
vn 0.4398 -0.5255 -0.7284
vn 0.9739 -0.1320 -0.1848
vn -0.9756 0.1292 0.1776
vn -0.4376 0.5322 0.7247
vn -0.9752 -0.1357 -0.1746
vn -0.4431 -0.5456 -0.7113
vn 0.4383 0.5352 0.7221
vn 0.9737 0.1342 0.1841
vn 0.4408 -0.5465 -0.7121
vn 0.9764 -0.1318 -0.1714
vn -0.7454 -0.5603 -0.3612
vn -0.9006 -0.4336 0.0300
vn 0.7480 -0.5601 -0.3560
vn -0.7735 -0.5682 0.2808
vn 0.5650 0.7272 0.3897
vn 0.5788 0.8131 -0.0612
vn 0.5249 0.3424 0.7793
vn 0.9428 0.2659 -0.2013
vn 0.4385 0.8822 0.1717
vn 0.5195 0.8437 0.1355
vn 0.2421 0.6128 0.7522
vn 0.9555 0.0905 0.2808
vn 0.2889 -0.0027 0.9574
vn 0.5160 -0.0962 0.8512
vn 0.2820 -0.5586 0.7800
vn 0.2471 -0.7499 0.6137
vn 0.7745 0.1437 -0.6160
vn 0.7682 -0.5749 0.2819
vn 0.8987 -0.4373 0.0331
vn 1.0000 -0.0001 -0.0011
vn 0.0127 -0.0338 -0.9993
vn 0.9991 -0.0372 -0.0224
vn 0.9983 -0.0545 -0.0198
usemtl MDL_w21kt03_bod00_TEX_w21kt03
s 1
f 1/1/1 3/2/2 2/3/3
f 2/3/3 4/4/4 1/1/1
f 2/3/3 3/2/2 5/5/5
f 5/6/5 3/7/2 1/1/1
f 6/8/6 1/1/1 4/4/4
f 4/4/4 7/9/7 6/8/6
f 8/10/8 6/8/6 7/9/7
f 7/9/7 9/11/9 8/10/8
f 4/4/4 2/3/3 5/5/5
f 4/4/4 5/5/5 10/12/10
f 4/4/4 10/12/10 11/13/11
f 7/9/7 4/4/4 11/13/11
f 11/13/11 12/14/12 7/9/7
f 10/15/10 5/6/5 1/1/1
f 6/8/6 10/15/10 1/1/1
f 10/15/10 6/8/6 11/16/11
f 11/16/11 6/8/6 8/10/8
f 8/10/8 13/17/13 11/16/11
f 13/18/13 14/19/14 15/20/15
f 14/19/14 13/18/13 9/21/9
f 16/22/16 9/21/9 12/23/12
f 9/21/9 16/22/16 14/19/14
f 17/24/17 14/19/14 16/22/16
f 15/20/15 12/25/12 13/18/13
f 12/25/12 15/20/15 16/26/16
f 15/20/15 18/27/18 19/28/19
f 18/27/18 15/20/15 14/19/14
f 14/19/14 20/29/20 18/27/18
f 20/29/20 14/19/14 21/30/21
f 14/19/14 17/24/17 21/30/21
f 22/31/22 20/29/20 23/32/23
f 23/32/23 24/33/24 22/31/22
f 17/24/17 25/34/25 21/30/21
f 25/34/25 17/24/17 26/35/26
f 16/26/16 26/35/26 17/24/17
f 26/35/26 16/26/16 27/36/27
f 28/37/28 29/38/29 25/34/25
f 25/34/25 30/39/30 28/37/28
f 31/40/31 33/41/32 32/42/33
f 32/42/33 34/43/34 31/40/31
f 35/44/35 31/40/31 34/43/34
f 34/43/34 36/45/36 35/44/35
f 37/46/37 35/44/35 36/45/36
f 38/47/38 33/41/32 31/40/31
f 31/40/31 39/48/39 38/47/38
f 40/49/40 38/47/38 39/48/39
f 39/48/39 41/50/41 40/49/40
f 42/51/42 40/49/40 41/50/41
f 41/50/41 43/52/43 42/51/42
f 44/53/44 42/51/42 43/52/43
f 45/54/45 47/55/46 46/56/47
f 46/56/47 48/57/48 45/54/45
f 49/58/49 45/54/45 48/57/48
f 48/57/48 50/59/50 49/58/49
f 51/60/51 47/55/46 45/54/45
f 45/54/45 52/61/52 51/60/51
f 50/59/50 51/60/51 53/62/53
f 53/62/53 49/58/49 50/59/50
f 47/55/46 51/60/51 50/59/50
f 50/59/50 54/63/54 47/55/46
f 55/64/55 47/55/46 54/63/54
f 54/63/54 56/65/56 55/64/55
f 44/66/44 55/64/55 56/65/56
f 57/67/57 51/60/51 52/61/52
f 52/61/52 58/68/58 57/67/57
f 53/62/53 57/67/57 59/69/59
f 59/69/59 60/70/60 53/62/53
f 49/58/49 53/62/53 60/70/60
f 60/70/60 52/61/52 49/58/49
f 57/67/57 53/62/53 51/60/51
f 61/71/61 58/68/58 52/61/52
f 52/61/52 62/72/62 61/71/61
f 59/69/59 57/67/57 58/68/58
f 59/69/59 58/68/58 63/73/63
f 63/74/63 58/75/58 64/76/64
f 63/74/63 64/76/64 65/77/65
f 66/78/66 58/75/58 61/79/61
f 61/79/61 62/80/62 66/78/66
f 67/81/67 66/78/66 62/80/62
f 62/80/62 63/74/63 67/81/67
f 65/77/65 67/81/67 63/74/63
f 58/75/58 66/78/66 64/76/64
f 36/45/36 33/41/32 38/47/38
f 37/46/37 36/45/36 38/47/38
f 38/47/38 40/49/40 37/46/37
f 68/82/68 37/46/37 40/49/40
f 40/49/40 42/51/42 68/82/68
f 69/83/69 68/82/68 42/51/42
f 42/51/42 44/53/44 69/83/69
f 56/84/56 69/83/69 44/53/44
f 70/85/70 71/86/71 36/87/36
f 36/87/36 72/88/72 70/85/70
f 73/89/73 70/85/70 72/88/72
f 72/88/72 74/90/74 73/89/73
f 75/91/75 76/92/76 71/86/71
f 77/93/77 78/94/78 70/85/70
f 70/85/70 73/89/73 77/93/77
f 77/93/77 79/95/79 80/96/80
f 79/95/79 77/93/77 81/97/81
f 78/94/78 82/98/82 75/91/75
f 82/98/82 78/94/78 80/96/80
f 77/93/77 80/96/80 78/94/78
f 83/99/83 84/100/84 80/101/80
f 84/100/84 83/99/83 85/102/85
f 86/103/86 85/102/85 83/99/83
f 87/104/87 83/99/83 79/105/79
f 79/105/79 88/106/88 87/104/87
f 87/104/87 89/107/89 86/103/86
f 89/107/89 87/104/87 90/108/90
f 85/102/85 86/103/86 91/109/91
f 92/110/92 82/111/82 84/112/84
f 93/113/93 92/110/92 84/112/84
f 84/112/84 85/114/85 93/113/93
f 94/115/94 75/116/75 82/111/82
f 75/116/75 94/115/94 76/117/76
f 94/115/94 82/111/82 92/110/92
f 95/118/95 93/113/93 85/114/85
f 85/114/85 91/119/91 95/118/95
f 94/115/94 96/120/96 76/117/76
f 94/121/94 97/122/97 96/123/96
f 97/122/97 94/121/94 98/124/98
f 99/125/99 97/122/97 100/126/100
f 100/126/100 101/127/101 99/125/99
f 102/128/102 99/125/99 101/127/101
f 101/127/101 103/129/103 102/128/102
f 97/122/97 99/125/99 96/123/96
f 104/130/104 96/120/96 99/131/99
f 99/131/99 102/132/102 104/130/104
f 24/133/24 104/130/104 102/132/102
f 102/132/102 105/134/105 24/133/24
f 22/135/22 24/133/24 105/134/105
f 105/134/105 106/136/106 22/135/22
f 20/137/20 22/135/22 106/136/106
f 106/136/106 107/138/107 20/137/20
f 18/139/18 20/137/20 107/138/107
f 107/138/107 108/140/108 18/139/18
f 96/120/96 104/130/104 76/117/76
f 105/141/105 102/128/102 103/129/103
f 103/129/103 109/142/109 105/141/105
f 106/143/106 105/141/105 109/142/109
f 109/142/109 110/144/110 106/143/106
f 107/145/107 106/143/106 110/144/110
f 110/144/110 108/146/108 107/145/107
f 19/147/19 18/139/18 108/140/108
f 108/140/108 111/148/111 19/147/19
f 112/149/112 113/150/113 114/151/114
f 113/150/113 112/149/112 115/152/115
f 114/151/114 116/153/116 112/149/112
f 116/153/116 114/151/114 117/154/117
f 115/152/115 118/155/118 113/150/113
f 118/155/118 115/152/115 119/156/119
f 119/156/119 120/157/120 118/155/118
f 120/157/120 119/156/119 121/158/121
f 121/158/121 122/159/122 120/157/120
f 122/159/122 121/158/121 123/160/123
f 123/160/123 124/161/124 122/159/122
f 124/161/124 123/160/123 125/162/125
f 125/162/125 126/163/126 124/161/124
f 126/163/126 125/162/125 127/164/127
f 127/164/127 128/165/128 126/163/126
f 128/165/128 127/164/127 129/166/129
f 129/166/129 130/167/130 128/165/128
f 130/167/130 129/166/129 131/168/131
f 131/168/131 117/154/117 130/167/130
f 117/154/117 131/168/131 116/153/116
f 113/169/113 132/170/132 114/171/114
f 132/170/132 113/169/113 118/172/118
f 120/173/120 132/170/132 118/172/118
f 132/170/132 120/173/120 122/174/122
f 124/175/124 132/170/132 122/174/122
f 132/170/132 124/175/124 126/176/126
f 128/177/128 132/170/132 126/176/126
f 132/170/132 128/177/128 130/178/130
f 117/179/117 132/170/132 130/178/130
f 132/170/132 117/179/117 114/171/114
f 35/44/35 39/48/39 31/40/31
f 39/48/39 35/44/35 133/180/133
f 37/46/37 133/180/133 35/44/35
f 133/180/133 37/46/37 68/82/68
f 133/180/133 41/50/41 39/48/39
f 41/50/41 133/180/133 134/181/134
f 68/82/68 134/181/134 133/180/133
f 134/181/134 68/82/68 69/83/69
f 49/58/49 52/61/52 45/54/45
f 62/72/62 52/61/52 60/70/60
f 59/69/59 62/72/62 60/70/60
f 62/72/62 59/69/59 63/73/63
f 21/30/21 23/32/23 20/29/20
f 23/32/23 21/30/21 25/34/25
f 23/32/23 29/38/29 24/33/24
f 29/38/29 23/32/23 25/34/25
f 135/182/135 137/183/136 136/184/137
f 136/184/137 138/185/138 135/182/135
f 137/183/136 135/182/135 139/186/139
f 139/186/139 140/187/140 137/183/136
f 138/185/138 136/184/137 141/188/141
f 141/188/141 142/189/142 138/185/138
f 142/189/142 141/188/141 140/187/140
f 140/187/140 139/186/139 142/189/142
f 143/190/143 145/191/144 144/192/145
f 144/192/145 146/193/146 143/190/143
f 145/191/144 143/190/143 147/194/147
f 147/194/147 148/195/148 145/191/144
f 146/193/146 144/192/145 149/196/149
f 149/196/149 150/197/150 146/193/146
f 150/197/150 149/196/149 148/195/148
f 148/195/148 147/194/147 150/197/150
f 151/198/151 153/199/152 152/200/153
f 152/200/153 154/201/154 151/198/151
f 153/199/152 151/198/151 155/202/155
f 155/202/155 156/203/156 153/199/152
f 154/201/154 152/200/153 157/204/157
f 157/204/157 158/205/158 154/201/154
f 158/205/158 157/204/157 156/203/156
f 156/203/156 155/202/155 158/205/158
f 104/206/104 24/33/24 159/207/159
f 160/208/160 104/206/104 159/207/159
f 159/207/159 33/209/32 160/208/160
f 33/209/32 159/207/159 32/210/33
f 159/207/159 24/33/24 29/38/29
f 29/38/29 28/37/28 159/207/159
f 32/210/33 159/207/159 28/37/28
f 28/37/28 161/211/161 32/210/33
f 84/100/84 82/212/82 80/101/80
f 71/86/71 70/85/70 78/94/78
f 75/91/75 71/86/71 78/94/78
f 76/92/76 162/213/162 71/86/71
f 162/213/162 76/92/76 160/208/160
f 80/101/80 79/105/79 83/99/83
f 162/213/162 36/87/36 71/86/71
f 36/87/36 162/213/162 33/209/32
f 162/213/162 160/208/160 33/209/32
f 76/92/76 104/206/104 160/208/160
f 87/104/87 86/103/86 83/99/83
f 91/109/91 86/103/86 89/107/89
f 89/107/89 90/108/90 91/109/91
f 92/110/92 163/214/163 164/215/164
f 163/214/163 92/110/92 93/113/93
f 94/115/94 164/215/164 74/216/74
f 164/215/164 94/115/94 92/110/92
f 93/113/93 165/217/165 163/214/163
f 165/217/165 93/113/93 95/118/95
f 95/118/95 91/119/91 165/217/165
f 94/115/94 166/218/166 98/219/98
f 166/218/166 94/115/94 74/216/74
f 97/122/97 167/220/167 100/126/100
f 167/220/167 97/122/97 98/124/98
f 98/219/98 168/221/168 167/222/167
f 168/221/168 98/219/98 166/218/166
f 101/127/101 167/220/167 169/223/169
f 167/220/167 101/127/101 100/126/100
f 169/224/169 168/221/168 170/225/170
f 168/221/168 169/224/169 167/222/167
f 171/226/171 170/225/170 172/227/172
f 170/225/170 171/226/171 169/224/169
f 169/223/169 103/129/103 101/127/101
f 103/129/103 169/223/169 171/228/171
f 171/228/171 109/142/109 103/129/103
f 109/142/109 171/228/171 173/229/173
f 173/230/173 172/227/172 27/231/27
f 172/227/172 173/230/173 171/226/171
f 174/232/174 27/231/27 111/148/111
f 27/231/27 174/232/174 173/230/173
f 173/229/173 110/144/110 109/142/109
f 110/144/110 173/229/173 174/233/174
f 108/146/108 110/144/110 174/233/174
f 108/140/108 174/232/174 111/148/111
f 8/10/8 9/11/9 13/17/13
f 11/16/11 13/17/13 12/234/12
f 7/9/7 12/14/12 9/11/9
f 15/20/15 19/28/19 111/235/111
f 16/26/16 15/20/15 111/235/111
f 111/235/111 27/36/27 16/26/16
f 27/36/27 172/236/172 175/237/175
f 175/237/175 172/236/172 170/238/170
f 170/238/170 30/39/30 175/237/175
f 166/239/166 74/90/74 72/88/72
f 72/88/72 176/240/176 166/239/166
f 73/89/73 74/90/74 164/241/164
f 81/242/81 163/243/163 88/106/88
f 88/106/88 79/105/79 81/242/81
f 165/244/165 90/108/90 88/106/88
f 90/108/90 165/244/165 91/109/91
f 26/35/26 27/36/27 175/237/175
f 26/35/26 175/237/175 25/34/25
f 175/237/175 30/39/30 25/34/25
f 168/245/168 161/211/161 170/238/170
f 161/211/161 168/245/168 177/246/177
f 166/239/166 177/246/177 168/245/168
f 177/246/177 166/239/166 176/240/176
f 34/247/34 32/210/33 161/211/161
f 177/246/177 34/247/34 161/211/161
f 170/238/170 161/211/161 30/39/30
f 161/211/161 28/37/28 30/39/30
f 77/93/77 73/89/73 81/97/81
f 163/243/163 81/242/81 164/248/164
f 73/89/73 164/241/164 81/97/81
f 88/106/88 163/243/163 165/244/165
f 176/240/176 72/88/72 36/87/36
f 176/240/176 34/247/34 177/246/177
f 34/247/34 176/240/176 36/87/36
f 87/104/87 88/106/88 90/108/90
f 178/249/178 112/250/112 116/251/116
f 116/251/116 131/252/131 178/249/178
f 129/253/129 178/249/178 131/252/131
f 115/254/115 112/250/112 178/249/178
f 178/249/178 119/255/119 115/254/115
f 121/256/121 119/255/119 178/249/178
f 178/249/178 123/257/123 121/256/121
f 125/258/125 123/257/123 178/249/178
f 178/249/178 127/259/127 125/258/125
f 127/259/127 178/249/178 129/253/129
f 55/64/55 46/56/47 47/55/46
f 46/56/47 55/64/55 179/260/179
f 44/66/44 179/260/179 55/64/55
f 179/260/179 44/66/44 43/261/43
f 179/260/179 48/57/48 46/56/47
f 48/57/48 179/260/179 180/262/180
f 43/261/43 180/262/180 179/260/179
f 180/262/180 43/261/43 181/263/181
f 180/262/180 50/59/50 48/57/48
f 50/59/50 180/262/180 54/63/54
f 181/263/181 54/63/54 180/262/180
f 54/63/54 181/263/181 56/65/56
f 41/50/41 181/264/181 43/52/43
f 181/264/181 41/50/41 134/181/134
f 134/181/134 56/84/56 181/264/181
f 56/84/56 134/181/134 69/83/69
f 65/265/65 64/266/64 66/267/66
f 65/265/65 66/267/66 67/268/67
