# Blender v2.79 (sub 0) OBJ File: ''
# www.blender.org
mtllib w21kt08.mtl
o MDL_w21kt08_bod00
v 0.020000 0.569700 0.025000
v -0.019400 0.454700 0.025000
v 0.020000 0.454700 0.025000
v -0.019400 0.569700 0.025000
v 0.020000 0.579700 0.045000
v -0.019400 0.579700 0.045000
v -0.019400 0.399700 0.120000
v -0.019400 0.349700 0.095000
v -0.019400 0.374700 0.065000
v -0.019400 0.299700 0.120000
v -0.019400 0.399700 0.090000
v -0.019400 0.389700 0.025000
v 0.020000 0.374700 0.065000
v 0.020000 0.399700 0.120000
v 0.020000 0.349700 0.095000
v 0.020000 0.399700 0.090000
v 0.020000 0.409700 0.055000
v 0.020000 0.299700 0.120000
v 0.020000 0.299700 0.100000
v -0.019400 0.299700 0.100000
v -0.020000 0.439700 -0.054400
v -0.020000 0.499700 -0.054400
v 0.000000 0.379700 0.025000
v -0.020000 0.474700 -0.086200
v 0.000000 0.429700 -0.055000
v 0.020000 0.439700 -0.055000
v 0.020000 0.499700 -0.055000
v 0.020000 0.474700 -0.086200
v 0.000000 0.479700 -0.100000
v 0.020000 0.389700 0.025000
v 0.000000 0.499700 -0.075000
v 0.000000 0.364700 0.065000
v 0.000000 0.343400 0.090600
v 0.000000 0.299700 0.095000
v -0.019400 0.409700 0.055000
v -0.019400 0.429100 0.031300
v 0.020000 0.429100 0.031300
v 0.020000 0.615900 0.018100
v -0.019400 0.615900 0.018100
v 0.020000 0.661600 -0.011300
v -0.020000 0.661600 -0.011300
v 0.020000 0.710900 -0.035000
v -0.020000 0.710900 -0.035000
v 0.020000 0.759700 -0.055000
v -0.020000 0.759700 -0.054400
v 0.000000 0.759700 -0.075000
v -0.020000 0.569700 -0.054400
v 0.020000 0.569700 -0.055000
v 0.000000 0.569700 -0.075000
v 0.000000 0.399700 0.075600
v -0.011900 0.414700 0.082500
v 0.000000 0.414700 0.077500
v -0.013700 0.399700 0.081200
v -0.016900 0.414700 0.095000
v -0.019400 0.399700 0.095000
v -0.011900 0.414700 0.107500
v -0.013700 0.399700 0.108800
v 0.000000 0.414700 0.112500
v 0.000000 0.399700 0.114400
v 0.012500 0.414700 0.107500
v 0.013700 0.399700 0.108800
v 0.017500 0.414700 0.095000
v 0.019400 0.399700 0.095000
v 0.012500 0.414700 0.082500
v 0.013700 0.399700 0.081200
v 0.000000 0.414700 0.095000
v 0.010000 0.115300 -0.006900
v 0.010000 0.125300 0.051900
v 0.010000 0.162200 0.030600
v 0.000000 0.090900 0.027500
v 0.010000 0.157200 0.000600
v -0.010000 0.115300 -0.006900
v -0.010000 0.157200 0.000600
v -0.009400 0.125300 0.051900
v -0.009400 0.162200 0.030600
v 0.010000 0.334700 -0.010000
v 0.007500 0.289100 0.014400
v 0.006900 0.289700 -0.010000
v 0.010000 0.329700 0.020000
v 0.015000 0.359700 -0.020000
v 0.015000 0.350300 0.038100
v -0.010000 0.334700 -0.009400
v -0.006900 0.289700 -0.009400
v -0.015000 0.359700 -0.019400
v -0.009400 0.329700 0.020000
v -0.006900 0.289100 0.014400
v -0.014400 0.350300 0.038100
v 0.006300 0.230300 -0.006900
v 0.006900 0.230300 0.016200
v -0.006300 0.230300 -0.006900
v -0.006300 0.230300 0.016200
v 0.011300 0.362800 0.031300
v 0.011300 0.369100 -0.005600
v 0.010000 0.374700 0.030000
v 0.010000 0.379700 0.000000
v -0.010600 0.369100 -0.005600
v -0.010000 0.379700 0.000000
v -0.010600 0.362800 0.031300
v -0.009400 0.374700 0.030000
v 0.000000 0.599700 0.025000
v 0.000000 0.659700 0.025000
v 0.010000 0.659700 0.010000
v -0.009400 0.659700 0.010000
v -0.009400 0.599700 0.010000
v 0.010000 0.599700 0.010000
v -0.010000 0.659700 -0.060000
v 0.010000 0.599700 -0.060000
v -0.010000 0.599700 -0.060000
v 0.010000 0.659700 -0.060000
v -0.010000 0.759700 -0.060000
v 0.010000 0.759700 -0.060000
v -0.010000 1.379700 -0.060000
v 0.010000 1.379700 -0.060000
v -0.010000 1.499700 -0.060000
v 0.010000 1.499700 -0.060000
v 0.000000 1.609700 -0.060000
v 0.010000 0.759700 -0.020000
v 0.000000 1.379700 -0.005000
v 0.000000 0.759700 -0.005000
v 0.010000 1.379700 -0.020000
v 0.000000 0.691600 0.008800
v 0.010000 0.691600 -0.005600
v 0.010000 0.729700 -0.016900
v 0.000000 0.729700 -0.001900
v 0.010000 1.559100 -0.043700
v 0.000000 1.579700 -0.035000
v 0.000000 1.519700 -0.015000
v 0.010000 1.514700 -0.029400
v 0.010000 1.439700 -0.021900
v 0.010000 1.565900 -0.050000
v 0.000000 1.439700 -0.006900
v -0.010000 0.759700 -0.019400
v -0.010000 1.379700 -0.019400
v -0.010000 0.691600 -0.005600
v -0.010000 0.729700 -0.016900
v -0.010000 1.559100 -0.043700
v -0.010000 1.565900 -0.050000
v -0.010000 1.439700 -0.021900
v -0.010000 1.514700 -0.029400
v -0.025000 0.399700 -0.019400
v 0.025000 0.427800 -0.008100
v 0.025000 0.399700 -0.020000
v -0.025000 0.427800 -0.008100
v 0.025000 0.439700 0.020000
v -0.024400 0.439700 0.020000
v 0.025000 0.427800 0.048100
v -0.024400 0.427800 0.048100
v 0.025000 0.399700 0.060000
v -0.024400 0.399700 0.060000
v 0.025000 0.371600 0.048100
v -0.024400 0.371600 0.048100
v 0.025000 0.359700 0.020000
v -0.024400 0.359700 0.020000
v 0.025000 0.371600 -0.008100
v -0.025000 0.371600 -0.008100
v 0.030000 0.424100 0.044400
v 0.030000 0.424100 -0.004400
v 0.030000 0.399700 -0.014400
v 0.030000 0.434100 0.020000
v 0.030000 0.399700 0.054400
v 0.030000 0.375300 -0.004400
v 0.030000 0.375300 0.044400
v 0.030000 0.365300 0.020000
v -0.029400 0.424100 0.044400
v -0.030000 0.424100 -0.004400
v -0.029400 0.434100 0.020000
v -0.029400 0.399700 0.054400
v -0.030000 0.399700 -0.014400
v -0.029400 0.375300 0.044400
v -0.030000 0.375300 -0.004400
v -0.029400 0.365300 0.020000
vt 0.992200 0.043000
vt 0.851600 0.242200
vt 0.992200 0.242200
vt 0.851600 0.043000
vt 0.992200 0.003900
vt 0.851600 0.003900
vt 0.992200 0.828100
vt 0.812500 0.871100
vt 0.921900 0.914100
vt 0.992200 0.996100
vt 0.898400 0.828100
vt 0.671900 0.843800
vt 0.812500 0.871100
vt 0.992200 0.828100
vt 0.921900 0.914100
vt 0.898400 0.828100
vt 0.773400 0.808600
vt 0.851600 0.296900
vt 0.992200 0.242200
vt 0.851600 0.242200
vt 0.992200 0.296900
vt 0.992200 0.996100
vt 0.929700 0.996100
vt 0.929700 0.996100
vt 0.398400 0.761700
vt 0.671900 0.738300
vt 0.398400 0.660200
vt 0.671900 0.890600
vt 0.296900 0.695300
vt 0.398400 0.800800
vt 0.398400 0.761700
vt 0.398400 0.660200
vt 0.671900 0.738300
vt 0.296900 0.695300
vt 0.203100 0.691400
vt 0.671900 0.843800
vt 0.296900 0.660200
vt 0.812500 0.910200
vt 0.851600 0.929700
vt 0.859400 0.996100
vt 0.992200 0.304700
vt 0.851600 0.472700
vt 0.992200 0.472700
vt 0.851600 0.304700
vt 0.851600 0.515600
vt 0.921900 0.527300
vt 0.992200 0.515600
vt 0.851600 0.480500
vt 0.992200 0.480500
vt 0.773400 0.808600
vt 0.695300 0.777300
vt 0.695300 0.777300
vt 0.992200 0.281300
vt 0.851600 0.234400
vt 0.851600 0.281300
vt 0.992200 0.234400
vt 0.851600 0.089800
vt 0.992200 0.152300
vt 0.992200 0.089800
vt 0.851600 0.152300
vt 0.992200 0.722700
vt 0.851600 0.808600
vt 0.992200 0.808600
vt 0.851600 0.722700
vt 0.992200 0.687500
vt 0.851600 0.726600
vt 0.992200 0.726600
vt 0.851600 0.687500
vt 0.992200 0.668000
vt 0.851600 0.707000
vt 0.992200 0.707000
vt 0.851600 0.668000
vt 0.992200 0.574200
vt 0.851600 0.675800
vt 0.992200 0.675800
vt 0.851600 0.574200
vt 0.921900 0.535200
vt 0.398400 0.207000
vt 0.398400 0.539100
vt 0.468800 0.293000
vt 0.539100 0.378900
vt 0.640600 0.453100
vt 0.671900 0.539100
vt 0.757800 0.519500
vt 0.398400 0.207000
vt 0.468800 0.293000
vt 0.398400 0.539100
vt 0.539100 0.378900
vt 0.640600 0.453100
vt 0.671900 0.539100
vt 0.757800 0.519500
vt 0.296900 0.539100
vt 0.296900 0.207000
vt 0.992200 0.089800
vt 0.851600 0.144500
vt 0.992200 0.144500
vt 0.851600 0.089800
vt 0.695300 0.734400
vt 0.835900 0.660200
vt 0.695300 0.660200
vt 0.835900 0.734400
vt 0.695300 0.734400
vt 0.835900 0.660200
vt 0.695300 0.660200
vt 0.835900 0.734400
vt 0.695300 0.734400
vt 0.835900 0.660200
vt 0.695300 0.660200
vt 0.835900 0.734400
vt 0.695300 0.734400
vt 0.835900 0.660200
vt 0.695300 0.660200
vt 0.835900 0.734400
vt 0.695300 0.734400
vt 0.835900 0.660200
vt 0.695300 0.660200
vt 0.835900 0.734400
vt 0.695300 0.734400
vt 0.835900 0.660200
vt 0.695300 0.660200
vt 0.835900 0.734400
vt 0.695300 0.734400
vt 0.835900 0.660200
vt 0.695300 0.660200
vt 0.835900 0.734400
vt 0.695300 0.734400
vt 0.835900 0.660200
vt 0.695300 0.660200
vt 0.835900 0.734400
vt 0.765600 0.574200
vt 0.351600 0.164100
vt 0.476600 0.109400
vt 0.515600 0.164100
vt 0.437500 0.207000
vt 0.382800 0.109400
vt 0.390600 0.058600
vt 0.460900 0.003900
vt 0.460900 0.058600
vt 0.421900 0.101600
vt 0.390600 0.003900
vt 0.515600 0.164100
vt 0.382800 0.109400
vt 0.351600 0.164100
vt 0.476600 0.109400
vt 0.460900 0.058600
vt 0.390600 0.003900
vt 0.390600 0.058600
vt 0.460900 0.003900
vt 0.531300 0.039100
vt 0.601600 0.105500
vt 0.531300 0.101600
vt 0.617200 0.046900
vt 0.500000 0.003900
vt 0.671900 0.019500
vt 0.656300 0.175800
vt 0.710900 0.238300
vt 0.671900 0.238300
vt 0.726600 0.175800
vt 0.632800 0.140600
vt 0.742200 0.140600
vt 0.617200 0.046900
vt 0.531300 0.101600
vt 0.601600 0.105500
vt 0.531300 0.039100
vt 0.671900 0.019500
vt 0.500000 0.003900
vt 0.812500 0.031300
vt 0.757800 0.089800
vt 0.796900 0.089800
vt 0.742200 0.031300
vt 0.835900 0.003900
vt 0.726600 0.003900
vt 0.546900 0.187500
vt 0.656300 0.285200
vt 0.562500 0.289100
vt 0.609400 0.187500
vt 0.671900 0.324200
vt 0.726600 0.425800
vt 0.656300 0.425800
vt 0.710900 0.324200
vt 0.609400 0.187500
vt 0.562500 0.289100
vt 0.656300 0.285200
vt 0.546900 0.187500
vt 0.796900 0.171900
vt 0.742200 0.269500
vt 0.812500 0.269500
vt 0.765600 0.171900
vt 0.179700 0.820300
vt 0.320300 0.796900
vt 0.351600 0.820300
vt 0.210900 0.796900
vt 0.312500 0.777300
vt 0.218800 0.777300
vt 0.203100 0.878900
vt 0.296900 0.851600
vt 0.312500 0.878900
vt 0.218800 0.851600
vt 0.289100 0.828100
vt 0.218800 0.828100
vt 0.351600 0.820300
vt 0.210900 0.796900
vt 0.179700 0.820300
vt 0.320300 0.796900
vt 0.218800 0.777300
vt 0.312500 0.777300
vt 0.312500 0.878900
vt 0.218800 0.851600
vt 0.203100 0.878900
vt 0.296900 0.851600
vt 0.218800 0.828100
vt 0.289100 0.828100
vt 0.312500 0.199200
vt 0.250000 0.132800
vt 0.312500 0.132800
vt 0.250000 0.132800
vt 0.250000 0.199200
vt 0.250000 0.199200
vt 0.054700 0.937500
vt 0.007800 0.996100
vt 0.054700 0.996100
vt 0.007800 0.937500
vt 0.054700 0.835900
vt 0.007800 0.835900
vt 0.054700 0.191400
vt 0.007800 0.191400
vt 0.054700 0.070300
vt 0.007800 0.070300
vt 0.031300 0.003900
vt 0.171900 0.574200
vt 0.234400 0.003900
vt 0.234400 0.574200
vt 0.171900 0.003900
vt 0.312500 0.085900
vt 0.250000 0.085900
vt 0.250000 0.039100
vt 0.312500 0.003900
vt 0.312500 0.039100
vt 0.250000 0.003900
vt 0.773400 0.343800
vt 0.835900 0.281300
vt 0.835900 0.343800
vt 0.835900 0.414100
vt 0.773400 0.406300
vt 0.773400 0.496100
vt 0.773400 0.328100
vt 0.835900 0.562500
vt 0.773400 0.562500
vt 0.835900 0.500000
vt 0.070300 0.937500
vt 0.218800 0.996100
vt 0.070300 0.996100
vt 0.218800 0.937500
vt 0.187500 0.902300
vt 0.156300 0.191400
vt 0.070300 0.835900
vt 0.070300 0.191400
vt 0.156300 0.132800
vt 0.156300 0.835900
vt 0.164100 0.863300
vt 0.070300 0.070300
vt 0.140600 0.054700
vt 0.171900 0.574200
vt 0.171900 0.003900
vt 0.250000 0.085900
vt 0.250000 0.039100
vt 0.250000 0.003900
vt 0.773400 0.343800
vt 0.773400 0.328100
vt 0.773400 0.496100
vt 0.773400 0.406300
vt 0.773400 0.562500
vt 0.070300 0.937500
vt 0.218800 0.996100
vt 0.218800 0.937500
vt 0.187500 0.902300
vt 0.070300 0.996100
vt 0.156300 0.191400
vt 0.070300 0.835900
vt 0.156300 0.835900
vt 0.070300 0.191400
vt 0.156300 0.132800
vt 0.070300 0.070300
vt 0.140600 0.054700
vt 0.109400 0.011700
vt 0.093800 0.003900
vt 0.164100 0.863300
vt 0.328100 0.113300
vt 0.328100 0.003900
vt 0.375000 0.046900
vt 0.328100 0.113300
vt 0.375000 0.046900
vt 0.109400 0.011700
vt 0.093800 0.003900
vt 0.828100 0.996100
vt 0.640600 0.933600
vt 0.640600 0.996100
vt 0.828100 0.933600
vt 0.828100 0.996100
vt 0.640600 0.933600
vt 0.640600 0.996100
vt 0.828100 0.933600
vt 0.828100 0.996100
vt 0.640600 0.933600
vt 0.640600 0.996100
vt 0.828100 0.933600
vt 0.828100 0.996100
vt 0.640600 0.933600
vt 0.640600 0.996100
vt 0.828100 0.933600
vt 0.828100 0.996100
vt 0.640600 0.933600
vt 0.640600 0.996100
vt 0.828100 0.933600
vt 0.828100 0.996100
vt 0.640600 0.933600
vt 0.640600 0.996100
vt 0.828100 0.933600
vt 0.828100 0.996100
vt 0.640600 0.933600
vt 0.640600 0.996100
vt 0.828100 0.933600
vt 0.828100 0.996100
vt 0.640600 0.933600
vt 0.640600 0.996100
vt 0.828100 0.933600
vt 0.578100 0.894500
vt 0.281300 0.957000
vt 0.328100 0.894500
vt 0.453100 0.867200
vt 0.625000 0.957000
vt 0.328100 0.894500
vt 0.578100 0.894500
vt 0.453100 0.867200
vt 0.578100 0.894500
vt 0.453100 0.867200
vt 0.328100 0.894500
vt 0.625000 0.957000
vt 0.281300 0.957000
vt 0.578100 0.894500
vt 0.328100 0.894500
vt 0.453100 0.867200
vt 0.531300 0.964800
vt 0.296900 0.996100
vt 0.281300 0.964800
vt 0.515600 0.996100
vt 0.531300 0.964800
vt 0.296900 0.996100
vt 0.281300 0.964800
vt 0.515600 0.996100
vt 0.531300 0.964800
vt 0.296900 0.996100
vt 0.281300 0.964800
vt 0.515600 0.996100
vt 0.531300 0.964800
vt 0.296900 0.996100
vt 0.281300 0.964800
vt 0.515600 0.996100
vt 0.531300 0.964800
vt 0.296900 0.996100
vt 0.281300 0.964800
vt 0.515600 0.996100
vt 0.531300 0.964800
vt 0.296900 0.996100
vt 0.281300 0.964800
vt 0.515600 0.996100
vt 0.531300 0.964800
vt 0.296900 0.996100
vt 0.281300 0.964800
vt 0.515600 0.996100
vt 0.531300 0.964800
vt 0.296900 0.996100
vt 0.281300 0.964800
vt 0.515600 0.996100
vt 0.281300 0.964800
vt 0.515600 0.996100
vt 0.531300 0.964800
vt 0.296900 0.996100
vt 0.281300 0.964800
vt 0.515600 0.996100
vt 0.531300 0.964800
vt 0.296900 0.996100
vt 0.281300 0.964800
vt 0.515600 0.996100
vt 0.531300 0.964800
vt 0.296900 0.996100
vt 0.281300 0.964800
vt 0.515600 0.996100
vt 0.531300 0.964800
vt 0.296900 0.996100
vt 0.281300 0.964800
vt 0.515600 0.996100
vt 0.531300 0.964800
vt 0.296900 0.996100
vt 0.281300 0.964800
vt 0.515600 0.996100
vt 0.531300 0.964800
vt 0.296900 0.996100
vt 0.281300 0.964800
vt 0.515600 0.996100
vt 0.531300 0.964800
vt 0.296900 0.996100
vt 0.281300 0.964800
vt 0.515600 0.996100
vt 0.531300 0.964800
vt 0.296900 0.996100
vn 0.8379 -0.1873 0.5127
vn -0.7077 0.0844 0.7015
vn 0.8957 0.0535 0.4414
vn -0.8364 -0.3738 0.4009
vn 0.4343 -0.5179 0.7370
vn -0.4343 0.1296 0.8914
vn -0.8018 0.5345 0.2672
vn -0.8370 -0.4561 -0.3023
vn -0.8217 -0.1930 -0.5362
vn -0.5774 -0.5774 0.5774
vn -0.8345 0.5456 0.0764
vn -0.9183 -0.3608 -0.1627
vn 0.8870 -0.4111 -0.2102
vn 0.8018 0.2672 0.5345
vn 0.8312 -0.3215 -0.4535
vn 0.4507 0.8840 0.1238
vn 0.8373 0.4844 0.2535
vn 0.8165 -0.4083 0.4082
vn 0.3696 -0.7952 -0.4808
vn -0.4759 -0.7991 -0.3674
vn -0.8339 -0.4403 -0.3329
vn -0.9361 0.2142 -0.2788
vn 0.0001 -0.8963 -0.4435
vn -0.7364 -0.2008 -0.6461
vn 0.0549 -0.7505 -0.6586
vn 0.8947 -0.3409 -0.2888
vn 0.9452 0.1052 -0.3092
vn 0.7381 0.0163 -0.6745
vn -0.1730 0.2314 -0.9574
vn 0.8852 -0.4098 -0.2201
vn -0.0497 0.4727 -0.8798
vn -0.0180 -0.8630 -0.5048
vn -0.0272 -0.4617 -0.8866
vn -0.0809 -0.4061 -0.9102
vn -0.4547 0.7891 0.4129
vn -0.7255 0.3674 0.5820
vn 0.4662 0.4722 0.7481
vn 0.7073 0.4088 0.5767
vn -0.7057 0.3938 0.5890
vn 0.5553 0.4208 0.7173
vn -0.5543 0.3886 0.7360
vn 0.5549 0.3456 0.7568
vn -0.5522 0.3286 0.7662
vn 0.6354 0.6456 0.4236
vn -0.8586 0.4856 -0.1646
vn 0.2858 0.4103 -0.8660
vn -0.9608 -0.0006 -0.2771
vn 0.9584 -0.0000 -0.2855
vn -0.0074 0.0000 -1.0000
vn -0.1371 0.1274 -0.9823
vn -0.4597 0.6523 -0.6027
vn 0.0991 0.6441 -0.7585
vn -0.7897 0.1499 -0.5949
vn -0.7431 0.6613 -0.1021
vn -0.9785 0.1595 0.1310
vn -0.6027 0.6582 0.4512
vn -0.5980 0.1372 0.7897
vn -0.1073 0.6464 0.7554
vn 0.1315 0.1222 0.9838
vn 0.4607 0.6441 0.6107
vn 0.7934 0.1188 0.5970
vn 0.7591 0.6425 0.1043
vn 0.9839 0.1211 -0.1317
vn 0.6102 0.6440 -0.4614
vn 0.5952 0.1189 -0.7947
vn -0.0000 1.0000 0.0000
vn 0.8554 -0.2765 -0.4380
vn 0.8963 0.1786 0.4059
vn 0.5991 0.0332 0.8000
vn -0.0014 -0.9850 0.1723
vn 0.4495 0.0446 -0.8921
vn -0.6014 -0.2369 -0.7631
vn -0.8990 0.0408 -0.4360
vn -0.8523 -0.1079 0.5118
vn -0.4469 0.3292 0.8318
vn 0.6804 -0.2538 -0.6875
vn 0.7140 -0.0513 0.6982
vn 0.6833 -0.0341 -0.7293
vn 0.7009 -0.3348 0.6299
vn 0.9237 0.1584 -0.3488
vn 0.5060 -0.0692 0.8598
vn -0.7036 -0.2010 -0.6816
vn -0.8059 -0.0487 -0.5900
vn -0.5358 0.2866 -0.7942
vn -0.6953 -0.4231 0.5810
vn -0.5549 -0.0873 0.8273
vn -0.9135 0.0122 0.4067
vn 0.6952 -0.0277 -0.7183
vn 0.7168 0.1104 0.6885
vn -0.5550 -0.0571 -0.8299
vn -0.7989 0.0692 0.5974
vn 0.6594 0.3213 0.6797
vn 0.6679 0.6040 -0.4348
vn 0.8780 0.1463 0.4558
vn 0.4381 0.4613 -0.7715
vn -0.6566 0.5631 -0.5017
vn -0.8857 0.2771 -0.3726
vn -0.6720 0.3516 0.6518
vn -0.4361 0.1411 0.8888
vn -0.0141 -0.0000 0.9999
vn 0.9188 0.0944 0.3833
vn -0.0148 0.2418 0.9702
vn -0.9237 0.0871 0.3731
vn -0.9820 -0.0000 0.1891
vn 0.9814 -0.0000 0.1922
vn -0.8594 -0.0025 -0.5113
vn 0.4472 0.0000 -0.8944
vn -0.7101 0.0000 -0.7041
vn 0.8575 0.0000 -0.5145
vn -0.8000 -0.0000 -0.6000
vn 0.8000 0.0000 -0.6000
vn -0.7071 0.0000 -0.7071
vn 0.7071 0.0000 -0.7071
vn -0.8100 0.0130 -0.5863
vn 0.8879 0.0142 -0.4598
vn -0.0000 0.8664 -0.4993
vn 0.9378 0.0119 0.3470
vn 0.0073 0.0171 0.9998
vn 0.0062 0.0652 0.9979
vn 0.9728 0.0037 0.2314
vn -0.0043 0.3620 0.9322
vn 0.9492 0.1148 0.2931
vn 0.9411 0.0651 0.3317
vn 0.0000 0.1882 0.9821
vn 0.9432 0.1569 0.2928
vn -0.0000 0.4684 0.8835
vn -0.0000 0.2067 0.9784
vn 0.9577 0.0585 0.2818
vn 0.9433 0.0219 0.3311
vn 0.9890 0.1266 -0.0770
vn -0.0000 0.0663 0.9978
vn -0.9337 0.0099 0.3578
vn -0.9711 0.0050 0.2386
vn -0.9493 0.1072 0.2957
vn -0.9403 0.0637 0.3343
vn -0.9432 0.1569 0.2928
vn -0.9890 0.1266 -0.0770
vn -0.9424 0.0228 0.3336
vn -0.9577 0.0585 0.2818
vn -0.3934 0.1258 -0.9107
vn 0.4009 0.5521 -0.7310
vn 0.4057 -0.1239 -0.9056
vn -0.4033 0.7282 -0.5541
vn 0.4095 0.9034 -0.1270
vn -0.4097 0.9030 0.1296
vn 0.4023 0.7285 0.5544
vn -0.4023 0.5544 0.7285
vn 0.4095 0.1270 0.9034
vn -0.4095 -0.1270 0.9034
vn 0.4023 -0.5544 0.7285
vn -0.4023 -0.7285 0.5544
vn 0.4095 -0.9034 0.1270
vn -0.4091 -0.9044 -0.1214
vn 0.4023 -0.7285 -0.5544
vn -0.3960 -0.5521 -0.7337
vn 0.9321 0.2205 0.2875
vn 0.9336 0.0511 -0.3546
vn 0.9004 0.3453 -0.2648
vn 0.8465 0.5269 0.0759
vn 0.9336 -0.0511 0.3546
vn 0.9321 -0.2205 -0.2875
vn 0.9004 -0.3453 0.2648
vn 0.8465 -0.5269 -0.0759
vn -0.8967 0.3516 0.2691
vn -0.8421 0.5354 -0.0648
vn -0.9293 0.2300 -0.2889
vn -0.9318 0.0506 0.3593
vn -0.9290 -0.0497 -0.3668
vn -0.9293 -0.2251 0.2928
vn -0.9006 -0.3532 -0.2534
vn -0.8423 -0.5326 0.0832
usemtl MDL_w21kt08_bod00_TEX_w21kt08
s 1
f 1/1/1 2/2/2 3/3/3
f 2/2/2 1/1/1 4/4/4
f 5/5/5 4/4/4 1/1/1
f 4/4/4 5/5/5 6/6/6
f 7/7/7 9/8/8 8/9/9
f 8/9/9 10/10/10 7/7/7
f 9/8/8 7/7/7 11/11/11
f 11/11/11 12/12/12 9/8/8
f 13/13/13 14/14/14 15/15/15
f 14/14/14 13/13/13 16/16/16
f 17/17/17 16/16/16 13/13/13
f 7/18/7 16/19/16 11/20/11
f 16/19/16 7/18/7 14/21/14
f 18/22/18 15/15/15 14/14/14
f 15/15/15 18/22/18 19/23/19
f 8/9/9 20/24/20 10/10/10
f 21/25/21 2/26/2 22/27/22
f 2/26/2 21/25/21 12/12/12
f 23/28/23 12/12/12 21/25/21
f 21/25/21 22/27/22 24/29/24
f 24/29/24 25/30/25 21/25/21
f 26/31/26 27/32/27 3/33/3
f 27/32/27 26/31/26 28/34/28
f 25/30/25 28/34/28 26/31/26
f 28/34/28 25/30/25 29/35/29
f 24/29/24 29/35/29 25/30/25
f 26/31/26 3/33/3 30/36/30
f 30/36/30 25/30/25 26/31/26
f 29/35/29 22/27/22 31/37/31
f 31/37/31 28/34/28 29/35/29
f 29/35/29 24/29/24 22/27/22
f 31/37/31 27/32/27 28/34/28
f 32/38/32 12/12/12 23/28/23
f 12/12/12 32/38/32 9/8/8
f 33/39/33 9/8/8 32/38/32
f 9/8/8 33/39/33 8/9/9
f 34/40/34 8/9/9 33/39/33
f 8/9/9 34/40/34 20/24/20
f 23/28/23 13/13/13 32/38/32
f 13/13/13 23/28/23 30/36/30
f 25/30/25 30/36/30 23/28/23
f 32/38/32 15/15/15 33/39/33
f 15/15/15 32/38/32 13/13/13
f 33/39/33 19/23/19 34/40/34
f 19/23/19 33/39/33 15/15/15
f 14/41/14 10/42/10 18/43/18
f 10/42/10 14/41/14 7/44/7
f 21/25/21 25/30/25 23/28/23
f 20/45/20 34/46/34 19/47/19
f 19/47/19 10/48/10 20/45/20
f 10/48/10 19/47/19 18/49/18
f 12/12/12 11/11/11 35/50/35
f 35/50/35 36/51/36 12/12/12
f 2/26/2 12/12/12 36/51/36
f 30/36/30 3/33/3 37/52/37
f 13/13/13 30/36/30 17/17/17
f 37/53/37 2/54/2 36/55/36
f 2/54/2 37/53/37 3/56/3
f 35/57/35 16/58/16 17/59/17
f 16/58/16 35/57/35 11/60/11
f 38/61/38 6/62/6 5/63/5
f 6/62/6 38/61/38 39/64/39
f 40/65/40 39/66/39 38/67/38
f 39/66/39 40/65/40 41/68/41
f 42/69/42 41/70/41 40/71/40
f 41/70/41 42/69/42 43/72/43
f 44/73/44 43/74/43 42/75/42
f 43/74/43 44/73/44 45/76/45
f 44/73/44 46/77/46 45/76/45
f 45/78/45 47/79/47 43/80/43
f 47/79/47 41/81/41 43/80/43
f 39/82/39 4/83/4 6/84/6
f 4/83/4 39/82/39 47/79/47
f 39/82/39 41/81/41 47/79/47
f 22/27/22 4/83/4 47/79/47
f 47/79/47 31/37/31 22/27/22
f 22/27/22 2/26/2 4/83/4
f 44/85/44 42/86/42 48/87/48
f 48/87/48 42/86/42 40/88/40
f 40/88/40 38/89/38 48/87/48
f 1/90/1 38/89/38 5/91/5
f 38/89/38 1/90/1 48/87/48
f 27/32/27 48/87/48 1/90/1
f 1/90/1 3/33/3 27/32/27
f 45/78/45 49/92/49 47/79/47
f 49/92/49 45/78/45 46/93/46
f 31/37/31 47/79/47 49/92/49
f 49/92/49 27/32/27 31/37/31
f 49/92/49 48/87/48 27/32/27
f 46/93/46 48/87/48 49/92/49
f 48/87/48 46/93/46 44/85/44
f 37/94/37 35/95/35 17/96/17
f 35/95/35 37/94/37 36/97/36
f 30/36/30 37/52/37 17/17/17
f 50/98/50 51/99/51 52/100/52
f 51/99/51 50/98/50 53/101/53
f 53/102/53 54/103/54 51/104/51
f 54/103/54 53/102/53 55/105/55
f 55/106/55 56/107/56 54/108/54
f 56/107/56 55/106/55 57/109/57
f 57/110/57 58/111/58 56/112/56
f 58/111/58 57/110/57 59/113/59
f 59/114/59 60/115/60 58/116/58
f 60/115/60 59/114/59 61/117/61
f 61/118/61 62/119/62 60/120/60
f 62/119/62 61/118/61 63/121/63
f 63/122/63 64/123/64 62/124/62
f 64/123/64 63/122/63 65/125/65
f 65/126/65 52/127/52 64/128/64
f 52/127/52 65/126/65 50/129/50
f 66/130/66 52/127/52 51/104/51
f 66/130/66 51/99/51 54/108/54
f 66/130/66 54/103/54 56/112/56
f 66/130/66 56/107/56 58/116/58
f 66/130/66 58/111/58 60/120/60
f 66/130/66 60/115/60 62/124/62
f 66/130/66 62/119/62 64/128/64
f 66/130/66 64/123/64 52/100/52
f 67/131/67 69/132/68 68/133/69
f 68/133/69 70/134/70 67/131/67
f 67/131/67 71/135/71 69/132/68
f 72/136/72 71/137/71 67/138/67
f 67/138/67 70/139/70 72/136/72
f 72/136/72 73/140/73 71/137/71
f 74/141/74 73/142/73 72/143/72
f 72/143/72 70/134/70 74/141/74
f 74/141/74 75/144/75 73/142/73
f 68/145/69 75/146/75 74/147/74
f 74/147/74 70/139/70 68/145/69
f 68/145/69 69/148/68 75/146/75
f 76/149/76 77/150/77 78/151/78
f 77/150/77 76/149/76 79/152/79
f 80/153/80 79/152/79 76/149/76
f 79/152/79 80/153/80 81/154/81
f 82/155/82 78/156/78 83/157/83
f 78/156/78 82/155/82 76/158/76
f 84/159/84 76/158/76 82/155/82
f 76/158/76 84/159/84 80/160/80
f 85/161/85 83/162/83 86/163/86
f 83/162/83 85/161/85 82/164/82
f 87/165/87 82/164/82 85/161/85
f 82/164/82 87/165/87 84/166/84
f 79/167/79 86/168/86 77/169/77
f 86/168/86 79/167/79 85/170/85
f 81/171/81 85/170/85 79/167/79
f 85/170/85 81/171/81 87/172/87
f 88/173/88 69/174/68 71/175/71
f 69/174/68 88/173/88 89/176/89
f 78/151/78 89/176/89 88/173/88
f 89/176/89 78/151/78 77/150/77
f 90/177/90 71/178/71 73/179/73
f 71/178/71 90/177/90 88/180/88
f 83/157/83 88/180/88 90/177/90
f 88/180/88 83/157/83 78/156/78
f 91/181/91 73/182/73 75/183/75
f 73/182/73 91/181/91 90/184/90
f 83/162/83 90/184/90 91/181/91
f 89/185/89 75/186/75 69/187/68
f 75/186/75 89/185/89 91/188/91
f 77/169/77 91/188/91 89/185/89
f 91/188/91 77/169/77 86/168/86
f 80/189/80 92/190/92 81/191/81
f 92/190/92 80/189/80 93/192/93
f 94/193/94 93/192/93 95/194/95
f 93/192/93 94/193/94 92/190/92
f 84/195/84 93/196/93 80/197/80
f 93/196/93 84/195/84 96/198/96
f 95/199/95 96/198/96 97/200/97
f 96/198/96 95/199/95 93/196/93
f 87/201/87 96/202/96 84/203/84
f 96/202/96 87/201/87 98/204/98
f 97/205/97 98/204/98 99/206/99
f 98/204/98 97/205/97 96/202/96
f 81/207/81 98/208/98 87/209/87
f 98/208/98 81/207/81 92/210/92
f 99/211/99 92/210/92 94/212/94
f 92/210/92 99/211/99 98/208/98
f 91/181/91 86/163/86 83/162/83
f 100/213/100 102/214/101 101/215/102
f 101/215/102 103/216/103 100/213/100
f 104/217/104 100/213/100 103/216/103
f 100/213/100 105/218/105 102/214/101
f 106/219/106 107/220/107 108/221/108
f 107/220/107 106/219/106 109/222/109
f 110/223/110 109/222/109 106/219/106
f 109/222/109 110/223/110 111/224/111
f 112/225/112 111/224/111 110/223/110
f 111/224/111 112/225/112 113/226/113
f 114/227/114 113/226/113 112/225/112
f 113/226/113 114/227/114 115/228/115
f 116/229/116 115/228/115 114/227/114
f 117/230/117 118/231/118 119/232/119
f 118/231/118 117/230/117 120/233/120
f 102/214/101 121/234/121 101/215/102
f 121/234/121 102/214/101 122/235/122
f 123/236/123 119/237/119 124/238/124
f 124/238/124 121/234/121 123/236/123
f 122/235/122 123/236/123 121/234/121
f 123/236/123 117/239/117 119/237/119
f 125/240/125 116/241/116 126/242/126
f 126/242/126 127/243/127 125/240/125
f 128/244/128 125/240/125 127/243/127
f 127/243/127 129/245/129 128/244/128
f 125/240/125 130/246/130 116/241/116
f 129/245/129 118/247/118 120/248/120
f 118/247/118 129/245/129 131/249/131
f 127/243/127 131/249/131 129/245/129
f 109/250/109 105/251/105 107/252/107
f 105/251/105 109/250/109 102/253/101
f 122/254/122 102/253/101 109/250/109
f 120/255/120 111/256/111 113/257/113
f 113/257/113 129/258/129 120/255/120
f 111/256/111 120/255/120 117/259/117
f 117/259/117 123/260/123 111/256/111
f 129/258/129 115/261/115 128/262/128
f 115/261/115 129/258/129 113/257/113
f 109/250/109 123/260/123 122/254/122
f 123/260/123 109/250/109 111/256/111
f 132/263/132 118/231/118 133/264/133
f 118/231/118 132/263/132 119/232/119
f 103/216/103 121/234/121 134/265/134
f 121/234/121 103/216/103 101/215/102
f 135/266/135 119/237/119 132/267/132
f 119/237/119 135/266/135 124/238/124
f 121/234/121 124/238/124 135/266/135
f 136/268/136 116/241/116 137/269/137
f 116/241/116 136/268/136 126/242/126
f 127/243/127 126/242/126 136/268/136
f 138/270/138 118/247/118 131/249/131
f 131/249/131 127/243/127 138/270/138
f 139/271/139 138/270/138 127/243/127
f 127/243/127 136/268/136 139/271/139
f 138/270/138 133/272/133 118/247/118
f 106/273/106 104/274/104 103/275/103
f 103/275/103 134/276/134 106/273/106
f 106/273/106 108/277/108 104/274/104
f 133/278/133 110/279/110 132/280/132
f 110/279/110 133/278/133 112/281/112
f 112/281/112 133/278/133 138/282/138
f 138/282/138 114/283/114 112/281/112
f 114/283/114 138/282/138 139/284/139
f 139/284/139 136/285/136 114/283/114
f 137/286/137 114/283/114 136/285/136
f 135/266/135 134/265/134 121/234/121
f 135/287/135 110/279/110 106/273/106
f 110/279/110 135/287/135 132/280/132
f 106/273/106 134/276/134 135/287/135
f 115/288/115 116/289/116 130/290/130
f 116/289/116 114/291/114 137/292/137
f 115/261/115 125/293/125 128/262/128
f 125/293/125 115/261/115 130/294/130
f 140/295/140 141/296/141 142/297/142
f 141/296/141 140/295/140 143/298/143
f 143/299/143 144/300/144 141/301/141
f 144/300/144 143/299/143 145/302/145
f 145/303/145 146/304/146 144/305/144
f 146/304/146 145/303/145 147/306/147
f 147/307/147 148/308/148 146/309/146
f 148/308/148 147/307/147 149/310/149
f 149/311/149 150/312/150 148/313/148
f 150/312/150 149/311/149 151/314/151
f 151/315/151 152/316/152 150/317/150
f 152/316/152 151/315/151 153/318/153
f 153/319/153 154/320/154 152/321/152
f 154/320/154 153/319/153 155/322/155
f 155/323/155 142/324/142 154/325/154
f 142/324/142 155/323/155 140/326/140
f 156/327/156 158/328/157 157/329/158
f 157/329/158 159/330/159 156/327/156
f 158/328/157 156/327/156 160/331/160
f 160/331/160 161/332/161 158/328/157
f 161/332/161 160/331/160 162/333/162
f 162/333/162 163/334/163 161/332/161
f 164/335/164 166/336/165 165/337/166
f 165/337/166 167/338/167 164/335/164
f 167/338/167 165/337/166 168/339/168
f 168/339/168 169/340/169 167/338/167
f 169/340/169 168/339/168 170/341/170
f 170/341/170 171/342/171 169/340/169
f 141/343/141 158/344/157 142/345/142
f 158/344/157 141/343/141 157/346/158
f 148/347/148 156/348/156 146/349/146
f 156/348/156 148/347/148 160/350/160
f 144/351/144 157/352/158 141/353/141
f 157/352/158 144/351/144 159/354/159
f 146/355/146 159/356/159 144/357/144
f 159/356/159 146/355/146 156/358/156
f 150/359/150 160/360/160 148/361/148
f 160/360/160 150/359/150 162/362/162
f 142/363/142 161/364/161 154/365/154
f 161/364/161 142/363/142 158/366/157
f 152/367/152 162/368/162 150/369/150
f 162/368/162 152/367/152 163/370/163
f 154/371/154 163/372/163 152/373/152
f 163/372/163 154/371/154 161/374/161
f 143/375/143 166/376/165 145/377/145
f 166/376/165 143/375/143 165/378/166
f 145/379/145 164/380/164 147/381/147
f 164/380/164 145/379/145 166/382/165
f 147/383/147 167/384/167 149/385/149
f 167/384/167 147/383/147 164/386/164
f 140/387/140 165/388/166 143/389/143
f 165/388/166 140/387/140 168/390/168
f 155/391/155 168/392/168 140/393/140
f 168/392/168 155/391/155 170/394/170
f 149/395/149 169/396/169 151/397/151
f 169/396/169 149/395/149 167/398/167
f 153/399/153 170/400/170 155/401/155
f 170/400/170 153/399/153 171/402/171
f 151/403/151 171/404/171 153/405/153
f 171/404/171 151/403/151 169/406/169
