# Blender v2.79 (sub 0) OBJ File: ''
# www.blender.org
mtllib w21ktx2.mtl
o MDL_w21ktx2_bod00
v -0.018900 0.389700 -0.023000
v -0.018000 0.359700 -0.011700
v -0.024100 0.389700 -0.017200
v -0.015000 0.359700 -0.015600
v 0.000000 0.359700 -0.023700
v -0.026900 0.359700 0.004100
v -0.030900 0.389700 0.000000
v -0.026900 0.389700 0.020900
v -0.023900 0.359700 0.020900
v -0.005000 0.394700 0.065900
v -0.018900 0.379700 0.062000
v 0.000000 0.379700 0.072000
v -0.021900 0.389700 0.059100
v -0.018000 0.359700 0.060000
v -0.023900 0.379700 0.045900
v -0.023000 0.359700 0.043000
v 0.000000 0.359700 0.069100
v 0.018000 0.359700 0.060000
v 0.019100 0.379700 0.062000
v 0.024100 0.379700 0.045900
v 0.000000 0.344700 0.069100
v -0.013000 0.344700 0.060900
v -0.016900 0.344700 0.044100
v 0.000000 0.328700 0.055000
v -0.006900 0.332600 0.050900
v -0.033900 0.489700 0.100000
v -0.015900 0.401700 0.040900
v 0.000000 0.395600 0.067000
v 0.005000 0.394700 0.065900
v 0.022000 0.389700 0.059100
v 0.000000 0.404700 0.044100
v -0.023000 0.395600 0.032000
v -0.019800 0.332600 0.025900
v 0.000000 0.305500 0.064100
v -0.023900 0.300600 0.040900
v 0.000000 0.253100 0.070000
v -0.030900 0.253100 0.043000
v 0.030900 0.253100 0.043000
v 0.024100 0.300600 0.040900
v -0.012500 0.099500 0.026200
v 0.000000 0.099500 0.036200
v -0.004800 0.051100 0.020900
v 0.000000 0.059400 0.027000
v -0.006900 0.361700 0.023000
v -0.015000 0.361700 0.010900
v 0.000000 0.325600 0.030900
v 0.020000 0.332600 0.025900
v 0.012500 0.099500 0.026200
v 0.005000 0.051100 0.020900
v -0.038000 0.409700 -0.003000
v -0.028000 0.340600 0.004100
v 0.000000 0.389700 -0.031700
v 0.019100 0.389700 -0.023000
v 0.015000 0.359700 -0.015600
v 0.018000 0.359700 -0.011700
v 0.000000 0.409700 -0.045000
v 0.000000 0.344700 -0.028900
v -0.015000 0.361700 -0.005000
v -0.029800 0.319700 -0.020900
v 0.000000 0.332600 -0.035200
v 0.000000 0.361700 -0.015900
v 0.015000 0.361700 -0.005000
v 0.030000 0.319700 -0.020900
v 0.015000 0.361700 0.010900
v 0.030000 0.319700 0.015000
v 0.007000 0.361700 0.023000
v -0.029800 0.319700 0.015000
v 0.000000 0.379700 0.020900
v 0.024200 0.389700 -0.017200
v 0.027000 0.359700 0.004100
v 0.031100 0.389700 0.000000
v 0.027000 0.389700 0.020900
v 0.024100 0.359700 0.020900
v 0.028000 0.340600 0.004100
v 0.013000 0.344700 0.060900
v 0.007000 0.332600 0.050900
v 0.023000 0.359700 0.043000
v 0.017000 0.344700 0.044100
v 0.034100 0.489700 0.100000
v 0.015900 0.401700 0.040900
v 0.023000 0.395600 0.032000
v 0.038000 0.409700 -0.003000
v 0.000000 0.335600 0.000000
v 0.000000 0.399700 -0.035000
v -0.010000 0.439700 -0.051900
v -0.033000 0.439700 -0.010900
v -0.030900 0.399700 -0.010000
v -0.030000 0.399700 0.039100
v -0.010000 0.379700 0.000000
v -0.060000 0.439700 0.047000
v -0.050900 0.439700 -0.018900
v -0.040000 0.619700 -0.020000
v -0.036900 0.529700 -0.013900
v -0.020900 0.599700 -0.033000
v -0.043900 0.599700 0.005000
v -0.045000 0.529700 -0.020000
v -0.020000 0.529700 -0.035000
v -0.015900 0.489700 -0.046900
v -0.050000 0.489700 -0.020000
v -0.048000 0.529700 0.015000
v -0.053000 0.489700 0.020000
v 0.010000 0.439700 -0.051900
v 0.033000 0.439700 -0.010900
v 0.015900 0.489700 -0.046900
v 0.010000 0.379700 0.000000
v 0.030900 0.399700 -0.010000
v 0.030000 0.399700 0.039100
v 0.037000 0.529700 -0.013900
v 0.040000 0.619700 -0.020000
v 0.020900 0.599700 -0.033000
v 0.045000 0.529700 -0.020000
v 0.044100 0.599700 0.005000
v 0.020000 0.529700 -0.035000
v 0.050000 0.489700 -0.020000
v 0.050900 0.439700 -0.018900
v 0.060000 0.439700 0.047000
v 0.048000 0.529700 0.015000
v 0.053000 0.489700 0.020000
v 0.025000 0.589700 -0.010000
v 0.000000 0.589700 -0.050000
v 0.000000 0.509700 -0.065900
v 0.000000 0.699700 -0.060000
v 0.015000 0.666700 -0.023900
v 0.036100 0.509700 -0.010000
v 0.030200 0.415000 -0.010000
v 0.000000 0.415000 -0.042500
v 0.000000 0.380500 -0.010000
v -0.030000 0.415000 -0.010000
v 0.000000 0.589700 -0.030000
v -0.036100 0.509700 -0.010000
v -0.025000 0.589700 -0.010000
v -0.015000 0.666700 -0.023900
v 0.000000 0.379700 0.020000
v 0.000000 0.409700 0.057000
v -0.033000 0.409700 0.020000
v 0.033000 0.409700 0.020000
v -0.020000 0.503700 0.057000
v 0.000000 0.449700 0.072000
v 0.000000 0.495600 0.073000
v -0.050000 0.449700 0.020000
v 0.050000 0.449700 0.020000
v 0.000000 0.409700 0.040000
v 0.000000 0.449700 0.050000
v 0.020000 0.503700 0.057000
v 0.000000 0.070100 0.010000
v 0.010000 0.336700 0.000000
v 0.000000 0.336700 0.010000
v 0.010000 0.070100 0.000000
v 0.000000 0.336700 -0.010000
v 0.000000 0.070100 -0.010000
v -0.009800 0.336700 0.000000
v -0.009800 0.070100 0.000000
v 0.000000 0.061100 0.019400
v 0.016900 0.061100 0.009700
v 0.000000 0.071100 0.012700
v 0.000000 0.041100 0.021600
v -0.018600 0.041100 0.010800
v 0.010900 0.071100 0.006300
v 0.016900 0.061100 -0.009700
v 0.010900 0.071100 -0.006300
v 0.000000 0.061100 -0.019400
v 0.000000 0.071100 -0.012500
v -0.016700 0.061100 -0.009700
v -0.010900 0.071100 -0.006300
v -0.016700 0.061100 0.009700
v -0.010900 0.071100 0.006300
v -0.018600 0.041100 -0.010800
v 0.000000 0.033700 0.000000
v 0.000000 0.041100 -0.021600
v 0.018800 0.041100 -0.010800
v 0.018800 0.041100 0.010800
vt 0.132800 0.226600
vt 0.187500 0.347700
vt 0.179700 0.226600
vt 0.125000 0.347700
vt 0.007800 0.339800
vt 0.132800 0.226600
vt 0.007800 0.339800
vt 0.007800 0.230500
vt 0.125000 0.347700
vt 0.132800 0.226600
vt 0.125000 0.347700
vt 0.757800 0.433600
vt 0.679700 0.476600
vt 0.796900 0.476600
vt 0.656300 0.441400
vt 0.687500 0.546900
vt 0.609400 0.476600
vt 0.609400 0.546900
vt 0.796900 0.546900
vt 0.687500 0.546900
vt 0.679700 0.476600
vt 0.609400 0.476600
vt 0.796900 0.578100
vt 0.718800 0.578100
vt 0.625000 0.578100
vt 0.796900 0.613300
vt 0.726600 0.609400
vt 0.156300 0.628900
vt 0.304700 0.406300
vt 0.250000 0.640600
vt 0.726600 0.996100
vt 0.609400 0.851600
vt 0.609400 0.996100
vt 0.726600 0.996100
vt 0.796900 0.433600
vt 0.757800 0.433600
vt 0.656300 0.441400
vt 0.523400 0.066400
vt 0.367200 0.003900
vt 0.367200 0.113300
vt 0.523400 0.003900
vt 0.476600 0.226600
vt 0.593800 0.132800
vt 0.593800 0.226600
vt 0.468800 0.265600
vt 0.460900 0.156300
vt 0.562500 0.109400
vt 0.382800 0.117200
vt 0.515600 0.074200
vt 0.593800 0.281300
vt 0.437500 0.300800
vt 0.554700 0.890600
vt 0.593800 0.812500
vt 0.593800 0.878900
vt 0.445300 0.812500
vt 0.390600 0.726600
vt 0.593800 0.726600
vt 0.390600 0.726600
vt 0.445300 0.812500
vt 0.468800 0.503900
vt 0.593800 0.503900
vt 0.484400 0.382800
vt 0.593800 0.406300
vt 0.593800 0.980500
vt 0.484400 0.996100
vt 0.484400 0.980500
vt 0.593800 0.960900
vt 0.593800 0.996100
vt 0.664100 0.097700
vt 0.726600 0.128900
vt 0.726600 0.097700
vt 0.609400 0.128900
vt 0.609400 0.097700
vt 0.726600 0.168000
vt 0.609400 0.168000
vt 0.609400 0.234400
vt 0.726600 0.234400
vt 0.609400 0.253900
vt 0.726600 0.253900
vt 0.007800 0.156300
vt 0.007800 0.402300
vt 0.007800 0.230500
vt 0.132800 0.226600
vt 0.125000 0.347700
vt 0.187500 0.347700
vt 0.007800 0.156300
vt 0.007800 0.402300
vt 0.804700 0.359400
vt 0.609400 0.425800
vt 0.609400 0.359400
vt 0.804700 0.308600
vt 0.804700 0.425800
vt 0.804700 0.359400
vt 0.609400 0.359400
vt 0.804700 0.308600
vt 0.609400 0.300800
vt 0.804700 0.261700
vt 0.609400 0.261700
vt 0.609400 0.300800
vt 0.804700 0.261700
vt 0.523400 0.933600
vt 0.484400 0.953100
vt 0.593800 0.953100
vt 0.593800 0.910200
vt 0.507800 0.910200
vt 0.507800 0.910200
vt 0.593800 0.937500
vt 0.476600 0.996100
vt 0.492200 0.925800
vt 0.453100 0.968800
vt 0.593800 0.996100
vt 0.593800 0.890600
vt 0.539100 0.902300
vt 0.539100 0.902300
vt 0.492200 0.925800
vt 0.523400 0.964800
vt 0.562500 0.937500
vt 0.593800 0.929700
vt 0.179700 0.226600
vt 0.007800 0.339800
vt 0.132800 0.226600
vt 0.007800 0.230500
vt 0.132800 0.226600
vt 0.125000 0.347700
vt 0.125000 0.347700
vt 0.007800 0.402300
vt 0.718800 0.578100
vt 0.726600 0.609400
vt 0.609400 0.546900
vt 0.625000 0.578100
vt 0.156300 0.628900
vt 0.250000 0.640600
vt 0.304700 0.406300
vt 0.609400 0.851600
vt 0.726600 0.996100
vt 0.609400 0.996100
vt 0.726600 0.996100
vt 0.523400 0.066400
vt 0.367200 0.113300
vt 0.593800 0.132800
vt 0.476600 0.226600
vt 0.593800 0.226600
vt 0.460900 0.156300
vt 0.562500 0.109400
vt 0.382800 0.117200
vt 0.515600 0.074200
vt 0.468800 0.265600
vt 0.593800 0.281300
vt 0.437500 0.300800
vt 0.593800 0.371100
vt 0.468800 0.503900
vt 0.484400 0.382800
vt 0.593800 0.980500
vt 0.484400 0.996100
vt 0.484400 0.980500
vt 0.593800 0.960900
vt 0.007800 0.156300
vt 0.523400 0.933600
vt 0.484400 0.953100
vt 0.593800 0.937500
vt 0.476600 0.996100
vt 0.453100 0.968800
vt 0.523400 0.964800
vt 0.562500 0.937500
vt 0.062500 0.144500
vt 0.039100 0.003900
vt 0.007800 0.144500
vt 0.007800 0.144500
vt 0.062500 0.144500
vt 0.007800 0.144500
vt 0.062500 0.144500
vt 0.593800 0.382800
vt 0.554700 0.890600
vt 0.593800 0.371100
vt 0.664100 0.812500
vt 0.710900 0.761700
vt 0.609400 0.761700
vt 0.992200 0.972700
vt 0.992200 0.996100
vt 0.734400 0.976600
vt 0.695300 0.906300
vt 0.992200 0.906300
vt 0.609400 0.621100
vt 0.609400 0.683600
vt 0.703100 0.640600
vt 0.703100 0.640600
vt 0.992200 0.621100
vt 0.882800 0.652300
vt 0.992200 0.726600
vt 0.859400 0.660200
vt 0.859400 0.726600
vt 0.664100 0.812500
vt 0.609400 0.832000
vt 0.710900 0.761700
vt 0.804700 0.972700
vt 0.703100 0.683600
vt 0.703100 0.718800
vt 0.992200 0.816400
vt 0.820300 0.816400
vt 0.773400 0.902300
vt 0.820300 0.730500
vt 0.789100 0.820300
vt 0.703100 0.718800
vt 0.703100 0.683600
vt 0.710900 0.761700
vt 0.609400 0.761700
vt 0.703100 0.718800
vt 0.992200 0.996100
vt 0.992200 0.972700
vt 0.734400 0.976600
vt 0.609400 0.683600
vt 0.609400 0.621100
vt 0.703100 0.640600
vt 0.992200 0.726600
vt 0.882800 0.652300
vt 0.992200 0.621100
vt 0.859400 0.660200
vt 0.859400 0.726600
vt 0.820300 0.816400
vt 0.992200 0.816400
vt 0.609400 0.832000
vt 0.664100 0.812500
vt 0.992200 0.906300
vt 0.773400 0.902300
vt 0.695300 0.906300
vt 0.703100 0.683600
vt 0.820300 0.730500
vt 0.789100 0.820300
vt 0.703100 0.640600
vt 0.703100 0.718800
vt 0.703100 0.683600
vt 0.710900 0.761700
vt 0.843800 0.707000
vt 0.992200 0.847700
vt 0.992200 0.699200
vt 0.992200 0.621100
vt 0.867200 0.652300
vt 0.796900 0.847700
vt 0.851600 0.996100
vt 0.992200 0.996100
vt 0.992200 0.968800
vt 0.851600 0.996100
vt 0.609400 0.714800
vt 0.710900 0.722700
vt 0.710900 0.773400
vt 0.664100 0.812500
vt 0.679700 0.648400
vt 0.609400 0.628900
vt 0.710900 0.722700
vt 0.843800 0.707000
vt 0.796900 0.847700
vt 0.867200 0.652300
vt 0.679700 0.648400
vt 0.609400 0.828100
vt 0.664100 0.812500
vt 0.710900 0.773400
vt 0.992200 0.992200
vt 0.992200 0.941400
vt 0.789100 0.957000
vt 0.789100 0.957000
vt 0.820300 0.636700
vt 0.992200 0.800800
vt 0.992200 0.644500
vt 0.695300 0.843800
vt 0.695300 0.843800
vt 0.609400 0.773400
vt 0.703100 0.777300
vt 0.609400 0.828100
vt 0.710900 0.722700
vt 0.609400 0.710900
vt 0.687500 0.621100
vt 0.609400 0.625000
vt 0.687500 0.621100
vt 0.820300 0.636700
vt 0.710900 0.722700
vt 0.703100 0.777300
vt 0.820300 0.613300
vt 0.906300 0.164100
vt 0.820300 0.164100
vt 0.906300 0.613300
vt 0.992200 0.164100
vt 0.992200 0.613300
vt 0.820300 0.613300
vt 0.906300 0.164100
vt 0.820300 0.164100
vt 0.906300 0.613300
vt 0.992200 0.164100
vt 0.992200 0.613300
vt 0.742200 0.035200
vt 0.820300 0.035200
vt 0.742200 0.003900
vt 0.742200 0.093800
vt 0.820300 0.093800
vt 0.820300 0.011700
vt 0.914100 0.035200
vt 0.914100 0.011700
vt 0.992200 0.035200
vt 0.992200 0.003900
vt 0.914100 0.035200
vt 0.914100 0.011700
vt 0.820300 0.035200
vt 0.820300 0.011700
vt 0.804700 0.164100
vt 0.867200 0.101600
vt 0.937500 0.164100
vt 0.742200 0.101600
vt 0.804700 0.164100
vt 0.937500 0.164100
vt 0.992200 0.101600
vt 0.820300 0.093800
vt 0.914100 0.093800
vt 0.992200 0.093800
vt 0.914100 0.093800
vn -0.6774 0.0601 -0.7331
vn -0.2768 -0.8687 -0.4109
vn -0.6852 0.4816 -0.5465
vn -0.3782 -0.8570 -0.3500
vn -0.0008 -0.0828 -0.9966
vn -0.9858 -0.0931 -0.1397
vn -0.9653 -0.2458 -0.0886
vn -0.9165 0.3888 0.0940
vn -0.7403 -0.6710 -0.0421
vn -0.2004 0.5046 0.8398
vn -0.7051 -0.0083 0.7090
vn -0.0011 0.0705 0.9975
vn -0.9034 0.0652 0.4239
vn -0.7301 -0.1252 0.6718
vn -0.9778 -0.0106 0.2092
vn -0.9641 -0.2132 0.1584
vn 0.0000 -0.0721 0.9974
vn 0.7293 -0.1289 0.6719
vn 0.7039 -0.0080 0.7103
vn 0.9781 -0.0098 0.2081
vn 0.0000 -0.2876 0.9577
vn -0.7538 -0.4632 0.4660
vn -0.9016 -0.3728 0.2194
vn -0.0020 -0.4182 0.9083
vn -0.7943 -0.1618 0.5856
vn -0.7171 -0.0243 0.6965
vn -0.2291 0.8925 -0.3884
vn -0.0000 0.6813 0.7320
vn 0.1990 0.5057 0.8394
vn 0.9034 0.0711 0.4228
vn 0.0000 1.0000 -0.0066
vn -0.6451 0.7330 -0.2160
vn -0.7382 -0.3294 -0.5887
vn -0.0017 0.2318 0.9728
vn -0.9039 -0.1004 -0.4158
vn -0.7439 0.0700 -0.6646
vn 0.0000 -0.1072 0.9942
vn 0.9932 0.0600 0.0997
vn 0.7334 -0.0974 -0.6728
vn -0.9330 -0.0913 -0.3481
vn -0.0032 -0.2225 0.9749
vn -0.6284 -0.4157 0.6576
vn -0.0062 -0.3764 0.9264
vn -0.5980 -0.6548 -0.4621
vn -0.6797 -0.7075 0.1937
vn 0.0004 -0.6731 -0.7395
vn 0.7399 -0.3288 -0.5869
vn 0.9332 -0.0901 -0.3480
vn 0.8410 -0.4900 0.2294
vn -0.9862 -0.1280 -0.1047
vn -0.9574 -0.2457 -0.1520
vn -0.0019 -0.4128 -0.9108
vn 0.6771 0.0581 -0.7336
vn 0.3771 -0.8579 -0.3489
vn 0.2772 -0.8696 -0.4085
vn -0.0069 0.6005 -0.7996
vn 0.0000 -0.9870 -0.1608
vn -0.5062 -0.7047 -0.4971
vn -0.0000 0.0221 -0.9998
vn -0.8580 -0.3715 -0.3548
vn -0.0001 -0.9731 0.2302
vn 0.5058 -0.7039 -0.4987
vn 0.8591 -0.3679 -0.3557
vn 0.6828 -0.7047 0.1929
vn 0.6855 -0.4937 0.5351
vn 0.5997 -0.6522 -0.4637
vn -0.6833 -0.4955 0.5362
vn -0.0003 0.9638 -0.2665
vn 0.6844 0.4801 -0.5487
vn 0.9851 -0.0958 -0.1432
vn 0.9659 -0.2431 -0.0888
vn 0.9154 0.3912 0.0947
vn 0.7425 -0.6688 -0.0380
vn 0.9553 -0.2510 -0.1561
vn 0.7530 -0.4614 0.4691
vn 0.7914 -0.1606 0.5898
vn 0.9636 -0.2135 0.1609
vn 0.9018 -0.3692 0.2248
vn 0.7184 -0.0192 0.6953
vn 0.2282 0.8924 -0.3894
vn 0.6407 0.7367 -0.2163
vn 0.9879 -0.1138 -0.1052
vn 0.0013 -0.9968 -0.0794
vn -0.0000 -0.6201 -0.7845
vn 0.6653 0.0161 -0.7464
vn 0.8663 0.2477 0.4337
vn -0.7215 -0.6311 -0.2847
vn 0.6293 -0.7494 0.2061
vn 0.2170 -0.5345 0.8168
vn -0.9600 -0.1652 0.2261
vn -0.7730 -0.2419 -0.5864
vn 0.2806 0.9527 0.1172
vn 0.8658 0.0052 0.5004
vn 0.7391 0.2500 -0.6255
vn -0.1892 0.3720 0.9087
vn -0.8165 0.0869 -0.5707
vn 0.7582 0.1452 -0.6357
vn 0.0920 0.1704 -0.9811
vn -0.9343 0.0760 -0.3483
vn -0.9068 0.1708 0.3854
vn 0.5343 0.2182 0.8166
vn -0.6653 0.0161 -0.7464
vn 0.0000 -0.6202 -0.7845
vn -0.8663 0.2481 0.4336
vn -0.0906 0.1708 -0.9811
vn -0.6293 -0.7494 0.2061
vn 0.7215 -0.6311 -0.2847
vn -0.2170 -0.5345 0.8168
vn -0.8653 0.0054 0.5012
vn -0.2785 0.9534 0.1165
vn -0.7399 0.2503 -0.6244
vn 0.8159 0.0864 -0.5717
vn 0.1899 0.3723 0.9085
vn -0.7592 0.1451 -0.6345
vn 0.9343 0.0760 -0.3483
vn 0.7730 -0.2419 -0.5864
vn 0.9600 -0.1652 0.2261
vn 0.9082 0.1705 0.3821
vn -0.5365 0.2189 0.8150
vn 0.9821 0.0918 -0.1647
vn -0.0005 0.0008 -1.0000
vn -0.0000 0.0535 -0.9986
vn 0.0000 0.3528 -0.9357
vn -0.4978 0.2283 0.8367
vn 0.7171 0.0052 0.6969
vn 0.9302 -0.3624 0.0583
vn -0.0017 -0.4934 -0.8698
vn -0.0015 -0.7290 0.6845
vn -0.9307 -0.3608 0.0607
vn -0.0001 0.0576 0.9983
vn -0.9821 0.0918 -0.1647
vn -0.7175 0.0041 0.6966
vn 0.4978 0.2282 0.8367
vn 0.0000 -0.5203 -0.8540
vn -0.0000 -0.5468 0.8373
vn -0.5644 -0.3852 -0.7301
vn 0.5644 -0.3852 -0.7301
vn -0.3326 0.9425 -0.0319
vn 0.0000 -0.1582 0.9874
vn 0.0000 0.9430 0.3329
vn -0.7781 0.1062 -0.6191
vn 0.7781 0.1062 -0.6191
vn -0.0000 0.3558 -0.9346
vn 0.0000 0.3369 -0.9415
vn 0.3326 0.9425 -0.0319
vn 0.3143 -0.0000 0.9493
vn 0.9487 -0.0000 0.3162
vn -0.3239 -0.0000 0.9461
vn 0.9487 0.0000 -0.3162
vn 0.3143 0.0000 -0.9493
vn -0.3239 0.0000 -0.9461
vn -0.9506 -0.0000 -0.3105
vn -0.9506 -0.0000 0.3105
vn -0.1806 0.3423 0.9221
vn 0.7087 0.3465 0.6146
vn 0.0844 0.8929 0.4424
vn 0.1352 -0.4350 0.8902
vn -0.7033 -0.4344 0.5627
vn 0.5108 0.8415 0.1759
vn 0.8853 0.3486 -0.3077
vn 0.5021 0.7458 -0.4379
vn 0.1743 0.3480 -0.9212
vn -0.0857 0.8932 -0.4415
vn -0.7103 0.3441 -0.6141
vn -0.5155 0.8379 -0.1795
vn -0.8882 0.3421 0.3067
vn -0.5115 0.7383 0.4396
vn -0.8400 -0.4343 -0.3253
vn -0.0011 -1.0000 0.0000
vn -0.1397 -0.4349 -0.8896
vn 0.7007 -0.4355 -0.5651
vn 0.8388 -0.4356 0.3265
usemtl MDL_w21ktx2_bod00_TEX_w21ktx2
s 1
f 1/1/1 2/2/2 3/3/3
f 2/2/2 1/1/1 4/4/4
f 5/5/5 4/4/4 1/1/1
f 3/6/3 6/7/6 7/8/7
f 6/7/6 3/6/3 2/9/2
f 8/10/8 6/7/6 9/11/9
f 6/7/6 8/10/8 7/8/7
f 10/12/10 11/13/11 12/14/12
f 11/13/11 10/12/10 13/15/13
f 14/16/14 12/14/12 11/13/11
f 11/13/11 15/17/15 14/16/14
f 16/18/16 14/16/14 15/17/15
f 12/14/12 14/16/14 17/19/17
f 17/19/17 18/20/18 12/14/12
f 19/21/19 12/14/12 18/20/18
f 18/20/18 20/22/20 19/21/19
f 14/16/14 21/23/21 17/19/17
f 21/23/21 14/16/14 22/24/22
f 16/18/16 22/24/22 14/16/14
f 22/24/22 16/18/16 23/25/23
f 22/24/22 24/26/24 21/23/21
f 24/26/24 22/24/22 25/27/25
f 13/15/13 15/17/15 11/13/11
f 22/24/22 23/25/23 25/27/25
f 10/28/10 26/29/26 13/30/13
f 13/31/13 26/32/26 27/33/27
f 26/32/26 10/34/10 27/33/27
f 12/14/12 28/35/28 10/12/10
f 28/35/28 12/14/12 29/36/29
f 19/21/19 29/36/29 12/14/12
f 29/36/29 19/21/19 30/37/30
f 20/22/20 30/37/30 19/21/19
f 10/38/10 31/39/31 27/40/27
f 31/39/31 10/38/10 28/41/28
f 16/42/16 8/43/8 9/44/9
f 9/44/9 23/45/23 16/42/16
f 8/43/8 16/42/16 15/46/15
f 15/46/15 32/47/32 8/43/8
f 13/48/13 32/47/32 15/46/15
f 32/47/32 13/48/13 27/49/27
f 23/45/23 33/50/33 25/51/25
f 33/50/33 23/45/23 9/44/9
f 25/52/25 34/53/34 24/54/24
f 34/53/34 25/52/25 35/55/35
f 34/53/34 37/56/36 36/57/37
f 36/57/37 38/58/38 34/53/34
f 39/59/39 34/53/34 38/58/38
f 34/53/34 35/55/35 37/56/36
f 40/60/40 36/57/37 37/56/36
f 41/61/41 36/57/37 40/60/40
f 40/60/40 42/62/42 41/61/41
f 41/61/41 42/62/42 43/63/43
f 44/64/44 33/65/33 9/66/9
f 9/66/9 45/67/45 44/64/44
f 44/64/44 46/68/46 33/65/33
f 46/69/46 35/70/35 33/71/33
f 35/70/35 46/69/46 39/72/39
f 47/73/47 39/72/39 46/69/46
f 37/74/36 39/72/39 38/75/38
f 38/75/38 48/76/48 37/74/36
f 40/77/40 37/74/36 48/76/48
f 48/76/48 49/78/49 40/77/40
f 42/79/42 40/77/40 49/78/49
f 37/74/36 35/70/35 39/72/39
f 7/8/7 8/10/8 50/80/50
f 50/80/50 3/6/3 7/8/7
f 6/7/6 51/81/51 9/11/9
f 51/81/51 6/7/6 2/9/2
f 5/5/5 1/1/1 52/82/52
f 52/82/52 53/83/53 5/5/5
f 54/84/54 5/5/5 53/83/53
f 53/83/53 55/85/55 54/84/54
f 52/82/52 1/1/1 56/86/56
f 57/87/57 4/4/4 5/5/5
f 5/5/5 54/84/54 57/87/57
f 58/88/58 60/89/59 59/90/60
f 59/90/60 45/91/45 58/88/58
f 60/89/59 58/88/58 61/92/61
f 61/92/61 62/93/62 60/89/59
f 63/94/63 60/89/59 62/93/62
f 62/93/62 64/95/64 63/94/63
f 65/96/65 63/94/63 64/95/64
f 64/95/64 66/97/66 65/96/65
f 46/98/46 65/96/65 66/97/66
f 45/91/45 59/90/60 67/99/67
f 67/99/67 44/100/44 45/91/45
f 67/99/67 46/98/46 44/100/44
f 2/101/2 9/66/9 51/102/51
f 57/103/57 61/104/61 4/105/4
f 61/104/61 57/103/57 54/106/54
f 4/105/4 61/104/61 58/107/58
f 58/107/58 2/101/2 4/105/4
f 45/67/45 2/101/2 58/107/58
f 2/101/2 45/67/45 9/66/9
f 8/108/8 3/109/3 50/110/50
f 68/111/68 56/112/56 1/113/1
f 56/112/56 68/111/68 53/114/53
f 69/115/69 53/114/53 68/111/68
f 68/111/68 1/113/1 3/109/3
f 3/109/3 8/108/8 68/111/68
f 68/111/68 8/108/8 32/116/32
f 27/117/27 68/111/68 32/116/32
f 68/111/68 27/117/27 31/118/31
f 53/83/53 69/119/69 55/85/55
f 70/120/70 69/121/69 71/122/71
f 71/122/71 72/123/72 70/120/70
f 73/124/73 70/120/70 72/123/72
f 70/120/70 55/125/55 69/121/69
f 55/125/55 70/120/70 74/126/74
f 73/124/73 74/126/74 70/120/70
f 21/23/21 18/20/18 17/19/17
f 18/20/18 21/23/21 75/127/75
f 24/26/24 75/127/75 21/23/21
f 75/127/75 24/26/24 76/128/76
f 18/20/18 77/129/77 20/22/20
f 75/127/75 78/130/78 77/129/77
f 78/130/78 75/127/75 76/128/76
f 77/129/77 18/20/18 75/127/75
f 29/131/29 30/132/30 79/133/79
f 79/134/79 30/135/30 80/136/80
f 80/136/80 29/137/29 79/134/79
f 29/138/29 31/39/31 28/41/28
f 31/39/31 29/138/29 80/139/80
f 72/140/72 77/141/77 73/142/73
f 77/141/77 72/140/72 20/143/20
f 81/144/81 20/143/20 72/140/72
f 20/143/20 81/144/81 30/145/30
f 80/146/80 30/145/30 81/144/81
f 77/141/77 78/147/78 73/142/73
f 78/147/78 47/148/47 73/142/73
f 47/148/47 78/147/78 76/149/76
f 39/150/39 47/148/47 76/149/76
f 41/61/41 48/151/48 36/57/37
f 48/151/48 41/61/41 49/152/49
f 43/63/43 49/152/49 41/61/41
f 36/57/37 48/151/48 38/58/38
f 66/153/66 47/154/47 46/68/46
f 47/154/47 66/153/66 73/155/73
f 64/156/64 73/155/73 66/153/66
f 72/123/72 71/122/71 82/157/82
f 71/122/71 69/121/69 82/157/82
f 52/82/52 56/86/56 53/83/53
f 55/158/55 74/159/74 73/155/73
f 61/104/61 54/106/54 62/160/62
f 62/160/62 54/106/54 55/158/55
f 55/158/55 64/156/64 62/160/62
f 55/158/55 73/155/73 64/156/64
f 72/161/72 82/162/82 69/115/69
f 68/111/68 72/161/72 69/115/69
f 72/161/72 68/111/68 81/163/81
f 68/111/68 80/164/80 81/163/81
f 80/164/80 68/111/68 31/118/31
f 65/165/65 83/166/83 63/167/63
f 83/166/83 65/165/65 46/168/46
f 60/169/59 63/167/63 83/166/83
f 83/166/83 59/170/60 60/169/59
f 67/171/67 59/170/60 83/166/83
f 46/168/46 67/171/67 83/166/83
f 42/62/42 49/172/49 43/63/43
f 76/173/76 34/53/34 39/59/39
f 34/53/34 76/173/76 24/54/24
f 25/51/25 33/50/33 35/174/35
f 84/175/84 85/176/85 86/177/86
f 87/178/87 89/179/88 88/180/89
f 88/180/89 90/181/90 87/178/87
f 91/182/91 87/178/87 90/181/90
f 92/183/92 93/184/93 94/185/94
f 93/184/93 92/183/92 95/186/95
f 92/187/92 94/188/94 96/189/96
f 96/189/96 95/190/95 92/187/92
f 96/189/96 94/188/94 97/191/97
f 86/177/86 88/192/89 89/193/88
f 88/192/89 86/177/86 90/194/90
f 84/195/84 89/179/88 87/178/87
f 97/196/97 93/184/93 98/197/98
f 93/184/93 97/196/97 94/185/94
f 99/198/99 98/199/98 91/182/91
f 91/182/91 90/181/90 99/198/99
f 91/182/91 98/199/98 85/200/85
f 99/198/99 100/201/100 96/189/96
f 96/189/96 98/199/98 99/198/99
f 99/198/99 101/202/101 100/201/100
f 101/202/101 99/198/99 90/181/90
f 96/189/96 97/191/97 98/199/98
f 93/184/93 86/177/86 98/197/98
f 86/177/86 93/184/93 101/203/101
f 100/204/100 101/203/101 93/184/93
f 96/189/96 100/201/100 95/190/95
f 85/176/85 98/197/98 86/177/86
f 91/182/91 84/195/84 87/178/87
f 84/195/84 91/182/91 85/200/85
f 93/184/93 95/186/95 100/204/100
f 86/177/86 101/203/101 90/194/90
f 89/193/88 84/175/84 86/177/86
f 102/205/102 84/175/103 103/206/104
f 103/206/104 104/207/105 102/205/102
f 105/208/106 106/209/107 107/210/108
f 108/211/109 109/212/110 110/213/111
f 111/214/112 110/215/111 109/216/110
f 109/216/110 112/217/113 111/214/112
f 111/214/112 113/218/114 110/215/111
f 113/218/114 111/214/112 104/219/105
f 114/220/115 104/219/105 111/214/112
f 105/221/106 107/222/108 103/206/104
f 103/206/104 84/175/103 105/221/106
f 84/195/103 106/209/107 105/208/106
f 106/209/107 84/195/103 115/223/116
f 102/224/102 115/223/116 84/195/103
f 116/225/117 106/209/107 115/223/116
f 106/209/107 116/225/117 107/210/108
f 108/211/109 113/226/114 104/207/105
f 115/223/116 104/219/105 114/220/115
f 114/220/115 116/225/117 115/223/116
f 115/223/116 102/224/102 104/219/105
f 111/214/112 117/227/118 114/220/115
f 117/227/118 111/214/112 112/217/113
f 114/220/115 117/227/118 118/228/119
f 103/206/104 108/211/109 104/207/105
f 114/220/115 118/228/119 116/225/117
f 109/212/110 108/211/109 112/229/113
f 108/211/109 118/230/119 117/231/118
f 117/231/118 112/229/113 108/211/109
f 103/206/104 116/232/117 118/230/119
f 116/232/117 103/206/104 107/222/108
f 113/226/114 108/211/109 110/213/111
f 108/211/109 103/206/104 118/230/119
f 119/233/120 121/234/121 120/235/122
f 120/235/122 122/236/123 119/233/120
f 123/237/124 119/233/120 122/236/123
f 121/234/121 119/233/120 124/238/125
f 124/238/125 125/239/126 121/234/121
f 126/240/127 121/234/121 125/239/126
f 125/239/126 127/241/128 126/240/127
f 128/242/129 126/240/127 127/241/128
f 129/243/130 131/244/131 130/245/132
f 130/245/132 128/246/129 129/243/130
f 129/243/130 123/247/124 122/248/123
f 123/247/124 129/243/130 119/249/120
f 131/250/131 122/236/123 120/235/122
f 120/235/122 121/234/121 131/250/131
f 130/251/132 131/250/131 121/234/121
f 121/234/121 128/242/129 130/251/132
f 131/250/131 132/252/133 122/236/123
f 132/253/133 131/244/131 129/243/130
f 129/243/130 128/246/129 127/254/128
f 121/234/121 126/240/127 128/242/129
f 122/248/123 132/253/133 129/243/130
f 129/243/130 125/255/126 124/256/125
f 124/256/125 119/249/120 129/243/130
f 129/243/130 127/254/128 125/255/126
f 133/257/134 134/258/135 135/259/136
f 134/258/135 133/257/134 136/260/137
f 137/261/138 138/262/139 139/263/140
f 138/262/139 137/261/138 140/264/141
f 134/258/135 140/264/141 135/259/136
f 140/264/141 134/258/135 138/262/139
f 141/265/142 138/262/139 134/258/135
f 142/266/143 136/267/137 133/268/134
f 136/267/137 142/266/143 141/269/142
f 143/270/144 141/269/142 142/266/143
f 143/270/144 144/271/145 141/269/142
f 144/271/145 143/270/144 139/272/140
f 137/273/138 139/272/140 143/270/144
f 144/274/145 138/262/139 141/265/142
f 138/262/139 144/274/145 139/263/140
f 134/258/135 136/260/137 141/265/142
f 143/270/144 140/275/141 137/273/138
f 142/266/143 133/268/134 135/276/136
f 135/276/136 140/275/141 142/266/143
f 142/266/143 140/275/141 143/270/144
f 145/277/146 146/278/147 147/279/148
f 146/278/147 145/277/146 148/280/149
f 148/280/149 149/281/150 146/278/147
f 149/281/150 148/280/149 150/282/151
f 150/283/151 151/284/152 149/285/150
f 151/284/152 150/283/151 152/286/153
f 152/286/153 147/287/148 151/284/152
f 147/287/148 152/286/153 145/288/146
f 153/289/154 154/290/155 155/291/156
f 154/290/155 153/289/154 156/292/157
f 157/293/158 156/292/157 153/289/154
f 158/294/159 155/291/156 154/290/155
f 154/290/155 159/295/160 158/294/159
f 160/296/161 158/294/159 159/295/160
f 159/295/160 161/297/162 160/296/161
f 162/298/163 160/296/161 161/297/162
f 161/297/162 163/299/164 162/298/163
f 164/300/165 162/298/163 163/299/164
f 163/299/164 165/301/166 164/300/165
f 166/302/167 164/300/165 165/301/166
f 165/301/166 153/289/154 166/302/167
f 166/302/167 153/289/154 155/291/156
f 167/303/168 168/304/169 157/305/158
f 168/304/169 167/303/168 169/306/170
f 158/294/159 162/298/163 155/291/156
f 162/298/163 158/294/159 160/296/161
f 164/300/165 155/291/156 162/298/163
f 155/291/156 164/300/165 166/302/167
f 168/304/169 169/306/170 170/307/171
f 168/304/169 171/308/172 156/309/157
f 171/310/172 154/290/155 156/292/157
f 157/293/158 153/289/154 165/301/166
f 165/301/166 167/311/168 157/293/158
f 167/311/168 165/301/166 163/299/164
f 163/299/164 169/312/170 167/311/168
f 169/312/170 163/299/164 161/297/162
f 161/297/162 170/313/171 169/312/170
f 170/313/171 161/297/162 159/295/160
f 159/295/160 171/310/172 170/313/171
f 159/295/160 154/290/155 171/310/172
f 171/308/172 168/304/169 170/307/171
f 157/305/158 168/304/169 156/309/157
o MDL_w21ktx2_bod01
v -0.007500 1.000300 -0.086900
v -0.007500 1.090300 -0.110600
v -0.007500 1.053400 -0.141200
v -0.007500 1.059100 -0.053800
v -0.007500 0.906600 -0.101300
v -0.007500 0.974700 -0.145000
v -0.007500 0.919100 -0.153800
v -0.007500 0.980900 -0.090000
v -0.007500 0.825300 -0.073100
v -0.007500 0.843400 -0.145600
v -0.007500 0.808400 -0.133100
v -0.007500 0.883400 -0.098800
v -0.007500 0.768400 -0.037500
v -0.007500 0.767800 -0.090000
v -0.007500 0.752200 -0.076900
v -0.007500 0.799100 -0.063700
v -0.007500 1.154700 -0.180000
v -0.007500 1.132800 -0.197500
v -0.007500 1.257800 -0.243800
v -0.007500 0.979700 -0.200000
v -0.007500 0.942200 -0.205600
v -0.007500 1.008400 -0.286200
v -0.007500 0.825300 -0.193100
v -0.007500 0.804700 -0.191900
v -0.007500 0.819700 -0.245600
v -0.007500 0.740900 -0.121900
v -0.002500 1.559100 -0.065600
v 0.004400 1.559100 -0.073700
v -0.002500 1.479700 -0.061900
v -0.002500 1.649700 -0.063700
v 0.004400 1.379700 -0.056900
v 0.004400 1.479700 -0.073700
v -0.002500 1.379700 -0.041900
v 0.004400 1.279700 -0.028800
v -0.002500 1.279700 -0.012500
v 0.004400 1.179700 -0.003100
v -0.002500 1.179700 0.013700
v 0.004400 1.089700 0.015000
v -0.002500 1.089700 0.030000
v 0.004400 1.021600 0.020600
v -0.002500 1.024100 0.036900
v -0.002500 0.959700 0.031300
v 0.004400 1.032200 -0.025000
v -0.002500 1.005900 -0.016900
v 0.004400 1.027200 -0.003700
v -0.002500 0.954100 -0.041900
v 0.004400 0.894700 -0.055600
v -0.002500 0.895900 -0.041300
v 0.004400 0.956600 -0.056900
v -0.002500 0.993400 -0.028800
v 0.004400 1.005900 -0.043700
v 0.004400 0.812800 -0.031300
v -0.002500 0.826600 0.013700
v 0.004400 0.761600 0.018100
v -0.002500 0.772800 0.031300
v 0.004400 0.797800 0.001900
v 0.004400 0.694100 0.020600
v -0.002500 0.631600 -0.004400
v 0.004400 0.617800 0.011900
v -0.002500 0.700900 0.005000
v -0.002500 0.750900 0.006300
v 0.004400 0.536600 -0.005600
v -0.002500 0.536600 -0.028800
v -0.002500 0.600900 0.028800
v -0.002500 0.379700 0.000000
v -0.002500 0.379700 -0.019400
v -0.002500 0.536600 0.018100
v -0.002500 0.817200 -0.005000
v -0.002500 0.828400 -0.023100
v -0.002500 0.785300 -0.022500
v -0.002500 0.687200 0.035000
v -0.002500 1.559100 -0.082500
v -0.002500 1.479700 -0.086900
v -0.002500 1.379700 -0.071900
v -0.002500 1.279700 -0.045600
v -0.002500 1.179700 -0.020600
v -0.002500 1.089700 -0.003700
v -0.002500 1.050900 -0.003700
v -0.002500 0.994700 0.009400
v -0.002500 1.053400 -0.014400
v -0.002500 1.064700 -0.030000
v -0.002500 1.018400 -0.058700
v -0.002500 0.959700 -0.070000
v -0.002500 0.893400 -0.068100
v -0.002500 0.811600 -0.046300
v -0.002500 0.777800 -0.004400
v -0.002500 0.379700 0.023100
v 0.005000 0.898400 0.013700
v -0.001200 0.898400 0.046300
v -0.001200 0.921600 0.036900
v -0.001200 0.875900 0.036900
v -0.001200 0.930900 0.013700
v -0.001200 0.921600 -0.008100
v -0.001200 0.898400 -0.017500
v -0.001200 0.875900 -0.008100
v -0.001200 0.866600 0.013700
v -0.002500 1.379700 -0.028100
v -0.002500 1.379700 -0.014400
v -0.002500 1.479700 -0.049400
v -0.002500 1.279700 0.005000
v -0.002500 1.279700 0.027500
v -0.002500 1.179700 0.036200
v -0.002500 1.179700 0.063100
v -0.002500 1.089700 0.053800
v -0.002500 1.089700 0.075000
v -0.002500 1.000900 0.064400
v -0.002500 1.559700 -0.101300
v -0.002500 1.559700 -0.124400
v -0.002500 1.632800 -0.091900
v -0.002500 1.479700 -0.101900
v -0.002500 1.479700 -0.128100
v -0.002500 1.379700 -0.113100
v -0.002500 1.379700 -0.085000
v -0.002500 1.279700 -0.084400
v -0.002500 1.279700 -0.063700
v -0.002500 1.149700 -0.028100
v -0.002500 1.632800 -0.106300
v -0.002500 1.695300 -0.080600
v -0.002500 0.672800 0.061900
v -0.002500 0.681600 0.045600
v -0.002500 0.776600 0.039400
v -0.002500 0.578400 0.064400
v -0.002500 0.595300 0.040600
v -0.002500 0.536600 0.030000
v -0.002500 0.536600 0.058700
v -0.002500 0.379700 0.036200
v -0.002500 0.379700 0.056200
v -0.002500 0.647800 -0.017500
v -0.002500 0.709700 -0.018800
v -0.002500 0.671600 -0.031900
v -0.002500 0.579100 -0.031900
v -0.002500 0.756600 -0.006300
v -0.002500 0.704100 -0.006900
v 0.106300 0.402200 0.000000
v 0.059400 0.410900 0.059400
v 0.075000 0.402200 0.075000
v 0.084400 0.410900 0.000000
v 0.075000 0.402200 -0.075000
v 0.059400 0.410900 -0.059400
v 0.000000 0.402200 -0.106300
v 0.000000 0.410900 -0.083800
v -0.075000 0.402200 -0.075000
v -0.059400 0.410900 -0.059400
v -0.106300 0.402200 0.000000
v -0.083800 0.410900 0.000000
v -0.075000 0.402200 0.075000
v -0.059400 0.410900 0.059400
v 0.000000 0.402200 0.106300
v 0.000000 0.410900 0.084400
v 0.126900 0.377800 0.000000
v 0.071200 0.388400 0.071200
v 0.090000 0.377800 0.090000
v 0.100600 0.388400 0.000000
v 0.090000 0.377800 -0.089400
v 0.071200 0.388400 -0.070600
v 0.000000 0.377800 -0.126900
v 0.000000 0.388400 -0.100000
v -0.089400 0.377800 -0.089400
v -0.070600 0.388400 -0.070600
v -0.126900 0.377800 0.000000
v -0.100000 0.388400 0.000000
v -0.089400 0.377800 0.090000
v -0.070600 0.388400 0.071200
v 0.000000 0.377800 0.126900
v 0.000000 0.388400 0.100600
v 0.043700 0.062200 0.000000
v 0.021900 0.062200 0.037500
v 0.028100 0.057800 0.049400
v 0.056900 0.057800 0.000000
v -0.021300 0.062200 0.037500
v -0.028100 0.057800 0.049400
v -0.043100 0.062200 0.000000
v -0.056200 0.057800 0.000000
v -0.021300 0.062200 -0.037500
v -0.028100 0.057800 -0.048700
v 0.021900 0.062200 -0.037500
v 0.028100 0.057800 -0.048700
v 0.035000 0.050300 0.000000
v 0.017500 0.050300 0.030000
v 0.022500 0.046600 0.039400
v 0.045600 0.046600 0.000000
v -0.016900 0.050300 0.030000
v -0.022500 0.046600 0.039400
v -0.034400 0.050300 0.000000
v -0.045000 0.046600 0.000000
v -0.016900 0.050300 -0.030000
v -0.022500 0.046600 -0.038800
v 0.017500 0.050300 -0.030000
v 0.022500 0.046600 -0.038800
vt 0.968800 0.781300
vt 0.156300 0.437500
vt 0.843800 0.437500
vt 0.031300 0.781300
vt 0.968800 0.781300
vt 0.156300 0.437500
vt 0.843800 0.437500
vt 0.031300 0.781300
vt 0.968800 0.781300
vt 0.250000 0.328100
vt 0.750000 0.328100
vt 0.031300 0.781300
vt 0.031300 0.781300
vt 0.750000 0.328100
vt 0.250000 0.328100
vt 0.968800 0.781300
vt 0.250000 0.171900
vt 0.750000 0.171900
vt 0.500000 0.000000
vt 0.250000 0.218800
vt 0.750000 0.218800
vt 0.500000 0.000000
vt 0.375000 0.109400
vt 0.625000 0.109400
vt 0.500000 0.000000
vt 0.500000 0.000000
vt 0.187500 0.781300
vt 0.375000 0.781300
vt 0.187500 0.859400
vt 0.031300 0.859400
vt 0.593800 0.859400
vt 0.375000 0.859400
vt 0.593800 0.781300
vt 0.812500 0.859400
vt 0.812500 0.781300
vt 0.968800 0.859400
vt 0.968800 0.781300
vt 0.812500 0.859400
vt 0.812500 0.781300
vt 0.593800 0.867200
vt 0.593800 0.796900
vt 0.468800 0.781300
vt 0.812500 0.843800
vt 0.656300 0.843800
vt 0.750000 0.765600
vt 0.781300 0.796900
vt 0.531300 0.796900
vt 0.531300 0.859400
vt 0.781300 0.859400
vt 0.968800 0.781300
vt 0.968800 0.859400
vt 0.687500 0.859400
vt 0.875000 0.781300
vt 0.812500 0.781300
vt 0.812500 0.859400
vt 0.968800 0.859400
vt 0.750000 0.859400
vt 0.625000 0.859400
vt 0.625000 0.984400
vt 0.750000 0.937500
vt 0.812500 0.937500
vt 0.468800 0.859400
vt 0.468800 0.937500
vt 0.625000 0.765600
vt 0.250000 0.859400
vt 0.250000 0.937500
vt 0.468800 0.765600
vt 0.687500 0.796900
vt 0.968800 0.781300
vt 0.812500 0.937500
vt 0.750000 0.781300
vt 0.187500 0.937500
vt 0.375000 0.937500
vt 0.593800 0.937500
vt 0.812500 0.937500
vt 0.968800 0.953100
vt 0.812500 0.937500
vt 0.593800 0.953100
vt 0.562500 0.781300
vt 0.812500 0.953100
vt 0.875000 1.000000
vt 0.968800 0.953100
vt 0.781300 0.953100
vt 0.593800 0.968800
vt 0.750000 0.937500
vt 0.746100 0.937500
vt 0.968800 0.953100
vt 0.250000 0.765600
vt 0.656300 1.000000
vt 0.593800 0.750000
vt 0.718800 0.750000
vt 0.593800 0.750000
vt 0.718800 0.750000
vt 0.593800 0.750000
vt 0.718800 0.750000
vt 0.593800 0.750000
vt 0.718800 0.750000
vt 0.281300 0.984400
vt 0.281300 0.750000
vt 0.031300 0.859400
vt 0.718800 0.984400
vt 0.718800 0.750000
vt 0.968800 0.984400
vt 0.968800 0.750000
vt 0.468800 0.984400
vt 0.468800 0.750000
vt 0.031300 0.859400
vt 0.500000 0.750000
vt 0.281300 0.750000
vt 0.500000 0.984400
vt 0.656300 0.750000
vt 0.656300 0.984400
vt 0.812500 0.984400
vt 0.812500 0.750000
vt 0.406300 0.984400
vt 0.406300 0.750000
vt 0.031300 0.859400
vt 0.281300 0.984400
vt 0.031300 0.859400
vt 0.406300 0.750000
vt 0.031300 0.859400
vt 0.406300 0.984400
vt 0.718800 0.750000
vt 0.718800 0.984400
vt 0.843800 0.984400
vt 0.843800 0.750000
vt 0.968800 0.984400
vt 0.968800 0.750000
vt 0.500000 0.984400
vt 0.812500 0.750000
vt 0.500000 0.750000
vt 0.031300 0.859400
vt 0.031300 0.859400
vt 0.812500 0.984400
vt 0.968800 0.890600
vt 0.875000 0.890600
vt 0.875000 0.984400
vt 0.968800 0.984400
vt 0.875000 0.890600
vt 0.875000 0.984400
vt 0.781300 0.890600
vt 0.781300 0.984400
vt 0.687500 0.890600
vt 0.687500 0.984400
vt 0.593800 0.890600
vt 0.593800 0.984400
vt 0.687500 0.890600
vt 0.687500 0.984400
vt 0.781300 0.890600
vt 0.781300 0.984400
vt 0.968800 0.890600
vt 0.875000 0.890600
vt 0.875000 0.984400
vt 0.968800 0.984400
vt 0.875000 0.890600
vt 0.875000 0.984400
vt 0.781300 0.890600
vt 0.781300 0.984400
vt 0.687500 0.890600
vt 0.687500 0.984400
vt 0.593800 0.890600
vt 0.593800 0.984400
vt 0.687500 0.890600
vt 0.687500 0.984400
vt 0.781300 0.890600
vt 0.781300 0.984400
vt 0.968800 0.984400
vt 0.812500 0.890600
vt 0.812500 0.984400
vt 0.968800 0.890600
vt 0.656300 0.890600
vt 0.656300 0.984400
vt 0.468800 0.890600
vt 0.468800 0.984400
vt 0.656300 0.890600
vt 0.656300 0.984400
vt 0.812500 0.890600
vt 0.812500 0.984400
vt 0.968800 0.984400
vt 0.812500 0.890600
vt 0.812500 0.984400
vt 0.968800 0.890600
vt 0.656300 0.890600
vt 0.656300 0.984400
vt 0.468800 0.890600
vt 0.468800 0.984400
vt 0.656300 0.890600
vt 0.656300 0.984400
vt 0.812500 0.890600
vt 0.812500 0.984400
vn -1.0000 0.0000 0.0000
vn 0.7612 0.0084 0.6484
vn 0.8521 0.0498 0.5210
vn 0.9890 0.0359 0.1432
vn 0.9970 0.0733 0.0235
vn 0.9997 -0.0002 0.0231
vn 0.9836 -0.0055 -0.1804
vn 0.9077 0.1046 0.4063
vn 0.9999 0.0065 0.0126
vn 0.9173 0.1042 0.3844
vn 0.9999 0.0077 0.0123
vn 0.9165 0.0836 0.3913
vn 0.9991 0.0165 0.0397
vn 0.9123 0.0501 0.4064
vn 0.9948 -0.0122 0.1012
vn 0.9211 0.0030 0.3894
vn 0.9919 -0.0962 0.0832
vn 0.9971 0.0727 -0.0209
vn 0.9999 0.0158 -0.0046
vn 0.9688 -0.2344 0.0810
vn 0.9079 -0.0397 0.4174
vn 0.8902 0.0868 0.4472
vn 0.9996 -0.0219 -0.0154
vn 0.9989 -0.0228 -0.0415
vn 0.9310 -0.1530 0.3315
vn 0.9989 -0.0210 -0.0430
vn 0.9978 0.0338 0.0577
vn 0.9684 0.1813 0.1713
vn 0.9075 0.0714 0.4138
vn 0.9992 -0.0121 0.0384
vn 0.9980 0.0070 -0.0631
vn 0.9977 0.0050 -0.0680
vn 0.9977 0.0167 -0.0656
vn 0.9320 0.0591 -0.3575
vn 0.9191 0.0313 -0.3928
vn 0.9015 -0.0545 -0.4293
vn 0.9975 -0.0288 0.0641
vn 0.9737 0.0235 -0.2264
vn 0.9390 -0.0462 0.3408
vn 0.9998 -0.0216 -0.0014
vn 1.0000 -0.0000 0.0000
vn 0.9818 -0.0265 0.1879
vn 0.9126 0.2237 0.3423
vn 0.9406 0.3312 0.0750
vn 0.9298 -0.3041 -0.2075
vn 0.8998 0.0018 0.4364
vn 0.8221 0.0512 -0.5670
vn 0.8860 -0.0217 -0.4631
vn 0.8982 -0.0829 -0.4317
vn 0.9148 -0.1033 -0.3905
vn 0.9251 -0.0857 -0.3698
vn 0.9346 -0.0461 -0.3527
vn 0.9815 0.1374 -0.1333
vn 0.9691 -0.2083 -0.1319
vn 0.9598 0.2627 0.0991
vn 0.9785 0.2003 -0.0487
vn 0.9429 0.1424 -0.3011
vn 0.9025 0.0586 -0.4267
vn 0.8790 -0.0496 -0.4741
vn 0.8871 -0.1951 -0.4184
vn 0.9275 -0.2110 -0.3084
vn 1.0000 -0.0016 -0.0032
vn 0.9826 0.1315 0.1311
vn 0.9824 -0.0012 0.1868
vn 0.9821 -0.1347 0.1318
vn 0.9823 0.1874 -0.0025
vn 0.9815 0.1332 -0.1374
vn 0.9808 -0.0012 -0.1949
vn 0.9810 -0.1364 -0.1383
vn 0.9815 -0.1914 -0.0025
vn -0.3677 -0.9285 -0.0513
vn -0.2243 -0.9287 -0.2953
vn -0.2958 -0.9286 -0.2241
vn -0.3674 -0.9287 0.0508
vn -0.2953 -0.9287 0.2243
vn -0.2218 -0.9300 0.2931
vn -0.0501 -0.9308 0.3620
vn 0.0510 -0.9306 0.3625
vn 0.2223 -0.9298 0.2933
vn 0.2923 -0.9301 0.2226
vn 0.3620 -0.9308 0.0501
vn 0.3625 -0.9306 -0.0510
vn 0.2933 -0.9298 -0.2223
vn 0.2250 -0.9286 -0.2950
vn 0.0513 -0.9285 -0.3677
vn -0.0508 -0.9287 -0.3674
vn -0.3725 -0.9266 -0.0507
vn -0.2257 -0.9273 -0.2986
vn -0.2991 -0.9272 -0.2255
vn -0.3720 -0.9268 0.0512
vn -0.2988 -0.9272 0.2257
vn -0.2248 -0.9282 0.2964
vn -0.0505 -0.9288 0.3672
vn 0.0520 -0.9287 0.3672
vn 0.2253 -0.9281 0.2966
vn 0.2961 -0.9282 0.2254
vn 0.3670 -0.9288 0.0515
vn 0.3675 -0.9286 -0.0510
vn 0.2964 -0.9281 -0.2252
vn 0.2262 -0.9271 -0.2988
vn 0.0517 -0.9267 -0.3723
vn -0.0502 -0.9268 -0.3723
vn -0.3162 -0.9467 -0.0617
vn -0.2109 -0.9476 -0.2400
vn -0.1057 -0.9493 -0.2959
vn -0.3184 -0.9458 0.0636
vn 0.1027 -0.9506 -0.2928
vn 0.2085 -0.9488 -0.2372
vn 0.3145 -0.9474 -0.0589
vn 0.3163 -0.9467 0.0603
vn 0.2104 -0.9463 0.2456
vn 0.1044 -0.9456 0.3081
vn -0.1078 -0.9442 0.3112
vn -0.2131 -0.9449 0.2486
vn -0.3299 -0.9418 -0.0649
vn -0.2201 -0.9422 -0.2527
vn -0.1106 -0.9434 -0.3125
vn -0.3322 -0.9408 0.0669
vn 0.1064 -0.9452 -0.3087
vn 0.2159 -0.9442 -0.2487
vn 0.3256 -0.9435 -0.0612
vn 0.3277 -0.9427 0.0629
vn 0.2181 -0.9411 0.2582
vn 0.1085 -0.9392 0.3259
vn -0.1129 -0.9372 0.3299
vn -0.2225 -0.9389 0.2625
usemtl MDL_w21ktx2_bod01_TEX_w21ktx2_1
s 1
f 172/314/173 173/315/173 174/316/173
f 173/315/173 172/314/173 175/317/173
f 176/318/173 177/319/173 178/320/173
f 177/319/173 176/318/173 179/321/173
f 180/322/173 181/323/173 182/324/173
f 181/323/173 180/322/173 183/325/173
f 184/326/173 185/327/173 186/328/173
f 185/327/173 184/326/173 187/329/173
f 174/316/173 173/315/173 188/330/173
f 189/331/173 174/316/173 188/330/173
f 188/330/173 190/332/173 189/331/173
f 178/320/173 177/319/173 191/333/173
f 192/334/173 191/333/173 193/335/173
f 178/320/173 191/333/173 192/334/173
f 182/324/173 194/336/173 195/337/173
f 194/336/173 182/324/173 181/323/173
f 195/337/173 194/336/173 196/338/173
f 186/328/173 185/327/173 197/339/173
f 198/340/174 200/341/175 199/342/176
f 199/342/176 201/343/177 198/340/174
f 202/344/178 203/345/179 200/341/175
f 200/341/175 204/346/180 202/344/178
f 205/347/181 202/344/178 204/346/180
f 204/346/180 206/348/182 205/347/181
f 207/349/183 205/347/181 206/348/182
f 206/348/182 208/350/184 207/349/183
f 209/351/185 207/349/183 208/350/184
f 208/350/184 210/352/186 209/351/185
f 211/353/187 209/351/185 210/352/186
f 210/352/186 212/354/188 211/353/187
f 213/355/189 211/353/187 212/354/188
f 214/356/190 216/357/191 215/358/192
f 217/359/193 219/360/194 218/361/195
f 218/361/195 220/362/196 217/359/193
f 221/363/197 217/359/193 220/362/196
f 220/362/196 222/364/198 221/363/197
f 215/358/192 221/363/197 222/364/198
f 222/364/198 214/356/190 215/358/192
f 219/360/194 223/365/199 218/361/195
f 224/366/200 226/367/201 225/368/202
f 225/368/202 227/369/203 224/366/200
f 228/370/204 230/371/205 229/372/206
f 229/372/206 231/373/207 228/370/204
f 232/374/208 228/370/204 231/373/207
f 230/371/205 233/375/209 234/376/210
f 233/375/209 230/371/205 235/377/211
f 230/371/205 234/376/210 229/372/206
f 236/378/212 237/379/213 234/376/210
f 234/376/210 233/375/209 236/378/212
f 238/380/214 236/378/212 233/375/209
f 223/365/199 240/381/215 239/382/216
f 227/369/203 223/365/199 239/382/216
f 223/365/199 227/369/203 241/383/217
f 242/384/218 228/370/204 225/368/202
f 228/370/204 242/384/218 235/377/211
f 242/384/218 225/368/202 226/367/201
f 199/342/176 243/385/219 201/343/177
f 243/385/219 199/342/176 203/345/179
f 203/345/179 244/386/220 243/385/219
f 244/386/220 203/345/179 245/387/221
f 202/344/178 245/387/221 203/345/179
f 245/387/221 202/344/178 246/388/222
f 205/347/181 246/388/222 202/344/178
f 246/388/222 205/347/181 247/389/223
f 207/349/183 247/389/223 205/347/181
f 247/389/223 207/349/183 248/390/224
f 209/351/185 248/390/224 207/349/183
f 248/390/224 209/351/185 249/391/225
f 211/353/187 249/391/225 209/351/185
f 211/353/187 216/357/191 249/391/225
f 216/357/191 211/353/187 250/392/226
f 216/357/191 214/356/190 251/393/227
f 251/393/227 249/391/225 216/357/191
f 252/394/228 251/393/227 214/356/190
f 214/356/190 253/395/229 252/394/228
f 222/364/198 220/362/196 254/396/230
f 254/396/230 253/395/229 222/364/198
f 214/356/190 222/364/198 253/395/229
f 220/362/196 218/361/195 255/397/231
f 255/397/231 254/396/230 220/362/196
f 218/361/195 223/365/199 256/398/232
f 256/398/232 255/397/231 218/361/195
f 256/399/232 223/365/199 241/383/217
f 227/369/203 257/400/233 241/383/217
f 257/400/233 227/369/203 225/368/202
f 225/368/202 232/374/208 257/400/233
f 228/370/204 232/374/208 225/368/202
f 228/370/204 235/377/211 230/371/205
f 236/378/212 238/380/214 258/401/213
f 233/375/209 235/377/211 238/380/214
f 224/366/200 227/369/203 239/382/216
f 211/353/187 213/355/189 250/392/226
f 215/358/192 216/357/191 250/392/226
f 259/402/234 261/403/235 260/404/236
f 260/404/236 262/405/237 259/402/234
f 263/406/238 259/402/234 264/407/239
f 259/402/234 265/408/240 264/407/239
f 265/408/240 259/402/234 266/409/241
f 267/410/242 266/409/241 259/402/234
f 259/402/234 262/405/237 267/410/242
f 261/403/235 259/402/234 263/406/238
f 268/411/173 269/412/173 270/413/173
f 271/414/173 269/412/173 268/411/173
f 269/412/173 271/414/173 272/415/173
f 273/416/173 272/415/173 271/414/173
f 272/415/173 273/416/173 274/417/173
f 275/418/173 274/417/173 273/416/173
f 274/417/173 275/418/173 276/419/173
f 277/420/173 276/419/173 275/418/173
f 278/421/173 280/422/173 279/423/173
f 279/423/173 281/424/173 278/421/173
f 281/424/173 279/423/173 282/425/173
f 282/425/173 283/426/173 281/424/173
f 284/427/173 281/424/173 283/426/173
f 283/426/173 285/428/173 284/427/173
f 286/429/173 284/427/173 285/428/173
f 285/428/173 287/430/173 286/429/173
f 288/431/173 279/423/173 280/422/173
f 280/422/173 289/432/173 288/431/173
f 290/433/173 292/434/173 291/435/173
f 291/435/173 293/436/173 290/433/173
f 293/436/173 291/435/173 294/437/173
f 294/437/173 295/438/173 293/436/173
f 296/439/173 293/436/173 295/438/173
f 295/438/173 297/440/173 296/439/173
f 298/441/173 296/439/173 297/440/173
f 299/442/173 300/443/173 301/444/173
f 299/442/173 301/444/173 302/445/173
f 303/446/173 300/443/173 304/447/173
f 219/360/194 240/381/215 223/365/199
f 300/443/173 299/442/173 304/447/173
f 199/342/176 200/341/175 203/345/179
f 305/448/243 307/449/244 306/450/245
f 306/450/245 308/451/246 305/448/243
f 309/452/247 305/448/243 308/451/246
f 308/451/246 310/453/248 309/452/247
f 311/454/249 309/452/247 310/453/248
f 310/453/248 312/455/250 311/454/249
f 313/456/251 311/454/249 312/455/250
f 312/455/250 314/457/252 313/456/251
f 315/458/253 313/456/251 314/457/252
f 314/457/252 316/459/254 315/458/253
f 317/460/255 315/458/253 316/459/254
f 316/459/254 318/461/256 317/460/255
f 319/462/257 317/460/255 318/461/256
f 318/461/256 320/463/258 319/462/257
f 307/449/244 319/462/257 320/463/258
f 320/463/258 306/450/245 307/449/244
f 321/464/259 323/465/260 322/466/261
f 322/466/261 324/467/262 321/464/259
f 325/468/263 321/464/259 324/467/262
f 324/467/262 326/469/264 325/468/263
f 327/470/265 325/468/263 326/469/264
f 326/469/264 328/471/266 327/470/265
f 329/472/267 327/470/265 328/471/266
f 328/471/266 330/473/268 329/472/267
f 331/474/269 329/472/267 330/473/268
f 330/473/268 332/475/270 331/474/269
f 333/476/271 331/474/269 332/475/270
f 332/475/270 334/477/272 333/476/271
f 335/478/273 333/476/271 334/477/272
f 334/477/272 336/479/274 335/478/273
f 323/465/260 335/478/273 336/479/274
f 336/479/274 322/466/261 323/465/260
f 337/480/275 339/481/276 338/482/277
f 337/480/275 340/483/278 339/481/276
f 338/482/277 342/484/279 341/485/280
f 338/482/277 339/481/276 342/484/279
f 341/485/280 344/486/281 343/487/282
f 341/485/280 342/484/279 344/486/281
f 343/487/282 346/488/283 345/489/284
f 343/487/282 344/486/281 346/488/283
f 345/489/284 348/490/285 347/491/286
f 345/489/284 346/488/283 348/490/285
f 347/491/286 340/483/278 337/480/275
f 347/491/286 348/490/285 340/483/278
f 349/492/287 351/493/288 350/494/289
f 349/492/287 352/495/290 351/493/288
f 350/494/289 354/496/291 353/497/292
f 350/494/289 351/493/288 354/496/291
f 353/497/292 356/498/293 355/499/294
f 353/497/292 354/496/291 356/498/293
f 355/499/294 358/500/295 357/501/296
f 355/499/294 356/498/293 358/500/295
f 357/501/296 360/502/297 359/503/298
f 357/501/296 358/500/295 360/502/297
f 359/503/298 352/495/290 349/492/287
f 359/503/298 360/502/297 352/495/290
