# Blender MTL File: 'None'
# Material Count: 1

newmtl w21st06_TEX_w21st06
Ns 94.117647
Ka 1.000000 1.000000 1.000000
Kd 1.000000 1.000000 1.000000
Ks 0.000000 0.000000 0.000000
Ke 0.000000 0.000000 0.000000
Ni 1.500000
d 1.000000
illum 2
map_Kd minecraft:items/w21st06
map_Ka minecraft:items/w21st06
