# Blender v2.79 (sub 0) OBJ File: ''
# www.blender.org
mtllib w21st06.mtl
o MDL_w21st06_bod00.001
v 0.000000 -0.900000 -0.000000
v -0.020600 -0.780300 0.035900
v -0.041600 -0.780300 -0.000000
v 0.020600 -0.780300 0.035900
v 0.041300 -0.780300 -0.000000
v 0.020600 -0.780300 -0.035600
v -0.020600 -0.780300 -0.035600
v -0.025300 -0.569700 0.043700
v -0.050600 -0.569700 -0.000000
v 0.025000 -0.569700 0.043700
v 0.050300 -0.569700 -0.000000
v 0.025000 -0.569700 -0.043700
v -0.025300 -0.569700 -0.043700
v -0.016600 -0.500000 0.028800
v -0.033400 -0.500000 -0.000000
v 0.016600 -0.500000 0.028800
v 0.033100 -0.500000 -0.000000
v 0.016600 -0.500000 -0.028800
v -0.016600 -0.500000 -0.028800
v -0.031300 0.371900 0.000000
v -0.020900 0.261900 -0.036200
v -0.041900 0.261900 0.000000
v -0.015600 0.371900 -0.026900
v 0.020900 0.261900 -0.036200
v 0.015600 0.371900 -0.026900
v 0.041900 0.261900 0.000000
v 0.031300 0.371900 0.000000
v 0.020900 0.261900 0.036200
v 0.015600 0.371900 0.027200
v -0.020900 0.261900 0.036200
v -0.015600 0.371900 0.027200
v -0.012500 0.200000 -0.021600
v -0.025300 0.200000 0.000000
v 0.012500 0.200000 -0.021600
v 0.025000 0.200000 0.000000
v 0.012500 0.200000 0.021900
v -0.012500 0.200000 0.021900
v -0.023100 0.410300 0.000000
v -0.011600 0.410300 -0.019700
v -0.017200 0.450000 -0.029700
v 0.011300 0.410300 -0.019700
v 0.022800 0.410300 0.000000
v 0.017200 0.450000 -0.029700
v 0.034400 0.450000 0.000000
v -0.011600 0.410300 0.020000
v -0.017200 0.450000 0.030000
v -0.034400 0.450000 0.000000
v 0.011300 0.410300 0.020000
v 0.017200 0.450000 0.030000
v 0.000000 -0.149700 0.014700
v -0.019100 -0.550000 -0.000000
v 0.000000 -0.550000 0.019100
v -0.014700 -0.149700 -0.000000
v 0.000000 0.250000 0.014700
v -0.014700 0.250000 0.000000
v 0.000000 -0.550000 -0.019100
v 0.000000 -0.149700 -0.014700
v 0.000000 0.250000 -0.014700
v 0.014700 -0.149700 -0.000000
v 0.019100 -0.550000 -0.000000
v 0.014700 0.250000 0.000000
v 0.050300 0.501300 -0.018100
v 0.040900 0.501300 0.034400
v -0.009400 0.501300 0.052800
v -0.050300 0.501300 0.018400
v -0.040900 0.501300 -0.034400
v 0.009100 0.501300 -0.052500
v 0.050600 0.551200 -0.042500
v 0.062200 0.551200 0.022500
v 0.011300 0.551200 0.065300
v -0.050600 0.551200 0.042500
v -0.062200 0.551200 -0.022500
v -0.011600 0.551200 -0.065000
v 0.035900 0.601200 -0.062200
v 0.071900 0.601200 0.000000
v 0.035900 0.601200 0.062200
v -0.035900 0.601200 0.062200
v -0.071900 0.601200 0.000000
v -0.035900 0.601200 -0.062200
v 0.011300 0.651300 -0.065000
v 0.062200 0.651300 -0.022500
v 0.050600 0.651300 0.042500
v -0.011600 0.651300 0.065300
v -0.062200 0.651300 0.022500
v -0.050600 0.651300 -0.042500
v -0.009400 0.701300 -0.052500
v 0.040900 0.701300 -0.034400
v 0.050300 0.701300 0.018400
v 0.009100 0.701300 0.052800
v -0.040900 0.701300 0.034400
v -0.050300 0.701300 -0.018100
v -0.018800 0.751300 -0.032200
v 0.018400 0.751300 -0.032200
v 0.037200 0.751300 0.000000
v 0.018400 0.751300 0.032200
v -0.018800 0.751300 0.032200
v -0.037200 0.751300 0.000000
v -0.181600 0.818400 0.000000
v -0.180900 0.833800 0.000000
v -0.175900 0.821900 0.010600
v -0.175900 0.821900 -0.010300
v -0.175900 0.817800 0.000000
v -0.144400 0.835300 0.015000
v -0.125300 0.854100 0.019400
v -0.121300 0.838400 0.020300
v -0.142800 0.852200 0.011300
v 0.007200 0.806900 0.038100
v -0.022500 0.836300 0.032500
v -0.026200 0.788100 0.029400
v 0.003700 0.848400 0.000000
v 0.030900 0.814400 0.000000
v -0.059100 0.868400 0.024400
v -0.090900 0.872200 0.000000
v -0.050000 0.870900 0.000000
v -0.092800 0.865900 0.025300
v -0.065300 0.846200 0.033800
v -0.116900 0.823400 0.020600
v -0.071900 0.825000 0.024700
v -0.075600 0.815000 0.000000
v -0.117800 0.821900 0.000000
v -0.047500 0.776300 0.000000
v -0.026900 0.788100 -0.029100
v -0.046900 0.891900 0.047500
v -0.055300 0.883400 0.052800
v -0.050000 0.921900 0.092200
v 0.025300 0.901600 0.238400
v 0.072500 0.887500 0.239400
v 0.027200 0.915000 0.233800
v 0.078100 0.910900 0.218800
v 0.034700 0.929100 0.208700
v -0.020000 0.876600 0.052800
v -0.062500 0.908700 0.092200
v -0.055000 0.937500 0.122200
v -0.001900 0.908700 0.092200
v -0.069400 0.924400 0.122200
v -0.050900 0.938800 0.161600
v 0.010900 0.935000 0.122200
v -0.065000 0.925600 0.163400
v -0.017200 0.928100 0.203700
v 0.015600 0.936900 0.155300
v -0.029700 0.915000 0.210600
v 0.017200 0.935600 0.187500
v 0.032200 0.861900 0.058100
v 0.040300 0.881600 0.088400
v 0.057800 0.906900 0.119700
v 0.055900 0.886900 0.094100
v 0.098400 0.865600 0.115900
v 0.066200 0.918700 0.151300
v 0.063700 0.916900 0.122500
v 0.123100 0.921600 0.144400
v 0.073400 0.908400 0.185600
v 0.070900 0.906900 0.156900
v 0.136900 0.895300 0.179400
v 0.076600 0.932500 0.190000
v 0.076300 0.927500 0.206200
v 0.064400 0.838400 0.064400
v 0.067800 0.841900 0.081900
v 0.079100 0.805600 0.072500
v 0.122200 0.920300 0.125900
v 0.179100 0.933100 0.132800
v 0.117800 0.939400 0.198100
v 0.096900 0.853400 0.099400
v 0.130000 0.807200 0.109100
v 0.135900 0.894100 0.162200
v 0.197800 0.901900 0.168100
v 0.123400 0.862800 0.239100
v 0.125300 0.882800 0.221600
v 0.165600 0.841600 0.224100
v 0.164400 0.829400 0.235600
v 0.197500 0.783100 0.227500
v 0.007200 0.806900 -0.037800
v -0.022500 0.836300 -0.032500
v -0.142800 0.852200 -0.010900
v -0.143700 0.835300 -0.015000
v -0.156900 0.848100 0.000000
v -0.143400 0.822200 0.000000
v -0.116900 0.823400 -0.020300
v -0.143400 0.826600 0.011900
v -0.059100 0.868400 -0.024100
v -0.092800 0.865900 -0.025300
v -0.122800 0.866600 0.000000
v -0.125300 0.854100 -0.019100
v -0.065300 0.846200 -0.033800
v -0.071600 0.825900 -0.025300
v -0.046900 0.891900 -0.047500
v -0.055300 0.883400 -0.052800
v -0.121300 0.838400 -0.020000
v 0.072500 0.887500 -0.239400
v 0.025300 0.901600 -0.238100
v 0.027200 0.915000 -0.233800
v 0.034700 0.929100 -0.208700
v 0.078100 0.910900 -0.218800
v -0.020000 0.876600 -0.052800
v -0.062500 0.908700 -0.091900
v -0.050000 0.921900 -0.091900
v -0.001900 0.908700 -0.091900
v -0.069400 0.924400 -0.122200
v -0.055000 0.937500 -0.122200
v 0.010900 0.935000 -0.122200
v -0.065000 0.925600 -0.163100
v -0.050900 0.938800 -0.161600
v 0.015600 0.936900 -0.155300
v -0.029700 0.915000 -0.210300
v -0.017200 0.928100 -0.203400
v 0.017200 0.935600 -0.187500
v 0.032200 0.861900 -0.058100
v 0.040300 0.881600 -0.088400
v 0.055900 0.886900 -0.093800
v 0.057800 0.906900 -0.119400
v 0.063700 0.916900 -0.122500
v 0.066200 0.918700 -0.150900
v 0.070900 0.906900 -0.156900
v 0.073400 0.908400 -0.185300
v 0.076600 0.932500 -0.190000
v 0.076300 0.927500 -0.206200
v 0.064400 0.838400 -0.064100
v 0.079100 0.805600 -0.072200
v 0.067800 0.841900 -0.081600
v 0.122200 0.920300 -0.125600
v 0.179100 0.933100 -0.132800
v 0.123100 0.921600 -0.144400
v 0.117800 0.939400 -0.198100
v 0.096900 0.853400 -0.099400
v 0.130000 0.807200 -0.108800
v 0.098400 0.865600 -0.115900
v 0.135900 0.894100 -0.162200
v 0.197800 0.901900 -0.168100
v 0.136900 0.895300 -0.179400
v 0.123400 0.862800 -0.239100
v 0.125300 0.882800 -0.221600
v 0.165600 0.841600 -0.224100
v 0.197500 0.783100 -0.227200
v 0.164400 0.829400 -0.235600
v 0.023100 0.501300 -0.232800
v -0.040300 0.551200 -0.163400
v -0.003400 0.551200 -0.161900
v 0.189700 0.501300 0.136600
v 0.161600 0.551200 0.046900
v 0.141900 0.551200 0.078100
v -0.059400 0.601200 -0.118700
v -0.011600 0.601200 -0.118700
v 0.132500 0.601200 0.007800
v 0.108400 0.601200 0.049400
v -0.054700 0.651300 -0.070900
v -0.016200 0.651300 -0.076900
v 0.088700 0.651300 -0.011900
v 0.074700 0.651300 0.024400
v -0.085000 0.620900 0.090300
v -0.038800 0.651300 0.077200
v -0.054100 0.651300 0.058100
v -0.045300 0.701300 -0.033100
v -0.019100 0.701300 -0.052800
v 0.051200 0.701300 -0.022500
v 0.055000 0.701300 0.009700
v -0.006300 0.701300 0.055900
v -0.036200 0.701300 0.043100
v 0.129100 0.550900 -0.109100
v 0.060300 0.601200 -0.103700
v 0.086900 0.601200 -0.081200
v 0.029700 0.529700 0.087800
v 0.059700 0.587200 0.084100
v 0.026900 0.587200 0.095600
v 0.025000 0.651300 -0.083400
v 0.060900 0.651300 -0.062500
v 0.062500 0.651300 0.061300
v 0.023400 0.651300 0.084400
v 0.000000 0.701300 -0.065600
v 0.041300 0.701300 -0.050900
v 0.054700 0.701300 0.035600
v 0.023400 0.701300 0.061600
v -0.023700 0.501300 -0.065000
v -0.075300 0.551200 -0.056200
v -0.042800 0.551200 -0.083800
v -0.101900 0.601200 -0.022500
v -0.070600 0.601200 -0.076600
v -0.089100 0.651300 0.011600
v -0.079700 0.651300 -0.040900
v -0.056900 0.701300 0.029400
v -0.063700 0.701300 -0.008100
v -0.143100 0.826600 -0.011600
v -0.155300 0.853100 0.000000
v -0.096200 0.892500 0.045600
v -0.096200 0.892500 -0.045600
v -0.131200 0.823800 0.031600
v -0.137200 0.826300 0.019700
v -0.125000 0.812200 0.026600
v -0.131200 0.823800 -0.031600
v -0.125000 0.812200 -0.026200
v -0.136900 0.826300 -0.019700
v -0.177200 0.802800 -0.018400
v -0.177200 0.802800 0.018400
vt 0.875000 0.628900
vt 0.875000 0.687500
vt 0.757800 0.687500
vt 0.992200 0.687500
vt 0.875000 0.687500
vt 0.757800 0.687500
vt 0.992200 0.687500
vt 0.875000 0.687500
vt 0.757800 0.687500
vt 0.992200 0.687500
vt 0.507800 0.996100
vt 0.750000 0.750000
vt 0.507800 0.750000
vt 0.750000 0.996100
vt 0.992200 0.750000
vt 0.992200 0.996100
vt 0.507800 0.996100
vt 0.750000 0.750000
vt 0.507800 0.750000
vt 0.750000 0.996100
vt 0.992200 0.750000
vt 0.992200 0.996100
vt 0.507800 0.996100
vt 0.750000 0.750000
vt 0.507800 0.750000
vt 0.750000 0.996100
vt 0.992200 0.750000
vt 0.992200 0.996100
vt 0.757800 0.746100
vt 0.875000 0.691400
vt 0.796900 0.691400
vt 0.875000 0.746100
vt 0.953100 0.691400
vt 0.992200 0.746100
vt 0.757800 0.746100
vt 0.875000 0.691400
vt 0.796900 0.691400
vt 0.875000 0.746100
vt 0.953100 0.691400
vt 0.992200 0.746100
vt 0.757800 0.746100
vt 0.875000 0.691400
vt 0.796900 0.691400
vt 0.875000 0.746100
vt 0.953100 0.691400
vt 0.992200 0.746100
vt 0.250000 0.753900
vt 0.007800 0.996100
vt 0.250000 0.996100
vt 0.007800 0.753900
vt 0.492200 0.753900
vt 0.250000 0.996100
vt 0.492200 0.996100
vt 0.250000 0.753900
vt 0.007800 0.996100
vt 0.007800 0.753900
vt 0.492200 0.753900
vt 0.250000 0.996100
vt 0.492200 0.996100
vt 0.250000 0.753900
vt 0.007800 0.996100
vt 0.007800 0.753900
vt 0.492200 0.753900
vt 0.492200 0.996100
vt 0.875000 0.746100
vt 0.796900 0.691400
vt 0.875000 0.691400
vt 0.757800 0.746100
vt 0.992200 0.746100
vt 0.875000 0.691400
vt 0.953100 0.691400
vt 0.875000 0.746100
vt 0.796900 0.691400
vt 0.757800 0.746100
vt 0.992200 0.746100
vt 0.875000 0.691400
vt 0.953100 0.691400
vt 0.875000 0.746100
vt 0.796900 0.691400
vt 0.757800 0.746100
vt 0.992200 0.746100
vt 0.953100 0.691400
vt 0.625000 0.746100
vt 0.507800 0.683600
vt 0.625000 0.683600
vt 0.507800 0.746100
vt 0.625000 0.628900
vt 0.625000 0.683600
vt 0.507800 0.683600
vt 0.625000 0.746100
vt 0.742200 0.683600
vt 0.625000 0.628900
vt 0.507800 0.628900
vt 0.742200 0.746100
vt 0.742200 0.628900
vt 0.742200 0.683600
vt 0.625000 0.746100
vt 0.625000 0.683600
vt 0.625000 0.628900
vt 0.742200 0.628900
vt 0.625000 0.683600
vt 0.507800 0.746100
vt 0.625000 0.746100
vt 0.742200 0.683600
vt 0.625000 0.628900
vt 0.742200 0.628900
vt 0.507800 0.628900
vt 0.507800 0.683600
vt 0.742200 0.746100
vt 0.742200 0.746100
vt 0.507800 0.746100
vt 0.507800 0.628900
vt 0.007800 0.687500
vt 0.492200 0.628900
vt 0.492200 0.687500
vt 0.007800 0.628900
vt 0.492200 0.687500
vt 0.492200 0.628900
vt 0.007800 0.746100
vt 0.492200 0.687500
vt 0.492200 0.746100
vt 0.007800 0.687500
vt 0.492200 0.746100
vt 0.492200 0.687500
vt 0.007800 0.628900
vt 0.492200 0.628900
vt 0.492200 0.628900
vt 0.007800 0.746100
vt 0.492200 0.746100
vt 0.492200 0.746100
vt 0.609400 0.691400
vt 0.640600 0.691400
vt 0.640600 0.675800
vt 0.640600 0.675800
vt 0.609400 0.691400
vt 0.640600 0.691400
vt 0.609400 0.691400
vt 0.640600 0.691400
vt 0.640600 0.675800
vt 0.609400 0.675800
vt 0.609400 0.691400
vt 0.640600 0.691400
vt 0.640600 0.675800
vt 0.609400 0.675800
vt 0.609400 0.691400
vt 0.640600 0.691400
vt 0.640600 0.675800
vt 0.609400 0.675800
vt 0.617200 0.707000
vt 0.632800 0.707000
vt 0.632800 0.699200
vt 0.617200 0.699200
vt 0.507800 0.503900
vt 0.750000 0.503900
vt 0.750000 0.621100
vt 0.507800 0.621100
vt 0.507800 0.503900
vt 0.750000 0.503900
vt 0.750000 0.621100
vt 0.507800 0.621100
vt 0.507800 0.503900
vt 0.750000 0.503900
vt 0.750000 0.621100
vt 0.507800 0.621100
vt 0.507800 0.503900
vt 0.750000 0.503900
vt 0.750000 0.621100
vt 0.507800 0.621100
vt 0.507800 0.503900
vt 0.750000 0.503900
vt 0.750000 0.621100
vt 0.507800 0.621100
vt 0.507800 0.503900
vt 0.750000 0.503900
vt 0.750000 0.621100
vt 0.507800 0.621100
vt 0.625000 0.503900
vt 0.875000 0.503900
vt 0.875000 0.621100
vt 0.625000 0.621100
vt 0.625000 0.503900
vt 0.875000 0.503900
vt 0.875000 0.621100
vt 0.625000 0.621100
vt 0.625000 0.503900
vt 0.875000 0.503900
vt 0.875000 0.621100
vt 0.625000 0.621100
vt 0.625000 0.503900
vt 0.875000 0.503900
vt 0.875000 0.621100
vt 0.625000 0.621100
vt 0.625000 0.503900
vt 0.875000 0.503900
vt 0.875000 0.621100
vt 0.625000 0.621100
vt 0.625000 0.503900
vt 0.875000 0.503900
vt 0.875000 0.621100
vt 0.625000 0.621100
vt 0.632800 0.503900
vt 0.875000 0.503900
vt 0.875000 0.621100
vt 0.632800 0.621100
vt 0.632800 0.503900
vt 0.875000 0.503900
vt 0.875000 0.621100
vt 0.632800 0.621100
vt 0.632800 0.503900
vt 0.875000 0.503900
vt 0.875000 0.621100
vt 0.632800 0.621100
vt 0.632800 0.503900
vt 0.875000 0.503900
vt 0.875000 0.621100
vt 0.632800 0.621100
vt 0.632800 0.503900
vt 0.875000 0.503900
vt 0.875000 0.621100
vt 0.632800 0.621100
vt 0.632800 0.503900
vt 0.875000 0.503900
vt 0.875000 0.621100
vt 0.632800 0.621100
vt 0.625000 0.503900
vt 0.875000 0.503900
vt 0.875000 0.621100
vt 0.625000 0.621100
vt 0.625000 0.503900
vt 0.875000 0.503900
vt 0.875000 0.621100
vt 0.625000 0.621100
vt 0.625000 0.503900
vt 0.875000 0.503900
vt 0.875000 0.621100
vt 0.625000 0.621100
vt 0.625000 0.503900
vt 0.875000 0.503900
vt 0.875000 0.621100
vt 0.625000 0.621100
vt 0.625000 0.503900
vt 0.875000 0.503900
vt 0.875000 0.621100
vt 0.625000 0.621100
vt 0.625000 0.503900
vt 0.875000 0.503900
vt 0.875000 0.621100
vt 0.625000 0.621100
vt 0.632800 0.503900
vt 0.875000 0.503900
vt 0.875000 0.621100
vt 0.632800 0.621100
vt 0.632800 0.503900
vt 0.875000 0.503900
vt 0.875000 0.621100
vt 0.632800 0.621100
vt 0.632800 0.503900
vt 0.875000 0.503900
vt 0.875000 0.621100
vt 0.632800 0.621100
vt 0.632800 0.503900
vt 0.875000 0.503900
vt 0.875000 0.621100
vt 0.632800 0.621100
vt 0.632800 0.503900
vt 0.875000 0.503900
vt 0.875000 0.621100
vt 0.632800 0.621100
vt 0.632800 0.503900
vt 0.875000 0.503900
vt 0.875000 0.621100
vt 0.632800 0.621100
vt 0.750000 0.503900
vt 0.992200 0.503900
vt 0.992200 0.621100
vt 0.750000 0.621100
vt 0.750000 0.503900
vt 0.992200 0.503900
vt 0.992200 0.621100
vt 0.750000 0.621100
vt 0.750000 0.503900
vt 0.992200 0.503900
vt 0.992200 0.621100
vt 0.750000 0.621100
vt 0.750000 0.503900
vt 0.992200 0.503900
vt 0.992200 0.621100
vt 0.750000 0.621100
vt 0.750000 0.503900
vt 0.992200 0.503900
vt 0.992200 0.621100
vt 0.750000 0.621100
vt 0.750000 0.503900
vt 0.992200 0.503900
vt 0.992200 0.621100
vt 0.750000 0.621100
vt 0.023400 0.003900
vt 0.164100 0.027300
vt 0.335900 0.003900
vt 0.164100 0.027300
vt 0.054700 0.039100
vt 0.250000 0.070300
vt 0.335900 0.156300
vt 0.398400 0.136700
vt 0.398400 0.062500
vt 0.343800 0.402300
vt 0.343800 0.328100
vt 0.171900 0.402300
vt 0.492200 0.328100
vt 0.492200 0.402300
vt 0.343800 0.496100
vt 0.171900 0.496100
vt 0.492200 0.496100
vt 0.429700 0.250000
vt 0.492200 0.250000
vt 0.492200 0.187500
vt 0.429700 0.187500
vt 0.335900 0.250000
vt 0.164100 0.156300
vt 0.171900 0.250000
vt 0.007800 0.250000
vt 0.007800 0.156300
vt 0.007800 0.402300
vt 0.007800 0.496100
vt 0.171900 0.496100
vt 0.171900 0.402300
vt 0.695300 0.300800
vt 0.695300 0.371100
vt 0.750000 0.371100
vt 0.507800 0.371100
vt 0.750000 0.300800
vt 0.695300 0.250000
vt 0.750000 0.050800
vt 0.750000 0.003900
vt 0.695300 0.050800
vt 0.507800 0.003900
vt 0.507800 0.050800
vt 0.906300 0.371100
vt 0.992200 0.371100
vt 0.992200 0.300800
vt 0.507800 0.300800
vt 0.750000 0.250000
vt 0.695300 0.210900
vt 0.992200 0.250000
vt 0.750000 0.210900
vt 0.695300 0.156300
vt 0.992200 0.210900
vt 0.750000 0.156300
vt 0.695300 0.113300
vt 0.992200 0.156300
vt 0.750000 0.113300
vt 0.992200 0.113300
vt 0.992200 0.050800
vt 0.992200 0.003900
vt 0.492200 0.621100
vt 0.343800 0.621100
vt 0.343800 0.503900
vt 0.492200 0.503900
vt 0.507800 0.250000
vt 0.507800 0.210900
vt 0.343800 0.621100
vt 0.343800 0.503900
vt 0.492200 0.621100
vt 0.164100 0.621100
vt 0.492200 0.503900
vt 0.507800 0.156300
vt 0.343800 0.621100
vt 0.343800 0.503900
vt 0.492200 0.621100
vt 0.164100 0.621100
vt 0.492200 0.503900
vt 0.507800 0.113300
vt 0.343800 0.621100
vt 0.343800 0.503900
vt 0.492200 0.621100
vt 0.164100 0.621100
vt 0.492200 0.503900
vt 0.492200 0.621100
vt 0.375000 0.621100
vt 0.375000 0.503900
vt 0.492200 0.503900
vt 0.164100 0.503900
vt 0.164100 0.621100
vt 0.015600 0.562500
vt 0.164100 0.503900
vt 0.015600 0.562500
vt 0.250000 0.503900
vt 0.164100 0.503900
vt 0.015600 0.562500
vt 0.164100 0.503900
vt 0.015600 0.562500
vt 0.492200 0.503900
vt 0.343800 0.621100
vt 0.343800 0.503900
vt 0.492200 0.621100
vt 0.164100 0.503900
vt 0.164100 0.621100
vt 0.015600 0.562500
vt 0.343800 0.402300
vt 0.343800 0.328100
vt 0.398400 0.062500
vt 0.250000 0.070300
vt 0.398400 0.031300
vt 0.054700 0.082000
vt 0.164100 0.156300
vt 0.164100 0.078100
vt 0.343800 0.496100
vt 0.429700 0.250000
vt 0.429700 0.187500
vt 0.453100 0.125000
vt 0.398400 0.136700
vt 0.335900 0.250000
vt 0.171900 0.250000
vt 0.750000 0.371100
vt 0.695300 0.300800
vt 0.750000 0.300800
vt 0.335900 0.156300
vt 0.750000 0.003900
vt 0.750000 0.050800
vt 0.695300 0.050800
vt 0.992200 0.050800
vt 0.992200 0.003900
vt 0.507800 0.003900
vt 0.992200 0.300800
vt 0.906300 0.371100
vt 0.507800 0.300800
vt 0.507800 0.050800
vt 0.750000 0.250000
vt 0.695300 0.250000
vt 0.992200 0.250000
vt 0.507800 0.250000
vt 0.750000 0.210900
vt 0.695300 0.210900
vt 0.992200 0.210900
vt 0.507800 0.210900
vt 0.750000 0.156300
vt 0.695300 0.156300
vt 0.992200 0.156300
vt 0.507800 0.156300
vt 0.750000 0.113300
vt 0.695300 0.113300
vt 0.992200 0.113300
vt 0.507800 0.113300
vt 0.343800 0.503900
vt 0.343800 0.621100
vt 0.492200 0.621100
vt 0.492200 0.503900
vt 0.343800 0.503900
vt 0.343800 0.621100
vt 0.492200 0.621100
vt 0.492200 0.503900
vt 0.343800 0.503900
vt 0.343800 0.621100
vt 0.492200 0.621100
vt 0.492200 0.503900
vt 0.343800 0.503900
vt 0.343800 0.621100
vt 0.492200 0.621100
vt 0.492200 0.503900
vt 0.375000 0.503900
vt 0.375000 0.621100
vt 0.492200 0.621100
vt 0.492200 0.503900
vt 0.164100 0.503900
vt 0.015600 0.562500
vt 0.164100 0.621100
vt 0.164100 0.503900
vt 0.015600 0.562500
vt 0.164100 0.621100
vt 0.250000 0.503900
vt 0.164100 0.503900
vt 0.015600 0.562500
vt 0.164100 0.621100
vt 0.164100 0.503900
vt 0.015600 0.562500
vt 0.164100 0.621100
vt 0.343800 0.621100
vt 0.492200 0.503900
vt 0.343800 0.503900
vt 0.492200 0.621100
vt 0.164100 0.503900
vt 0.015600 0.562500
vt 0.164100 0.621100
vt 0.328100 0.503900
vt 0.171900 0.503900
vt 0.171900 0.621100
vt 0.335900 0.503900
vt 0.171900 0.503900
vt 0.171900 0.621100
vt 0.007800 0.503900
vt 0.007800 0.621100
vt 0.007800 0.503900
vt 0.007800 0.621100
vt 0.171900 0.503900
vt 0.171900 0.621100
vt 0.171900 0.503900
vt 0.171900 0.621100
vt 0.007800 0.503900
vt 0.187500 0.503900
vt 0.187500 0.621100
vt 0.328100 0.503900
vt 0.328100 0.621100
vt 0.335900 0.503900
vt 0.335900 0.621100
vt 0.320300 0.503900
vt 0.320300 0.621100
vt 0.492200 0.503900
vt 0.492200 0.621100
vt 0.492200 0.503900
vt 0.492200 0.621100
vt 0.492200 0.503900
vt 0.492200 0.621100
vt 0.007800 0.558600
vt 0.125000 0.503900
vt 0.125000 0.621100
vt 0.007800 0.503900
vt 0.125000 0.503900
vt 0.125000 0.621100
vt 0.250000 0.503900
vt 0.250000 0.621100
vt 0.250000 0.503900
vt 0.250000 0.621100
vt 0.375000 0.503900
vt 0.375000 0.621100
vt 0.375000 0.503900
vt 0.375000 0.621100
vt 0.492200 0.503900
vt 0.492200 0.621100
vt 0.492200 0.503900
vt 0.492200 0.621100
vt 0.328100 0.503900
vt 0.171900 0.503900
vt 0.171900 0.621100
vt 0.007800 0.503900
vt 0.007800 0.621100
vt 0.171900 0.503900
vt 0.171900 0.621100
vt 0.328100 0.503900
vt 0.328100 0.621100
vt 0.492200 0.503900
vt 0.492200 0.621100
vt 0.164100 0.078100
vt 0.742200 0.085900
vt 0.742200 0.003900
vt 0.695300 0.003900
vt 0.507800 0.003900
vt 0.742200 0.085900
vt 0.875000 0.003900
vt 0.992200 0.003900
vt 0.750000 0.371100
vt 0.742200 0.371100
vt 0.750000 0.003900
vt 0.875000 0.003900
vt 0.750000 0.003900
vt 0.750000 0.371100
vt 0.742200 0.371100
vt 0.625000 0.164100
vt 0.742200 0.003900
vt 0.742200 0.164100
vt 0.625000 0.003900
vt 0.515600 0.003900
vt 0.757800 0.168000
vt 0.992200 0.003900
vt 0.992200 0.168000
vt 0.757800 0.003900
vt 0.515600 0.164100
vt 0.625000 0.164100
vt 0.515600 0.003900
vt 0.515600 0.164100
vt 0.625000 0.003900
vt 0.742200 0.003900
vt 0.757800 0.168000
vt 0.992200 0.003900
vt 0.757800 0.003900
vt 0.992200 0.168000
vt 0.757800 0.371100
vt 0.742200 0.164100
vt 0.742200 0.367200
vt 0.757800 0.371100
vt 0.742200 0.367200
vn 0.0038 -1.0000 -0.0040
vn -0.3887 -0.1580 0.9077
vn -0.9807 -0.1586 0.1143
vn 0.5901 -0.1577 0.7918
vn 0.9806 -0.1576 -0.1169
vn 0.3896 -0.1577 -0.9074
vn -0.5867 -0.1577 -0.7943
vn 0.3896 -0.1578 -0.9074
vn -0.9807 -0.1586 0.1144
vn -0.4981 0.1000 0.8613
vn -0.9950 0.1000 -0.0029
vn 0.4959 0.0995 0.8627
vn 0.9950 0.0996 0.0025
vn 0.4986 0.0991 -0.8611
vn -0.4947 0.0994 -0.8634
vn 0.4986 0.0992 -0.8612
vn -0.4583 0.7124 0.5315
vn -0.5694 0.8147 -0.1100
vn 0.2781 0.5320 0.7998
vn -0.4584 0.7124 0.5314
vn 0.5710 0.8136 0.1100
vn 0.2780 0.5320 0.7998
vn 0.4600 0.7123 -0.5302
vn 0.4986 0.0991 -0.8612
vn -0.2760 0.5324 -0.8002
vn 0.4599 0.7123 -0.5302
vn -0.4947 0.0994 -0.8633
vn -0.4947 0.0993 -0.8634
vn -0.2760 0.5324 -0.8003
vn -0.9832 0.1407 -0.1166
vn -0.4989 -0.0851 -0.8625
vn -0.9965 -0.0842 0.0004
vn -0.4910 0.1534 -0.8575
vn 0.4955 -0.0849 -0.8645
vn 0.5603 0.1631 -0.8120
vn 0.5604 0.1631 -0.8120
vn 0.9963 -0.0854 -0.0038
vn 0.4955 -0.0849 -0.8644
vn 0.9832 0.1433 0.1128
vn 0.9832 0.1433 0.1129
vn 0.4995 -0.0838 0.8623
vn 0.9963 -0.0853 -0.0038
vn 0.4930 0.1547 0.8562
vn -0.4949 -0.0842 0.8648
vn 0.4995 -0.0837 0.8623
vn -0.5627 0.1605 0.8110
vn -0.5627 0.1605 0.8109
vn -0.9964 -0.0842 0.0004
vn -0.9965 -0.0841 0.0004
vn -0.4513 -0.7208 -0.5261
vn -0.5621 -0.8200 0.1077
vn -0.4989 -0.0850 -0.8625
vn 0.2735 -0.5482 -0.7903
vn -0.4513 -0.7209 -0.5260
vn 0.4955 -0.0850 -0.8644
vn 0.4955 -0.0850 -0.8645
vn 0.5620 -0.8199 -0.1097
vn 0.2736 -0.5482 -0.7903
vn 0.4537 -0.7214 0.5231
vn 0.5620 -0.8198 -0.1097
vn -0.2731 -0.5451 0.7927
vn 0.4537 -0.7215 0.5231
vn -0.4949 -0.0842 0.8649
vn -0.5621 -0.8200 0.1078
vn -0.2731 -0.5450 0.7927
vn -0.9994 -0.0348 -0.0028
vn -0.3953 0.0151 -0.9184
vn -0.9994 -0.0348 -0.0027
vn -0.4485 -0.3234 -0.8332
vn 0.3947 -0.0852 -0.9149
vn 0.9994 -0.0346 -0.0028
vn 0.5715 -0.3298 -0.7514
vn 0.9389 -0.3424 0.0366
vn -0.4485 -0.3235 -0.8332
vn -0.3973 -0.0854 0.9137
vn -0.5744 -0.3286 0.7497
vn -0.9394 -0.3405 -0.0396
vn 0.3972 0.0153 0.9176
vn 0.4503 -0.3247 0.8317
vn -0.5744 -0.3287 0.7497
vn -0.3973 -0.0853 0.9137
vn -0.9832 0.1406 -0.1166
vn 0.3972 0.0152 0.9176
vn -0.9395 -0.3404 -0.0396
vn 0.0000 0.0055 1.0000
vn -0.9486 0.0104 0.3162
vn 0.3162 0.0105 0.9486
vn -1.0000 0.0055 -0.0000
vn -0.2887 0.4083 0.8660
vn -0.7071 0.6666 -0.2357
vn -0.3162 0.0104 -0.9486
vn -0.9486 0.0105 0.3162
vn -0.0000 0.0055 -1.0000
vn -0.7071 0.6667 -0.2357
vn 0.2887 0.4083 -0.8660
vn 1.0000 0.0055 0.0000
vn 0.9486 0.0139 -0.3162
vn 0.7071 0.6667 0.2357
vn 0.3162 0.0104 0.9486
vn -0.2887 0.4082 0.8660
vn -0.4584 0.7124 0.5315
vn -0.2759 0.5324 -0.8003
vn 0.8948 -0.3078 -0.3235
vn 0.7276 -0.3069 0.6135
vn -0.1685 -0.3065 0.9368
vn 0.4503 -0.3248 0.8317
vn -0.8955 -0.3071 0.3222
vn -0.8954 -0.3072 0.3222
vn -0.9394 -0.3404 -0.0396
vn -0.7264 -0.3078 -0.6145
vn 0.1672 -0.3076 -0.9367
vn 0.1673 -0.3076 -0.9367
vn 0.8947 -0.3079 -0.3235
vn 0.7527 -0.1863 -0.6314
vn 0.9228 -0.1854 0.3377
vn 0.1681 -0.1843 0.9684
vn 0.1681 -0.1844 0.9684
vn -0.7546 -0.1841 0.6299
vn -0.1684 -0.3065 0.9368
vn -0.8954 -0.3073 0.3221
vn -0.9228 -0.1853 -0.3377
vn -0.1691 -0.1860 -0.9679
vn -0.1691 -0.1859 -0.9679
vn 0.7528 -0.1863 -0.6314
vn 0.7528 -0.1862 -0.6314
vn 0.4990 0.0002 -0.8666
vn 1.0000 -0.0001 -0.0000
vn 1.0000 -0.0000 0.0000
vn 0.5002 -0.0000 0.8659
vn 0.5003 -0.0000 0.8659
vn 0.1680 -0.1843 0.9684
vn -0.5009 -0.0004 0.8655
vn -0.5010 -0.0004 0.8655
vn -0.7546 -0.1840 0.6299
vn -1.0000 -0.0001 0.0000
vn -1.0000 -0.0000 -0.0000
vn -0.4997 0.0001 -0.8662
vn -0.9228 -0.1854 -0.3377
vn -0.1692 -0.1860 -0.9679
vn 0.7527 -0.1862 -0.6314
vn 0.1674 0.1855 -0.9683
vn 0.9225 0.1853 -0.3385
vn 0.7538 0.1842 0.6307
vn 0.7539 0.1842 0.6307
vn 0.5003 -0.0001 0.8659
vn -0.1699 0.1842 0.9681
vn -0.1698 0.1842 0.9681
vn -0.9232 0.1848 0.3369
vn -0.7536 0.1854 -0.6307
vn -0.4997 0.0000 -0.8662
vn 0.1674 0.1854 -0.9683
vn -0.1700 0.2848 -0.9434
vn 0.7307 0.2859 -0.6199
vn 0.9006 0.2866 0.3269
vn 0.9006 0.2865 0.3269
vn 0.1672 0.2867 0.9433
vn 0.1673 0.2868 0.9433
vn 0.1672 0.2868 0.9433
vn -0.7338 0.2857 0.6163
vn -0.9232 0.1847 0.3369
vn -0.9019 0.2852 -0.3243
vn -0.9019 0.2851 -0.3244
vn -0.5321 0.1944 -0.8240
vn 0.4902 0.3109 -0.8143
vn -0.1700 0.2849 -0.9434
vn 0.4902 0.3108 -0.8143
vn 0.9404 0.3371 -0.0446
vn 0.9404 0.3371 -0.0447
vn 0.5515 0.3108 0.7741
vn 0.5516 0.3107 0.7741
vn -0.4699 0.1939 0.8611
vn -0.4699 0.1940 0.8611
vn -0.9685 0.2449 0.0444
vn -0.7338 0.2857 0.6164
vn -0.9019 0.2852 -0.3244
vn -0.5321 0.1944 -0.8241
vn -0.7417 -0.6707 -0.0074
vn -0.2507 -0.5973 0.7619
vn -0.8070 0.5905 -0.0067
vn -0.2457 -0.5988 -0.7623
vn 0.0149 -0.9999 -0.0049
vn -0.4878 0.0850 0.8688
vn -0.0960 0.1692 0.9809
vn -0.1827 0.0570 0.9815
vn -0.6003 0.3845 0.7013
vn 0.3009 0.2261 0.9264
vn 0.0359 -0.1409 0.9894
vn -0.4189 -0.1649 0.8929
vn 0.7470 0.6648 -0.0005
vn 0.9553 0.2958 -0.0013
vn 0.3010 0.2262 0.9264
vn 0.5516 0.3108 0.7741
vn 0.9553 0.2958 -0.0012
vn 0.3009 0.2262 0.9264
vn 0.9552 0.2958 -0.0013
vn -0.4680 0.7381 0.4860
vn -0.1501 0.9887 0.0000
vn -0.0688 0.9976 -0.0003
vn -0.2047 0.6312 0.7481
vn -0.0875 0.0050 0.9962
vn -0.2047 0.6313 0.7481
vn 0.0206 -0.8412 0.5404
vn -0.2963 -0.5410 0.7871
vn -0.3495 -0.9369 -0.0073
vn -0.0868 -0.9962 -0.0006
vn -0.8776 -0.4793 -0.0014
vn -0.4174 -0.1678 -0.8931
vn -0.1320 0.8672 -0.4802
vn -0.1320 0.8671 -0.4802
vn -0.9719 -0.0648 0.2264
vn -0.2991 0.7714 -0.5616
vn 0.0064 -1.0000 0.0002
vn 0.3283 0.1598 0.9310
vn -0.0248 0.6445 0.7642
vn 0.3374 0.6607 0.6705
vn 0.1251 0.9910 -0.0474
vn 0.8659 -0.1389 0.4805
vn -0.2991 0.7714 -0.5617
vn -0.9502 -0.2973 0.0938
vn -0.3367 0.9045 -0.2619
vn 0.5746 0.5144 -0.6366
vn 0.5745 0.5144 -0.6367
vn -0.8852 -0.2716 0.3777
vn -0.9502 -0.2973 0.0937
vn -0.3432 0.9224 0.1774
vn 0.4928 0.6501 -0.5784
vn -0.7219 -0.4747 0.5035
vn -0.7220 -0.4747 0.5035
vn -0.2526 0.8271 0.5021
vn 0.4929 0.6500 -0.5784
vn 0.5325 0.8317 -0.1571
vn -0.3350 -0.6043 0.7229
vn -0.7219 -0.4747 0.5036
vn -0.3351 -0.6043 0.7229
vn 0.4771 0.8745 -0.0875
vn 0.0065 -1.0000 0.0002
vn 0.4771 0.8745 -0.0874
vn 0.5745 0.5144 -0.6366
vn 0.5926 0.6513 -0.4739
vn 0.4132 0.6790 -0.6068
vn -0.1321 0.8671 -0.4803
vn 0.8659 -0.1388 0.4806
vn 0.4905 0.6687 -0.5588
vn 0.4626 0.6631 -0.5885
vn 0.4929 0.6501 -0.5784
vn 0.6518 0.5774 -0.4916
vn 0.4929 0.6501 -0.5783
vn -0.3367 0.9044 -0.2619
vn 0.1394 0.9875 -0.0738
vn 0.1382 0.9872 -0.0795
vn 0.5325 0.8318 -0.1571
vn -0.1084 0.9922 -0.0611
vn 0.1383 0.9872 -0.0795
vn 0.4770 0.8745 -0.0874
vn 0.3158 0.9457 -0.0769
vn 0.3290 0.9427 -0.0557
vn 0.0927 0.9932 -0.0708
vn -0.0798 0.9529 0.2926
vn -0.0399 0.9582 0.2832
vn 0.7668 0.5286 -0.3642
vn 0.8465 0.4660 -0.2576
vn 0.9059 0.3455 -0.2451
vn -0.1336 0.9890 -0.0630
vn -0.2124 0.9755 -0.0582
vn -0.2125 0.9348 0.2846
vn 0.7668 0.5286 -0.3641
vn 0.6855 0.5542 -0.4721
vn 0.7778 0.4695 -0.4179
vn 0.0405 0.9966 -0.0719
vn 0.0928 0.9932 -0.0708
vn -0.1189 0.9910 -0.0622
vn 0.4107 0.5786 0.7047
vn 0.4160 0.5761 0.7036
vn 0.3282 0.1598 0.9310
vn 0.5894 0.5144 0.6228
vn 0.6278 0.5003 0.5963
vn 0.7303 0.4291 0.5315
vn 0.7470 0.6648 -0.0006
vn 0.3019 0.2262 -0.9261
vn 0.0393 -0.1400 -0.9894
vn -0.5957 0.3809 -0.7071
vn -0.4887 0.0791 -0.8688
vn -0.8549 0.5187 -0.0084
vn 0.0024 -1.0000 -0.0037
vn 0.0168 -0.8403 -0.5419
vn -0.1173 -0.7062 0.6982
vn 0.9404 0.3372 -0.0446
vn -0.4646 0.7422 -0.4830
vn -0.2060 0.6308 -0.7481
vn -0.2234 0.9747 -0.0025
vn -0.1860 0.0564 -0.9809
vn -0.0891 0.0104 -0.9960
vn -0.0891 0.0105 -0.9960
vn -0.4646 0.7421 -0.4831
vn -0.2939 -0.5338 -0.7929
vn -0.3495 -0.9369 -0.0074
vn -0.2962 -0.5411 0.7871
vn -0.1317 0.8666 0.4813
vn -0.9722 -0.0648 -0.2252
vn -0.0963 0.1701 -0.9807
vn 0.3229 0.1456 -0.9352
vn 0.0016 -1.0000 -0.0021
vn -0.0290 0.6403 -0.7675
vn 0.1263 0.9908 0.0491
vn 0.3374 0.6607 -0.6705
vn 0.8657 -0.1394 -0.4807
vn -0.9722 -0.0647 -0.2252
vn -0.0290 0.6403 -0.7676
vn -0.9504 -0.2955 -0.0967
vn -0.2990 0.7719 0.5611
vn 0.5752 0.5126 0.6376
vn 0.5751 0.5126 0.6376
vn 0.8657 -0.1394 -0.4808
vn -0.8854 -0.2735 -0.3759
vn -0.3370 0.9049 0.2598
vn 0.4927 0.6520 0.5763
vn 0.5752 0.5126 0.6375
vn -0.8854 -0.2735 -0.3758
vn -0.9504 -0.2956 -0.0967
vn 0.4926 0.6520 0.5764
vn -0.7203 -0.4769 -0.5038
vn -0.3445 0.9215 -0.1792
vn 0.4927 0.6520 0.5764
vn 0.5325 0.8316 0.1575
vn -0.7202 -0.4769 -0.5038
vn -0.3446 0.9215 -0.1792
vn 0.5324 0.8317 0.1576
vn -0.3368 -0.6092 -0.7180
vn -0.2548 0.8257 -0.5033
vn 0.4769 0.8746 0.0875
vn 0.5325 0.8317 0.1575
vn -0.3369 -0.6092 -0.7179
vn 0.4770 0.8746 0.0875
vn -0.2548 0.8257 -0.5032
vn 0.4129 0.6782 0.6078
vn 0.5920 0.6518 0.4739
vn 0.4635 0.6635 0.5873
vn 0.4904 0.6688 0.5589
vn 0.1380 0.9872 0.0798
vn 0.1391 0.9874 0.0748
vn 0.3289 0.9427 0.0561
vn 0.3159 0.9456 0.0778
vn -0.0399 0.9582 -0.2832
vn -0.0797 0.9529 -0.2926
vn 0.7656 0.5300 0.3646
vn 0.9059 0.3455 0.2451
vn 0.8461 0.4667 0.2577
vn -0.1337 0.9891 0.0620
vn -0.2122 0.9755 0.0573
vn -0.1083 0.9923 0.0607
vn -0.2125 0.9348 -0.2846
vn 0.7656 0.5301 0.3645
vn 0.8460 0.4667 0.2577
vn 0.1381 0.9872 0.0797
vn 0.1392 0.9874 0.0748
vn 0.1380 0.9872 0.0797
vn 0.6858 0.5540 0.4720
vn 0.7764 0.4710 0.4188
vn 0.6528 0.5767 0.4912
vn 0.4634 0.6635 0.5873
vn 0.4904 0.6688 0.5588
vn 0.0405 0.9966 0.0719
vn -0.1189 0.9910 0.0622
vn 0.0928 0.9931 0.0711
vn 0.3158 0.9456 0.0778
vn 0.4107 0.5786 -0.7047
vn 0.4160 0.5761 -0.7036
vn 0.5903 0.5140 -0.6224
vn 0.7324 0.4275 -0.5299
vn 0.6290 0.4996 -0.5956
vn 0.5902 0.5140 -0.6224
vn 0.0232 0.8216 -0.5696
vn 0.0181 0.7196 -0.6942
vn 0.0271 0.7447 -0.6668
vn 0.4832 0.8206 0.3051
vn 0.5920 0.7198 0.3626
vn 0.5643 0.7447 0.3563
vn 0.0180 0.7195 -0.6942
vn -0.0371 0.6674 -0.7438
vn 0.0102 0.6546 -0.7559
vn 0.0271 0.7447 -0.6669
vn 0.5921 0.7197 0.3626
vn 0.6625 0.6674 0.3402
vn 0.6490 0.6549 0.3871
vn 0.6490 0.6550 0.3871
vn -0.0372 0.6674 -0.7437
vn -0.2531 0.5813 -0.7733
vn -0.0846 0.5920 -0.8015
vn 0.7950 0.5830 0.1677
vn 0.7357 0.5930 0.3272
vn -0.4420 0.8242 0.3540
vn -0.5148 0.6231 0.5888
vn -0.5955 0.6464 0.4770
vn -0.6289 0.4512 -0.6331
vn -0.4113 0.4538 -0.7905
vn -0.4112 0.4538 -0.7905
vn 0.8633 0.4512 -0.2262
vn 0.8895 0.4551 0.0408
vn -0.2391 0.4392 0.8660
vn -0.4831 0.4405 0.7567
vn -0.6289 0.4512 -0.6332
vn -0.9685 0.2448 0.0444
vn 0.8633 0.4512 -0.2261
vn -0.2392 0.4392 0.8660
vn -0.4831 0.4406 0.7567
vn 0.4646 0.6945 -0.5493
vn 0.4779 0.6029 -0.6388
vn 0.5096 0.6142 -0.6025
vn 0.3288 -0.1112 0.9378
vn 0.3881 0.1160 0.9143
vn 0.3307 0.0348 0.9431
vn 0.3958 0.4686 -0.7898
vn 0.4795 0.4946 -0.7249
vn 0.3881 0.1161 0.9143
vn 0.5145 0.3627 0.7770
vn 0.4325 0.2748 0.8587
vn 0.3307 0.0347 0.9431
vn 0.2019 0.4910 -0.8475
vn 0.3569 0.4252 -0.8318
vn 0.3568 0.4252 -0.8318
vn 0.6275 0.4903 0.6048
vn 0.5398 0.4240 0.7272
vn -0.5708 -0.4717 -0.6721
vn -0.7027 -0.2856 -0.6517
vn -0.6039 -0.3599 -0.7112
vn -0.9061 0.1453 -0.3972
vn -0.8027 -0.0581 -0.5936
vn -0.9061 0.1453 -0.3973
vn -0.9063 0.4187 -0.0582
vn -0.9066 0.3183 -0.2772
vn -0.8026 -0.0581 -0.5936
vn -0.9062 0.4187 -0.0582
vn -0.8323 0.4960 0.2473
vn -0.8916 0.4498 0.0517
vn -0.9063 0.4187 -0.0581
vn -0.9065 0.3183 -0.2772
vn -0.8323 0.4961 0.2473
vn -0.3162 0.0105 -0.9486
vn 0.0205 -0.8411 0.5404
vn -0.4878 0.0851 0.8688
vn -0.4190 -0.1650 0.8929
vn -0.1182 -0.7107 -0.6935
vn -0.5957 0.3809 -0.7072
vn -0.6910 0.7228 -0.0088
vn 0.0148 -0.9999 -0.0049
vn -0.2457 -0.5989 -0.7622
vn -0.2457 -0.5988 -0.7622
vn -0.1859 0.0564 -0.9809
vn -0.4888 0.0791 -0.8688
vn -0.2233 0.9747 -0.0024
vn -0.2233 0.9747 -0.0025
vn -0.2380 -0.0446 0.9702
vn -0.2380 -0.0445 0.9702
vn -0.2381 -0.0445 0.9702
vn -0.2430 -0.0442 -0.9690
vn -0.8071 0.5904 -0.0067
vn -0.0990 0.1865 0.9775
vn -0.4619 -0.3764 -0.8031
vn -0.4619 -0.3765 -0.8031
vn 0.5155 -0.8517 -0.0936
vn 0.5155 -0.8518 -0.0936
vn -0.0956 0.1883 -0.9775
vn 0.5110 -0.8521 0.1132
vn -0.4764 -0.3545 0.8046
vn 0.0169 -0.8403 -0.5419
vn -0.6919 0.1447 -0.7073
vn -0.4763 -0.3545 0.8046
vn -0.6705 0.1427 0.7281
vn -0.4618 -0.3765 -0.8031
vn -0.6704 0.1428 0.7281
vn -0.6919 0.1447 -0.7074
vn -0.0956 0.1883 -0.9774
vn -0.6919 0.1446 -0.7074
usemtl w21st06_TEX_w21st06
s 1
f 1/1/1 2/2/2 3/3/3
f 2/2/2 1/1/1 4/4/4
f 1/1/1 5/5/5 4/6/4
f 5/5/5 1/1/1 6/7/6
f 1/1/1 7/8/7 6/9/8
f 7/8/7 1/1/1 3/10/3
f 3/11/9 8/12/10 9/13/11
f 8/12/10 3/11/9 2/14/2
f 2/14/2 10/15/12 8/12/10
f 10/15/12 2/14/2 4/16/4
f 4/17/4 11/18/13 10/19/12
f 11/18/13 4/17/4 5/20/5
f 5/20/5 12/21/14 11/18/13
f 12/21/14 5/20/5 6/22/8
f 6/23/6 13/24/15 12/25/16
f 13/24/15 6/23/6 7/26/7
f 7/26/7 9/27/11 13/24/15
f 9/27/11 7/26/7 3/28/3
f 9/29/11 14/30/17 15/31/18
f 14/30/17 9/29/11 8/32/10
f 8/32/10 16/33/19 14/30/20
f 16/33/19 8/32/10 10/34/12
f 10/35/12 17/36/21 16/37/22
f 17/36/21 10/35/12 11/38/13
f 11/38/13 18/39/23 17/36/21
f 18/39/23 11/38/13 12/40/14
f 12/41/24 19/42/25 18/43/26
f 19/42/25 12/41/24 13/44/27
f 13/44/28 15/45/18 19/42/29
f 15/45/18 13/44/28 9/46/11
f 20/47/30 21/48/31 22/49/32
f 21/48/31 20/47/30 23/50/33
f 23/51/33 24/52/34 21/53/31
f 24/52/34 23/51/33 25/54/35
f 25/54/36 26/55/37 24/52/38
f 26/55/37 25/54/36 27/56/39
f 27/57/40 28/58/41 26/59/42
f 28/58/41 27/57/40 29/60/43
f 29/60/43 30/61/44 28/58/45
f 30/61/44 29/60/43 31/62/46
f 31/63/47 22/49/48 30/64/44
f 22/49/48 31/63/47 20/47/30
f 22/65/49 32/66/50 33/67/51
f 32/66/50 22/65/49 21/68/31
f 21/69/52 34/70/53 32/71/54
f 34/70/53 21/69/52 24/72/55
f 24/72/56 35/73/57 34/70/58
f 35/73/57 24/72/56 26/74/42
f 26/75/37 36/76/59 35/77/60
f 36/76/59 26/75/37 28/78/45
f 28/78/45 37/79/61 36/76/62
f 37/79/61 28/78/45 30/80/63
f 30/81/63 33/67/64 37/82/65
f 33/67/64 30/81/63 22/65/32
f 23/83/33 38/84/66 39/85/67
f 38/84/66 23/83/33 20/86/30
f 38/84/68 40/87/69 39/85/67
f 41/88/70 42/89/71 25/90/36
f 25/90/36 39/91/67 41/88/70
f 43/92/72 44/93/73 42/89/71
f 25/90/36 23/94/33 39/91/67
f 40/95/74 43/92/72 41/88/70
f 38/96/66 31/97/47 45/98/75
f 46/99/76 47/100/77 38/96/66
f 48/101/78 31/102/46 29/103/43
f 29/103/43 42/104/71 48/101/78
f 49/105/79 48/101/78 42/104/71
f 42/104/71 44/106/73 49/105/79
f 49/105/79 46/107/80 45/108/75
f 29/103/43 27/109/40 42/104/71
f 46/99/76 38/96/66 45/98/81
f 31/97/47 38/96/66 20/110/82
f 48/101/83 49/105/79 45/108/75
f 45/108/75 31/102/47 48/101/83
f 43/92/72 42/89/71 41/88/70
f 25/90/36 42/89/71 27/111/39
f 40/95/74 41/88/70 39/91/67
f 47/112/84 40/87/69 38/84/68
f 50/113/85 51/114/86 52/115/87
f 51/114/86 50/113/85 53/116/88
f 54/117/89 53/116/88 50/113/85
f 53/116/88 54/117/89 55/118/90
f 53/119/88 56/120/91 51/121/92
f 56/120/91 53/119/88 57/122/93
f 55/123/94 57/122/93 53/119/88
f 57/122/93 55/123/94 58/124/95
f 59/125/96 60/126/97 57/122/93
f 57/122/93 58/124/95 59/125/96
f 61/127/98 59/125/96 58/124/95
f 59/128/96 52/115/99 60/129/97
f 52/115/99 59/128/96 50/113/85
f 61/130/98 50/113/85 59/128/96
f 50/113/85 61/130/98 54/117/100
f 14/131/101 16/132/22 17/133/21
f 14/134/101 17/135/21 15/136/18
f 15/137/18 17/138/21 18/139/26
f 15/137/18 18/139/26 19/140/102
f 32/141/54 34/142/58 35/143/60
f 32/141/54 35/143/60 33/144/64
f 33/145/64 35/146/60 36/147/59
f 33/145/64 36/147/59 37/148/61
f 61/149/98 58/150/95 55/151/94
f 61/149/98 55/151/94 54/152/100
f 44/153/73 62/154/103 63/155/104
f 44/153/73 63/155/104 49/156/79
f 49/157/79 63/158/104 64/159/105
f 49/157/106 64/159/105 46/160/76
f 46/161/80 64/162/105 65/163/107
f 46/161/76 65/163/108 47/164/109
f 47/165/109 65/166/107 66/167/110
f 47/165/109 66/167/110 40/168/74
f 40/169/74 66/170/110 67/171/111
f 40/169/69 67/171/111 43/172/72
f 43/173/72 67/174/112 62/175/113
f 43/173/72 62/175/103 44/176/73
f 62/177/103 68/178/114 69/179/115
f 62/177/103 69/179/115 63/180/104
f 63/181/104 69/182/115 70/183/116
f 63/181/104 70/183/117 64/184/105
f 64/185/105 70/186/116 71/187/118
f 64/185/119 71/187/118 65/188/120
f 65/189/108 71/190/118 72/191/121
f 65/189/107 72/191/121 66/192/110
f 66/193/110 72/194/121 73/195/122
f 66/193/110 73/195/123 67/196/111
f 67/197/111 73/198/122 68/199/124
f 67/197/111 68/199/124 62/200/103
f 68/201/125 74/202/126 75/203/127
f 68/201/114 75/203/128 69/204/115
f 69/205/115 75/206/127 76/207/129
f 69/205/115 76/207/130 70/208/116
f 70/209/131 76/210/129 77/211/132
f 70/209/131 77/211/133 71/212/118
f 71/213/134 77/214/132 78/215/135
f 71/213/118 78/215/136 72/216/121
f 72/217/121 78/218/135 79/219/137
f 72/217/138 79/219/137 73/220/122
f 73/221/139 79/222/137 74/223/126
f 73/221/122 74/223/126 68/224/140
f 74/225/126 80/226/141 81/227/142
f 74/225/126 81/227/142 75/228/127
f 75/229/127 81/230/142 82/231/143
f 75/229/128 82/231/144 76/232/145
f 76/233/145 82/234/143 83/235/146
f 76/233/129 83/235/147 77/236/133
f 77/237/132 83/238/147 84/239/148
f 77/237/132 84/239/148 78/240/135
f 78/241/135 84/242/148 85/243/149
f 78/241/136 85/243/149 79/244/150
f 79/245/137 85/246/149 80/247/151
f 79/245/150 80/247/151 74/248/126
f 80/249/151 86/250/152 87/251/153
f 80/249/151 87/251/153 81/252/142
f 81/253/142 87/254/153 88/255/154
f 81/253/142 88/255/154 82/256/144
f 82/257/143 88/258/155 89/259/156
f 82/257/144 89/259/157 83/260/146
f 83/261/147 89/262/158 90/263/159
f 83/261/146 90/263/159 84/264/160
f 84/265/148 90/266/159 91/267/161
f 84/265/148 91/267/161 85/268/149
f 85/269/149 91/270/162 86/271/152
f 85/269/149 86/271/152 80/272/141
f 86/273/152 92/274/163 93/275/164
f 86/273/165 93/275/166 87/276/153
f 87/277/153 93/278/166 94/279/167
f 87/277/153 94/279/167 88/280/154
f 88/281/154 94/282/168 95/283/169
f 88/281/154 95/283/170 89/284/158
f 89/285/158 95/286/169 96/287/171
f 89/285/157 96/287/172 90/288/159
f 90/289/159 96/290/171 97/291/173
f 90/289/174 97/291/173 91/292/175
f 91/293/161 97/294/173 92/295/176
f 91/293/161 92/295/176 86/296/165
f 98/297/177 100/298/178 99/299/179
f 99/299/179 101/300/180 98/297/177
f 102/301/181 98/297/177 101/300/180
f 103/302/182 105/303/183 104/304/184
f 104/304/184 106/305/185 103/302/182
f 107/306/186 108/307/187 109/308/188
f 108/307/187 107/306/186 110/309/189
f 111/310/190 110/309/189 107/306/186
f 107/306/191 95/311/192 111/310/193
f 95/311/192 107/306/194 96/312/172
f 109/308/188 96/312/172 107/306/194
f 111/310/195 95/311/170 94/313/168
f 112/314/196 114/315/197 113/316/198
f 113/316/198 115/317/199 112/314/196
f 116/318/200 112/314/196 115/317/199
f 115/317/201 105/303/183 116/318/200
f 117/319/202 116/318/200 105/303/183
f 117/319/202 118/320/203 116/318/200
f 118/320/203 117/319/202 119/321/204
f 120/322/205 119/321/204 117/319/202
f 108/307/187 116/318/200 118/320/203
f 118/320/203 109/308/188 108/307/187
f 121/323/206 97/324/173 96/312/172
f 97/324/173 121/323/206 92/325/163
f 122/326/207 92/325/163 121/323/206
f 123/327/208 114/328/197 112/329/196
f 114/328/197 123/327/209 110/330/189
f 123/327/208 112/329/196 124/331/210
f 124/331/210 125/332/211 123/327/209
f 126/333/212 127/334/213 128/335/214
f 128/335/214 127/334/213 129/336/215
f 129/336/215 130/337/216 128/335/214
f 108/338/187 110/339/189 131/340/217
f 131/340/217 124/331/210 108/338/187
f 123/327/209 131/341/217 110/330/189
f 125/332/218 124/331/210 132/342/219
f 132/342/219 133/343/220 125/332/218
f 132/342/219 131/340/217 134/344/221
f 134/344/222 135/345/223 132/342/219
f 132/342/219 124/331/210 131/340/217
f 108/338/187 124/331/210 112/329/196
f 133/343/220 132/342/224 135/345/223
f 135/345/223 136/346/225 133/343/220
f 135/345/223 134/344/221 137/347/226
f 137/347/226 138/348/227 135/345/223
f 136/346/225 135/345/223 138/348/228
f 138/348/228 139/349/229 136/346/225
f 138/348/227 137/347/230 140/350/231
f 140/350/231 141/351/232 138/348/227
f 139/349/229 138/348/233 141/351/234
f 141/351/232 128/335/214 139/349/229
f 141/351/232 140/350/231 142/352/235
f 142/352/235 126/333/236 141/351/232
f 141/351/232 126/333/236 128/335/214
f 126/333/212 142/352/237 130/353/216
f 130/353/216 127/334/213 126/333/212
f 130/353/216 129/354/215 127/334/213
f 134/355/238 144/356/239 143/357/240
f 143/357/240 131/358/217 134/355/238
f 134/359/238 123/327/241 125/332/218
f 125/332/218 137/360/230 134/359/238
f 134/359/238 131/341/242 123/327/241
f 145/361/243 146/362/244 137/363/245
f 146/362/244 145/361/243 147/364/246
f 134/365/238 137/363/230 146/362/244
f 137/360/247 125/332/218 133/343/248
f 133/343/248 140/366/231 137/360/247
f 148/367/249 149/368/250 140/369/251
f 149/368/250 148/367/249 150/370/252
f 137/371/230 140/369/231 149/368/253
f 140/366/231 133/343/220 136/346/225
f 136/346/225 142/372/254 140/366/231
f 151/373/255 152/374/256 142/375/254
f 152/374/256 151/373/255 153/376/257
f 140/377/231 142/375/254 152/374/256
f 142/372/254 136/346/225 139/349/229
f 139/349/229 130/337/216 142/372/254
f 130/378/216 155/379/258 154/380/259
f 154/380/259 142/381/254 130/378/216
f 139/349/229 128/335/214 130/337/216
f 156/382/260 157/383/261 158/384/262
f 159/385/263 150/370/252 160/386/264
f 150/370/252 159/385/263 149/368/253
f 154/380/259 155/379/258 161/387/265
f 144/356/239 156/382/266 143/357/240
f 156/382/266 144/356/239 157/383/261
f 162/388/267 147/364/246 163/389/268
f 147/364/246 162/388/267 146/362/244
f 112/314/196 116/318/200 108/307/187
f 164/390/269 153/376/270 165/391/271
f 153/376/270 164/390/269 152/374/256
f 129/392/215 166/393/272 167/394/273
f 166/393/272 129/392/215 127/395/274
f 168/396/275 169/397/276 170/398/277
f 168/396/275 166/393/272 169/397/276
f 166/393/272 168/396/275 167/394/273
f 110/309/278 171/399/279 172/400/280
f 171/399/279 110/309/189 111/310/195
f 173/401/281 174/402/282 175/403/283
f 176/404/284 177/405/285 120/322/205
f 120/322/205 117/319/202 176/404/284
f 178/406/286 176/404/284 117/319/202
f 111/310/195 93/407/164 171/399/279
f 93/407/164 111/310/195 94/313/287
f 113/316/198 114/315/197 179/408/288
f 179/408/288 180/409/289 113/316/198
f 181/410/290 113/316/198 180/409/289
f 180/409/289 182/411/291 181/410/290
f 179/408/288 183/412/292 180/409/289
f 183/412/293 179/408/294 172/400/280
f 184/413/295 177/405/285 183/412/293
f 183/412/293 172/400/280 184/413/295
f 119/321/296 120/322/205 177/405/285
f 184/413/295 172/400/280 122/326/207
f 121/323/206 119/321/296 184/413/295
f 119/321/296 121/323/206 118/320/297
f 109/308/188 118/320/203 121/323/206
f 92/325/163 171/399/279 93/407/166
f 171/399/279 92/325/176 122/326/207
f 179/414/288 185/415/298 186/416/299
f 185/415/298 179/414/288 114/328/197
f 185/415/298 114/328/197 110/330/278
f 183/412/293 187/417/300 180/409/289
f 187/417/300 183/412/293 177/405/285
f 188/418/301 189/419/302 190/420/303
f 189/419/302 188/418/301 191/421/304
f 192/422/305 191/421/304 188/418/301
f 188/418/301 190/420/303 192/423/305
f 193/424/306 110/339/278 172/425/280
f 172/425/280 186/416/307 193/424/306
f 185/415/298 110/330/278 193/426/306
f 190/420/308 191/427/304 192/423/305
f 194/428/309 186/416/299 195/429/310
f 186/416/307 194/428/309 193/424/306
f 196/430/311 193/424/306 194/428/309
f 185/415/298 195/429/310 186/416/307
f 195/429/310 185/415/298 196/431/312
f 193/426/313 196/431/312 185/415/298
f 179/414/294 186/416/307 172/425/280
f 197/432/314 194/428/309 198/433/315
f 194/428/309 197/432/314 196/430/312
f 199/434/316 196/430/317 197/432/318
f 195/429/310 198/433/315 194/428/319
f 198/433/315 195/429/310 199/435/320
f 196/431/312 199/435/320 195/429/310
f 200/436/321 197/432/318 201/437/322
f 197/432/318 200/436/321 199/434/323
f 202/438/324 199/434/320 200/436/325
f 198/433/315 201/437/326 197/432/318
f 201/437/326 198/433/315 202/439/327
f 199/435/320 202/439/327 198/433/315
f 203/440/328 200/436/325 204/441/329
f 200/436/325 203/440/328 202/438/327
f 205/442/330 202/438/331 203/440/332
f 201/437/326 204/441/329 200/436/321
f 204/441/329 201/437/326 205/443/330
f 202/439/327 205/443/330 201/437/322
f 189/419/302 203/440/332 190/420/308
f 203/440/332 189/419/302 205/442/330
f 191/421/304 205/442/333 189/419/302
f 204/441/334 190/420/303 203/440/328
f 190/420/303 204/441/334 191/427/304
f 205/443/330 191/427/304 204/441/334
f 206/444/335 207/445/336 196/446/312
f 196/446/312 193/447/306 206/444/335
f 208/448/337 209/449/338 199/450/320
f 199/450/320 196/451/312 208/448/337
f 210/452/339 211/453/340 202/454/327
f 202/454/327 199/455/323 210/452/339
f 212/456/341 213/457/342 205/458/330
f 205/458/330 202/459/327 212/456/341
f 214/460/343 215/461/344 191/462/304
f 191/462/304 205/463/333 214/460/343
f 216/464/345 217/465/346 218/466/347
f 219/467/348 220/468/349 221/469/350
f 214/460/343 222/470/351 215/461/344
f 207/445/336 216/464/352 218/466/353
f 216/464/345 207/445/336 206/444/335
f 210/452/354 219/467/348 221/469/350
f 221/469/350 211/453/355 210/452/356
f 223/471/357 224/472/358 225/473/359
f 208/448/360 223/471/357 225/473/359
f 225/473/359 209/449/361 208/448/337
f 226/474/362 227/475/363 228/476/364
f 212/456/341 226/474/362 228/476/364
f 228/476/364 213/457/365 212/456/341
f 229/477/366 192/478/305 230/479/367
f 192/478/305 229/477/366 188/480/301
f 231/481/368 232/482/369 233/483/370
f 229/477/366 231/481/371 233/483/370
f 231/481/371 229/477/366 230/479/367
f 234/484/372 235/485/373 236/486/374
f 237/487/375 238/488/376 239/489/377
f 235/485/378 240/490/379 241/491/380
f 235/485/378 241/491/380 236/486/381
f 238/488/382 242/492/383 243/493/384
f 238/488/376 243/493/385 239/489/377
f 240/490/386 244/494/387 245/495/388
f 240/490/386 245/495/388 241/491/380
f 242/492/383 246/496/389 247/497/390
f 242/492/383 247/497/390 243/493/385
f 248/498/391 249/499/392 250/500/393
f 244/494/387 251/501/394 252/502/395
f 244/494/387 252/502/396 245/495/388
f 246/496/389 253/503/397 254/504/398
f 246/496/389 254/504/398 247/497/390
f 249/499/392 255/505/399 256/506/400
f 249/499/392 256/506/400 250/500/393
f 251/501/401 97/507/402 92/508/163
f 251/501/394 92/508/176 252/502/396
f 253/503/403 93/509/166 94/510/168
f 253/503/403 94/510/167 254/504/398
f 255/505/404 95/511/169 96/512/171
f 255/505/404 96/512/172 256/506/405
f 257/513/406 258/514/407 259/515/408
f 260/516/409 261/517/410 262/518/411
f 258/514/407 263/519/412 264/520/413
f 258/514/407 264/520/413 259/515/408
f 261/517/414 265/521/415 266/522/416
f 261/517/410 266/522/416 262/518/417
f 263/519/412 267/523/418 268/524/419
f 263/519/412 268/524/420 264/520/413
f 265/521/415 269/525/421 270/526/422
f 265/521/415 270/526/422 266/522/416
f 267/523/418 92/527/163 93/528/164
f 267/523/418 93/528/164 268/524/419
f 269/525/421 94/529/167 95/530/169
f 269/525/421 95/530/169 270/526/422
f 271/531/423 272/532/424 273/533/425
f 272/532/424 274/534/426 275/535/427
f 272/532/424 275/535/427 273/533/425
f 274/534/428 276/536/429 277/537/430
f 274/534/428 277/537/430 275/535/431
f 276/536/432 278/538/433 279/539/434
f 276/536/435 279/539/434 277/537/436
f 278/538/433 96/540/172 97/541/173
f 278/538/437 97/541/173 279/539/434
f 100/298/178 98/297/177 102/301/181
f 60/126/97 56/120/438 57/122/93
f 178/406/286 117/319/439 103/302/440
f 103/302/440 100/298/178 178/406/286
f 96/312/172 109/308/441 121/323/206
f 119/321/296 177/405/285 184/413/295
f 121/323/206 184/413/295 122/326/207
f 172/400/280 171/399/279 122/326/207
f 177/405/285 176/404/284 280/542/442
f 103/302/182 106/305/185 175/403/283
f 103/302/440 99/299/179 100/298/178
f 99/299/179 103/302/440 175/403/283
f 99/299/179 174/402/282 101/300/180
f 173/543/443 175/544/283 281/545/444
f 176/404/284 100/298/178 102/301/181
f 102/301/445 101/300/446 176/404/284
f 280/542/442 176/404/284 101/300/447
f 101/300/180 174/402/282 280/542/442
f 181/546/290 173/543/443 281/545/444
f 281/545/444 106/547/185 181/546/290
f 182/411/448 174/402/449 173/401/281
f 187/417/300 174/402/449 182/411/448
f 182/411/448 180/409/289 187/417/300
f 181/410/450 104/304/184 115/317/201
f 115/317/199 113/316/198 181/410/451
f 115/317/201 104/304/184 105/303/183
f 175/544/283 106/547/185 281/545/444
f 104/548/184 181/549/450 282/550/452
f 181/546/290 106/547/185 282/551/453
f 106/552/185 104/548/184 282/550/454
f 182/553/448 173/554/281 283/555/455
f 173/543/443 181/546/290 283/556/455
f 181/549/290 182/553/291 283/555/455
f 176/404/284 178/406/286 100/298/178
f 177/405/285 280/542/442 174/402/282
f 174/402/449 99/299/456 175/403/283
f 284/557/457 103/558/440 285/559/458
f 105/560/183 103/558/440 284/557/457
f 284/557/457 117/561/202 105/560/183
f 285/562/459 117/563/202 286/564/460
f 117/563/439 285/562/458 103/565/440
f 284/557/457 286/566/461 117/561/202
f 287/567/462 177/568/285 288/569/463
f 187/570/300 177/568/285 287/567/462
f 287/567/462 174/571/282 187/570/300
f 289/572/464 177/573/465 174/574/282
f 177/573/465 289/572/464 288/575/463
f 290/576/466 288/575/463 289/572/464
f 287/567/462 289/577/467 174/571/282
f 284/557/457 285/559/459 291/578/468
f 285/562/469 286/564/461 291/579/468
f 286/566/461 284/557/457 291/578/470
f 287/567/462 288/569/463 290/580/471
f 289/577/464 287/567/472 290/580/473
