# Blender v2.79 (sub 0) OBJ File: ''
# www.blender.org
mtllib w21st07.mtl
o MDL_w21st07_bod00.001
v -0.225900 0.763400 0.035000
v -0.280000 0.670000 0.000000
v -0.244400 0.670000 0.035000
v -0.258700 0.777200 0.000000
v -0.172800 0.842800 0.035000
v -0.198100 0.868100 0.000000
v -0.093400 0.895900 0.035000
v -0.107200 0.928700 0.000000
v 0.000000 0.914400 0.035000
v 0.000000 0.950000 0.000000
v 0.093400 0.895900 0.035000
v 0.106900 0.928700 0.000000
v 0.172800 0.842800 0.035000
v 0.197800 0.868100 0.000000
v 0.225600 0.763400 0.035000
v 0.258400 0.777200 0.000000
v 0.244400 0.670000 0.035000
v 0.280000 0.670000 0.000000
v 0.225600 0.576600 0.035000
v 0.258400 0.562800 0.000000
v 0.228100 0.517500 0.000000
v -0.225900 0.576600 -0.035000
v -0.258700 0.562800 0.000000
v -0.228400 0.517500 0.000000
v -0.244400 0.670000 -0.035000
v -0.199400 0.536900 -0.035000
v -0.225900 0.576600 0.035000
v -0.093400 0.895900 -0.035000
v 0.000000 0.903100 -0.020000
v -0.089100 0.885300 -0.020000
v 0.000000 0.914400 -0.035000
v -0.172800 0.842800 -0.035000
v -0.164700 0.834700 -0.020000
v -0.215300 0.759100 -0.020000
v -0.225900 0.763400 -0.035000
v -0.233100 0.670000 -0.020000
v 0.244400 0.670000 -0.035000
v 0.215000 0.580900 -0.020000
v 0.232800 0.670000 -0.020000
v 0.225600 0.576600 -0.035000
v 0.225600 0.763400 -0.035000
v 0.215000 0.759100 -0.020000
v 0.172800 0.842800 -0.035000
v 0.164700 0.834700 -0.020000
v 0.093400 0.895900 -0.035000
v 0.089100 0.885300 -0.020000
v 0.089100 0.885300 0.020000
v 0.000000 0.903100 0.020000
v 0.164700 0.834700 0.020000
v 0.215000 0.759100 0.020000
v 0.232800 0.670000 0.020000
v 0.215000 0.580900 0.020000
v -0.215300 0.759100 0.020000
v -0.233100 0.670000 0.020000
v -0.164700 0.834700 0.020000
v -0.089100 0.885300 0.020000
v 0.199100 0.536900 0.035000
v 0.190000 0.543100 -0.020000
v 0.202500 0.561900 0.020000
v 0.202500 0.561900 -0.020000
v 0.190000 0.543100 0.020000
v -0.215300 0.580900 -0.020000
v -0.190000 0.543100 -0.020000
v -0.190000 0.543100 0.020000
v -0.215300 0.580900 0.020000
v -0.199400 0.536900 0.035000
v -0.224100 0.625300 -0.020000
v -0.224100 0.625300 0.020000
v 0.182800 0.576900 -0.010000
v 0.146900 0.522800 0.010000
v 0.146900 0.522800 -0.010000
v 0.182800 0.576900 0.010000
v 0.079400 0.477800 -0.010000
v 0.079400 0.477800 0.010000
v 0.000000 0.461900 -0.010000
v 0.000000 0.461900 0.010000
v -0.079700 0.477800 -0.010000
v -0.079700 0.477800 0.010000
v -0.147800 0.731200 0.005000
v -0.113100 0.783100 -0.005000
v -0.113100 0.783100 0.005000
v -0.147800 0.731200 -0.005000
v -0.061300 0.817800 -0.005000
v -0.061300 0.817800 0.005000
v 0.000000 0.830000 -0.005000
v 0.000000 0.830000 0.005000
v 0.060900 0.817800 -0.005000
v 0.060900 0.817800 0.005000
v 0.113100 0.783100 -0.005000
v 0.113100 0.783100 0.005000
v 0.147800 0.731200 -0.005000
v 0.147800 0.731200 0.005000
v 0.160000 0.670000 -0.005000
v 0.160000 0.670000 0.005000
v 0.147800 0.608700 -0.005000
v 0.147800 0.608700 0.005000
v 0.113100 0.556900 -0.005000
v 0.113100 0.556900 0.005000
v 0.060900 0.522200 -0.005000
v 0.060900 0.522200 0.005000
v 0.000000 0.510000 -0.005000
v 0.000000 0.510000 0.005000
v -0.061300 0.522200 -0.005000
v -0.061300 0.522200 0.005000
v 0.000000 0.878100 -0.010000
v -0.079700 0.862200 -0.010000
v -0.147200 0.817200 -0.010000
v -0.192200 0.749700 -0.010000
v 0.191900 0.590300 -0.010000
v 0.207800 0.670000 -0.010000
v 0.191900 0.749700 -0.010000
v 0.146900 0.817200 -0.010000
v 0.079400 0.862200 -0.010000
v 0.000000 0.878100 0.010000
v 0.079400 0.862200 0.010000
v -0.079700 0.862200 0.010000
v -0.147200 0.817200 0.010000
v -0.192200 0.749700 0.010000
v 0.146900 0.817200 0.010000
v 0.191900 0.749700 0.010000
v 0.207800 0.670000 0.010000
v 0.191900 0.590300 0.010000
v -0.200000 0.709700 -0.010000
v -0.154100 0.700600 -0.005000
v -0.154100 0.700600 0.005000
v -0.200000 0.709700 0.010000
v -0.208100 0.670000 -0.010000
v -0.200000 0.630300 -0.010000
v -0.200000 0.630300 0.010000
v -0.208100 0.670000 0.010000
v 0.199100 0.536900 -0.035000
v -0.020000 0.410000 0.034700
v -0.040000 0.400000 0.000000
v -0.020000 0.400000 0.034700
v -0.040000 0.410000 0.000000
v 0.020000 0.410000 0.034700
v 0.020000 0.400000 0.034700
v 0.040000 0.410000 0.000000
v 0.040000 0.400000 0.000000
v 0.019700 0.410000 -0.034400
v 0.019700 0.400000 -0.034400
v -0.020000 0.410000 -0.034400
v -0.020000 0.400000 -0.034400
v -0.020000 0.450000 0.034700
v -0.040000 0.440000 0.000000
v -0.020000 0.440000 0.034700
v -0.040000 0.450000 0.000000
v 0.020000 0.450000 0.034700
v 0.020000 0.440000 0.034700
v 0.040000 0.450000 0.000000
v 0.040000 0.440000 0.000000
v 0.019700 0.450000 -0.034400
v 0.019700 0.440000 -0.034400
v -0.020000 0.450000 -0.034400
v -0.020000 0.440000 -0.034400
v -0.014100 0.425000 0.024400
v -0.028100 0.425000 0.000000
v 0.013700 0.425000 0.024400
v 0.027800 0.425000 0.000000
v 0.013700 0.425000 -0.024100
v -0.014100 0.425000 -0.024100
v 0.000000 0.449100 -0.007800
v 0.000000 0.470000 -0.007800
v -0.035000 0.470000 0.000000
v 0.035000 0.449100 0.000000
v -0.035000 0.449100 0.000000
v 0.000000 0.470000 0.008100
v 0.035000 0.470000 0.000000
v 0.000000 0.449100 0.008100
v -0.011900 0.390000 0.020900
v -0.024100 0.380000 0.000000
v -0.011900 0.380000 0.020900
v -0.024100 0.390000 0.000000
v 0.011900 0.390000 0.020900
v 0.011900 0.380000 0.020900
v 0.023700 0.390000 0.000000
v 0.023700 0.380000 0.000000
v 0.011900 0.390000 -0.020600
v 0.011900 0.380000 -0.020600
v -0.011900 0.390000 -0.020600
v -0.011900 0.380000 -0.020600
v -0.020000 0.380900 0.000000
v 0.000000 -0.000900 -0.013700
v -0.014100 -0.000900 -0.000000
v 0.000000 0.380900 -0.020000
v 0.013700 -0.000900 -0.000000
v 0.019700 0.380900 0.000000
v 0.000000 -0.000900 0.014100
v 0.000000 0.380900 0.020000
v 0.000000 -0.382800 -0.013700
v -0.014100 -0.382800 -0.000000
v 0.013700 -0.382800 -0.000000
v 0.000000 -0.382800 0.014100
v 0.000000 -0.765000 -0.028800
v -0.029100 -0.765000 -0.000000
v 0.028800 -0.764700 -0.000000
v 0.000000 -0.764700 0.029100
v -0.028100 -0.870000 0.048700
v -0.056200 -0.870000 -0.000000
v -0.065900 -0.845000 -0.000000
v -0.033800 -0.890000 -0.000000
v -0.016900 -0.890000 0.029400
v 0.000000 -0.900000 -0.000000
v -0.033100 -0.845000 0.057200
v 0.027800 -0.870000 0.048700
v 0.016900 -0.890000 0.029400
v 0.032800 -0.845000 0.057200
v 0.055900 -0.870000 -0.000000
v 0.033800 -0.890000 -0.000000
v 0.065900 -0.845000 -0.000000
v 0.027800 -0.870000 -0.048400
v 0.016900 -0.890000 -0.029100
v 0.032800 -0.845000 -0.056900
v -0.028100 -0.870000 -0.048400
v -0.016900 -0.890000 -0.029100
v -0.033100 -0.845000 -0.056900
v -0.038100 -0.830000 -0.000000
v -0.019100 -0.830000 0.033100
v -0.014100 -0.797800 0.024400
v -0.028100 -0.797800 -0.000000
v -0.016600 -0.773800 0.028400
v -0.033100 -0.773800 -0.000000
v 0.019100 -0.830000 0.033100
v 0.013700 -0.797800 0.024400
v 0.016200 -0.773800 0.028400
v 0.038100 -0.830000 -0.000000
v 0.027800 -0.797800 -0.000000
v 0.032800 -0.773800 -0.000000
v 0.019100 -0.830000 -0.032800
v 0.013700 -0.797800 -0.024100
v 0.016200 -0.773800 -0.028400
v -0.019100 -0.830000 -0.032800
v -0.014100 -0.797800 -0.024100
v -0.016600 -0.773800 -0.028400
v -0.019100 -0.763800 0.032800
v -0.038100 -0.773800 -0.000000
v -0.019100 -0.773800 0.032800
v -0.038100 -0.763800 -0.000000
v 0.018800 -0.763800 0.032800
v 0.018800 -0.773800 0.032800
v 0.037800 -0.763800 -0.000000
v 0.037800 -0.773800 -0.000000
v 0.018800 -0.763800 -0.032800
v 0.018800 -0.773800 -0.032800
v -0.019100 -0.763800 -0.032800
v -0.019100 -0.773800 -0.032800
v -0.030000 -0.730000 0.051900
v -0.060000 -0.750000 -0.000000
v -0.030000 -0.750000 0.051900
v -0.060000 -0.730000 -0.000000
v 0.030000 -0.730000 0.051900
v 0.030000 -0.750000 0.051900
v 0.060000 -0.730000 -0.000000
v 0.060000 -0.750000 -0.000000
v 0.029700 -0.730000 -0.051900
v 0.029700 -0.750000 -0.051900
v -0.030000 -0.730000 -0.051900
v -0.030000 -0.750000 -0.051900
v -0.054400 -0.740000 -0.000000
v -0.027200 -0.740000 0.046900
v -0.027200 -0.740000 -0.046900
v 0.026900 -0.740000 -0.046900
v 0.054100 -0.740000 -0.000000
v 0.026900 -0.740000 0.046900
vt 0.992200 0.355500
vt 0.835900 0.183600
vt 0.992200 0.183600
vt 0.835900 0.355500
vt 0.992200 0.175800
vt 0.835900 0.003900
vt 0.992200 0.003900
vt 0.835900 0.175800
vt 0.992200 0.003900
vt 0.835900 0.003900
vt 0.992200 0.175800
vt 0.835900 0.175800
vt 0.992200 0.003900
vt 0.835900 0.003900
vt 0.992200 0.355500
vt 0.835900 0.183600
vt 0.992200 0.183600
vt 0.835900 0.355500
vt 0.992200 0.175800
vt 0.835900 0.003900
vt 0.992200 0.003900
vt 0.835900 0.175800
vt 0.992200 0.003900
vt 0.835900 0.003900
vt 0.992200 0.535200
vt 0.835900 0.363300
vt 0.992200 0.363300
vt 0.835900 0.535200
vt 0.835900 0.625000
vt 0.992200 0.535200
vt 0.835900 0.625000
vt 0.835900 0.535200
vt 0.992200 0.363300
vt 0.992200 0.625000
vt 0.992200 0.363300
vt 0.992200 0.535200
vt 0.835900 0.363300
vt 0.507800 0.171900
vt 0.421900 0.003900
vt 0.421900 0.171900
vt 0.507800 0.003900
vt 0.507800 0.171900
vt 0.421900 0.003900
vt 0.421900 0.171900
vt 0.507800 0.003900
vt 0.507800 0.003900
vt 0.421900 0.171900
vt 0.507800 0.171900
vt 0.421900 0.003900
vt 0.507800 0.171900
vt 0.421900 0.003900
vt 0.421900 0.171900
vt 0.507800 0.003900
vt 0.507800 0.171900
vt 0.421900 0.003900
vt 0.421900 0.171900
vt 0.507800 0.003900
vt 0.507800 0.171900
vt 0.421900 0.003900
vt 0.421900 0.171900
vt 0.507800 0.003900
vt 0.507800 0.171900
vt 0.421900 0.003900
vt 0.421900 0.171900
vt 0.507800 0.003900
vt 0.507800 0.171900
vt 0.421900 0.003900
vt 0.421900 0.171900
vt 0.507800 0.003900
vt 0.507800 0.003900
vt 0.421900 0.171900
vt 0.507800 0.171900
vt 0.421900 0.003900
vt 0.507800 0.171900
vt 0.421900 0.003900
vt 0.507800 0.003900
vt 0.421900 0.171900
vt 0.507800 0.171900
vt 0.421900 0.003900
vt 0.507800 0.003900
vt 0.421900 0.171900
vt 0.507800 0.171900
vt 0.421900 0.003900
vt 0.507800 0.003900
vt 0.421900 0.171900
vt 0.507800 0.003900
vt 0.421900 0.171900
vt 0.421900 0.003900
vt 0.507800 0.171900
vt 0.507800 0.003900
vt 0.421900 0.171900
vt 0.421900 0.003900
vt 0.507800 0.171900
vt 0.507800 0.003900
vt 0.421900 0.171900
vt 0.421900 0.003900
vt 0.507800 0.171900
vt 0.507800 0.171900
vt 0.421900 0.171900
vt 0.507800 0.003900
vt 0.421900 0.003900
vt 0.507800 0.003900
vt 0.421900 0.171900
vt 0.421900 0.003900
vt 0.507800 0.171900
vt 0.992200 0.625000
vt 0.601600 0.730500
vt 0.757800 0.687500
vt 0.601600 0.687500
vt 0.757800 0.730500
vt 0.421900 0.179700
vt 0.507800 0.269500
vt 0.507800 0.179700
vt 0.421900 0.269500
vt 0.757800 0.679700
vt 0.601600 0.589800
vt 0.757800 0.589800
vt 0.601600 0.679700
vt 0.507800 0.269500
vt 0.421900 0.179700
vt 0.507800 0.179700
vt 0.421900 0.269500
vt 0.601600 0.503900
vt 0.757800 0.503900
vt 0.523400 0.136700
vt 0.601600 0.003900
vt 0.523400 0.003900
vt 0.601600 0.136700
vt 0.523400 0.316400
vt 0.601600 0.144500
vt 0.601600 0.316400
vt 0.523400 0.144500
vt 0.523400 0.316400
vt 0.601600 0.144500
vt 0.601600 0.316400
vt 0.523400 0.144500
vt 0.523400 0.324200
vt 0.601600 0.496100
vt 0.601600 0.324200
vt 0.523400 0.496100
vt 0.601600 0.316400
vt 0.523400 0.144500
vt 0.601600 0.144500
vt 0.523400 0.316400
vt 0.601600 0.316400
vt 0.523400 0.144500
vt 0.601600 0.144500
vt 0.523400 0.316400
vt 0.601600 0.316400
vt 0.523400 0.144500
vt 0.601600 0.144500
vt 0.523400 0.316400
vt 0.601600 0.316400
vt 0.523400 0.144500
vt 0.601600 0.144500
vt 0.523400 0.316400
vt 0.601600 0.316400
vt 0.523400 0.144500
vt 0.601600 0.144500
vt 0.523400 0.316400
vt 0.601600 0.316400
vt 0.523400 0.144500
vt 0.601600 0.144500
vt 0.523400 0.316400
vt 0.601600 0.316400
vt 0.523400 0.144500
vt 0.601600 0.144500
vt 0.523400 0.316400
vt 0.601600 0.316400
vt 0.523400 0.144500
vt 0.601600 0.144500
vt 0.523400 0.316400
vt 0.601600 0.316400
vt 0.523400 0.144500
vt 0.601600 0.144500
vt 0.523400 0.316400
vt 0.601600 0.316400
vt 0.523400 0.144500
vt 0.601600 0.144500
vt 0.523400 0.316400
vt 0.601600 0.316400
vt 0.523400 0.144500
vt 0.601600 0.144500
vt 0.523400 0.316400
vt 0.601600 0.496100
vt 0.523400 0.324200
vt 0.601600 0.324200
vt 0.523400 0.496100
vt 0.585900 0.535200
vt 0.382800 0.707000
vt 0.585900 0.707000
vt 0.382800 0.535200
vt 0.382800 0.707000
vt 0.382800 0.535200
vt 0.585900 0.535200
vt 0.382800 0.707000
vt 0.585900 0.707000
vt 0.820300 0.316400
vt 0.617200 0.144500
vt 0.820300 0.144500
vt 0.617200 0.316400
vt 0.585900 0.535200
vt 0.382800 0.707000
vt 0.585900 0.707000
vt 0.382800 0.535200
vt 0.820300 0.496100
vt 0.617200 0.324200
vt 0.820300 0.324200
vt 0.617200 0.496100
vt 0.820300 0.324200
vt 0.617200 0.496100
vt 0.820300 0.496100
vt 0.617200 0.324200
vt 0.585900 0.707000
vt 0.382800 0.535200
vt 0.585900 0.535200
vt 0.382800 0.707000
vt 0.585900 0.707000
vt 0.382800 0.707000
vt 0.617200 0.324200
vt 0.820300 0.496100
vt 0.820300 0.324200
vt 0.617200 0.496100
vt 0.585900 0.707000
vt 0.382800 0.535200
vt 0.585900 0.707000
vt 0.585900 0.535200
vt 0.585900 0.707000
vt 0.382800 0.707000
vt 0.585900 0.535200
vt 0.382800 0.535200
vt 0.585900 0.707000
vt 0.382800 0.707000
vt 0.382800 0.707000
vt 0.820300 0.496100
vt 0.617200 0.324200
vt 0.820300 0.324200
vt 0.617200 0.496100
vt 0.585900 0.707000
vt 0.382800 0.535200
vt 0.585900 0.535200
vt 0.382800 0.707000
vt 0.585900 0.707000
vt 0.382800 0.707000
vt 0.617200 0.496100
vt 0.820300 0.324200
vt 0.820300 0.496100
vt 0.617200 0.324200
vt 0.617200 0.324200
vt 0.820300 0.496100
vt 0.820300 0.324200
vt 0.820300 0.457000
vt 0.617200 0.496100
vt 0.617200 0.496100
vt 0.382800 0.707000
vt 0.585900 0.535200
vt 0.585900 0.707000
vt 0.382800 0.535200
vt 0.820300 0.144500
vt 0.617200 0.316400
vt 0.820300 0.316400
vt 0.617200 0.144500
vt 0.742200 0.793000
vt 0.539100 0.824200
vt 0.742200 0.839800
vt 0.539100 0.800800
vt 0.617200 0.058600
vt 0.820300 0.136700
vt 0.820300 0.058600
vt 0.617200 0.136700
vt 0.601600 0.324200
vt 0.523400 0.496100
vt 0.601600 0.496100
vt 0.523400 0.324200
vt 0.820300 0.136700
vt 0.617200 0.058600
vt 0.820300 0.058600
vt 0.617200 0.136700
vt 0.820300 0.050800
vt 0.617200 0.011700
vt 0.820300 0.003900
vt 0.617200 0.035200
vt 0.867200 0.984400
vt 0.757800 0.812500
vt 0.757800 0.984400
vt 0.867200 0.812500
vt 0.867200 0.812500
vt 0.757800 0.984400
vt 0.757800 0.812500
vt 0.867200 0.984400
vt 0.757800 0.984400
vt 0.992200 0.902300
vt 0.882800 0.726600
vt 0.882800 0.902300
vt 0.992200 0.726600
vt 0.867200 0.812500
vt 0.757800 0.984400
vt 0.757800 0.812500
vt 0.867200 0.984400
vt 0.867200 0.984400
vt 0.757800 0.984400
vt 0.867200 0.984400
vt 0.882800 0.726600
vt 0.992200 0.902300
vt 0.992200 0.726600
vt 0.882800 0.902300
vt 0.867200 0.984400
vt 0.757800 0.812500
vt 0.757800 0.984400
vt 0.867200 0.812500
vt 0.992200 0.902300
vt 0.882800 0.726600
vt 0.882800 0.902300
vt 0.992200 0.726600
vt 0.867200 0.812500
vt 0.757800 0.984400
vt 0.757800 0.812500
vt 0.867200 0.984400
vt 0.867200 0.984400
vt 0.757800 0.984400
vt 0.992200 0.726600
vt 0.882800 0.902300
vt 0.882800 0.726600
vt 0.992200 0.902300
vt 0.757800 0.984400
vt 0.867200 0.984400
vt 0.757800 0.812500
vt 0.867200 0.812500
vt 0.757800 0.984400
vt 0.867200 0.984400
vt 0.882800 0.632800
vt 0.992200 0.718800
vt 0.992200 0.632800
vt 0.882800 0.718800
vt 0.773400 0.804700
vt 0.867200 0.718800
vt 0.773400 0.718800
vt 0.867200 0.804700
vt 0.992200 0.718800
vt 0.882800 0.632800
vt 0.992200 0.632800
vt 0.882800 0.718800
vt 0.007800 0.863300
vt 0.156300 0.918000
vt 0.046900 0.918000
vt 0.195300 0.863300
vt 0.867200 0.632800
vt 0.773400 0.632800
vt 0.882800 0.906300
vt 0.992200 0.953100
vt 0.992200 0.906300
vt 0.882800 0.953100
vt 0.992200 0.953100
vt 0.882800 0.906300
vt 0.992200 0.906300
vt 0.882800 0.953100
vt 0.007800 0.863300
vt 0.156300 0.918000
vt 0.046900 0.918000
vt 0.195300 0.863300
vt 0.992200 0.625000
vt 0.992200 0.535200
vt 0.992200 0.363300
vt 0.992200 0.003900
vt 0.992200 0.175800
vt 0.992200 0.003900
vt 0.992200 0.355500
vt 0.992200 0.183600
vt 0.992200 0.003900
vt 0.992200 0.175800
vt 0.992200 0.003900
vt 0.992200 0.175800
vt 0.992200 0.003900
vt 0.992200 0.355500
vt 0.992200 0.183600
vt 0.992200 0.625000
vt 0.507800 0.003900
vt 0.421900 0.089800
vt 0.507800 0.171900
vt 0.421900 0.003900
vt 0.421900 0.222700
vt 0.507800 0.179700
vt 0.421900 0.179700
vt 0.507800 0.269500
vt 0.421900 0.089800
vt 0.507800 0.171900
vt 0.421900 0.171900
vt 0.507800 0.003900
vt 0.421900 0.269500
vt 0.421900 0.222700
vt 0.507800 0.269500
vt 0.421900 0.171900
vt 0.421900 0.003900
vt 0.820300 0.457000
vt 0.617200 0.496100
vt 0.820300 0.496100
vt 0.421900 0.179700
vt 0.507800 0.179700
vt 0.820300 0.496100
vt 0.421900 0.269500
vt 0.992200 0.726600
vt 0.882800 0.812500
vt 0.992200 0.902300
vt 0.882800 0.726600
vt 0.882800 0.812500
vt 0.992200 0.902300
vt 0.882800 0.902300
vt 0.992200 0.726600
vt 0.882800 0.902300
vt 0.882800 0.726600
vt 0.476600 0.929700
vt 0.609400 0.996100
vt 0.742200 0.929700
vt 0.687500 0.902300
vt 0.531300 0.902300
vt 0.687500 0.902300
vt 0.476600 0.929700
vt 0.531300 0.902300
vt 0.742200 0.929700
vt 0.609400 0.996100
vt 0.742200 0.847700
vt 0.523400 0.871100
vt 0.742200 0.871100
vt 0.523400 0.847700
vt 0.226600 0.621100
vt 0.007800 0.644500
vt 0.226600 0.644500
vt 0.007800 0.621100
vt 0.742200 0.847700
vt 0.523400 0.871100
vt 0.742200 0.871100
vt 0.523400 0.847700
vt 0.226600 0.621100
vt 0.007800 0.644500
vt 0.226600 0.644500
vt 0.007800 0.621100
vt 0.742200 0.847700
vt 0.523400 0.871100
vt 0.742200 0.871100
vt 0.523400 0.847700
vt 0.226600 0.621100
vt 0.007800 0.644500
vt 0.226600 0.644500
vt 0.007800 0.621100
vt 0.742200 0.847700
vt 0.523400 0.871100
vt 0.742200 0.871100
vt 0.523400 0.847700
vt 0.226600 0.621100
vt 0.007800 0.644500
vt 0.226600 0.644500
vt 0.007800 0.621100
vt 0.742200 0.847700
vt 0.523400 0.871100
vt 0.742200 0.871100
vt 0.523400 0.847700
vt 0.226600 0.621100
vt 0.007800 0.644500
vt 0.226600 0.644500
vt 0.007800 0.621100
vt 0.742200 0.847700
vt 0.523400 0.871100
vt 0.742200 0.871100
vt 0.523400 0.847700
vt 0.226600 0.621100
vt 0.007800 0.644500
vt 0.226600 0.644500
vt 0.007800 0.621100
vt 0.007800 0.996100
vt 0.242200 0.925800
vt 0.085900 0.925800
vt 0.320300 0.996100
vt 0.085900 0.925800
vt 0.242200 0.925800
vt 0.195300 0.714800
vt 0.007800 0.769500
vt 0.226600 0.769500
vt 0.039100 0.714800
vt 0.195300 0.714800
vt 0.007800 0.769500
vt 0.226600 0.769500
vt 0.039100 0.714800
vt 0.195300 0.714800
vt 0.007800 0.769500
vt 0.226600 0.769500
vt 0.039100 0.714800
vt 0.195300 0.714800
vt 0.007800 0.769500
vt 0.226600 0.769500
vt 0.039100 0.714800
vt 0.195300 0.714800
vt 0.007800 0.769500
vt 0.226600 0.769500
vt 0.039100 0.714800
vt 0.195300 0.714800
vt 0.007800 0.769500
vt 0.226600 0.769500
vt 0.039100 0.714800
vt 0.226600 0.652300
vt 0.039100 0.707000
vt 0.195300 0.707000
vt 0.007800 0.652300
vt 0.226600 0.652300
vt 0.039100 0.707000
vt 0.195300 0.707000
vt 0.007800 0.652300
vt 0.226600 0.652300
vt 0.039100 0.707000
vt 0.195300 0.707000
vt 0.007800 0.652300
vt 0.226600 0.652300
vt 0.039100 0.707000
vt 0.195300 0.707000
vt 0.007800 0.652300
vt 0.226600 0.652300
vt 0.039100 0.707000
vt 0.195300 0.707000
vt 0.007800 0.652300
vt 0.226600 0.652300
vt 0.039100 0.707000
vt 0.195300 0.707000
vt 0.007800 0.652300
vt 0.757800 0.785200
vt 0.601600 0.738300
vt 0.757800 0.738300
vt 0.601600 0.785200
vt 0.601600 0.785200
vt 0.757800 0.738300
vt 0.601600 0.738300
vt 0.757800 0.785200
vt 0.226600 0.621100
vt 0.007800 0.644500
vt 0.226600 0.644500
vt 0.007800 0.621100
vt 0.226600 0.621100
vt 0.007800 0.644500
vt 0.226600 0.644500
vt 0.007800 0.621100
vt 0.226600 0.621100
vt 0.007800 0.644500
vt 0.226600 0.644500
vt 0.007800 0.621100
vt 0.226600 0.621100
vt 0.007800 0.644500
vt 0.226600 0.644500
vt 0.007800 0.621100
vt 0.226600 0.621100
vt 0.007800 0.644500
vt 0.226600 0.644500
vt 0.007800 0.621100
vt 0.226600 0.621100
vt 0.007800 0.644500
vt 0.226600 0.644500
vt 0.007800 0.621100
vt 0.007800 0.996100
vt 0.242200 0.925800
vt 0.320300 0.996100
vt 0.242200 0.925800
vt 0.085900 0.925800
vt 0.085900 0.925800
vt 0.226600 0.652300
vt 0.039100 0.707000
vt 0.195300 0.707000
vt 0.007800 0.652300
vt 0.226600 0.652300
vt 0.039100 0.707000
vt 0.195300 0.707000
vt 0.007800 0.652300
vt 0.226600 0.652300
vt 0.039100 0.707000
vt 0.195300 0.707000
vt 0.007800 0.652300
vt 0.007800 0.652300
vt 0.195300 0.707000
vt 0.226600 0.652300
vt 0.039100 0.707000
vt 0.007800 0.652300
vt 0.195300 0.707000
vt 0.226600 0.652300
vt 0.039100 0.707000
vt 0.007800 0.652300
vt 0.195300 0.707000
vt 0.226600 0.652300
vt 0.039100 0.707000
vt 0.320300 0.003900
vt 0.320300 0.613300
vt 0.226600 0.613300
vt 0.226600 0.003900
vt 0.320300 0.003900
vt 0.320300 0.613300
vt 0.226600 0.613300
vt 0.226600 0.003900
vt 0.320300 0.003900
vt 0.320300 0.613300
vt 0.226600 0.613300
vt 0.226600 0.003900
vt 0.320300 0.003900
vt 0.320300 0.613300
vt 0.226600 0.613300
vt 0.226600 0.003900
vt 0.210900 0.003900
vt 0.210900 0.613300
vt 0.117200 0.613300
vt 0.117200 0.003900
vt 0.210900 0.003900
vt 0.210900 0.613300
vt 0.117200 0.613300
vt 0.117200 0.003900
vt 0.210900 0.003900
vt 0.210900 0.613300
vt 0.117200 0.613300
vt 0.117200 0.003900
vt 0.210900 0.003900
vt 0.210900 0.613300
vt 0.117200 0.613300
vt 0.117200 0.003900
vt 0.101600 0.003900
vt 0.101600 0.613300
vt 0.007800 0.613300
vt 0.007800 0.003900
vt 0.101600 0.003900
vt 0.101600 0.613300
vt 0.007800 0.613300
vt 0.007800 0.003900
vt 0.101600 0.003900
vt 0.101600 0.613300
vt 0.007800 0.613300
vt 0.007800 0.003900
vt 0.101600 0.003900
vt 0.101600 0.613300
vt 0.007800 0.613300
vt 0.007800 0.003900
vt 0.445300 0.878900
vt 0.289100 0.843800
vt 0.304700 0.878900
vt 0.328100 0.918000
vt 0.421900 0.918000
vt 0.375000 0.964800
vt 0.460900 0.843800
vt 0.351600 0.441400
vt 0.507800 0.406300
vt 0.492200 0.441400
vt 0.468800 0.480500
vt 0.375000 0.480500
vt 0.421900 0.527300
vt 0.335900 0.406300
vt 0.304700 0.878900
vt 0.460900 0.843800
vt 0.445300 0.878900
vt 0.421900 0.918000
vt 0.328100 0.918000
vt 0.289100 0.843800
vt 0.492200 0.441400
vt 0.335900 0.406300
vt 0.351600 0.441400
vt 0.375000 0.480500
vt 0.468800 0.480500
vt 0.507800 0.406300
vt 0.445300 0.878900
vt 0.289100 0.843800
vt 0.304700 0.878900
vt 0.328100 0.918000
vt 0.421900 0.918000
vt 0.460900 0.843800
vt 0.351600 0.441400
vt 0.507800 0.406300
vt 0.492200 0.441400
vt 0.468800 0.480500
vt 0.375000 0.480500
vt 0.335900 0.406300
vt 0.328100 0.804700
vt 0.421900 0.804700
vt 0.414100 0.753900
vt 0.335900 0.753900
vt 0.421900 0.714800
vt 0.328100 0.714800
vt 0.468800 0.367200
vt 0.375000 0.367200
vt 0.382800 0.316400
vt 0.460900 0.316400
vt 0.375000 0.277300
vt 0.468800 0.277300
vt 0.421900 0.804700
vt 0.328100 0.804700
vt 0.335900 0.753900
vt 0.414100 0.753900
vt 0.328100 0.714800
vt 0.421900 0.714800
vt 0.375000 0.367200
vt 0.468800 0.367200
vt 0.460900 0.316400
vt 0.382800 0.316400
vt 0.468800 0.277300
vt 0.375000 0.277300
vt 0.328100 0.804700
vt 0.421900 0.804700
vt 0.414100 0.753900
vt 0.335900 0.753900
vt 0.421900 0.714800
vt 0.328100 0.714800
vt 0.468800 0.367200
vt 0.375000 0.367200
vt 0.382800 0.316400
vt 0.460900 0.316400
vt 0.375000 0.277300
vt 0.468800 0.277300
vt 0.507800 0.714800
vt 0.539100 0.777300
vt 0.539100 0.714800
vt 0.507800 0.777300
vt 0.554700 0.714800
vt 0.585900 0.777300
vt 0.585900 0.714800
vt 0.554700 0.777300
vt 0.507800 0.714800
vt 0.539100 0.777300
vt 0.539100 0.714800
vt 0.507800 0.777300
vt 0.554700 0.714800
vt 0.585900 0.777300
vt 0.585900 0.714800
vt 0.554700 0.777300
vt 0.507800 0.714800
vt 0.539100 0.777300
vt 0.539100 0.714800
vt 0.507800 0.777300
vt 0.554700 0.714800
vt 0.585900 0.777300
vt 0.585900 0.714800
vt 0.554700 0.777300
vt 0.257800 0.851600
vt 0.070300 0.789100
vt 0.195300 0.789100
vt 0.007800 0.851600
vt 0.195300 0.789100
vt 0.070300 0.789100
vt 0.406300 0.195300
vt 0.343800 0.101600
vt 0.343800 0.195300
vt 0.406300 0.101600
vt 0.406300 0.097700
vt 0.343800 0.003900
vt 0.343800 0.097700
vt 0.406300 0.003900
vt 0.406300 0.195300
vt 0.343800 0.101600
vt 0.343800 0.195300
vt 0.406300 0.101600
vt 0.406300 0.097700
vt 0.343800 0.003900
vt 0.343800 0.097700
vt 0.406300 0.003900
vt 0.406300 0.195300
vt 0.343800 0.101600
vt 0.343800 0.195300
vt 0.406300 0.101600
vt 0.406300 0.097700
vt 0.343800 0.003900
vt 0.343800 0.097700
vt 0.406300 0.003900
vt 0.789100 0.503900
vt 0.820300 0.597700
vt 0.820300 0.503900
vt 0.789100 0.597700
vt 0.820300 0.503900
vt 0.820300 0.597700
vt 0.789100 0.503900
vt 0.820300 0.597700
vt 0.820300 0.503900
vt 0.789100 0.597700
vt 0.820300 0.503900
vt 0.820300 0.597700
vt 0.789100 0.503900
vt 0.820300 0.597700
vt 0.820300 0.503900
vt 0.789100 0.597700
vt 0.820300 0.503900
vt 0.820300 0.597700
vt 0.789100 0.503900
vt 0.820300 0.597700
vt 0.820300 0.503900
vt 0.789100 0.597700
vt 0.820300 0.503900
vt 0.820300 0.597700
vt 0.789100 0.503900
vt 0.820300 0.597700
vt 0.820300 0.503900
vt 0.789100 0.597700
vt 0.820300 0.503900
vt 0.820300 0.597700
vt 0.789100 0.503900
vt 0.820300 0.597700
vt 0.820300 0.503900
vt 0.789100 0.597700
vt 0.820300 0.503900
vt 0.820300 0.597700
vt 0.007800 0.996100
vt 0.242200 0.925800
vt 0.320300 0.996100
vt 0.085900 0.925800
vt 0.085900 0.925800
vt 0.242200 0.925800
vn 0.0669 -0.0228 0.9975
vn -0.9978 0.0659 -0.0000
vn 0.0713 0.0051 0.9974
vn -0.8968 0.4425 0.0000
vn 0.0528 -0.0467 0.9975
vn -0.8967 0.4426 -0.0000
vn 0.0668 -0.0228 0.9975
vn -0.6588 0.7523 -0.0000
vn 0.0314 -0.0625 0.9976
vn 0.0314 -0.0625 0.9975
vn -0.3200 0.9474 -0.0000
vn -0.0298 -0.2297 0.9728
vn 0.0662 0.9978 -0.0000
vn -0.0955 -0.0348 0.9948
vn 0.4429 0.8966 0.0000
vn -0.1020 0.0048 0.9948
vn 0.4428 0.8966 0.0000
vn 0.7529 0.6582 -0.0000
vn 0.1256 0.0963 0.9874
vn 0.7528 0.6582 -0.0000
vn 0.9468 0.3219 -0.0000
vn -0.0672 -0.0043 0.9977
vn 0.9978 -0.0670 -0.0000
vn -0.0647 0.0257 0.9976
vn 0.8893 -0.4116 -0.1991
vn 0.4936 -0.8206 0.2881
vn 0.0926 -0.0428 -0.9948
vn -0.4936 -0.8206 -0.2882
vn -0.9248 -0.3523 0.1437
vn 0.2297 -0.0295 -0.9728
vn 0.6373 -0.4032 -0.6567
vn 0.0712 0.0050 0.9974
vn -0.9248 -0.3524 0.1437
vn 0.2841 0.0672 0.9565
vn -0.0418 -0.0938 -0.9947
vn -0.0111 -0.6360 -0.7716
vn 0.2449 -0.5524 -0.7968
vn -0.0413 0.1511 -0.9876
vn 0.1406 -0.1830 -0.9730
vn 0.2449 -0.5525 -0.7968
vn 0.3853 -0.4072 -0.8281
vn 0.1406 -0.1829 -0.9730
vn 0.5588 -0.2315 -0.7963
vn -0.1568 0.0203 -0.9874
vn 0.5606 -0.0153 -0.8279
vn -0.0670 0.0751 -0.9949
vn -0.6097 0.2162 -0.7626
vn -0.6021 -0.0146 -0.7983
vn -0.0371 0.0947 -0.9948
vn -0.0913 0.0425 -0.9949
vn -0.5529 -0.2441 -0.7967
vn -0.0670 0.0752 -0.9949
vn -0.1020 0.0048 -0.9948
vn -0.4175 -0.4369 -0.7967
vn -0.1151 -0.1997 -0.9731
vn -0.2285 -0.5105 -0.8290
vn -0.1151 -0.1998 -0.9731
vn -0.0413 0.1511 -0.9877
vn -0.1944 -0.5734 0.7959
vn -0.0954 -0.0348 0.9948
vn 0.0154 -0.5611 0.8276
vn -0.3988 -0.4547 0.7964
vn -0.5820 -0.2529 0.7729
vn -0.0672 -0.0042 0.9977
vn -0.6021 0.0146 0.7983
vn -0.0647 0.0258 0.9976
vn -0.5233 0.1986 0.8287
vn 0.6047 -0.0399 0.7955
vn 0.5523 -0.2446 0.7970
vn 0.5522 -0.2446 0.7970
vn 0.4178 -0.4379 0.7961
vn 0.2186 -0.5648 0.7957
vn 0.2186 -0.5648 0.7958
vn -0.6640 -0.5412 0.5159
vn 0.4936 -0.8206 0.2882
vn -0.9853 -0.0282 -0.1684
vn -0.7612 0.3201 0.5640
vn -0.7840 0.1197 -0.6091
vn -0.9583 0.0805 0.2743
vn 0.8491 0.4196 -0.3208
vn 0.9450 -0.2433 -0.2185
vn 0.9506 0.2387 0.1984
vn 0.8775 0.3558 0.3215
vn 0.4549 -0.6023 0.6559
vn 0.2840 0.0672 0.9565
vn 0.8221 0.0046 -0.5694
vn 0.8775 0.3558 0.3214
vn 0.8491 0.4197 -0.3208
vn 0.7613 -0.1942 0.6187
vn 0.1152 -0.3586 -0.9264
vn 0.6240 -0.6227 0.4720
vn 0.4682 -0.4671 -0.7501
vn -0.2170 -0.3999 0.8905
vn 0.2933 -0.5940 -0.7491
vn 0.2033 -0.6310 0.7487
vn 0.4681 -0.4672 -0.7501
vn 0.0443 -0.6609 -0.7492
vn 0.2032 -0.6310 0.7487
vn -0.0414 -0.5360 0.8432
vn 0.2934 -0.5940 -0.7491
vn -0.4664 -0.5022 -0.7282
vn -0.8963 -0.0494 0.4407
vn 0.6647 -0.3199 0.6751
vn 0.5487 -0.4927 -0.6754
vn 0.4931 -0.5483 0.6755
vn 0.6091 -0.2145 -0.7636
vn 0.4931 -0.5483 0.6754
vn 0.3188 -0.6650 -0.6754
vn 0.2456 -0.6953 0.6755
vn 0.3188 -0.6649 -0.6754
vn 0.5487 -0.4926 -0.6754
vn 0.0520 -0.8443 -0.5333
vn -0.0380 -0.6443 0.7638
vn 0.3189 -0.6649 -0.6754
vn -0.2367 -0.6988 -0.6750
vn -0.3706 -0.7605 0.5331
vn -0.4851 -0.5557 -0.6752
vn -0.5481 -0.4933 0.6755
vn -0.5812 -0.2814 -0.7636
vn -0.6099 -0.2122 0.7636
vn -0.4851 -0.5558 -0.6752
vn -0.6099 -0.2123 0.7636
vn -0.7366 -0.0396 -0.6752
vn -0.7363 0.0488 0.6749
vn -0.5812 -0.2815 -0.7636
vn -0.6955 0.2459 -0.6752
vn -0.6612 0.3276 0.6749
vn -0.7366 -0.0397 -0.6752
vn -0.6612 0.3275 0.6749
vn -0.4816 0.4299 -0.7637
vn -0.4284 0.4829 0.7637
vn -0.3176 0.6657 -0.6753
vn -0.2367 0.6988 0.6750
vn -0.0401 0.7363 -0.6755
vn 0.0520 0.8443 0.5333
vn -0.3177 0.6656 -0.6753
vn -0.4319 0.8509 -0.2990
vn -0.2618 0.5981 0.7574
vn 0.0106 -0.2202 -0.9754
vn 0.1068 -0.2159 -0.9706
vn -0.2367 -0.6988 -0.6751
vn 0.1814 -0.1590 -0.9705
vn 0.6091 -0.2145 -0.7635
vn 0.2219 -0.0913 -0.9708
vn -0.4664 -0.5023 -0.7282
vn -0.4319 0.8509 -0.2989
vn 0.0442 -0.6609 -0.7492
vn -0.0402 0.7363 -0.6755
vn -0.2402 0.0964 -0.9659
vn -0.2398 -0.0160 -0.9707
vn -0.6954 0.2459 -0.6752
vn -0.2399 -0.0160 -0.9707
vn -0.2411 -0.1158 -0.9636
vn -0.5811 -0.2815 -0.7636
vn -0.1632 -0.1757 -0.9708
vn -0.4850 -0.5558 -0.6752
vn -0.0833 -0.2245 -0.9709
vn -0.1631 -0.1757 -0.9708
vn -0.2368 -0.6988 -0.6750
vn -0.0941 -0.1993 0.9754
vn -0.0150 -0.2663 0.9638
vn 0.0771 -0.2276 0.9707
vn 0.1590 -0.1814 0.9705
vn 0.2160 -0.1064 0.9706
vn -0.5481 -0.4933 0.6754
vn -0.1810 -0.1584 0.9706
vn -0.3706 -0.7605 0.5332
vn -0.6098 -0.2123 0.7636
vn -0.2524 -0.0885 0.9636
vn -0.2399 0.0090 0.9708
vn -0.2179 0.1000 0.9708
vn -0.2368 0.6988 0.6750
vn -0.0413 -0.5360 0.8432
vn 0.0519 0.8443 0.5333
vn -0.2618 0.5981 0.7575
vn 0.4688 -0.4260 -0.7738
vn 0.4948 -0.6700 -0.5534
vn 0.5435 -0.7748 0.3229
vn 0.3889 -0.2671 0.8817
vn 0.5435 -0.7748 0.3228
vn -0.1944 -0.5734 0.7958
vn -0.5234 0.1986 0.8286
vn 0.8233 0.0557 -0.5649
vn 0.8221 0.0046 -0.5693
vn 0.6744 -0.6468 -0.3560
vn 0.9231 -0.1838 0.3378
vn 0.8233 0.0558 -0.5649
vn 0.8243 -0.0256 0.5656
vn 0.6744 -0.6468 -0.3561
vn 0.7613 -0.1942 0.6186
vn 0.4688 -0.4261 -0.7738
vn -0.5234 0.1986 0.8287
vn -0.2170 -0.4000 0.8905
vn -0.7840 0.1196 -0.6091
vn -0.3904 -0.4720 -0.7905
vn 0.8894 -0.4116 -0.1991
vn 0.4936 -0.8205 0.2882
vn -0.0371 0.0948 -0.9948
vn 0.9468 0.3218 0.0000
vn -0.0913 0.0424 -0.9949
vn -0.0912 0.0424 -0.9949
vn -0.1150 -0.1998 -0.9731
vn -0.0412 0.1511 -0.9877
vn 0.0661 0.9978 -0.0000
vn -0.0417 -0.0938 -0.9947
vn 0.1407 -0.1829 -0.9730
vn -0.1567 0.0203 -0.9874
vn 0.2297 -0.0296 -0.9728
vn 0.4549 -0.6023 0.6560
vn 0.2841 0.0672 0.9564
vn 0.5607 -0.0153 -0.8279
vn -0.6641 -0.5412 0.5158
vn 0.2841 0.0671 0.9564
vn -0.3903 -0.4720 -0.7905
vn -0.6954 0.2460 -0.6752
vn -0.4936 -0.8205 -0.2882
vn -0.9583 0.0805 0.2744
vn -0.6640 -0.5413 0.5159
vn -0.4862 0.3369 0.8063
vn -0.8500 -0.5011 0.1627
vn -0.3439 -0.4064 0.8465
vn -0.9413 0.3371 -0.0195
vn 0.4535 0.3418 0.8231
vn 0.4675 -0.5079 0.7235
vn 0.9394 0.3427 0.0135
vn 0.4676 -0.5078 0.7235
vn 0.8577 -0.5117 -0.0497
vn 0.4815 0.3372 -0.8090
vn 0.8577 -0.5118 -0.0497
vn 0.3301 -0.5706 -0.7520
vn -0.4546 0.3367 -0.8246
vn 0.3300 -0.5705 -0.7520
vn -0.5642 -0.5012 -0.6561
vn 0.4815 0.3373 -0.8090
vn -0.8499 -0.5011 0.1627
vn -0.4545 0.3367 -0.8246
vn -0.5225 0.6031 0.6027
vn -0.9413 -0.3373 0.0156
vn -0.4562 -0.3370 0.8236
vn -0.6490 0.7502 -0.1265
vn 0.3064 0.3536 0.8838
vn 0.4850 -0.3397 0.8059
vn -0.5226 0.6031 0.6027
vn 0.6491 0.7507 0.1227
vn 0.9387 -0.3441 -0.0232
vn 0.5185 0.6021 -0.6071
vn 0.9386 -0.3441 -0.0232
vn 0.4513 -0.3388 -0.8256
vn -0.3054 0.3533 -0.8842
vn -0.4846 -0.3368 -0.8073
vn 0.5186 0.6021 -0.6071
vn -0.9413 -0.3372 0.0157
vn -0.3055 0.3533 -0.8842
vn 0.3063 0.3536 0.8838
vn -0.5011 0.0003 0.8654
vn -1.0000 0.0003 -0.0024
vn 0.4977 -0.0022 0.8673
vn 1.0000 0.0022 -0.0045
vn 0.4959 0.0022 -0.8684
vn -0.4989 0.0001 -0.8667
vn 0.4815 0.3373 -0.8089
vn -1.0000 0.0004 -0.0025
vn -0.4989 0.0001 -0.8666
vn -1.0000 0.0004 -0.0024
vn -0.9413 -0.3372 0.0156
vn 1.0000 0.0023 -0.0045
vn 0.4513 -0.3388 -0.8255
vn -0.4990 0.0001 -0.8666
vn -0.0741 0.0000 -0.9973
vn -0.5597 -0.0000 -0.8287
vn 0.0741 -0.0000 -0.9973
vn 0.5597 0.0000 -0.8287
vn -0.5665 0.0000 0.8241
vn -0.0769 0.0000 0.9970
vn 0.5665 -0.0000 0.8241
vn 0.0769 -0.0000 0.9970
vn -0.4829 -0.5707 0.6641
vn -0.5402 -0.8351 0.1041
vn -0.3050 -0.3532 0.8844
vn -0.8481 -0.5026 -0.1675
vn 0.3932 -0.5106 0.7647
vn 0.5259 -0.6039 0.5989
vn 0.8602 -0.5086 0.0376
vn 0.7842 -0.6018 -0.1512
vn 0.3931 -0.5106 0.7647
vn 0.5634 -0.4048 -0.7202
vn 0.2618 -0.6034 -0.7533
vn -0.2800 -0.5008 -0.8190
vn 0.2618 -0.6033 -0.7533
vn -0.6069 -0.3527 -0.7122
vn -0.6070 -0.3527 -0.7122
vn -0.5402 -0.8350 0.1041
vn 0.4676 -0.5079 0.7235
vn 0.8602 -0.5086 0.0377
vn 0.3301 -0.5705 -0.7520
vn 0.3300 -0.5706 -0.7520
vn 0.9467 0.0150 0.3216
vn 0.9999 0.0078 0.0072
vn -0.0048 0.0080 1.0000
vn -0.3190 0.0052 0.9477
vn -0.3191 0.0155 0.9476
vn -1.0000 0.0080 0.0059
vn -0.9510 0.0052 -0.3093
vn -0.9508 0.0148 -0.3093
vn -0.0061 0.0078 -1.0000
vn 0.3148 0.0048 -0.9492
vn 0.3147 0.0147 -0.9491
vn -0.0060 0.0078 -1.0000
vn 0.9469 0.0048 0.3216
vn 0.9998 -0.0198 0.0056
vn -0.0071 -0.0197 0.9998
vn -0.9998 -0.0195 0.0057
vn -0.9998 -0.0196 0.0057
vn -0.0072 -0.0197 -0.9998
vn 0.9484 -0.0373 -0.3149
vn 0.3086 -0.0373 0.9505
vn -0.0071 -0.0202 0.9998
vn 0.3086 -0.0374 0.9504
vn -0.9477 -0.0375 0.3171
vn -0.9998 -0.0199 0.0057
vn -0.3234 -0.0374 -0.9455
vn -0.0072 -0.0192 -0.9998
vn -0.3234 -0.0373 -0.9455
vn 0.9484 -0.0372 -0.3149
vn 0.9998 -0.0195 0.0056
vn -0.5388 -0.5692 0.6211
vn -0.9230 0.3816 0.0493
vn -0.8071 -0.5693 -0.1563
vn -0.5190 -0.8514 0.0759
vn -0.5388 -0.5692 0.6210
vn -0.1933 -0.8511 0.4881
vn -0.0000 -1.0000 -0.0011
vn -0.4188 0.3809 0.8243
vn 0.2697 -0.5684 0.7773
vn -0.5387 -0.5692 0.6211
vn 0.2697 -0.5685 0.7772
vn 0.3282 -0.8500 0.4120
vn 0.5055 0.3789 0.7752
vn 0.8077 -0.5690 0.1547
vn 0.8077 -0.5689 0.1547
vn 0.5218 -0.8494 -0.0788
vn 0.9244 0.3780 -0.0516
vn 0.5376 -0.5684 -0.6228
vn 0.1937 -0.8499 -0.4900
vn 0.4176 0.3793 -0.8257
vn -0.2683 -0.5693 -0.7771
vn -0.3256 -0.8508 -0.4125
vn -0.5049 0.3811 -0.7745
vn -0.5191 -0.8514 0.0759
vn -0.7518 0.6438 0.1427
vn -0.2508 0.6445 0.7223
vn -0.2508 0.6445 0.7224
vn -0.4985 0.0554 0.8651
vn -0.9987 0.0503 0.0004
vn -0.6420 -0.1929 0.7420
vn -0.9619 -0.2003 -0.1863
vn 0.5000 0.6461 0.5767
vn 0.4996 0.0548 0.8645
vn -0.2507 0.6445 0.7223
vn 0.3198 -0.1881 0.9286
vn -0.6421 -0.1929 0.7420
vn 0.9244 0.3780 -0.0517
vn 0.7486 0.6466 -0.1466
vn 0.9985 0.0536 -0.0052
vn 0.9624 -0.1983 0.1859
vn 0.9624 -0.1983 0.1858
vn 0.2498 0.6450 -0.7222
vn 0.4954 0.0526 -0.8670
vn 0.6385 -0.1995 -0.7433
vn 0.9985 0.0537 -0.0052
vn -0.5002 0.6440 -0.5789
vn -0.5002 0.6440 -0.5788
vn -0.4998 0.0495 -0.8647
vn 0.2499 0.6450 -0.7222
vn 0.4955 0.0526 -0.8670
vn -0.3200 -0.1993 -0.9262
vn -0.9618 -0.2004 -0.1863
vn -0.4998 0.0496 -0.8647
vn -0.9619 -0.2004 -0.1862
vn -0.5217 0.6029 0.6037
vn -0.6492 -0.7502 0.1253
vn -0.2609 -0.6029 0.7540
vn -0.6492 0.7502 -0.1253
vn 0.3058 0.3534 0.8841
vn 0.6117 -0.3535 0.7078
vn -0.5217 0.6029 0.6036
vn 0.6492 0.7502 0.1253
vn 0.6492 -0.7502 -0.1253
vn 0.3058 0.3535 0.8840
vn 0.5217 0.6029 -0.6037
vn 0.2609 -0.6029 -0.7540
vn -0.3058 0.3535 -0.8841
vn -0.6117 -0.3535 -0.7078
vn 0.5217 0.6029 -0.6036
vn -0.6117 -0.3534 -0.7078
vn -0.3058 0.3535 -0.8840
vn 0.6492 0.7502 0.1254
vn 0.3058 0.3535 0.8841
vn -0.6492 0.7502 -0.1254
vn -0.5754 0.8053 -0.1428
vn -0.1601 -0.7998 0.5785
vn 0.4170 -0.8023 0.4271
vn -0.1602 0.7998 -0.5785
vn -0.4006 0.8113 0.4257
vn 0.4171 -0.8023 0.4271
vn 0.5738 -0.8072 -0.1383
vn 0.1667 0.8069 0.5667
vn 0.5738 -0.8073 -0.1383
vn 0.1683 -0.8099 -0.5619
vn -0.4008 0.8113 0.4257
vn 0.5746 0.8063 0.1402
vn -0.4092 -0.8066 -0.4266
vn 0.1666 0.8068 0.5668
vn 0.4171 0.8023 -0.4271
vn -0.4093 -0.8065 -0.4266
vn -0.5754 -0.8053 0.1428
vn 0.5746 0.8064 0.1402
vn -0.1601 0.7998 -0.5785
vn -0.1602 -0.7998 0.5785
vn 0.4170 0.8023 -0.4271
vn 1.0000 0.0000 0.0000
vn -0.1601 -0.7998 0.5786
vn 0.5003 -0.0025 -0.8658
vn -0.1601 0.7998 -0.5786
vn -0.5754 0.8053 -0.1427
vn 0.5003 0.0025 0.8658
vn -0.5754 -0.8053 0.1427
vn -0.4988 0.0017 0.8667
vn -0.5755 -0.8053 0.1428
vn 0.5745 0.8064 0.1402
vn 0.4170 0.8023 -0.4270
vn -1.0000 0.0042 0.0018
vn 0.1682 -0.8099 -0.5620
vn 0.1666 0.8069 0.5667
vn -0.4977 -0.0015 -0.8673
vn 0.1683 -0.8099 -0.5620
vn 0.5738 -0.8072 -0.1384
vn -0.4007 0.8113 0.4257
vn 0.1667 0.8068 0.5668
vn 0.5004 -0.0025 -0.8658
vn -0.5755 0.8053 -0.1428
usemtl w21st07_TEX_w21st07_bod00
s 1
f 1/1/1 2/2/2 3/3/3
f 2/2/2 1/1/1 4/4/4
f 5/5/5 4/6/6 1/7/7
f 4/6/6 5/5/5 6/8/8
f 7/9/9 6/8/8 5/5/5
f 6/8/8 7/9/10 8/10/11
f 9/11/12 8/10/11 7/9/10
f 8/10/11 9/11/12 10/12/13
f 11/13/14 10/12/13 9/11/12
f 10/12/13 11/13/14 12/14/15
f 13/15/16 12/16/17 11/17/14
f 12/16/17 13/15/16 14/18/18
f 15/19/19 14/20/20 13/21/16
f 14/20/20 15/19/19 16/22/21
f 17/23/22 16/22/21 15/19/19
f 16/22/21 17/23/22 18/24/23
f 19/25/24 18/26/23 17/27/22
f 18/26/23 19/25/24 20/28/25
f 21/29/26 20/28/25 19/25/24
f 22/30/27 24/31/28 23/32/29
f 23/32/29 25/33/30 22/30/27
f 22/30/27 26/34/31 24/31/28
f 3/35/32 23/32/33 27/36/34
f 23/32/33 3/35/32 2/37/2
f 28/38/35 29/39/36 30/40/37
f 29/39/36 28/38/35 31/41/38
f 32/42/39 30/43/40 33/44/41
f 30/43/40 32/42/39 28/45/35
f 32/46/42 34/47/43 35/48/44
f 34/47/43 32/46/39 33/49/41
f 25/50/30 34/51/43 36/52/45
f 34/51/43 25/50/30 35/53/44
f 37/54/46 38/55/47 39/56/48
f 38/55/47 37/54/46 40/57/49
f 41/58/50 39/59/48 42/60/51
f 39/59/48 41/58/50 37/61/52
f 43/62/53 42/63/51 44/64/54
f 42/63/51 43/62/53 41/65/50
f 45/66/55 44/67/54 46/68/56
f 44/67/54 45/66/55 43/69/53
f 45/70/57 29/71/36 31/72/58
f 29/71/36 45/70/57 46/73/56
f 9/74/12 47/75/59 11/76/60
f 47/75/59 9/74/12 48/77/61
f 11/78/14 49/79/62 13/80/16
f 49/79/62 11/78/14 47/81/59
f 13/82/16 50/83/63 15/84/19
f 50/83/63 13/82/16 49/85/62
f 17/86/64 50/87/63 51/88/65
f 50/87/63 17/86/64 15/89/19
f 19/90/66 51/91/65 52/92/67
f 51/91/65 19/90/66 17/93/22
f 1/94/7 54/95/68 53/96/69
f 53/96/69 5/97/5 1/94/7
f 1/94/7 3/98/3 54/95/68
f 5/97/5 53/96/70 55/99/71
f 55/99/71 7/100/9 5/97/5
f 55/99/71 56/101/72 7/100/9
f 9/102/12 56/103/73 48/104/61
f 56/103/73 9/102/12 7/105/9
f 19/25/66 57/106/74 21/29/75
f 58/107/76 59/108/77 60/109/78
f 59/108/77 58/107/76 61/110/79
f 62/111/80 26/112/31 22/113/27
f 26/112/31 62/111/80 63/114/81
f 64/115/82 62/116/80 65/117/83
f 62/116/80 64/115/82 63/118/81
f 66/119/84 65/120/83 27/121/85
f 65/120/83 66/119/84 64/122/82
f 67/123/86 65/117/87 62/116/88
f 65/117/87 67/123/86 68/124/89
f 69/125/90 70/126/91 71/127/92
f 70/126/91 69/125/90 72/128/93
f 73/129/94 70/130/91 74/131/95
f 70/130/91 73/129/94 71/132/96
f 75/133/97 74/134/98 76/135/99
f 74/134/98 75/133/97 73/136/100
f 77/137/101 76/138/99 78/139/102
f 76/138/99 77/137/101 75/140/97
f 79/141/103 80/142/104 81/143/105
f 80/142/104 79/141/103 82/144/106
f 81/145/107 83/146/108 84/147/109
f 83/146/110 81/145/105 80/148/111
f 84/149/109 85/150/112 86/151/113
f 85/150/112 84/149/109 83/152/114
f 86/153/113 87/154/115 88/155/116
f 87/154/115 86/153/113 85/156/112
f 88/157/116 89/158/117 90/159/118
f 89/158/117 88/157/116 87/160/115
f 90/161/118 91/162/119 92/163/120
f 91/162/119 90/161/118 89/164/121
f 92/165/122 93/166/123 94/167/124
f 93/166/123 92/165/122 91/168/125
f 94/169/124 95/170/126 96/171/127
f 95/170/126 94/169/124 93/172/128
f 96/173/129 97/174/130 98/175/131
f 97/174/130 96/173/129 95/176/126
f 98/177/131 99/178/132 100/179/133
f 99/178/132 98/177/131 97/180/130
f 100/181/133 101/182/134 102/183/135
f 101/182/134 100/181/133 99/184/136
f 102/185/135 103/186/137 104/187/138
f 103/186/137 102/185/135 101/188/134
f 105/189/139 83/190/108 106/191/140
f 83/190/110 105/189/139 85/192/112
f 87/193/141 85/192/112 105/189/139
f 106/191/140 80/194/104 107/195/142
f 80/194/104 106/191/140 83/190/110
f 107/195/142 82/196/143 108/197/144
f 82/196/143 107/195/142 80/194/104
f 77/198/145 101/199/134 75/200/97
f 101/199/134 77/198/145 103/201/146
f 75/202/147 99/203/136 73/204/94
f 99/203/136 75/202/147 101/205/148
f 73/206/94 97/207/130 71/208/96
f 97/207/130 73/206/94 99/209/136
f 109/210/149 93/211/123 110/212/150
f 93/211/123 109/210/149 95/213/151
f 110/214/152 91/215/125 111/216/153
f 91/215/154 110/214/150 93/217/123
f 91/215/119 112/218/155 111/216/153
f 112/218/155 91/215/119 89/219/156
f 89/220/156 113/221/157 112/222/158
f 113/221/157 89/220/156 87/223/159
f 105/189/139 113/224/157 87/193/115
f 86/225/113 115/226/160 114/227/161
f 114/227/161 116/228/162 86/225/113
f 84/229/109 86/225/113 116/228/162
f 116/228/162 117/230/163 84/229/109
f 81/231/107 84/229/109 117/230/163
f 117/230/163 118/232/164 81/231/107
f 79/233/103 81/231/105 118/232/164
f 86/225/113 88/234/116 115/226/160
f 115/235/160 90/236/165 119/237/166
f 90/236/165 115/235/160 88/238/167
f 119/239/166 92/240/168 120/241/169
f 92/240/168 119/239/166 90/242/118
f 121/243/170 92/240/122 94/244/124
f 92/240/122 121/243/170 120/241/169
f 94/245/124 122/246/171 121/247/170
f 122/246/171 94/245/124 96/248/127
f 98/249/131 74/250/95 70/251/91
f 70/251/91 72/252/93 98/249/131
f 96/253/129 98/249/131 72/252/93
f 98/249/131 100/254/172 74/250/95
f 100/255/133 76/256/173 74/257/98
f 76/256/173 100/255/133 102/258/174
f 76/259/99 104/260/175 78/261/102
f 104/260/175 76/259/99 102/262/135
f 78/263/102 103/264/137 77/265/101
f 103/264/137 78/263/102 104/266/175
f 82/267/106 123/268/176 108/269/144
f 123/268/176 82/267/106 124/270/177
f 125/271/178 82/272/106 79/273/103
f 82/272/106 125/271/178 124/274/177
f 126/275/179 79/276/103 118/277/164
f 79/276/103 126/275/179 125/278/180
f 123/279/176 125/280/178 126/281/179
f 125/280/178 123/279/176 124/282/177
f 30/283/40 105/284/139 106/285/140
f 106/285/140 33/286/41 30/283/40
f 105/284/139 30/283/37 29/287/36
f 29/287/36 113/288/157 105/284/139
f 33/286/41 106/285/140 107/289/142
f 107/289/142 34/290/43 33/286/41
f 107/289/142 108/291/144 34/290/43
f 39/292/48 109/293/149 110/294/150
f 109/293/149 39/292/48 38/295/47
f 42/296/51 110/297/152 111/298/153
f 111/298/153 44/299/54 42/296/51
f 42/296/51 39/300/48 110/297/152
f 111/298/153 112/301/155 44/299/54
f 29/287/36 46/302/56 113/288/157
f 112/303/155 46/304/56 44/305/54
f 46/304/56 112/303/155 113/306/157
f 47/307/59 114/308/161 115/309/160
f 114/308/161 47/307/59 48/310/61
f 49/311/62 115/312/160 119/313/166
f 115/312/160 49/311/62 47/314/181
f 50/315/63 119/316/166 120/317/169
f 120/317/169 51/318/65 50/315/63
f 50/315/63 49/319/62 119/316/166
f 120/317/169 121/320/170 51/318/65
f 52/321/182 121/322/170 122/323/171
f 121/322/170 52/321/182 51/324/65
f 116/325/162 48/310/61 56/326/73
f 56/326/73 117/327/163 116/325/162
f 116/325/162 114/308/161 48/310/61
f 117/327/163 56/326/72 55/328/71
f 55/328/71 118/329/164 117/327/163
f 55/328/71 53/330/70 118/329/164
f 127/331/183 67/332/184 36/333/45
f 67/332/184 127/331/183 128/334/185
f 129/335/186 127/336/187 130/337/188
f 127/336/187 129/335/186 128/338/189
f 68/339/89 130/340/188 54/341/68
f 130/340/188 68/339/89 129/342/186
f 68/343/190 128/344/189 129/345/186
f 128/344/189 68/343/190 67/346/184
f 123/347/191 130/337/188 127/336/187
f 130/337/188 123/347/191 126/348/179
f 122/349/171 59/350/77 52/351/192
f 59/350/77 122/349/171 72/352/193
f 60/353/194 109/354/149 38/355/47
f 109/354/149 60/353/194 69/356/90
f 60/357/78 72/358/193 69/359/90
f 72/358/193 60/357/78 59/360/77
f 131/361/195 20/28/196 21/29/197
f 20/28/196 131/361/195 40/362/49
f 40/362/198 18/26/23 20/28/25
f 18/26/23 40/362/198 37/363/52
f 37/364/52 16/22/199 18/24/23
f 16/22/199 37/364/52 41/365/200
f 41/365/201 14/20/20 16/22/21
f 14/20/20 41/365/201 43/366/53
f 43/367/53 12/16/17 14/18/18
f 12/16/17 43/367/53 45/368/202
f 45/369/57 10/12/13 12/14/15
f 10/12/13 45/369/57 31/370/203
f 31/370/58 8/10/11 10/12/204
f 8/10/11 31/370/58 28/371/205
f 28/371/35 6/8/8 8/10/11
f 6/8/8 28/371/35 32/372/206
f 32/372/39 4/6/6 6/8/8
f 4/6/6 32/372/39 35/373/44
f 35/374/207 2/2/2 4/4/4
f 2/2/2 35/374/207 25/375/208
f 23/32/29 2/37/2 25/33/30
f 66/376/209 23/32/29 24/31/28
f 23/32/29 66/376/209 27/36/210
f 25/377/30 67/378/184 22/379/27
f 67/378/184 25/377/30 36/380/211
f 59/381/77 19/382/24 52/383/67
f 19/382/24 59/381/77 57/384/212
f 68/385/89 27/386/213 65/387/87
f 27/386/213 68/385/89 3/388/3
f 58/389/76 60/390/78 131/391/214
f 67/378/184 62/392/80 22/379/27
f 68/385/89 54/393/68 3/388/3
f 69/394/90 97/207/130 95/395/215
f 97/207/130 69/394/90 71/208/96
f 95/395/215 109/396/149 69/394/90
f 60/390/78 38/397/47 40/398/198
f 60/390/78 40/398/198 131/391/214
f 72/252/93 122/399/171 96/253/129
f 59/381/77 61/400/79 57/384/212
f 34/401/43 123/402/191 36/403/211
f 123/402/191 34/401/43 108/404/144
f 126/405/179 54/406/68 130/407/188
f 54/406/68 126/405/179 53/408/69
f 123/402/191 127/409/187 36/403/211
f 126/405/179 118/410/164 53/408/69
f 66/411/209 24/412/216 26/413/31
f 63/414/81 64/415/82 66/411/209
f 66/411/209 26/413/31 63/414/81
f 58/416/76 57/417/74 61/418/217
f 57/417/74 58/416/76 131/419/195
f 131/419/195 21/420/197 57/417/218
f 132/421/219 133/422/220 134/423/221
f 133/422/220 132/421/219 135/424/222
f 136/425/223 134/426/221 137/427/224
f 134/426/221 136/425/223 132/428/219
f 138/429/225 137/430/226 139/431/227
f 137/430/226 138/429/225 136/432/223
f 140/433/228 139/434/229 141/435/230
f 139/434/229 140/433/228 138/436/225
f 142/437/231 141/438/232 143/439/233
f 141/438/232 142/437/231 140/440/234
f 135/441/222 143/442/233 133/443/235
f 143/442/233 135/441/222 142/444/236
f 144/445/237 145/446/238 146/447/239
f 145/446/238 144/445/237 147/448/240
f 148/449/241 146/450/239 149/451/242
f 146/450/239 148/449/241 144/452/243
f 150/453/244 149/454/242 151/455/245
f 149/454/242 150/453/244 148/456/241
f 152/457/246 151/458/247 153/459/248
f 151/458/247 152/457/246 150/460/244
f 154/461/249 153/462/248 155/463/250
f 153/462/248 154/461/249 152/464/251
f 147/465/240 155/466/250 145/467/252
f 155/466/250 147/465/240 154/468/253
f 150/469/244 144/470/237 148/471/254
f 144/470/237 150/469/244 147/472/240
f 152/473/246 147/472/240 150/469/244
f 147/472/240 152/473/246 154/474/249
f 156/475/255 135/476/222 132/477/219
f 135/476/222 156/475/255 157/478/256
f 158/479/257 132/480/219 136/481/223
f 132/480/219 158/479/257 156/482/255
f 159/483/258 136/484/223 138/485/225
f 136/484/223 159/483/258 158/486/257
f 160/487/259 138/488/225 140/489/228
f 138/488/225 160/487/259 159/490/258
f 161/491/260 140/492/261 142/493/231
f 140/492/261 161/491/260 160/494/259
f 157/495/262 142/496/231 135/497/222
f 142/496/231 157/495/262 161/498/263
f 146/499/239 157/500/264 156/501/255
f 157/500/264 146/499/239 145/502/265
f 149/503/242 156/504/255 158/505/257
f 156/504/255 149/503/242 146/506/239
f 151/507/247 158/508/257 159/509/266
f 158/508/257 151/507/247 149/510/242
f 153/511/267 159/512/258 160/513/259
f 159/512/258 153/511/267 151/514/247
f 155/515/250 160/516/259 161/517/263
f 160/516/259 155/515/250 153/518/248
f 145/519/252 161/520/268 157/521/262
f 161/520/268 145/519/252 155/522/250
f 162/523/269 164/524/270 163/525/271
f 163/525/271 165/526/272 162/523/269
f 164/524/270 162/523/269 166/527/273
f 166/527/273 167/528/274 164/524/270
f 165/526/272 163/525/271 168/529/275
f 168/529/275 169/530/276 165/526/272
f 169/530/276 168/529/275 167/528/274
f 167/528/274 166/527/273 169/530/276
f 170/531/277 171/532/278 172/533/279
f 171/532/278 170/531/277 173/534/280
f 174/535/281 172/536/279 175/537/282
f 172/536/279 174/535/281 170/538/277
f 176/539/283 175/540/282 177/541/284
f 175/540/282 176/539/283 174/542/285
f 178/543/286 177/544/284 179/545/287
f 177/544/284 178/543/286 176/546/283
f 180/547/288 179/548/289 181/549/290
f 179/548/289 180/547/288 178/550/286
f 173/551/280 181/552/291 171/553/292
f 181/552/291 173/551/280 180/554/288
f 171/555/278 179/556/287 177/557/284
f 177/557/284 175/558/282 171/555/278
f 172/559/279 171/555/278 175/558/282
f 171/555/278 181/560/291 179/556/287
f 137/561/293 170/562/277 174/563/285
f 170/562/277 137/561/293 134/564/221
f 139/565/229 174/566/285 176/567/294
f 174/566/285 139/565/229 137/568/293
f 141/569/295 176/570/294 178/571/286
f 176/570/294 141/569/295 139/572/229
f 141/573/296 180/574/288 143/575/233
f 180/574/288 141/573/296 178/576/286
f 143/577/233 173/578/280 133/579/220
f 173/578/280 143/577/233 180/580/288
f 133/581/220 170/582/277 134/583/221
f 170/582/277 133/581/220 173/584/280
f 182/585/297 184/586/298 183/587/299
f 183/587/299 185/588/300 182/585/297
f 185/589/301 183/590/299 186/591/302
f 186/591/302 187/592/303 185/589/301
f 187/593/304 186/594/302 188/595/305
f 188/595/305 189/596/306 187/593/304
f 189/597/307 188/598/308 184/599/298
f 184/599/298 182/600/309 189/597/307
f 184/601/298 191/602/310 190/603/311
f 190/603/311 183/604/299 184/601/298
f 183/605/299 190/606/311 192/607/312
f 192/607/312 186/608/302 183/605/299
f 186/609/302 192/610/313 193/611/314
f 193/611/314 188/612/305 186/609/302
f 188/613/308 193/614/314 191/615/310
f 191/615/310 184/616/298 188/613/308
f 191/617/310 195/618/315 194/619/316
f 194/619/316 190/620/317 191/617/310
f 190/621/311 194/622/318 196/623/319
f 196/623/319 192/624/320 190/621/311
f 192/625/313 196/626/319 197/627/321
f 197/627/321 193/628/322 192/625/313
f 193/629/314 197/630/323 195/631/324
f 195/631/324 191/632/325 193/629/314
f 198/633/326 200/634/327 199/635/328
f 199/635/328 201/636/329 198/633/330
f 202/637/331 198/633/330 201/636/329
f 201/636/329 203/638/332 202/637/331
f 198/633/326 204/639/333 200/634/327
f 205/640/334 204/641/333 198/642/326
f 198/642/335 202/643/331 205/640/336
f 206/644/337 205/640/336 202/643/331
f 202/643/331 203/645/332 206/644/337
f 205/640/334 207/646/338 204/641/333
f 208/647/339 207/648/338 205/649/334
f 205/649/334 206/650/337 208/647/340
f 209/651/341 208/647/340 206/650/337
f 206/650/337 203/638/332 209/651/341
f 208/647/339 210/652/342 207/648/338
f 211/653/343 210/654/342 208/655/339
f 208/655/340 209/656/341 211/653/343
f 212/657/344 211/653/343 209/656/341
f 209/656/341 203/645/332 212/657/344
f 211/653/343 213/658/345 210/654/342
f 214/659/346 213/660/345 211/661/343
f 211/661/343 212/662/344 214/659/346
f 215/663/347 214/659/346 212/662/344
f 212/662/344 203/638/332 215/663/347
f 214/659/346 216/664/348 213/660/345
f 199/665/328 216/666/348 214/667/346
f 214/667/346 215/668/347 199/665/328
f 201/669/349 199/665/328 215/668/347
f 215/668/347 203/645/332 201/669/349
f 199/665/328 200/670/327 216/666/348
f 217/671/350 204/639/333 218/672/351
f 218/672/352 219/673/353 217/671/350
f 220/674/354 217/671/350 219/673/353
f 219/673/353 221/675/355 220/674/354
f 222/676/356 220/674/354 221/675/355
f 217/671/350 200/634/327 204/639/333
f 218/677/351 207/646/338 223/678/357
f 223/678/357 224/679/358 218/677/359
f 219/680/353 218/677/359 224/679/358
f 224/679/358 225/681/360 219/680/353
f 221/682/361 219/680/353 225/681/360
f 218/677/351 204/641/333 207/646/338
f 223/683/357 210/652/362 226/684/363
f 226/684/363 227/685/364 223/683/357
f 224/686/358 223/683/357 227/685/364
f 227/685/364 228/687/365 224/686/358
f 225/688/360 224/686/358 228/687/366
f 223/683/357 207/648/338 210/652/362
f 226/689/363 213/658/345 229/690/367
f 229/690/367 230/691/368 226/689/363
f 227/692/364 226/689/363 230/691/368
f 230/691/368 231/693/369 227/692/364
f 228/694/366 227/692/370 231/693/369
f 226/689/363 210/654/362 213/658/345
f 229/695/367 216/664/348 232/696/371
f 232/696/372 233/697/373 229/695/374
f 230/698/375 229/695/374 233/697/373
f 233/697/373 234/699/376 230/698/375
f 231/700/369 230/698/375 234/699/376
f 229/695/367 213/660/345 216/664/348
f 232/701/371 200/670/327 217/702/350
f 217/702/350 220/703/354 232/701/372
f 233/704/373 232/701/372 220/703/354
f 220/703/354 222/705/377 233/704/373
f 234/706/376 233/704/378 222/705/379
f 232/701/371 216/666/348 200/670/327
f 235/707/380 236/708/381 237/709/382
f 236/708/381 235/707/380 238/710/383
f 239/711/384 237/712/382 240/713/385
f 237/712/382 239/711/384 235/714/386
f 241/715/387 240/716/385 242/717/388
f 240/716/385 241/715/387 239/718/389
f 243/719/390 242/720/388 244/721/391
f 242/720/388 243/719/390 241/722/387
f 245/723/392 244/724/391 246/725/393
f 244/724/391 245/723/392 243/726/394
f 238/727/383 246/728/395 236/729/381
f 246/728/395 238/727/383 245/730/396
f 241/731/397 235/732/386 239/733/398
f 235/732/386 241/731/397 238/734/399
f 243/735/394 238/734/399 241/731/397
f 238/734/399 243/735/394 245/736/396
f 247/737/400 248/738/401 249/739/402
f 248/738/401 247/737/400 250/740/403
f 251/741/404 249/742/405 252/743/406
f 249/742/405 251/741/404 247/744/400
f 253/745/407 252/746/408 254/747/409
f 252/746/408 253/745/407 251/748/410
f 255/749/411 254/750/409 256/751/412
f 254/750/409 255/749/411 253/752/413
f 257/753/414 256/754/415 258/755/416
f 256/754/415 257/753/414 255/756/417
f 250/757/418 258/758/416 248/759/419
f 258/758/416 250/757/418 257/760/420
f 259/761/421 249/762/405 248/763/422
f 249/762/405 259/761/421 260/764/423
f 250/765/424 260/764/423 259/761/421
f 260/764/423 250/765/424 247/766/425
f 261/767/426 248/768/422 258/769/427
f 248/768/422 261/767/426 259/770/421
f 257/771/414 259/770/421 261/767/426
f 259/770/421 257/771/414 250/772/424
f 262/773/428 258/774/429 256/775/415
f 258/774/429 262/773/428 261/776/426
f 255/777/430 261/776/426 262/773/428
f 261/776/426 255/777/430 257/778/431
f 263/779/432 256/780/415 254/781/433
f 256/780/415 263/779/432 262/782/428
f 253/783/434 262/782/428 263/779/432
f 262/782/428 253/783/434 255/784/417
f 264/785/435 254/786/436 252/787/437
f 254/786/436 264/785/435 263/788/432
f 251/789/438 263/788/432 264/785/435
f 263/788/432 251/789/438 253/790/439
f 260/791/440 252/792/437 249/793/402
f 252/792/437 260/791/440 264/794/435
f 247/795/441 264/794/435 260/791/440
f 264/794/435 247/795/441 251/796/438
f 242/797/388 237/798/382 236/799/381
f 236/799/381 244/800/391 242/797/388
f 242/797/388 240/801/385 237/798/382
f 236/799/381 246/802/393 244/800/391
