# Blender v2.79 (sub 0) OBJ File: ''
# www.blender.org
mtllib w21st05.mtl
o MDL_w21st05_bod00.001
v -0.016200 -0.742800 -0.000000
v 0.000000 -0.507800 0.024400
v -0.020900 -0.507800 -0.000000
v 0.000000 -0.742800 0.018400
v -0.017800 -1.000600 0.010300
v 0.000000 -1.000600 0.020600
v 0.000000 -0.742800 -0.018400
v 0.000000 -0.507800 -0.024100
v 0.000000 -1.000600 -0.020300
v -0.017800 -1.000600 -0.010000
v 0.017500 -1.000600 -0.010000
v 0.017500 -1.000600 0.010300
v 0.000000 -0.151300 -0.014100
v -0.014100 0.310600 0.000000
v 0.000000 0.310600 -0.015900
v -0.012500 -0.151300 -0.000000
v 0.000000 -0.498100 -0.017800
v -0.015600 -0.498100 -0.000000
v 0.000000 0.310600 0.016200
v 0.000000 -0.149700 0.014400
v 0.000000 -0.498100 0.018100
v 0.000000 0.419400 -0.036600
v -0.025300 0.536600 -0.014400
v 0.000000 0.536600 -0.029100
v -0.031900 0.421200 0.000000
v -0.025300 0.536600 0.014700
v 0.000000 0.419400 0.036600
v 0.000000 0.536600 0.029400
v 0.000000 0.626600 0.000000
v 0.000000 0.619700 -0.030600
v -0.026600 0.619700 -0.015300
v 0.000000 0.619700 0.030900
v -0.026600 0.619700 0.015300
v -0.058100 0.571300 -0.033400
v 0.000000 0.571300 -0.066900
v -0.058100 0.571300 0.033400
v 0.000000 0.571300 0.067200
v -0.017800 0.654400 -0.008800
v -0.030900 0.668400 -0.017800
v -0.030900 0.668400 0.017800
v 0.000000 0.654400 -0.017800
v 0.000000 0.649400 0.000000
v -0.017800 0.654400 0.009100
v 0.000000 0.668400 0.035900
v 0.000000 0.654400 0.017800
v 0.000000 0.668400 -0.035600
v 0.030900 0.668400 -0.017800
v 0.017500 0.654400 -0.008800
v 0.030900 0.668400 0.017800
v 0.017500 0.654400 0.009100
v -0.037200 0.690600 -0.021300
v -0.037200 0.690600 0.021600
v 0.000000 0.690600 0.042800
v 0.037200 0.690600 0.021600
v 0.037200 0.690600 -0.021300
v 0.000000 0.690600 -0.042800
v -0.029700 0.720000 -0.016900
v -0.029700 0.720000 0.017200
v 0.000000 0.720000 0.034400
v 0.029700 0.720000 0.017200
v 0.029700 0.720000 -0.016900
v 0.000000 0.720000 -0.034100
v -0.017500 0.739100 -0.010000
v 0.000000 0.747500 0.000000
v -0.017500 0.739100 0.010000
v 0.000000 0.739100 -0.020000
v 0.000000 0.739100 0.020000
v 0.017200 0.739100 0.010000
v 0.015900 -0.742800 -0.000000
v 0.020900 -0.507800 -0.000000
v 0.012200 -0.151300 -0.000000
v 0.013700 0.310600 0.000000
v 0.015300 -0.498100 -0.000000
v 0.031600 0.421200 0.000000
v 0.025300 0.536600 -0.014400
v 0.025300 0.536600 0.014700
v 0.026600 0.619700 -0.015300
v 0.026600 0.619700 0.015300
v 0.058100 0.571300 -0.033400
v 0.058100 0.571300 0.033400
v 0.017200 0.739100 -0.010000
v -0.087500 0.691600 0.002500
v -0.037200 0.690600 0.000000
v -0.088100 0.685000 0.000000
v -0.087500 0.698400 0.000000
v -0.109700 0.692200 0.000000
v -0.087500 0.691300 -0.002800
v 0.043700 0.685000 -0.076300
v 0.054700 0.692200 -0.095000
v 0.045900 0.691300 -0.074100
v 0.043400 0.698400 -0.075600
v 0.018400 0.690600 -0.032200
v 0.041300 0.691600 -0.076900
v 0.043700 0.685000 0.076300
v 0.054700 0.692200 0.095000
v 0.040900 0.691300 0.077200
v 0.043400 0.698400 0.075600
v 0.018400 0.690600 0.032200
v 0.045900 0.691600 0.074400
v -0.089400 0.592200 0.000300
v -0.100600 0.604700 0.000300
v -0.062800 0.625900 0.005900
v -0.062800 0.625900 -0.005600
v -0.025900 0.569700 0.000000
v -0.021300 0.580900 -0.004100
v -0.050600 0.634400 0.000000
v -0.070000 0.692200 0.000000
v -0.017200 0.591300 0.000000
v -0.021300 0.580900 0.004100
v -0.087500 0.683400 -0.005600
v -0.122500 0.637800 0.000000
v -0.087500 0.683400 0.005900
v -0.129400 0.722800 0.005900
v -0.160000 0.659700 0.000600
v -0.191600 0.683400 0.000300
v -0.198800 0.744400 0.005900
v -0.215600 0.707800 0.000000
v -0.286900 0.741200 0.000000
v -0.111600 0.735900 0.000000
v -0.194700 0.756600 0.000000
v -0.198800 0.744400 -0.005600
v -0.279400 0.770300 0.000000
v -0.297200 0.755600 0.000000
v -0.125600 0.720600 -0.005600
v 0.044700 0.592200 0.077200
v 0.050600 0.604700 0.087200
v 0.036200 0.625900 0.051600
v 0.026200 0.625900 0.057500
v 0.012800 0.569700 0.022500
v 0.006900 0.580900 0.020300
v 0.025300 0.634400 0.044100
v 0.035000 0.692200 0.060600
v 0.008400 0.591300 0.015000
v 0.014100 0.580900 0.016200
v 0.038400 0.683400 0.078700
v 0.061300 0.637800 0.106300
v 0.048700 0.683400 0.072800
v 0.069700 0.722800 0.109400
v 0.080300 0.659700 0.138400
v 0.095900 0.683400 0.165600
v 0.104400 0.744400 0.169100
v 0.107800 0.707800 0.186900
v 0.143100 0.741200 0.248400
v 0.055600 0.735900 0.096600
v 0.097200 0.756600 0.168800
v 0.094100 0.744400 0.175000
v 0.139400 0.770300 0.241900
v 0.148400 0.755600 0.257200
v 0.057500 0.720600 0.111600
v 0.044400 0.592200 -0.077200
v 0.050000 0.604700 -0.087200
v 0.026200 0.625900 -0.057200
v 0.036200 0.625900 -0.051200
v 0.012800 0.569700 -0.022500
v 0.014100 0.580900 -0.016200
v 0.025300 0.634400 -0.043700
v 0.035000 0.692200 -0.060600
v 0.008400 0.591300 -0.014700
v 0.006900 0.580900 -0.020300
v 0.048700 0.683400 -0.072800
v 0.061300 0.637800 -0.105900
v 0.038400 0.683400 -0.078700
v 0.059400 0.722800 -0.115000
v 0.079400 0.659700 -0.138800
v 0.095300 0.683400 -0.165900
v 0.094100 0.744400 -0.175000
v 0.107500 0.707800 -0.186900
v 0.143100 0.741200 -0.248100
v 0.055600 0.735900 -0.096200
v 0.097200 0.756600 -0.168400
v 0.104400 0.744400 -0.169100
v 0.139400 0.770300 -0.241900
v 0.148400 0.755600 -0.257200
v 0.067800 0.720600 -0.105600
vt 0.125000 0.250000
vt 0.007800 0.019500
vt 0.125000 0.019500
vt 0.007800 0.250000
vt 0.078100 0.500000
vt 0.007800 0.500000
vt 0.242200 0.250000
vt 0.242200 0.019500
vt 0.242200 0.500000
vt 0.179700 0.500000
vt 0.242200 0.453100
vt 0.070300 0.449200
vt 0.007800 0.453100
vt 0.070300 0.449200
vt 0.187500 0.449200
vt 0.187500 0.449200
vt 0.007800 0.503900
vt 0.125000 0.996100
vt 0.007800 0.996100
vt 0.125000 0.503900
vt 0.007800 0.996100
vt 0.125000 0.996100
vt 0.242200 0.996100
vt 0.242200 0.503900
vt 0.242200 0.996100
vt 0.125000 0.003900
vt 0.242200 0.003900
vt 0.007800 0.003900
vt 0.007800 0.168000
vt 0.078100 0.003900
vt 0.007800 0.003900
vt 0.125000 0.168000
vt 0.007800 0.277300
vt 0.125000 0.277300
vt 0.171900 0.003900
vt 0.242200 0.168000
vt 0.242200 0.277300
vt 0.242200 0.003900
vt 0.757800 0.437500
vt 0.992200 0.496100
vt 0.992200 0.437500
vt 0.992200 0.496100
vt 0.992200 0.437500
vt 0.992200 0.378900
vt 0.820300 0.746100
vt 0.992200 0.625000
vt 0.757800 0.625000
vt 0.929700 0.746100
vt 0.562500 0.746100
vt 0.742200 0.625000
vt 0.507800 0.625000
vt 0.679700 0.746100
vt 0.820300 0.746100
vt 0.992200 0.625000
vt 0.757800 0.625000
vt 0.929700 0.746100
vt 0.796900 0.984400
vt 0.640600 0.945300
vt 0.859400 0.945300
vt 0.859400 0.984400
vt 0.750000 0.996100
vt 0.703100 0.984400
vt 0.539100 0.945300
vt 0.640600 0.984400
vt 0.953100 0.945300
vt 0.859400 0.945300
vt 0.796900 0.984400
vt 0.640600 0.945300
vt 0.703100 0.984400
vt 0.632800 0.890600
vt 0.867200 0.890600
vt 0.507800 0.890600
vt 0.632800 0.890600
vt 0.867200 0.890600
vt 0.992200 0.890600
vt 0.640600 0.820300
vt 0.859400 0.820300
vt 0.539100 0.820300
vt 0.640600 0.820300
vt 0.859400 0.820300
vt 0.960900 0.820300
vt 0.812500 0.773400
vt 0.687500 0.773400
vt 0.750000 0.750000
vt 0.875000 0.773400
vt 0.625000 0.773400
vt 0.687500 0.773400
vt 0.125000 0.250000
vt 0.242200 0.019500
vt 0.242200 0.250000
vt 0.125000 0.019500
vt 0.007800 0.250000
vt 0.007800 0.019500
vt 0.242200 0.503900
vt 0.125000 0.996100
vt 0.125000 0.503900
vt 0.242200 0.996100
vt 0.242200 0.996100
vt 0.007800 0.996100
vt 0.007800 0.503900
vt 0.125000 0.996100
vt 0.179700 0.500000
vt 0.078100 0.500000
vt 0.007800 0.500000
vt 0.242200 0.500000
vt 0.125000 0.003900
vt 0.007800 0.003900
vt 0.242200 0.003900
vt 0.125000 0.168000
vt 0.242200 0.168000
vt 0.171900 0.003900
vt 0.242200 0.277300
vt 0.125000 0.277300
vt 0.242200 0.003900
vt 0.078100 0.003900
vt 0.007800 0.168000
vt 0.007800 0.003900
vt 0.007800 0.277300
vt 0.007800 0.996100
vt 0.992200 0.437500
vt 0.992200 0.378900
vt 0.757800 0.441400
vt 0.992200 0.378900
vt 0.992200 0.441400
vt 0.992200 0.496100
vt 0.679700 0.746100
vt 0.507800 0.625000
vt 0.562500 0.746100
vt 0.742200 0.625000
vt 0.929700 0.746100
vt 0.757800 0.625000
vt 0.820300 0.746100
vt 0.992200 0.625000
vt 0.679700 0.746100
vt 0.507800 0.625000
vt 0.562500 0.746100
vt 0.742200 0.625000
vt 0.812500 0.773400
vt 0.992200 0.621100
vt 0.820300 0.503900
vt 0.757800 0.621100
vt 0.929700 0.503900
vt 0.757800 0.621100
vt 0.929700 0.503900
vt 0.820300 0.503900
vt 0.992200 0.621100
vt 0.757800 0.621100
vt 0.929700 0.503900
vt 0.820300 0.503900
vt 0.992200 0.621100
vt 0.742200 0.621100
vt 0.570300 0.503900
vt 0.507800 0.621100
vt 0.671900 0.503900
vt 0.507800 0.621100
vt 0.671900 0.503900
vt 0.570300 0.503900
vt 0.742200 0.621100
vt 0.507800 0.621100
vt 0.671900 0.503900
vt 0.570300 0.503900
vt 0.742200 0.621100
vt 0.375000 0.660200
vt 0.492200 0.660200
vt 0.375000 0.503900
vt 0.257800 0.660200
vt 0.375000 0.746100
vt 0.375000 0.660200
vt 0.492200 0.660200
vt 0.375000 0.746100
vt 0.375000 0.660200
vt 0.257800 0.660200
vt 0.375000 0.503900
vt 0.375000 0.660200
vt 0.492200 0.660200
vt 0.375000 0.746100
vt 0.375000 0.660200
vt 0.257800 0.660200
vt 0.375000 0.503900
vt 0.375000 0.660200
vt 0.945300 0.394500
vt 0.562500 0.386700
vt 0.953100 0.363300
vt 0.562500 0.386700
vt 0.828100 0.496100
vt 0.625000 0.496100
vt 0.421900 0.398400
vt 0.335900 0.300800
vt 0.468800 0.496100
vt 0.625000 0.496100
vt 0.429700 0.289100
vt 0.875000 0.289100
vt 0.429700 0.289100
vt 0.414100 0.230500
vt 0.835900 0.230500
vt 0.828100 0.175800
vt 0.484400 0.125000
vt 0.820300 0.125000
vt 0.843800 0.043000
vt 0.312500 0.230500
vt 0.429700 0.125000
vt 0.484400 0.125000
vt 0.609400 0.015600
vt 0.742200 0.011700
vt 0.414100 0.230500
vt 0.945300 0.394500
vt 0.562500 0.386700
vt 0.953100 0.363300
vt 0.562500 0.386700
vt 0.828100 0.496100
vt 0.625000 0.496100
vt 0.421900 0.398400
vt 0.335900 0.300800
vt 0.468800 0.496100
vt 0.625000 0.496100
vt 0.429700 0.289100
vt 0.875000 0.289100
vt 0.429700 0.289100
vt 0.414100 0.230500
vt 0.835900 0.230500
vt 0.828100 0.175800
vt 0.484400 0.125000
vt 0.820300 0.125000
vt 0.843800 0.043000
vt 0.312500 0.230500
vt 0.429700 0.125000
vt 0.484400 0.125000
vt 0.609400 0.015600
vt 0.742200 0.011700
vt 0.414100 0.230500
vt 0.945300 0.394500
vt 0.562500 0.386700
vt 0.953100 0.363300
vt 0.562500 0.386700
vt 0.828100 0.496100
vt 0.625000 0.496100
vt 0.421900 0.398400
vt 0.335900 0.300800
vt 0.468800 0.496100
vt 0.625000 0.496100
vt 0.429700 0.289100
vt 0.875000 0.289100
vt 0.429700 0.289100
vt 0.414100 0.230500
vt 0.835900 0.230500
vt 0.828100 0.175800
vt 0.484400 0.125000
vt 0.820300 0.125000
vt 0.843800 0.043000
vt 0.312500 0.230500
vt 0.429700 0.125000
vt 0.484400 0.125000
vt 0.609400 0.015600
vt 0.742200 0.011700
vt 0.414100 0.230500
vn -0.9991 0.0061 -0.0408
vn 0.0016 0.1839 0.9830
vn -0.9692 0.2459 -0.0152
vn 0.0043 0.0099 0.9999
vn -0.7810 -0.3314 0.5294
vn 0.0015 -0.9175 0.3977
vn 0.0031 -0.0135 -0.9999
vn 0.0003 0.3808 -0.9247
vn -0.9992 0.0060 -0.0408
vn 0.0035 -0.5333 -0.8459
vn -0.5742 -0.7489 -0.3310
vn 0.0026 -0.9184 0.3957
vn 0.5760 -0.7482 -0.3292
vn 0.7841 -0.3311 0.5249
vn -0.7809 -0.3314 0.5294
vn 0.0064 0.0010 -1.0000
vn -0.9819 -0.0650 -0.1777
vn 0.0055 -0.1247 -0.9922
vn -1.0000 0.0029 -0.0041
vn 0.0054 0.2069 -0.9783
vn 0.0054 0.2069 -0.9784
vn -0.9653 0.2611 0.0090
vn -1.0000 0.0028 -0.0041
vn 0.0056 -0.0951 0.9955
vn -0.9819 -0.0651 -0.1777
vn 0.0056 0.0057 1.0000
vn 0.0013 0.3931 0.9195
vn -0.5742 -0.7489 -0.3309
vn -0.7809 -0.3315 0.5294
vn -0.9991 0.0060 -0.0408
vn 0.0014 -0.0495 -0.9988
vn -0.8122 -0.3965 -0.4280
vn -0.0000 -0.5282 -0.8491
vn -0.9958 -0.0918 -0.0013
vn 0.0055 -0.1248 -0.9922
vn -0.7359 -0.3941 0.5506
vn -0.8121 -0.3965 -0.4280
vn -0.9958 -0.0918 -0.0012
vn 0.0014 -0.0505 0.9987
vn -0.7359 -0.3941 0.5505
vn 0.0014 -0.0504 0.9987
vn -0.7360 -0.3941 0.5505
vn 0.0000 -0.3901 0.9208
vn -0.0000 1.0000 -0.0007
vn 0.0943 0.8029 -0.5886
vn -0.4617 0.8034 -0.3761
vn 0.0948 0.8042 0.5868
vn -0.5469 0.7761 0.3140
vn -0.4616 0.8034 -0.3761
vn -0.8682 -0.1042 -0.4852
vn -0.1203 0.0753 -0.9899
vn -0.8121 -0.3965 -0.4281
vn -0.8797 -0.2766 0.3868
vn -0.7359 -0.3940 0.5506
vn -0.0877 -0.2293 0.9694
vn -0.0000 -0.3902 0.9207
vn -0.4715 -0.8603 -0.1942
vn -0.7134 -0.5504 0.4338
vn -0.7264 -0.5641 -0.3927
vn 0.0008 -0.8515 -0.5244
vn 0.0015 -1.0000 0.0001
vn -0.4715 -0.8602 -0.1942
vn -0.3796 -0.8707 0.3128
vn 0.0005 -0.6493 0.7606
vn -0.7134 -0.5503 0.4338
vn 0.0018 -0.8948 0.4464
vn -0.7263 -0.5641 -0.3927
vn 0.0000 -0.4940 -0.8695
vn 0.7252 -0.5665 -0.3914
vn 0.4687 -0.8622 -0.1922
vn 0.7105 -0.5545 0.4334
vn 0.3793 -0.8713 0.3114
vn 0.7104 -0.5545 0.4334
vn -0.7264 -0.5640 -0.3928
vn -0.8647 -0.0173 0.5020
vn -0.8662 -0.0136 -0.4995
vn 0.0000 -0.4941 -0.8694
vn -0.8647 -0.0173 0.5019
vn -0.0000 -0.1170 0.9931
vn 0.8647 -0.0173 0.5019
vn 0.7252 -0.5665 -0.3915
vn 0.8662 -0.0135 -0.4995
vn -0.0000 0.0900 -0.9959
vn -0.8477 0.4422 0.2928
vn -0.6784 0.4407 -0.5879
vn -0.8662 -0.0135 -0.4995
vn 0.0006 0.4509 0.8926
vn 0.8455 0.4468 0.2925
vn 0.6777 0.4436 -0.5865
vn 0.0000 0.4484 -0.8938
vn -0.6088 0.7542 -0.2459
vn -0.5136 0.7569 0.4041
vn 0.0025 1.0000 -0.0000
vn 0.0013 0.7320 -0.6814
vn 0.0026 0.7952 0.6064
vn 0.5144 0.7574 0.4022
vn 0.0013 0.7319 -0.6814
vn 0.9992 0.0055 -0.0398
vn 0.9672 0.2537 -0.0153
vn 0.9827 -0.0653 -0.1735
vn 1.0000 0.0028 -0.0047
vn 0.9636 0.2673 0.0065
vn 0.9992 0.0056 -0.0399
vn 0.7841 -0.3310 0.5250
vn 0.0003 0.3808 -0.9246
vn 0.0015 0.1839 0.9829
vn 0.9957 -0.0928 -0.0012
vn 0.8123 -0.3971 -0.4271
vn 0.0054 -0.1247 -0.9922
vn 0.8124 -0.3971 -0.4271
vn 0.7363 -0.3947 0.5497
vn 0.5560 0.8035 -0.2128
vn 0.4595 0.8484 0.2630
vn 0.7519 -0.1026 -0.6513
vn 0.9018 0.0253 0.4315
vn 0.7363 -0.3947 0.5496
vn 0.7519 -0.1025 -0.6513
vn 0.9017 0.0253 0.4315
vn 0.6070 0.7564 -0.2436
vn 0.0024 1.0000 0.0000
vn 0.9827 -0.0653 -0.1734
vn -0.5470 0.7761 0.3140
vn -0.8797 -0.2767 0.3868
vn 0.0949 0.8042 0.5868
vn 0.9018 0.0253 0.4314
vn 0.5560 0.8035 -0.2127
vn -0.0315 -0.0031 0.9995
vn -0.1064 -0.9939 0.0290
vn 0.9509 -0.2715 0.1487
vn -0.0616 0.9980 0.0122
vn -0.9958 -0.0598 0.0691
vn -0.0355 -0.0191 -0.9992
vn -0.1064 -0.9939 0.0291
vn 0.0092 -0.9932 -0.1157
vn 0.3966 -0.0484 -0.9167
vn 0.8826 -0.0251 0.4694
vn 0.0119 0.9980 -0.0622
vn -0.6865 -0.2699 0.6752
vn -0.8497 0.0032 -0.5273
vn -0.8497 0.0033 -0.5273
vn 0.0091 -0.9932 -0.1156
vn -0.6865 -0.2698 0.6752
vn 0.0623 -0.9943 0.0861
vn 0.5229 -0.0489 0.8510
vn -0.8461 -0.0136 0.5329
vn 0.0349 0.9981 0.0499
vn -0.4283 -0.2765 -0.8603
vn 0.8821 -0.0091 -0.4709
vn 0.8822 -0.0091 -0.4709
vn -0.4283 -0.2766 -0.8603
vn 0.5228 -0.0490 0.8511
vn 0.0624 -0.9943 0.0861
vn -0.0356 -0.0191 -0.9992
vn 0.9509 -0.2714 0.1488
vn -0.1063 -0.9939 0.0290
vn -0.5525 -0.8335 0.0029
vn 0.0957 0.0241 0.9951
vn -0.4431 -0.3097 0.8413
vn 0.0666 0.0103 -0.9977
vn -0.5912 -0.8065 0.0012
vn 0.0348 -0.0012 -0.9994
vn 0.8829 0.4694 -0.0090
vn 0.0665 0.0103 -0.9977
vn 0.8859 0.4639 -0.0080
vn 0.7835 0.6214 -0.0048
vn 0.7835 0.6213 -0.0048
vn 0.0396 -0.0035 0.9992
vn -0.5913 -0.8065 0.0012
vn 0.0707 0.0522 -0.9961
vn -0.7557 -0.6548 0.0096
vn -0.4430 -0.3096 0.8413
vn 0.0642 0.0564 0.9963
vn -0.7558 -0.6547 0.0096
vn -0.4431 -0.3096 0.8413
vn 0.8859 0.4638 -0.0080
vn 0.0160 0.0326 0.9993
vn -0.2309 -0.3197 -0.9190
vn -0.5728 -0.8197 -0.0011
vn -0.0084 0.1040 0.9945
vn -0.5825 -0.8128 -0.0055
vn -0.5798 -0.8147 -0.0021
vn 0.4772 0.8787 -0.0090
vn 0.2007 0.9796 -0.0098
vn 0.4772 0.8788 -0.0090
vn -0.0064 0.0951 -0.9954
vn 0.0312 0.9995 -0.0090
vn -0.9896 0.1435 -0.0028
vn 0.2006 0.9796 -0.0098
vn 0.0258 0.0441 -0.9987
vn -0.2309 -0.3198 -0.9189
vn -0.5825 -0.8128 -0.0056
vn 0.2804 -0.8381 0.4679
vn 0.8135 0.0242 -0.5810
vn 0.9478 -0.3163 -0.0411
vn -0.8998 0.0118 0.4361
vn 0.2883 -0.8089 0.5125
vn -0.8868 -0.0018 0.4622
vn 0.2884 -0.8088 0.5125
vn -0.4368 0.4689 -0.7677
vn -0.4379 0.4602 -0.7723
vn -0.3944 0.6247 -0.6740
vn -0.3944 0.6247 -0.6739
vn 0.8456 0.0047 -0.5339
vn 0.2883 -0.8088 0.5125
vn -0.9008 0.0556 0.4305
vn 0.3914 -0.6518 0.6496
vn 0.9477 -0.3164 -0.0411
vn 0.8313 0.0552 -0.5531
vn 0.8313 0.0551 -0.5531
vn -0.4378 0.4601 -0.7724
vn 0.8578 0.0310 -0.5131
vn -0.6727 -0.3267 0.6639
vn 0.2851 -0.8237 0.4901
vn 0.8652 0.1054 -0.4902
vn 0.2876 -0.8150 0.5030
vn 0.2874 -0.8134 0.5057
vn -0.2394 0.8788 -0.4128
vn -0.1087 0.9796 -0.1690
vn -0.1086 0.9796 -0.1690
vn -0.8585 0.0983 0.5034
vn -0.0239 0.9995 -0.0223
vn -0.0239 0.9995 -0.0224
vn 0.4854 0.1434 0.8624
vn -0.3944 0.6246 -0.6740
vn -0.9009 0.0556 0.4305
vn -0.8777 0.0473 0.4769
vn -0.8584 0.0983 0.5034
vn 0.2851 -0.8237 0.4902
vn 0.2723 -0.8362 -0.4761
vn -0.9110 0.0248 -0.4116
vn -0.5004 -0.3184 -0.8051
vn 0.8292 0.0109 0.5589
vn 0.2872 -0.8078 -0.5147
vn 0.8477 -0.0037 0.5305
vn -0.4354 0.4710 0.7672
vn 0.8292 0.0108 0.5589
vn -0.4366 0.4624 0.7718
vn -0.3901 0.6218 0.6791
vn -0.8867 0.0012 -0.4624
vn 0.2871 -0.8079 -0.5147
vn 0.8254 0.0537 0.5619
vn 0.3715 -0.6544 -0.6586
vn -0.8959 0.0574 -0.4406
vn 0.3715 -0.6545 -0.6586
vn -0.5005 -0.3184 -0.8051
vn -0.9110 0.0247 -0.4116
vn -0.4365 0.4624 0.7718
vn -0.4354 0.4709 0.7673
vn -0.8737 0.0333 -0.4852
vn 0.9099 -0.3288 0.2530
vn 0.2803 -0.8201 -0.4989
vn -0.8579 0.1064 -0.5027
vn 0.2845 -0.8140 -0.5064
vn 0.2871 -0.8149 -0.5034
vn -0.2338 0.8779 0.4179
vn -0.2338 0.8779 0.4178
vn -0.0974 0.9797 0.1750
vn -0.8579 0.1063 -0.5027
vn -0.2339 0.8779 0.4179
vn 0.8665 0.0981 0.4894
vn -0.0138 0.9995 0.0270
vn 0.4906 0.1326 -0.8613
vn -0.0975 0.9797 0.1751
vn 0.8254 0.0537 0.5620
vn 0.8517 0.0445 0.5222
vn 0.8665 0.0980 0.4894
vn 0.4906 0.1326 -0.8612
vn -0.9896 0.1436 -0.0029
vn 0.4854 0.1434 0.8625
usemtl w21st05_TEX_w21st05
s 1
f 1/1/1 2/2/2 3/3/3
f 2/2/2 1/1/1 4/4/4
f 5/5/5 4/4/4 1/1/1
f 4/4/4 5/5/5 6/6/6
f 7/7/7 3/3/3 8/8/8
f 3/3/3 7/7/7 1/1/9
f 9/9/10 1/1/9 7/7/7
f 1/1/9 9/9/10 10/10/11
f 6/11/12 10/12/11 9/13/10
f 9/13/10 11/14/13 6/11/12
f 12/15/14 6/11/12 11/14/13
f 6/11/12 5/16/15 10/12/11
f 13/17/16 14/18/17 15/19/18
f 14/18/17 13/17/16 16/20/19
f 17/21/20 16/20/19 13/17/16
f 16/20/19 17/21/21 18/22/22
f 16/20/23 19/23/24 14/18/25
f 19/23/24 16/20/23 20/24/26
f 18/22/22 20/24/26 16/20/23
f 20/24/26 18/22/22 21/25/27
f 10/10/28 5/5/29 1/1/30
f 8/8/8 18/26/22 17/27/20
f 18/26/22 8/8/8 3/3/3
f 3/3/3 21/28/27 18/26/22
f 21/28/27 3/3/3 2/2/2
f 22/29/31 23/30/32 24/31/33
f 23/30/32 22/29/31 25/32/34
f 15/33/35 25/32/34 22/29/31
f 25/32/34 15/33/35 14/34/17
f 26/35/36 23/30/37 25/32/38
f 25/32/38 27/36/39 26/35/40
f 27/36/41 25/32/34 19/37/24
f 14/34/25 19/37/24 25/32/34
f 26/35/42 27/36/41 28/38/43
f 29/39/44 30/40/45 31/41/46
f 32/42/47 29/39/44 33/43/48
f 29/39/44 31/44/49 33/43/48
f 24/45/33 34/46/50 35/47/51
f 34/46/50 24/45/33 23/48/52
f 23/49/37 36/50/53 34/51/50
f 36/50/53 23/49/37 26/52/54
f 26/53/36 37/54/55 36/55/53
f 37/54/55 26/53/36 28/56/56
f 38/57/57 40/58/58 39/59/59
f 39/59/59 41/60/60 38/57/57
f 42/61/61 38/57/62 41/60/60
f 38/57/57 43/62/63 40/58/58
f 43/62/63 38/57/62 42/61/61
f 43/62/63 44/63/64 40/58/65
f 44/63/64 43/62/63 45/64/66
f 41/60/60 39/59/67 46/65/68
f 46/65/68 47/66/69 41/60/60
f 48/67/70 41/60/60 47/66/69
f 47/66/69 49/68/71 48/67/70
f 50/69/72 48/67/70 49/68/71
f 49/68/73 44/63/64 50/69/72
f 45/64/66 50/69/72 44/63/64
f 39/59/74 52/70/75 51/71/76
f 51/71/76 46/65/77 39/59/74
f 52/70/78 39/59/74 40/58/65
f 40/58/65 53/72/79 52/70/78
f 53/72/79 40/58/65 44/63/64
f 44/63/64 49/68/73 53/72/79
f 54/73/80 53/72/79 49/68/73
f 49/68/73 47/66/81 54/73/80
f 55/74/82 54/73/80 47/66/81
f 47/66/81 46/65/68 55/74/82
f 56/75/83 55/74/82 46/65/68
f 46/65/68 51/71/76 56/75/83
f 51/71/76 58/76/84 57/77/85
f 57/77/85 56/75/83 51/71/76
f 58/76/84 51/71/86 52/70/78
f 52/70/78 59/78/87 58/76/84
f 59/78/87 52/70/78 53/72/79
f 53/72/79 54/73/80 59/78/87
f 60/79/88 59/78/87 54/73/80
f 54/73/80 55/74/82 60/79/88
f 61/80/89 60/79/88 55/74/82
f 55/74/82 56/75/83 61/80/89
f 62/81/90 61/80/89 56/75/83
f 56/75/83 57/77/85 62/81/90
f 63/82/91 65/83/92 64/84/93
f 64/84/93 66/85/94 63/82/91
f 67/86/95 64/84/93 65/83/92
f 64/84/93 67/86/95 68/87/96
f 59/78/87 68/87/96 67/86/95
f 68/87/96 59/78/87 60/79/88
f 57/77/85 66/85/97 62/81/90
f 66/85/94 57/77/85 63/82/91
f 58/76/84 63/82/91 57/77/85
f 63/82/91 58/76/84 65/83/92
f 59/78/87 65/83/92 58/76/84
f 65/83/92 59/78/87 67/86/95
f 45/64/66 43/62/63 42/61/61
f 42/61/61 50/69/72 45/64/66
f 69/88/98 2/89/2 4/90/4
f 2/89/2 69/88/98 70/91/99
f 7/92/7 70/91/99 69/88/98
f 70/91/99 7/92/7 8/93/8
f 13/94/16 72/95/100 71/96/101
f 71/96/101 17/97/20 13/94/16
f 13/94/16 15/98/18 72/95/100
f 71/96/101 19/99/24 20/100/26
f 20/100/26 73/101/102 71/96/101
f 71/96/101 72/95/100 19/99/24
f 69/88/103 12/102/14 11/103/13
f 69/88/103 9/104/10 7/92/7
f 9/104/10 69/88/103 11/103/13
f 4/90/4 12/102/104 69/88/103
f 12/102/14 4/90/4 6/105/12
f 8/93/105 73/106/102 70/91/99
f 73/106/102 8/93/105 17/107/20
f 70/91/99 21/108/27 2/89/106
f 21/108/27 70/91/99 73/106/102
f 74/109/107 22/110/31 75/111/108
f 22/110/31 74/109/107 15/112/109
f 72/113/100 15/112/109 74/109/107
f 75/111/110 22/110/31 24/114/33
f 75/111/108 76/115/111 74/109/107
f 27/116/41 76/115/111 28/117/43
f 74/109/107 76/115/111 27/116/41
f 27/116/41 19/118/24 74/109/107
f 71/96/101 73/101/102 17/97/20
f 20/100/26 21/119/27 73/101/102
f 29/39/44 77/120/112 30/121/45
f 29/122/44 32/123/47 78/124/113
f 78/124/113 77/125/112 29/122/44
f 24/126/33 79/127/114 75/128/110
f 79/127/114 24/126/33 35/129/51
f 75/130/108 80/131/115 76/132/116
f 80/131/115 75/130/108 79/133/117
f 76/134/116 37/135/55 28/136/56
f 37/135/55 76/134/116 80/137/118
f 68/87/96 81/138/119 64/84/120
f 81/138/119 66/85/94 64/84/93
f 61/80/89 66/85/94 81/138/119
f 81/138/119 60/79/88 61/80/89
f 61/80/89 62/81/90 66/85/94
f 81/138/119 68/87/96 60/79/88
f 41/60/60 48/67/70 42/61/61
f 48/67/70 50/69/72 42/61/61
f 74/109/107 19/118/24 72/113/121
f 37/139/55 33/140/122 36/141/123
f 33/140/122 37/139/55 32/142/124
f 35/143/51 31/144/49 30/145/45
f 31/144/49 35/143/51 34/146/50
f 80/147/115 77/148/112 78/149/113
f 77/148/112 80/147/115 79/150/117
f 80/151/125 32/152/47 37/153/55
f 32/152/47 80/151/115 78/154/113
f 34/155/50 33/156/48 31/157/49
f 33/156/48 34/155/50 36/158/123
f 79/159/117 30/160/45 77/161/126
f 30/160/45 79/159/117 35/162/51
f 82/163/127 84/164/128 83/165/129
f 83/165/129 85/166/130 82/163/127
f 86/167/131 85/166/130 87/168/132
f 87/168/132 84/164/133 86/167/131
f 82/163/127 86/167/131 84/164/133
f 88/169/134 89/170/135 90/171/136
f 90/171/136 89/170/135 91/172/137
f 91/172/137 92/173/138 90/171/136
f 91/172/137 93/174/139 92/173/138
f 93/174/139 91/172/137 89/170/135
f 93/174/140 88/169/141 92/173/142
f 94/175/143 95/176/144 96/177/145
f 96/177/145 95/176/144 97/178/146
f 97/178/146 98/179/147 96/177/145
f 97/178/146 99/180/148 98/179/147
f 99/180/148 97/178/146 95/176/144
f 99/180/149 94/175/143 98/179/150
f 88/169/134 90/171/136 92/173/138
f 95/176/151 94/175/143 99/180/148
f 94/175/152 96/177/145 98/179/147
f 86/167/131 82/163/127 85/166/130
f 87/168/153 85/166/130 83/165/154
f 83/165/154 84/164/155 87/168/153
f 89/170/135 88/169/134 93/174/139
f 100/181/156 102/182/157 101/183/158
f 101/183/158 103/184/159 100/181/156
f 104/185/160 100/181/156 103/184/159
f 103/184/159 105/186/161 104/185/160
f 106/187/162 103/184/163 107/188/164
f 103/184/163 106/187/162 108/189/165
f 102/182/157 108/189/165 106/187/162
f 108/189/166 102/182/157 109/190/167
f 104/185/168 109/190/167 102/182/157
f 110/191/169 107/188/164 103/184/163
f 103/184/163 111/192/170 110/191/169
f 101/183/171 112/193/172 111/192/173
f 111/192/173 103/184/159 101/183/171
f 112/193/172 101/183/174 102/182/157
f 102/182/157 107/188/175 112/193/172
f 102/182/157 106/187/162 107/188/175
f 113/194/176 114/195/177 111/192/170
f 114/195/177 113/194/176 115/196/178
f 116/197/179 115/196/178 113/194/176
f 115/196/178 116/197/179 117/198/180
f 118/199/181 117/198/180 116/197/179
f 113/194/176 111/192/170 112/193/172
f 112/193/172 119/200/182 113/194/176
f 116/197/179 113/194/176 119/200/182
f 119/200/182 120/201/183 116/197/179
f 120/201/183 119/200/184 121/202/185
f 121/202/185 122/203/186 120/201/183
f 122/203/186 121/202/185 123/204/187
f 123/204/187 116/197/179 122/203/186
f 120/201/188 122/203/186 116/197/179
f 105/186/161 103/184/159 108/189/165
f 102/182/157 100/181/156 104/185/160
f 110/191/169 119/200/182 107/188/164
f 119/200/182 110/191/169 124/205/189
f 114/195/190 124/205/189 110/191/169
f 112/193/172 107/188/175 119/200/182
f 121/202/185 117/198/180 118/199/181
f 124/205/189 115/196/178 121/202/185
f 121/202/185 119/200/182 124/205/189
f 124/205/189 114/195/190 115/196/178
f 110/191/169 111/192/170 114/195/190
f 117/198/191 121/202/185 115/196/178
f 125/206/192 127/207/193 126/208/194
f 126/208/194 128/209/195 125/206/192
f 129/210/196 125/206/192 128/209/195
f 128/209/195 130/211/197 129/210/198
f 131/212/199 128/209/195 132/213/200
f 128/209/195 131/212/199 133/214/201
f 127/207/193 133/214/201 131/212/199
f 133/214/202 127/207/193 134/215/203
f 129/210/204 134/215/203 127/207/193
f 135/216/205 132/213/200 128/209/195
f 128/209/195 136/217/206 135/216/205
f 126/208/207 137/218/208 136/217/206
f 136/217/206 128/209/195 126/208/207
f 137/218/209 126/208/194 127/207/193
f 127/207/193 132/213/210 137/218/209
f 127/207/193 131/212/199 132/213/210
f 138/219/211 139/220/212 136/217/206
f 139/220/212 138/219/211 140/221/213
f 141/222/214 140/221/213 138/219/211
f 140/221/213 141/222/214 142/223/215
f 143/224/216 142/223/215 141/222/214
f 138/219/211 136/217/206 137/218/208
f 137/218/209 144/225/217 138/219/211
f 141/222/214 138/219/211 144/225/217
f 144/225/217 145/226/218 141/222/214
f 145/226/219 144/225/217 146/227/220
f 146/227/220 147/228/221 145/226/219
f 147/228/222 146/227/220 148/229/223
f 148/229/223 141/222/214 147/228/222
f 145/226/218 147/228/222 141/222/214
f 130/211/197 128/209/195 133/214/224
f 127/207/193 125/206/192 129/210/196
f 135/216/205 144/225/217 132/213/200
f 144/225/217 135/216/225 149/230/226
f 139/220/212 149/230/226 135/216/225
f 137/218/209 132/213/210 144/225/217
f 146/227/227 142/223/215 143/224/216
f 149/230/226 140/221/228 146/227/220
f 146/227/220 144/225/217 149/230/226
f 149/230/226 139/220/212 140/221/228
f 135/216/205 136/217/206 139/220/212
f 142/223/215 146/227/220 140/221/228
f 150/231/229 152/232/230 151/233/231
f 151/233/231 153/234/232 150/231/229
f 154/235/233 150/231/229 153/234/232
f 153/234/232 155/236/234 154/235/233
f 156/237/235 153/234/236 157/238/237
f 153/234/236 156/237/235 158/239/238
f 152/232/230 158/239/238 156/237/235
f 158/239/238 152/232/230 159/240/239
f 154/235/240 159/240/239 152/232/230
f 160/241/241 157/238/237 153/234/236
f 153/234/236 161/242/242 160/241/241
f 151/233/231 162/243/243 161/242/244
f 161/242/244 153/234/236 151/233/231
f 162/243/243 151/233/245 152/232/230
f 152/232/246 157/238/247 162/243/243
f 152/232/246 156/237/248 157/238/247
f 163/244/249 164/245/250 161/242/242
f 164/245/250 163/244/249 165/246/251
f 166/247/252 165/246/251 163/244/249
f 165/246/251 166/247/252 167/248/253
f 168/249/254 167/248/253 166/247/252
f 163/244/249 161/242/242 162/243/243
f 162/243/243 169/250/255 163/244/249
f 166/247/252 163/244/249 169/250/255
f 169/250/256 170/251/257 166/247/258
f 170/251/257 169/250/259 171/252/260
f 171/252/260 172/253/261 170/251/257
f 172/253/261 171/252/260 173/254/262
f 173/254/262 166/247/258 172/253/261
f 170/251/263 172/253/261 166/247/258
f 155/236/234 153/234/232 158/239/238
f 152/232/230 150/231/229 154/235/233
f 160/241/241 169/250/255 157/238/237
f 169/250/256 160/241/264 174/255/265
f 164/245/250 174/255/265 160/241/264
f 162/243/243 157/238/247 169/250/255
f 171/252/260 167/248/253 168/249/254
f 174/255/265 165/246/251 171/252/266
f 171/252/266 169/250/256 174/255/265
f 174/255/265 164/245/250 165/246/251
f 160/241/241 161/242/242 164/245/250
f 167/248/253 171/252/266 165/246/251
f 173/254/267 171/252/260 168/249/254
f 168/249/254 166/247/252 173/254/267
f 123/204/268 121/202/185 118/199/181
f 118/199/181 116/197/179 123/204/268
f 148/229/269 146/227/227 143/224/216
f 143/224/216 141/222/214 148/229/269
