# Blender v2.79 (sub 0) OBJ File: ''
# www.blender.org
mtllib w21st03.mtl
o MDL_w21st03_bod00.001
v -0.022500 -0.900000 -0.000000
v -0.014100 -0.890000 0.024400
v -0.028100 -0.890000 -0.000000
v -0.011300 -0.900000 0.019400
v 0.013700 -0.890000 0.024400
v 0.010900 -0.900000 0.019400
v 0.027800 -0.890000 -0.000000
v 0.022200 -0.900000 -0.000000
v 0.013700 -0.890000 -0.024100
v 0.010900 -0.900000 -0.019400
v -0.014100 -0.890000 -0.024100
v -0.011300 -0.900000 -0.019400
v -0.014100 -0.510000 0.024400
v -0.028100 -0.510000 -0.000000
v 0.013700 -0.510000 0.024400
v 0.027800 -0.510000 -0.000000
v 0.013700 -0.510000 -0.024100
v -0.014100 -0.510000 -0.024100
v -0.008800 -0.500000 0.015000
v -0.017200 -0.500000 -0.000000
v 0.008400 -0.500000 0.015000
v 0.017200 -0.500000 -0.000000
v 0.008400 -0.500000 -0.014700
v -0.008800 -0.500000 -0.014700
v -0.028100 0.363800 0.000000
v -0.014100 0.218800 -0.024100
v -0.028100 0.218800 0.000000
v -0.014100 0.363800 -0.024100
v 0.013700 0.218800 -0.024100
v 0.013700 0.363800 -0.024100
v 0.027800 0.218800 0.000000
v 0.027800 0.363800 0.000000
v 0.013700 0.218800 0.024400
v 0.013700 0.363800 0.024400
v -0.014100 0.218800 0.024400
v -0.014100 0.363800 0.024400
v -0.008800 0.200000 -0.014700
v -0.017200 0.200000 0.000000
v 0.008400 0.200000 -0.014700
v 0.017200 0.200000 0.000000
v 0.008400 0.200000 0.015000
v -0.008800 0.200000 0.015000
v -0.017200 0.380000 -0.029700
v -0.017800 0.361600 0.000000
v -0.034400 0.380000 0.000000
v -0.008800 0.361600 -0.015300
v 0.008800 0.361600 -0.015300
v 0.017200 0.380000 -0.029700
v 0.017500 0.361600 0.000000
v 0.034400 0.380000 0.000000
v 0.022800 0.410300 0.000000
v 0.011300 0.410300 -0.019700
v 0.017200 0.380000 0.030000
v 0.008800 0.361600 0.015300
v -0.008800 0.361600 0.015300
v -0.017200 0.380000 0.030000
v -0.023100 0.410300 0.000000
v -0.011600 0.410300 0.020000
v -0.011600 0.410300 -0.019700
v -0.017200 0.450000 -0.029700
v 0.017200 0.450000 -0.029700
v 0.034400 0.450000 0.000000
v -0.017200 0.450000 0.030000
v -0.034400 0.450000 0.000000
v 0.011300 0.410300 0.020000
v 0.017200 0.450000 0.030000
v -0.014700 -0.550000 -0.000000
v 0.000000 -0.550000 -0.014700
v 0.014700 -0.550000 -0.000000
v 0.000000 -0.550000 0.014700
v 0.000000 -0.149700 0.014700
v -0.014700 -0.149700 -0.000000
v -0.014700 -0.350000 -0.000000
v 0.000000 -0.349700 0.014700
v 0.014700 -0.349100 -0.000000
v 0.000000 -0.150000 -0.014700
v 0.000000 -0.350000 -0.014700
v 0.014700 -0.150000 -0.000000
v 0.014700 0.250000 0.000000
v 0.000000 0.250000 -0.014700
v -0.014700 0.250000 0.000000
v 0.000000 0.250000 0.014700
v 0.000000 0.050000 0.014700
v -0.014700 0.050000 0.000000
v 0.000000 0.050000 -0.014700
v 0.014700 0.050000 0.000000
v 0.050300 0.501300 -0.018100
v 0.040900 0.501300 0.034400
v -0.009400 0.501300 0.052800
v -0.050300 0.501300 0.018400
v -0.040900 0.501300 -0.034400
v 0.009100 0.501300 -0.052500
v 0.050600 0.551200 -0.042500
v 0.062200 0.551200 0.022500
v 0.011300 0.551200 0.065300
v -0.050600 0.551200 0.042500
v -0.062200 0.551200 -0.022500
v -0.011600 0.551200 -0.065000
v 0.035900 0.601200 -0.062200
v 0.071900 0.601200 0.000000
v 0.035900 0.601200 0.062200
v -0.035900 0.601200 0.062200
v -0.071900 0.601200 0.000000
v -0.035900 0.601200 -0.062200
v 0.011300 0.651300 -0.065000
v 0.062200 0.651300 -0.022500
v 0.050600 0.651300 0.042500
v -0.011600 0.651300 0.065300
v -0.062200 0.651300 0.022500
v -0.050600 0.651300 -0.042500
v -0.009400 0.701300 -0.052500
v 0.040900 0.701300 -0.034400
v 0.050300 0.701300 0.018400
v 0.009100 0.701300 0.052800
v -0.040900 0.701300 0.034400
v -0.050300 0.701300 -0.018100
v -0.018800 0.751300 -0.032200
v 0.018400 0.751300 -0.032200
v 0.037200 0.751300 0.000000
v 0.018400 0.751300 0.032200
v -0.018800 0.751300 0.032200
v -0.037200 0.751300 0.000000
v -0.118700 0.864400 0.000000
v -0.091600 0.870000 0.000000
v -0.095600 0.850300 0.017800
v -0.095600 0.850300 -0.017800
v -0.118700 0.844400 -0.010300
v -0.138400 0.830000 0.000000
v -0.118700 0.844400 0.010600
v -0.118100 0.831900 0.000000
v -0.096900 0.838100 -0.013400
v -0.097500 0.834100 0.000000
v -0.079100 0.806600 0.000000
v -0.096900 0.838100 0.013700
v -0.075300 0.816300 0.024700
v -0.065300 0.846200 0.033800
v -0.024700 0.781900 0.029400
v 0.011300 0.794100 0.038100
v -0.023400 0.840000 0.032500
v 0.022200 0.832800 0.000000
v 0.040300 0.798400 0.000000
v -0.060900 0.860000 0.024400
v -0.051900 0.862800 0.000000
v -0.036900 0.774400 0.000000
v -0.025300 0.782200 -0.029100
v -0.046900 0.885000 0.047500
v -0.055300 0.876600 0.052800
v -0.050000 0.921900 0.092200
v -0.015000 0.853100 0.000000
v -0.020000 0.876600 0.052800
v -0.001900 0.908700 0.092200
v 0.025300 0.901600 0.238400
v 0.072500 0.887500 0.239400
v 0.027200 0.915000 0.233800
v 0.078100 0.910900 0.218800
v 0.034700 0.929100 0.208700
v -0.023400 0.840000 -0.032500
v -0.062500 0.908700 0.092200
v -0.055000 0.937500 0.122200
v -0.069400 0.924400 0.122200
v -0.050900 0.938800 0.161600
v 0.010900 0.935000 0.122200
v -0.065000 0.925600 0.163400
v -0.017200 0.928100 0.203700
v 0.015600 0.936900 0.155300
v -0.029700 0.915000 0.210600
v 0.017200 0.935600 0.187500
v 0.032200 0.861900 0.058100
v 0.040300 0.881600 0.088400
v 0.057800 0.906900 0.119700
v 0.055900 0.886900 0.094100
v 0.098800 0.868400 0.119700
v 0.066200 0.918700 0.151300
v 0.063700 0.916900 0.122500
v 0.123400 0.921900 0.146900
v 0.073400 0.908400 0.185600
v 0.070900 0.906900 0.156900
v 0.136900 0.895600 0.181600
v 0.076600 0.933100 0.187500
v 0.076300 0.926600 0.208700
v 0.068800 0.842800 0.086200
v 0.075600 0.801900 0.062500
v 0.082500 0.809100 0.082500
v 0.063400 0.837500 0.060000
v 0.179100 0.932200 0.124100
v 0.179100 0.934100 0.141900
v 0.121900 0.920000 0.123400
v 0.117800 0.942800 0.187500
v 0.117800 0.936200 0.208700
v 0.127800 0.797800 0.098400
v 0.132200 0.816600 0.119700
v 0.096600 0.850900 0.095900
v 0.197800 0.900900 0.159400
v 0.197800 0.902800 0.177200
v 0.135600 0.893800 0.160000
v 0.123400 0.862800 0.239100
v 0.125300 0.882800 0.221600
v 0.165900 0.844400 0.221600
v 0.195300 0.773800 0.233100
v 0.199700 0.792500 0.221600
v 0.164100 0.826900 0.238100
v 0.002500 0.785600 -0.037800
v -0.060900 0.860000 -0.024100
v -0.075000 0.817500 -0.025300
v -0.065300 0.846200 -0.033800
v -0.055300 0.876600 -0.052800
v -0.046900 0.885000 -0.047500
v -0.050000 0.921900 -0.091900
v 0.072500 0.887500 -0.239400
v 0.025300 0.901600 -0.238100
v 0.027200 0.915000 -0.233800
v 0.034700 0.929100 -0.208700
v 0.078100 0.910900 -0.218800
v -0.020000 0.876600 -0.052800
v -0.062500 0.908700 -0.091900
v -0.001900 0.908700 -0.091900
v -0.069400 0.924400 -0.122200
v -0.055000 0.937500 -0.122200
v 0.010900 0.935000 -0.122200
v -0.065000 0.925600 -0.163100
v -0.050900 0.938800 -0.161600
v 0.015600 0.936900 -0.155300
v -0.029700 0.915000 -0.210300
v -0.017200 0.928100 -0.203400
v 0.017200 0.935600 -0.187500
v 0.032200 0.861900 -0.058100
v 0.040300 0.881600 -0.088400
v 0.055900 0.886900 -0.093800
v 0.057800 0.906900 -0.119400
v 0.063700 0.916900 -0.122500
v 0.066200 0.918700 -0.150900
v 0.070900 0.906900 -0.156900
v 0.073400 0.908400 -0.185300
v 0.076600 0.933100 -0.187500
v 0.076300 0.926600 -0.208700
v 0.075600 0.801900 -0.062500
v 0.068800 0.842800 -0.085900
v 0.082500 0.809100 -0.082200
v 0.063400 0.837500 -0.059700
v 0.179100 0.932200 -0.123800
v 0.123400 0.921900 -0.146900
v 0.179100 0.934100 -0.141900
v 0.121900 0.920000 -0.123100
v 0.117800 0.942800 -0.187500
v 0.117800 0.936200 -0.208700
v 0.127800 0.797800 -0.098100
v 0.098800 0.868400 -0.119400
v 0.132200 0.816600 -0.119400
v 0.096600 0.850900 -0.095600
v 0.197800 0.900900 -0.159100
v 0.136900 0.895600 -0.181600
v 0.197800 0.902800 -0.177200
v 0.135600 0.893800 -0.159700
v 0.123400 0.862800 -0.239100
v 0.125300 0.882800 -0.221600
v 0.195300 0.773800 -0.233100
v 0.165900 0.844400 -0.221600
v 0.199700 0.792500 -0.221600
v 0.164100 0.826900 -0.238100
v -0.004100 0.501300 -0.240300
v -0.051200 0.551200 -0.163700
v 0.007200 0.551200 -0.161600
v 0.050300 0.501300 -0.225000
v 0.209100 0.501300 0.118400
v 0.167200 0.551200 0.037800
v 0.136300 0.551200 0.087200
v 0.170300 0.501300 0.154700
v -0.059400 0.601200 -0.118700
v -0.011600 0.601200 -0.118700
v 0.132500 0.601200 0.007800
v 0.108400 0.601200 0.049400
v -0.054700 0.651300 -0.070900
v -0.016200 0.651300 -0.076900
v 0.088700 0.651300 -0.011900
v 0.074700 0.651300 0.024400
v -0.073100 0.620900 0.110900
v -0.034100 0.651300 0.083100
v -0.058400 0.651300 0.052500
v -0.097200 0.620900 0.069400
v -0.045300 0.701300 -0.033100
v -0.019100 0.701300 -0.052800
v 0.051200 0.701300 -0.022500
v 0.055000 0.701300 0.009700
v -0.006300 0.701300 0.055900
v -0.036200 0.701300 0.043100
v 0.106600 0.551200 -0.135600
v 0.052500 0.601200 -0.110300
v 0.094700 0.601200 -0.074400
v 0.151600 0.550900 -0.082500
v 0.064100 0.529700 0.081900
v 0.069400 0.587200 0.080600
v 0.017200 0.587200 0.099100
v -0.004400 0.529700 0.094100
v 0.025000 0.651300 -0.083400
v 0.060900 0.651300 -0.062500
v 0.062500 0.651300 0.061300
v 0.023400 0.651300 0.084400
v 0.000000 0.701300 -0.065600
v 0.041300 0.701300 -0.050900
v 0.054700 0.701300 0.035600
v 0.023400 0.701300 0.061600
v -0.044100 0.501300 -0.057500
v -0.003400 0.501300 -0.072500
v -0.080900 0.551200 -0.051600
v -0.036900 0.551200 -0.088400
v -0.101900 0.601200 -0.022500
v -0.070600 0.601200 -0.076600
v -0.089100 0.651300 0.011600
v -0.079700 0.651300 -0.040900
v -0.056900 0.701300 0.029400
v -0.063700 0.701300 -0.008100
vt 0.757800 0.746100
vt 0.835900 0.691400
vt 0.757800 0.691400
vt 0.835900 0.746100
vt 0.921900 0.691400
vt 0.921900 0.746100
vt 0.992200 0.691400
vt 0.992200 0.746100
vt 0.757800 0.746100
vt 0.835900 0.691400
vt 0.757800 0.691400
vt 0.835900 0.746100
vt 0.921900 0.691400
vt 0.921900 0.746100
vt 0.992200 0.691400
vt 0.992200 0.746100
vt 0.507800 0.996100
vt 0.664100 0.750000
vt 0.507800 0.750000
vt 0.664100 0.996100
vt 0.835900 0.750000
vt 0.835900 0.996100
vt 0.992200 0.750000
vt 0.992200 0.996100
vt 0.507800 0.996100
vt 0.664100 0.750000
vt 0.507800 0.750000
vt 0.664100 0.996100
vt 0.835900 0.750000
vt 0.835900 0.996100
vt 0.992200 0.750000
vt 0.992200 0.996100
vt 0.757800 0.746100
vt 0.835900 0.691400
vt 0.757800 0.691400
vt 0.835900 0.746100
vt 0.921900 0.691400
vt 0.921900 0.746100
vt 0.992200 0.691400
vt 0.992200 0.746100
vt 0.757800 0.746100
vt 0.835900 0.691400
vt 0.757800 0.691400
vt 0.835900 0.746100
vt 0.921900 0.691400
vt 0.921900 0.746100
vt 0.992200 0.691400
vt 0.992200 0.746100
vt 0.609400 0.691400
vt 0.640600 0.691400
vt 0.640600 0.675800
vt 0.609400 0.675800
vt 0.640600 0.675800
vt 0.609400 0.675800
vt 0.609400 0.691400
vt 0.609400 0.691400
vt 0.640600 0.675800
vt 0.609400 0.675800
vt 0.492200 0.753900
vt 0.343800 0.996100
vt 0.492200 0.996100
vt 0.343800 0.753900
vt 0.156300 0.996100
vt 0.156300 0.753900
vt 0.007800 0.996100
vt 0.007800 0.753900
vt 0.492200 0.753900
vt 0.343800 0.996100
vt 0.492200 0.996100
vt 0.343800 0.753900
vt 0.156300 0.996100
vt 0.156300 0.753900
vt 0.007800 0.996100
vt 0.007800 0.753900
vt 0.992200 0.691400
vt 0.921900 0.746100
vt 0.992200 0.746100
vt 0.921900 0.691400
vt 0.835900 0.746100
vt 0.835900 0.691400
vt 0.757800 0.746100
vt 0.757800 0.691400
vt 0.992200 0.691400
vt 0.921900 0.746100
vt 0.992200 0.746100
vt 0.921900 0.691400
vt 0.835900 0.746100
vt 0.835900 0.691400
vt 0.757800 0.746100
vt 0.757800 0.691400
vt 0.664100 0.722700
vt 0.742200 0.746100
vt 0.742200 0.722700
vt 0.664100 0.746100
vt 0.585900 0.746100
vt 0.585900 0.722700
vt 0.507800 0.746100
vt 0.507800 0.722700
vt 0.507800 0.675800
vt 0.585900 0.675800
vt 0.664100 0.722700
vt 0.742200 0.746100
vt 0.742200 0.722700
vt 0.664100 0.746100
vt 0.585900 0.746100
vt 0.585900 0.722700
vt 0.507800 0.746100
vt 0.507800 0.722700
vt 0.507800 0.675800
vt 0.585900 0.675800
vt 0.742200 0.675800
vt 0.664100 0.675800
vt 0.664100 0.628900
vt 0.585900 0.628900
vt 0.507800 0.628900
vt 0.585900 0.628900
vt 0.507800 0.628900
vt 0.664100 0.675800
vt 0.742200 0.675800
vt 0.664100 0.628900
vt 0.742200 0.628900
vt 0.742200 0.628900
vt 0.640600 0.675800
vt 0.609400 0.675800
vt 0.609400 0.691400
vt 0.640600 0.691400
vt 0.640600 0.675800
vt 0.609400 0.675800
vt 0.609400 0.691400
vt 0.640600 0.691400
vt 0.632800 0.699200
vt 0.617200 0.699200
vt 0.617200 0.707000
vt 0.617200 0.707000
vt 0.632800 0.699200
vt 0.617200 0.699200
vt 0.492200 0.687500
vt 0.492200 0.628900
vt 0.007800 0.628900
vt 0.492200 0.687500
vt 0.007800 0.628900
vt 0.007800 0.687500
vt 0.492200 0.746100
vt 0.492200 0.746100
vt 0.492200 0.687500
vt 0.007800 0.687500
vt 0.492200 0.746100
vt 0.007800 0.687500
vt 0.007800 0.746100
vt 0.492200 0.687500
vt 0.492200 0.628900
vt 0.007800 0.628900
vt 0.007800 0.628900
vt 0.492200 0.628900
vt 0.492200 0.746100
vt 0.007800 0.687500
vt 0.007800 0.746100
vt 0.609400 0.691400
vt 0.640600 0.691400
vt 0.640600 0.675800
vt 0.640600 0.675800
vt 0.609400 0.691400
vt 0.640600 0.691400
vt 0.609400 0.691400
vt 0.640600 0.691400
vt 0.640600 0.675800
vt 0.609400 0.675800
vt 0.609400 0.691400
vt 0.640600 0.691400
vt 0.640600 0.675800
vt 0.609400 0.675800
vt 0.609400 0.691400
vt 0.640600 0.691400
vt 0.640600 0.675800
vt 0.609400 0.675800
vt 0.617200 0.707000
vt 0.632800 0.707000
vt 0.632800 0.699200
vt 0.617200 0.699200
vt 0.007800 0.628900
vt 0.492200 0.687500
vt 0.492200 0.628900
vt 0.007800 0.687500
vt 0.492200 0.687500
vt 0.492200 0.628900
vt 0.007800 0.628900
vt 0.492200 0.746100
vt 0.007800 0.687500
vt 0.007800 0.746100
vt 0.492200 0.687500
vt 0.492200 0.746100
vt 0.492200 0.687500
vt 0.007800 0.687500
vt 0.007800 0.628900
vt 0.492200 0.628900
vt 0.492200 0.628900
vt 0.007800 0.628900
vt 0.492200 0.746100
vt 0.007800 0.746100
vt 0.492200 0.746100
vt 0.007800 0.687500
vt 0.507800 0.503900
vt 0.578100 0.503900
vt 0.578100 0.621100
vt 0.507800 0.621100
vt 0.507800 0.503900
vt 0.578100 0.503900
vt 0.578100 0.621100
vt 0.507800 0.621100
vt 0.507800 0.503900
vt 0.578100 0.503900
vt 0.578100 0.621100
vt 0.507800 0.621100
vt 0.507800 0.503900
vt 0.578100 0.503900
vt 0.578100 0.621100
vt 0.507800 0.621100
vt 0.507800 0.503900
vt 0.578100 0.503900
vt 0.578100 0.621100
vt 0.507800 0.621100
vt 0.507800 0.503900
vt 0.578100 0.503900
vt 0.578100 0.621100
vt 0.507800 0.621100
vt 0.664100 0.503900
vt 0.664100 0.621100
vt 0.664100 0.503900
vt 0.664100 0.621100
vt 0.664100 0.503900
vt 0.664100 0.621100
vt 0.664100 0.503900
vt 0.664100 0.621100
vt 0.664100 0.503900
vt 0.664100 0.621100
vt 0.664100 0.503900
vt 0.664100 0.621100
vt 0.750000 0.503900
vt 0.750000 0.621100
vt 0.750000 0.503900
vt 0.750000 0.621100
vt 0.750000 0.503900
vt 0.750000 0.621100
vt 0.750000 0.503900
vt 0.750000 0.621100
vt 0.750000 0.503900
vt 0.750000 0.621100
vt 0.750000 0.503900
vt 0.750000 0.621100
vt 0.828100 0.503900
vt 0.828100 0.621100
vt 0.828100 0.503900
vt 0.828100 0.621100
vt 0.828100 0.503900
vt 0.828100 0.621100
vt 0.828100 0.503900
vt 0.828100 0.621100
vt 0.828100 0.503900
vt 0.828100 0.621100
vt 0.828100 0.503900
vt 0.828100 0.621100
vt 0.914100 0.503900
vt 0.914100 0.621100
vt 0.914100 0.503900
vt 0.914100 0.621100
vt 0.914100 0.503900
vt 0.914100 0.621100
vt 0.914100 0.503900
vt 0.914100 0.621100
vt 0.914100 0.503900
vt 0.914100 0.621100
vt 0.914100 0.503900
vt 0.914100 0.621100
vt 0.992200 0.503900
vt 0.992200 0.621100
vt 0.992200 0.503900
vt 0.992200 0.621100
vt 0.992200 0.503900
vt 0.992200 0.621100
vt 0.992200 0.503900
vt 0.992200 0.621100
vt 0.992200 0.503900
vt 0.992200 0.621100
vt 0.992200 0.503900
vt 0.992200 0.621100
vt 0.382800 0.058600
vt 0.250000 0.121100
vt 0.460900 0.121100
vt 0.250000 0.121100
vt 0.250000 0.058600
vt 0.250000 0.003900
vt 0.250000 0.058600
vt 0.125000 0.058600
vt 0.140600 0.121100
vt 0.062500 0.121100
vt 0.007800 0.210900
vt 0.140600 0.121100
vt 0.125000 0.210900
vt 0.250000 0.210900
vt 0.125000 0.363300
vt 0.250000 0.421900
vt 0.375000 0.293000
vt 0.492200 0.359400
vt 0.492200 0.421900
vt 0.250000 0.496100
vt 0.125000 0.496100
vt 0.492200 0.496100
vt 0.375000 0.210900
vt 0.492200 0.210900
vt 0.007800 0.363300
vt 0.007800 0.496100
vt 0.125000 0.496100
vt 0.125000 0.363300
vt 0.695300 0.296900
vt 0.695300 0.371100
vt 0.750000 0.296900
vt 0.695300 0.234400
vt 0.750000 0.371100
vt 0.562500 0.371100
vt 0.507800 0.296900
vt 0.507800 0.234400
vt 0.492200 0.621100
vt 0.375000 0.621100
vt 0.492200 0.562500
vt 0.375000 0.503900
vt 0.492200 0.503900
vt 0.507800 0.371100
vt 0.492200 0.293000
vt 0.375000 0.293000
vt 0.750000 0.234400
vt 0.695300 0.191400
vt 0.992200 0.296900
vt 0.992200 0.234400
vt 0.750000 0.191400
vt 0.992200 0.371100
vt 0.695300 0.132800
vt 0.992200 0.191400
vt 0.750000 0.132800
vt 0.695300 0.074200
vt 0.992200 0.132800
vt 0.750000 0.074200
vt 0.695300 0.003900
vt 0.992200 0.074200
vt 0.750000 0.003900
vt 0.992200 0.003900
vt 0.492200 0.621100
vt 0.375000 0.621100
vt 0.375000 0.503900
vt 0.492200 0.503900
vt 0.507800 0.191400
vt 0.375000 0.621100
vt 0.375000 0.503900
vt 0.492200 0.621100
vt 0.250000 0.621100
vt 0.492200 0.503900
vt 0.507800 0.132800
vt 0.375000 0.621100
vt 0.375000 0.503900
vt 0.492200 0.621100
vt 0.250000 0.621100
vt 0.492200 0.503900
vt 0.507800 0.074200
vt 0.375000 0.621100
vt 0.375000 0.503900
vt 0.492200 0.621100
vt 0.250000 0.621100
vt 0.492200 0.503900
vt 0.507800 0.003900
vt 0.492200 0.621100
vt 0.375000 0.621100
vt 0.375000 0.503900
vt 0.492200 0.503900
vt 0.250000 0.621100
vt 0.125000 0.621100
vt 0.125000 0.503900
vt 0.250000 0.503900
vt 0.125000 0.621100
vt 0.125000 0.503900
vt 0.250000 0.503900
vt 0.250000 0.621100
vt 0.250000 0.503900
vt 0.125000 0.621100
vt 0.125000 0.503900
vt 0.250000 0.503900
vt 0.125000 0.621100
vt 0.125000 0.503900
vt 0.250000 0.503900
vt 0.250000 0.621100
vt 0.250000 0.503900
vt 0.125000 0.503900
vt 0.007800 0.621100
vt 0.007800 0.503900
vt 0.125000 0.621100
vt 0.250000 0.421900
vt 0.250000 0.496100
vt 0.375000 0.210900
vt 0.125000 0.210900
vt 0.250000 0.210900
vt 0.750000 0.296900
vt 0.695300 0.296900
vt 0.695300 0.234400
vt 0.750000 0.371100
vt 0.375000 0.621100
vt 0.492200 0.621100
vt 0.492200 0.562500
vt 0.492200 0.503900
vt 0.375000 0.503900
vt 0.507800 0.371100
vt 0.507800 0.296900
vt 0.750000 0.234400
vt 0.992200 0.296900
vt 0.992200 0.234400
vt 0.992200 0.371100
vt 0.750000 0.191400
vt 0.695300 0.191400
vt 0.992200 0.191400
vt 0.507800 0.191400
vt 0.507800 0.234400
vt 0.750000 0.132800
vt 0.695300 0.132800
vt 0.992200 0.132800
vt 0.507800 0.132800
vt 0.750000 0.074200
vt 0.695300 0.074200
vt 0.992200 0.074200
vt 0.507800 0.074200
vt 0.750000 0.003900
vt 0.695300 0.003900
vt 0.992200 0.003900
vt 0.507800 0.003900
vt 0.375000 0.503900
vt 0.375000 0.621100
vt 0.492200 0.621100
vt 0.492200 0.503900
vt 0.375000 0.503900
vt 0.375000 0.621100
vt 0.492200 0.621100
vt 0.492200 0.503900
vt 0.375000 0.503900
vt 0.375000 0.621100
vt 0.492200 0.621100
vt 0.492200 0.503900
vt 0.375000 0.503900
vt 0.375000 0.621100
vt 0.492200 0.621100
vt 0.492200 0.503900
vt 0.375000 0.503900
vt 0.375000 0.621100
vt 0.492200 0.621100
vt 0.492200 0.503900
vt 0.125000 0.503900
vt 0.125000 0.621100
vt 0.250000 0.621100
vt 0.250000 0.503900
vt 0.125000 0.503900
vt 0.125000 0.621100
vt 0.250000 0.621100
vt 0.250000 0.503900
vt 0.250000 0.503900
vt 0.250000 0.621100
vt 0.125000 0.503900
vt 0.125000 0.621100
vt 0.250000 0.621100
vt 0.250000 0.503900
vt 0.125000 0.503900
vt 0.125000 0.621100
vt 0.250000 0.621100
vt 0.250000 0.503900
vt 0.250000 0.621100
vt 0.250000 0.503900
vt 0.007800 0.621100
vt 0.125000 0.503900
vt 0.007800 0.503900
vt 0.125000 0.621100
vt 0.078100 0.503900
vt 0.171900 0.503900
vt 0.171900 0.621100
vt 0.078100 0.621100
vt 0.078100 0.503900
vt 0.171900 0.503900
vt 0.171900 0.621100
vt 0.078100 0.621100
vt 0.250000 0.503900
vt 0.250000 0.621100
vt 0.250000 0.503900
vt 0.250000 0.621100
vt 0.328100 0.503900
vt 0.328100 0.621100
vt 0.328100 0.503900
vt 0.328100 0.621100
vt 0.250000 0.503900
vt 0.328100 0.503900
vt 0.328100 0.621100
vt 0.250000 0.621100
vt 0.421900 0.503900
vt 0.421900 0.621100
vt 0.421900 0.503900
vt 0.421900 0.621100
vt 0.421900 0.503900
vt 0.421900 0.621100
vt 0.492200 0.503900
vt 0.492200 0.621100
vt 0.492200 0.503900
vt 0.492200 0.621100
vt 0.492200 0.503900
vt 0.492200 0.621100
vt 0.171900 0.503900
vt 0.250000 0.503900
vt 0.250000 0.621100
vt 0.171900 0.621100
vt 0.171900 0.503900
vt 0.250000 0.503900
vt 0.250000 0.621100
vt 0.171900 0.621100
vt 0.328100 0.503900
vt 0.328100 0.621100
vt 0.328100 0.503900
vt 0.328100 0.621100
vt 0.421900 0.503900
vt 0.421900 0.621100
vt 0.421900 0.503900
vt 0.421900 0.621100
vt 0.492200 0.503900
vt 0.492200 0.621100
vt 0.492200 0.503900
vt 0.492200 0.621100
vt 0.007800 0.503900
vt 0.078100 0.503900
vt 0.078100 0.621100
vt 0.007800 0.621100
vt 0.171900 0.503900
vt 0.171900 0.621100
vt 0.250000 0.503900
vt 0.250000 0.621100
vt 0.328100 0.503900
vt 0.328100 0.621100
vt 0.421900 0.503900
vt 0.421900 0.621100
vt 0.492200 0.503900
vt 0.492200 0.621100
vt 0.007800 0.746100
vt 0.007800 0.746100
vt 0.007800 0.746100
vt 0.492200 0.628900
vt 0.007800 0.746100
vt 0.609400 0.707000
vt 0.632800 0.707000
vt 0.632800 0.695300
vt 0.609400 0.695300
vt 0.609400 0.707000
vt 0.632800 0.707000
vt 0.632800 0.695300
vt 0.609400 0.695300
vn -0.4742 -0.8757 0.0906
vn -0.4752 -0.2599 0.8406
vn -0.9668 -0.2554 0.0073
vn -0.1899 -0.8154 0.5468
vn 0.4915 -0.2619 0.8306
vn 0.4677 -0.6994 0.5404
vn 0.4677 -0.6994 0.5405
vn 0.9662 -0.2576 -0.0123
vn 0.4915 -0.2619 0.8305
vn 0.4749 -0.8752 -0.0927
vn 0.4749 -0.8752 -0.0926
vn 0.4730 -0.2526 -0.8441
vn 0.9662 -0.2576 -0.0122
vn 0.1918 -0.8079 -0.5572
vn 0.1919 -0.8079 -0.5572
vn -0.4907 -0.2507 -0.8345
vn -0.4710 -0.6927 -0.5462
vn -0.9668 -0.2554 0.0074
vn -0.4800 0.4150 0.7729
vn -0.9090 0.4157 -0.0311
vn -0.4753 -0.2599 0.8406
vn 0.4315 0.4130 0.8020
vn 0.4916 -0.2619 0.8305
vn 0.9112 0.4113 0.0233
vn 0.4314 0.4130 0.8021
vn 0.4764 0.4146 -0.7753
vn 0.4729 -0.2526 -0.8441
vn -0.4311 0.4149 -0.8013
vn -0.9090 0.4157 -0.0310
vn -0.2826 0.9034 0.3226
vn -0.3507 0.9339 -0.0693
vn 0.1746 0.8448 0.5058
vn 0.3531 0.9332 0.0665
vn 0.9112 0.4113 0.0232
vn 0.2824 0.9009 -0.3296
vn 0.4765 0.4146 -0.7753
vn -0.1765 0.8451 -0.5047
vn -0.4311 0.4148 -0.8013
vn -0.3508 0.9339 -0.0693
vn -0.9090 0.4156 -0.0311
vn -0.4742 -0.8758 0.0906
vn 0.4748 -0.8752 -0.0927
vn -0.4711 -0.6927 -0.5461
vn -0.6491 0.7500 -0.1268
vn -0.4905 -0.2621 -0.8311
vn -0.9648 -0.2630 0.0087
vn -0.3056 0.3534 -0.8842
vn -0.3056 0.3533 -0.8842
vn 0.4705 -0.2602 -0.8431
vn -0.4905 -0.2620 -0.8311
vn 0.5200 0.6024 -0.6055
vn 0.5200 0.6025 -0.6055
vn 0.9659 -0.2588 -0.0118
vn 0.6491 0.7505 0.1240
vn 0.4915 -0.2621 0.8305
vn 0.9659 -0.2587 -0.0118
vn 0.3061 0.3535 0.8839
vn 0.3061 0.3536 0.8839
vn -0.4762 -0.2624 0.8393
vn -0.5232 0.6033 0.6019
vn -0.6492 0.7500 -0.1267
vn -0.3788 -0.8160 -0.4367
vn -0.4718 -0.8772 0.0890
vn 0.2302 -0.7018 -0.6741
vn -0.3787 -0.8160 -0.4367
vn 0.4705 -0.2602 -0.8432
vn 0.4709 -0.8772 -0.0931
vn 0.2302 -0.7018 -0.6742
vn 0.3796 -0.8139 0.4398
vn 0.4709 -0.8773 -0.0931
vn -0.2359 -0.7031 0.6708
vn 0.3795 -0.8140 0.4398
vn -0.5515 -0.2824 -0.7849
vn -0.5186 -0.8550 -0.0010
vn -0.9797 -0.2005 -0.0023
vn -0.1519 -0.9518 -0.2663
vn 0.1939 -0.8077 -0.5568
vn 0.5582 -0.1110 -0.8222
vn 0.5190 -0.8548 -0.0010
vn 0.9796 -0.2010 -0.0023
vn 0.9991 0.0419 -0.0027
vn 0.3944 -0.0251 -0.9186
vn 0.5548 -0.2856 0.7814
vn 0.1530 -0.9528 0.2624
vn -0.1902 -0.8111 0.5531
vn 0.5548 -0.2857 0.7814
vn -0.5591 -0.1155 0.8210
vn -0.5590 -0.1155 0.8211
vn -0.9992 0.0410 -0.0027
vn -0.3973 -0.0255 0.9174
vn -0.9992 0.0409 -0.0027
vn -0.3946 0.1073 -0.9126
vn -0.9797 -0.2004 -0.0023
vn -0.3815 -0.3992 -0.8337
vn -0.3946 0.1072 -0.9126
vn 0.4963 -0.3893 -0.7759
vn 0.9389 -0.3424 0.0366
vn 0.3945 -0.0251 -0.9186
vn -0.3814 -0.3992 -0.8337
vn -0.5744 -0.3286 0.7497
vn -0.9394 -0.3405 -0.0396
vn 0.3963 0.1078 0.9118
vn 0.4503 -0.3247 0.8317
vn -0.5744 -0.3287 0.7497
vn -0.3973 -0.0254 0.9173
vn -0.9395 -0.3404 -0.0396
vn -0.6492 0.7500 -0.1268
vn -0.7071 -0.6667 0.2357
vn -0.2887 -0.4082 -0.8660
vn 0.7071 -0.6667 -0.2357
vn 0.2887 -0.4083 0.8660
vn 0.0000 -0.0000 1.0000
vn -1.0000 0.0000 -0.0000
vn 1.0000 -0.0000 -0.0000
vn -0.0000 0.0000 -1.0000
vn -0.2887 -0.4083 -0.8660
vn -0.7071 -0.6666 0.2357
vn 0.7071 -0.6666 -0.2357
vn -0.2826 0.9034 0.3225
vn -0.3507 0.9339 -0.0694
vn 0.2823 0.9009 -0.3296
vn 0.7071 0.6667 0.2357
vn 0.2887 0.4082 -0.8660
vn -0.7071 0.6667 -0.2357
vn -0.2887 0.4082 0.8660
vn -0.2887 0.4083 0.8660
vn -0.7071 0.6666 -0.2357
vn 0.2887 0.4083 -0.8660
vn 0.7071 0.6666 0.2357
vn 0.8948 -0.3078 -0.3235
vn 0.7276 -0.3069 0.6135
vn -0.1685 -0.3065 0.9368
vn 0.4503 -0.3248 0.8317
vn -0.8955 -0.3071 0.3222
vn -0.8954 -0.3072 0.3222
vn -0.9394 -0.3404 -0.0396
vn -0.7264 -0.3078 -0.6145
vn -0.3815 -0.3992 -0.8338
vn 0.1672 -0.3076 -0.9367
vn 0.1673 -0.3076 -0.9367
vn 0.8947 -0.3079 -0.3235
vn 0.4963 -0.3894 -0.7759
vn 0.7527 -0.1863 -0.6314
vn 0.9228 -0.1854 0.3377
vn 0.1681 -0.1843 0.9684
vn 0.1681 -0.1844 0.9684
vn -0.7546 -0.1841 0.6299
vn -0.1684 -0.3065 0.9368
vn -0.8954 -0.3073 0.3221
vn -0.9228 -0.1853 -0.3377
vn -0.1691 -0.1860 -0.9679
vn -0.1691 -0.1859 -0.9679
vn 0.7528 -0.1863 -0.6314
vn 0.7528 -0.1862 -0.6314
vn 0.4990 0.0002 -0.8666
vn 1.0000 -0.0001 -0.0000
vn 0.5002 -0.0000 0.8659
vn 0.5003 -0.0000 0.8659
vn 0.1680 -0.1843 0.9684
vn -0.5009 -0.0004 0.8655
vn -0.5010 -0.0004 0.8655
vn -0.7546 -0.1840 0.6299
vn -1.0000 -0.0001 0.0000
vn -0.4997 0.0001 -0.8662
vn -0.9228 -0.1854 -0.3377
vn -0.1692 -0.1860 -0.9679
vn 0.7527 -0.1862 -0.6314
vn 0.1674 0.1855 -0.9683
vn 0.9225 0.1853 -0.3385
vn 0.7538 0.1842 0.6307
vn 0.7539 0.1842 0.6307
vn 0.5003 -0.0001 0.8659
vn -0.1699 0.1842 0.9681
vn -0.1698 0.1842 0.9681
vn -0.9232 0.1848 0.3369
vn -0.7536 0.1854 -0.6307
vn -0.4997 0.0000 -0.8662
vn 0.1674 0.1854 -0.9683
vn -0.1700 0.2848 -0.9434
vn 0.7307 0.2859 -0.6199
vn 0.9006 0.2866 0.3269
vn 0.9006 0.2865 0.3269
vn 0.1672 0.2867 0.9433
vn 0.1673 0.2868 0.9433
vn 0.1672 0.2868 0.9433
vn -0.7338 0.2857 0.6163
vn -0.9232 0.1847 0.3369
vn -0.9019 0.2852 -0.3243
vn -0.9019 0.2851 -0.3244
vn -0.5556 0.2247 -0.8006
vn 0.4676 0.2939 -0.8337
vn -0.1700 0.2849 -0.9434
vn 0.4676 0.2938 -0.8337
vn 0.9526 0.3009 -0.0452
vn 0.9526 0.3010 -0.0452
vn 0.5494 0.2826 0.7863
vn -0.4881 0.2298 0.8420
vn -0.4880 0.2298 0.8420
vn -0.9422 0.3323 0.0425
vn -0.7338 0.2857 0.6164
vn -0.9019 0.2852 -0.3244
vn -0.5556 0.2246 -0.8005
vn -0.5556 0.2246 -0.8006
vn -0.6133 0.7899 -0.0034
vn -0.3381 0.3448 0.8757
vn -0.1188 0.9929 -0.0009
vn -0.3402 0.3392 -0.8770
vn -0.6133 0.7898 -0.0033
vn -0.3379 -0.1822 -0.9234
vn -0.6132 0.7899 -0.0034
vn -0.3403 0.3392 -0.8770
vn -0.8981 -0.4395 -0.0153
vn -0.3390 -0.1797 0.9234
vn -0.0549 -0.9985 -0.0054
vn -0.4840 -0.5437 -0.6856
vn -0.4291 -0.9033 -0.0030
vn -0.7531 -0.6579 -0.0103
vn -0.4864 -0.5437 0.6840
vn -0.5701 -0.5130 0.6417
vn -0.2593 0.1018 0.9604
vn -0.4002 -0.2162 0.8906
vn 0.3119 0.1528 0.9378
vn 0.2432 0.0616 0.9680
vn 0.3118 0.1528 0.9378
vn 0.7275 0.6847 -0.0448
vn 0.9823 0.1791 -0.0548
vn 0.3119 0.1528 0.9377
vn 0.9823 0.1790 -0.0548
vn -0.3841 0.6481 0.6576
vn -0.3385 0.9410 -0.0002
vn -0.1187 0.9929 -0.0008
vn -0.8742 -0.4855 -0.0032
vn -0.9422 0.3323 0.0426
vn -0.4227 -0.2181 -0.8796
vn -0.0780 0.8379 -0.5403
vn -0.9813 0.0905 0.1696
vn -0.9814 0.0905 0.1696
vn -0.2934 0.7463 -0.5975
vn 0.6427 0.7661 0.0000
vn 0.9545 -0.0091 0.2980
vn 0.5349 0.5219 -0.6645
vn 0.0064 -1.0000 0.0002
vn 0.3283 0.1598 0.9310
vn -0.0248 0.6445 0.7642
vn 0.3374 0.6607 0.6705
vn 0.1268 0.9907 -0.0487
vn 0.6428 0.7661 -0.0000
vn 0.2336 0.0357 -0.9717
vn -0.2934 0.7462 -0.5975
vn -0.9813 0.0906 0.1697
vn -0.9430 -0.3074 0.1275
vn -0.3367 0.9045 -0.2619
vn 0.9545 -0.0090 0.2980
vn 0.5349 0.5218 -0.6645
vn -0.8852 -0.2716 0.3777
vn -0.9430 -0.3073 0.1275
vn -0.9813 0.0906 0.1696
vn 0.2433 0.0616 0.9680
vn -0.3840 0.6481 0.6576
vn -0.3432 0.9224 0.1774
vn 0.4928 0.6501 -0.5784
vn -0.7219 -0.4747 0.5035
vn -0.7220 -0.4747 0.5035
vn -0.2526 0.8271 0.5021
vn 0.4929 0.6500 -0.5784
vn 0.5325 0.8317 -0.1571
vn -0.3350 -0.6043 0.7229
vn -0.7219 -0.4747 0.5036
vn -0.3351 -0.6043 0.7229
vn 0.4772 0.8744 -0.0877
vn 0.0065 -1.0000 0.0003
vn 0.3283 0.1597 0.9310
vn 0.0064 -1.0000 0.0003
vn 0.5816 0.6578 -0.4787
vn 0.4035 0.6842 -0.6075
vn -0.2934 0.7462 -0.5976
vn 0.4908 0.6686 -0.5587
vn 0.4626 0.6633 -0.5882
vn 0.4929 0.6501 -0.5784
vn 0.6720 0.5433 -0.5032
vn 0.4929 0.6501 -0.5783
vn -0.3367 0.9044 -0.2619
vn 0.1382 0.9877 -0.0737
vn 0.1382 0.9870 -0.0820
vn 0.5325 0.8318 -0.1571
vn 0.1384 0.9878 -0.0711
vn -0.1357 0.9878 -0.0761
vn 0.4773 0.8744 -0.0877
vn 0.3149 0.9460 -0.0769
vn 0.3292 0.9424 -0.0591
vn 0.3151 0.9461 -0.0752
vn 0.0397 0.9954 -0.0867
vn 0.1268 0.9907 -0.0486
vn -0.1271 0.9481 0.2914
vn -0.0410 0.9586 0.2819
vn -0.0409 0.9586 0.2819
vn 0.8473 0.4244 -0.3193
vn 0.8232 0.3809 -0.4211
vn 0.8772 0.3414 -0.3376
vn 0.7664 0.5227 -0.3735
vn -0.2217 0.9696 -0.1035
vn -0.2146 0.9730 -0.0846
vn -0.1300 0.9889 -0.0717
vn -0.2157 0.9323 0.2902
vn -0.2177 0.9330 0.2867
vn 0.7040 0.4540 -0.5461
vn 0.7532 0.4532 -0.4768
vn 0.6965 0.5459 -0.4657
vn -0.1243 0.9866 -0.1053
vn -0.1190 0.9888 -0.0905
vn 0.0446 0.9953 -0.0856
vn 0.4102 0.5785 0.7050
vn 0.4162 0.5761 0.7035
vn 0.4103 0.5785 0.7050
vn 0.3282 0.1598 0.9310
vn 0.5878 0.4687 0.6594
vn 0.6588 0.3801 0.6492
vn 0.5343 0.3480 0.7703
vn 0.6458 0.4875 0.5875
vn 0.4161 0.5761 0.7035
vn 0.2387 0.1294 -0.9624
vn 0.2386 0.1294 -0.9624
vn 0.7275 0.6847 -0.0447
vn -0.3811 0.6540 -0.6535
vn -0.5659 -0.5044 -0.6522
vn -0.2588 0.1049 -0.9602
vn -0.7531 -0.6578 -0.0103
vn -0.8743 -0.4855 -0.0032
vn -0.5555 0.2246 -0.8006
vn -0.9816 0.0915 -0.1677
vn -0.0781 0.8369 0.5418
vn -0.2932 0.7467 0.5970
vn 0.3229 0.1456 -0.9352
vn 0.0016 -1.0000 -0.0021
vn -0.0290 0.6403 -0.7675
vn 0.1279 0.9905 0.0502
vn 0.3374 0.6607 -0.6705
vn 0.9545 -0.0094 -0.2982
vn -0.0781 0.8368 0.5419
vn -0.0290 0.6403 -0.7676
vn 0.1280 0.9905 0.0503
vn -0.9433 -0.3052 -0.1308
vn 0.5356 0.5199 0.6654
vn -0.8854 -0.2735 -0.3759
vn -0.9433 -0.3051 -0.1308
vn -0.3370 0.9049 0.2598
vn 0.5356 0.5200 0.6654
vn 0.4927 0.6520 0.5763
vn 0.5356 0.5199 0.6655
vn -0.8854 -0.2735 -0.3758
vn -0.2933 0.7467 0.5970
vn 0.4926 0.6520 0.5764
vn -0.7203 -0.4769 -0.5038
vn -0.3445 0.9215 -0.1792
vn 0.4927 0.6520 0.5764
vn 0.5325 0.8316 0.1575
vn -0.7202 -0.4769 -0.5038
vn -0.3446 0.9215 -0.1792
vn 0.5324 0.8317 0.1576
vn -0.3368 -0.6092 -0.7180
vn -0.2548 0.8257 -0.5033
vn 0.4772 0.8744 0.0878
vn 0.5325 0.8317 0.1575
vn -0.3369 -0.6092 -0.7179
vn 0.1280 0.9905 0.0502
vn 0.4773 0.8744 0.0878
vn -0.2548 0.8257 -0.5032
vn 0.1279 0.9905 0.0503
vn 0.4032 0.6835 0.6085
vn 0.5809 0.6583 0.4787
vn 0.4621 0.6644 0.5874
vn 0.4894 0.6692 0.5592
vn 0.1380 0.9870 0.0822
vn 0.1380 0.9876 0.0747
vn 0.3290 0.9425 0.0592
vn 0.3148 0.9460 0.0777
vn -0.0410 0.9586 -0.2819
vn -0.1271 0.9481 -0.2914
vn 0.8765 0.3404 0.3403
vn 0.8206 0.3804 0.4265
vn 0.8466 0.4243 0.3212
vn 0.7655 0.5237 0.3739
vn -0.2145 0.9732 0.0833
vn -0.2216 0.9698 0.1018
vn -0.1357 0.9879 0.0754
vn -0.1302 0.9890 0.0707
vn -0.2177 0.9330 -0.2867
vn -0.2157 0.9323 -0.2903
vn 0.1379 0.9876 0.0747
vn 0.7532 0.4532 0.4768
vn 0.7040 0.4540 0.5461
vn 0.6720 0.5433 0.5033
vn 0.6965 0.5459 0.4657
vn 0.6965 0.5458 0.4657
vn 0.6720 0.5433 0.5032
vn 0.4893 0.6693 0.5592
vn -0.2588 0.1048 -0.9602
vn -0.1190 0.9889 0.0892
vn -0.1242 0.9868 0.1036
vn 0.0397 0.9955 0.0859
vn 0.0444 0.9954 0.0845
vn 0.4103 0.5785 -0.7050
vn 0.4162 0.5761 -0.7035
vn 0.6588 0.3801 -0.6492
vn 0.5878 0.4687 -0.6594
vn 0.5343 0.3480 -0.7703
vn 0.6458 0.4875 -0.5875
vn 0.4102 0.5785 -0.7050
vn 0.4161 0.5761 -0.7035
vn 0.0865 0.8357 -0.5423
vn 0.0156 0.7293 -0.6840
vn 0.0672 0.7830 -0.6184
vn 0.1532 0.8245 -0.5448
vn 0.4227 0.8358 0.3505
vn 0.5840 0.7299 0.3553
vn 0.4992 0.7835 0.3701
vn 0.3873 0.8238 0.4139
vn -0.0371 0.6682 -0.7430
vn 0.0090 0.6556 -0.7551
vn 0.6619 0.6681 0.3399
vn 0.6489 0.6559 0.3857
vn -0.0371 0.6683 -0.7430
vn -0.2531 0.5813 -0.7733
vn -0.0846 0.5920 -0.8015
vn -0.0372 0.6683 -0.7430
vn 0.6619 0.6681 0.3398
vn 0.7950 0.5830 0.1677
vn 0.7357 0.5930 0.3272
vn -0.4640 0.8282 0.3143
vn -0.5056 0.6448 0.5733
vn -0.5645 0.7158 0.4110
vn -0.5067 0.8103 0.2943
vn -0.6289 0.4512 -0.6331
vn -0.4113 0.4538 -0.7905
vn -0.4112 0.4538 -0.7905
vn 0.8633 0.4512 -0.2262
vn 0.8895 0.4551 0.0408
vn -0.2360 0.4539 0.8592
vn -0.4816 0.4549 0.7491
vn -0.5055 0.6448 0.5733
vn -0.6289 0.4512 -0.6332
vn 0.8633 0.4512 -0.2261
vn -0.2360 0.4539 0.8593
vn 0.4952 0.7175 -0.4899
vn 0.4689 0.6242 -0.6249
vn 0.5177 0.6582 -0.5466
vn 0.4953 0.7175 -0.4899
vn 0.5496 0.6961 -0.4619
vn 0.2552 -0.0801 0.9636
vn 0.3874 0.1589 0.9081
vn 0.2821 0.0073 0.9594
vn 0.1734 -0.1498 0.9734
vn 0.3939 0.4755 -0.7866
vn 0.4784 0.5009 -0.7212
vn 0.4784 0.5009 -0.7213
vn 0.5127 0.3712 0.7742
vn 0.4321 0.2839 0.8559
vn 0.3939 0.4754 -0.7866
vn 0.2019 0.4910 -0.8475
vn 0.3569 0.4252 -0.8318
vn 0.3568 0.4252 -0.8318
vn 0.4784 0.5010 -0.7212
vn 0.6275 0.4903 0.6048
vn 0.5398 0.4240 0.7272
vn 0.4676 0.2939 -0.8336
vn -0.4025 -0.4719 -0.7844
vn -0.1992 -0.5663 -0.7997
vn -0.7092 -0.2289 -0.6668
vn -0.5172 -0.3625 -0.7754
vn -0.4026 -0.4719 -0.7844
vn -0.5172 -0.3625 -0.7753
vn -0.9037 0.1619 -0.3964
vn -0.8020 -0.0412 -0.5959
vn -0.9063 0.4187 -0.0582
vn -0.9066 0.3183 -0.2772
vn -0.9062 0.4187 -0.0582
vn -0.8323 0.4960 0.2473
vn -0.8916 0.4498 0.0517
vn -0.9063 0.4187 -0.0581
vn -0.9065 0.3183 -0.2772
vn -0.8323 0.4961 0.2473
usemtl w21st03_TEX_w21st03
s 1
f 1/1/1 2/2/2 3/3/3
f 2/2/2 1/1/1 4/4/4
f 4/4/4 5/5/5 2/2/2
f 5/5/5 4/4/4 6/6/6
f 6/6/7 7/7/8 5/5/9
f 7/7/8 6/6/7 8/8/10
f 8/9/11 9/10/12 7/11/13
f 9/10/12 8/9/11 10/12/14
f 10/12/15 11/13/16 9/10/12
f 11/13/16 10/12/15 12/14/17
f 12/14/17 3/15/18 11/13/16
f 3/15/18 12/14/17 1/16/1
f 3/17/18 13/18/19 14/19/20
f 13/18/19 3/17/18 2/20/2
f 2/20/21 15/21/22 13/18/19
f 15/21/22 2/20/21 5/22/5
f 5/22/23 16/23/24 15/21/25
f 16/23/24 5/22/23 7/24/8
f 7/25/13 17/26/26 16/27/24
f 17/26/26 7/25/13 9/28/12
f 9/28/27 18/29/28 17/26/26
f 18/29/28 9/28/27 11/30/16
f 11/30/16 14/31/20 18/29/28
f 14/31/20 11/30/16 3/32/18
f 14/33/29 19/34/30 20/35/31
f 19/34/30 14/33/29 13/36/19
f 13/36/19 21/37/32 19/34/30
f 21/37/32 13/36/19 15/38/22
f 15/38/22 22/39/33 21/37/32
f 22/39/33 15/38/22 16/40/34
f 16/41/24 23/42/35 22/43/33
f 23/42/35 16/41/24 17/44/26
f 17/44/36 24/45/37 23/42/35
f 24/45/37 17/44/36 18/46/38
f 18/46/28 20/47/39 24/45/37
f 20/47/39 18/46/28 14/48/40
f 4/49/4 1/50/41 8/51/42
f 4/49/4 8/51/42 6/52/7
f 1/53/41 12/54/43 10/55/14
f 1/56/41 10/57/14 8/58/42
f 25/59/44 26/60/45 27/61/46
f 26/60/45 25/59/44 28/62/47
f 28/62/48 29/63/49 26/60/50
f 29/63/49 28/62/48 30/64/51
f 30/64/52 31/65/53 29/63/49
f 31/65/53 30/64/52 32/66/54
f 32/67/54 33/68/55 31/69/56
f 33/68/55 32/67/54 34/70/57
f 34/70/58 35/71/59 33/68/55
f 35/71/59 34/70/58 36/72/60
f 36/72/60 27/73/46 35/71/59
f 27/73/46 36/72/60 25/74/61
f 27/75/46 37/76/62 38/77/63
f 37/76/62 27/75/46 26/78/45
f 26/78/50 39/79/64 37/76/65
f 39/79/64 26/78/50 29/80/66
f 29/80/49 40/81/67 39/79/68
f 40/81/67 29/80/49 31/82/53
f 31/83/53 41/84/69 40/85/70
f 41/84/69 31/83/53 33/86/55
f 33/86/55 42/87/71 41/84/72
f 42/87/71 33/86/55 35/88/59
f 35/88/59 38/89/63 42/87/71
f 38/89/63 35/88/59 27/90/46
f 43/91/73 44/92/74 45/93/75
f 46/94/76 44/92/74 43/91/73
f 43/91/73 47/95/77 46/94/76
f 47/95/77 43/91/73 48/96/78
f 48/96/78 49/97/79 47/95/77
f 48/96/78 50/98/80 49/97/79
f 50/98/80 48/96/78 51/99/81
f 52/100/82 51/99/81 48/96/78
f 53/101/83 49/102/79 50/103/80
f 54/104/84 49/102/79 53/101/83
f 53/101/83 55/105/85 54/104/84
f 55/105/85 53/101/86 56/106/87
f 56/106/88 44/107/74 55/105/85
f 56/106/88 45/108/75 44/107/74
f 45/108/75 56/106/88 57/109/89
f 58/110/90 57/109/89 56/106/88
f 43/91/73 57/111/91 59/112/92
f 57/111/91 43/91/73 45/93/93
f 57/111/89 60/113/94 59/112/95
f 61/114/96 62/115/97 51/99/81
f 59/112/92 48/96/78 43/91/73
f 48/96/78 59/112/92 52/100/98
f 60/113/99 52/100/98 59/112/92
f 52/100/98 60/113/99 61/114/96
f 63/116/100 64/117/101 57/109/89
f 65/118/102 56/106/88 53/101/83
f 53/101/83 51/119/81 65/118/102
f 66/120/103 65/118/102 51/119/81
f 51/119/81 62/121/97 66/120/103
f 66/120/103 63/116/104 58/110/90
f 53/101/83 50/103/80 51/119/81
f 63/116/100 57/109/89 58/110/105
f 65/118/102 66/120/103 58/110/90
f 58/110/90 56/106/88 65/118/102
f 61/114/96 51/99/81 52/100/98
f 64/122/106 60/113/94 57/111/89
f 36/123/60 34/124/57 32/125/54
f 36/123/60 32/125/54 25/126/107
f 25/127/107 32/128/54 30/129/52
f 25/127/107 30/129/52 28/130/47
f 67/131/108 68/132/109 69/133/110
f 67/134/108 69/135/110 70/136/111
f 71/137/112 72/138/113 73/139/113
f 74/140/112 67/141/108 70/142/111
f 70/142/111 75/143/114 74/140/112
f 72/144/113 76/145/115 77/146/115
f 73/147/113 68/148/116 67/149/117
f 68/148/116 73/147/113 77/150/115
f 76/145/115 78/151/114 75/152/114
f 69/153/110 77/150/115 75/154/114
f 77/150/115 69/153/110 68/148/109
f 78/155/114 71/137/112 74/156/112
f 70/142/111 69/157/118 75/143/114
f 19/158/119 21/159/32 22/160/33
f 19/161/119 22/162/33 20/163/120
f 20/164/120 22/165/33 23/166/121
f 20/164/120 23/166/121 24/167/37
f 37/168/65 39/169/64 40/170/70
f 37/168/65 40/170/70 38/171/63
f 38/172/63 40/173/70 41/174/69
f 38/172/63 41/174/69 42/175/71
f 79/176/122 80/177/123 81/178/124
f 79/176/122 81/178/124 82/179/125
f 72/180/113 83/181/112 84/182/113
f 83/181/112 72/180/113 71/183/112
f 82/184/126 81/185/127 84/186/113
f 84/187/113 76/188/115 72/189/113
f 76/188/115 84/187/113 85/190/115
f 81/191/124 80/192/123 85/193/115
f 85/190/115 78/194/114 76/188/115
f 78/194/114 85/190/115 86/195/114
f 80/192/128 79/196/129 86/197/114
f 86/198/114 71/183/112 78/199/114
f 71/183/112 86/198/114 83/181/112
f 79/200/122 82/184/125 83/201/112
f 62/202/97 87/203/130 88/204/131
f 62/202/97 88/204/131 66/205/103
f 66/206/103 88/207/131 89/208/132
f 66/206/133 89/208/132 63/209/100
f 63/210/104 89/211/132 90/212/134
f 63/210/100 90/212/135 64/213/136
f 64/214/136 90/215/134 91/216/137
f 64/214/136 91/216/137 60/217/138
f 60/218/94 91/219/137 92/220/139
f 60/218/94 92/220/139 61/221/96
f 61/222/96 92/223/140 87/224/141
f 61/222/142 87/224/130 62/225/97
f 87/203/130 93/226/143 94/227/144
f 87/203/130 94/227/144 88/204/131
f 88/207/131 94/228/144 95/229/145
f 88/207/131 95/229/146 89/208/132
f 89/211/132 95/230/145 96/231/147
f 89/211/148 96/231/147 90/212/149
f 90/215/135 96/232/147 97/233/150
f 90/215/134 97/233/150 91/216/137
f 91/219/137 97/234/150 98/235/151
f 91/219/137 98/235/152 92/220/139
f 92/223/139 98/236/151 93/237/153
f 92/223/139 93/237/153 87/224/130
f 93/226/154 99/238/155 100/239/156
f 93/226/143 100/239/114 94/227/144
f 94/228/144 100/240/156 101/241/157
f 94/228/144 101/241/158 95/229/145
f 95/230/159 101/242/157 102/243/160
f 95/230/159 102/243/161 96/231/147
f 96/232/162 102/244/160 103/245/163
f 96/232/147 103/245/113 97/233/150
f 97/234/150 103/246/163 104/247/164
f 97/234/165 104/247/164 98/235/151
f 98/236/166 104/248/164 99/249/155
f 98/236/151 99/249/155 93/237/167
f 99/238/155 105/250/168 106/251/169
f 99/238/155 106/251/169 100/239/156
f 100/240/156 106/252/169 107/253/170
f 100/240/114 107/253/171 101/241/172
f 101/242/172 107/254/170 108/255/173
f 101/242/157 108/255/174 102/243/161
f 102/244/160 108/256/174 109/257/175
f 102/244/160 109/257/175 103/245/163
f 103/246/163 109/258/175 110/259/176
f 103/246/113 110/259/176 104/247/177
f 104/248/164 110/260/176 105/261/178
f 104/248/177 105/261/178 99/249/155
f 105/250/178 111/262/179 112/263/180
f 105/250/178 112/263/180 106/251/169
f 106/252/169 112/264/180 113/265/181
f 106/252/169 113/265/181 107/253/171
f 107/254/170 113/266/182 114/267/183
f 107/254/171 114/267/184 108/255/173
f 108/256/174 114/268/185 115/269/186
f 108/256/173 115/269/186 109/257/187
f 109/258/175 115/270/186 116/271/188
f 109/258/175 116/271/188 110/259/176
f 110/260/176 116/272/189 111/273/179
f 110/260/176 111/273/179 105/261/168
f 111/262/179 117/274/190 118/275/191
f 111/262/192 118/275/191 112/263/180
f 112/264/180 118/276/193 119/277/194
f 112/264/180 119/277/194 113/265/181
f 113/266/181 119/278/195 120/279/196
f 113/266/181 120/279/196 114/267/185
f 114/268/185 120/280/196 121/281/197
f 114/268/184 121/281/198 115/269/186
f 115/270/186 121/282/198 122/283/199
f 115/270/200 122/283/199 116/271/201
f 116/272/188 122/284/199 117/285/202
f 116/272/188 117/285/203 111/273/192
f 123/286/204 125/287/205 124/288/206
f 124/288/206 126/289/207 123/286/208
f 127/290/209 123/286/210 126/289/211
f 128/291/212 129/292/213 123/286/204
f 123/286/204 127/290/209 128/291/212
f 130/293/214 128/291/212 127/290/209
f 127/290/209 131/294/215 130/293/214
f 132/295/216 130/293/214 131/294/215
f 131/294/215 133/296/217 132/295/216
f 134/297/218 132/295/216 133/296/217
f 133/296/217 135/298/219 134/297/218
f 136/299/220 134/297/218 135/298/219
f 135/298/219 137/300/221 136/299/220
f 125/287/205 123/286/204 129/292/213
f 134/297/218 125/287/205 129/292/213
f 129/292/213 130/293/214 134/297/218
f 138/301/222 139/302/223 137/300/221
f 139/302/223 138/301/224 140/303/225
f 141/304/226 140/303/225 138/301/224
f 138/301/227 120/305/196 141/304/228
f 120/305/196 138/301/222 121/306/197
f 137/300/221 121/306/197 138/301/222
f 141/304/228 120/305/196 119/307/194
f 142/308/229 143/309/230 124/288/231
f 124/288/231 125/287/205 142/308/229
f 136/299/220 142/308/229 125/287/205
f 125/287/205 134/297/218 136/299/220
f 136/299/220 137/300/221 139/302/223
f 144/310/232 122/311/233 121/306/197
f 122/311/233 144/310/232 117/312/203
f 145/313/234 117/312/203 144/310/232
f 146/314/235 143/315/230 147/316/236
f 147/316/237 148/317/238 146/314/235
f 142/318/229 147/316/236 143/315/230
f 146/314/235 149/319/239 143/315/230
f 149/319/239 146/314/235 150/320/240
f 151/321/241 150/320/240 146/314/235
f 152/322/242 153/323/243 154/324/244
f 154/324/244 153/323/243 155/325/245
f 155/325/245 156/326/246 154/324/244
f 149/319/247 150/320/240 139/327/223
f 149/328/247 139/302/223 140/303/225
f 140/303/225 157/329/248 149/328/247
f 148/317/249 147/316/250 158/330/251
f 158/330/251 159/331/252 148/317/249
f 158/330/251 150/332/253 151/333/241
f 151/333/254 160/334/255 158/330/256
f 158/330/251 147/316/250 150/332/253
f 147/316/257 139/335/258 150/332/240
f 139/335/223 147/316/236 142/318/259
f 159/331/252 158/330/256 160/334/255
f 160/334/255 161/336/260 159/331/252
f 160/334/255 151/333/241 162/337/261
f 162/337/261 163/338/262 160/334/255
f 161/336/260 160/334/255 163/338/263
f 163/338/263 164/339/264 161/336/260
f 163/338/262 162/337/265 165/340/266
f 165/340/266 166/341/267 163/338/262
f 164/339/264 163/338/268 166/341/269
f 166/341/267 154/342/244 164/339/264
f 166/341/267 165/340/266 167/343/270
f 167/343/270 152/344/271 166/341/267
f 166/341/267 152/344/271 154/342/244
f 167/343/270 156/345/246 152/344/271
f 153/323/272 156/326/246 155/325/245
f 156/326/246 153/323/243 152/322/273
f 151/346/241 169/347/274 168/348/275
f 168/348/275 150/349/240 151/346/241
f 151/321/241 146/314/235 148/317/276
f 148/317/276 162/350/265 151/321/241
f 170/351/277 171/352/278 162/353/279
f 171/352/278 170/351/277 172/354/280
f 151/355/241 162/353/265 171/352/278
f 162/350/281 148/317/249 159/331/282
f 159/331/282 165/356/266 162/350/281
f 173/357/283 174/358/284 165/359/285
f 174/358/284 173/357/286 175/360/287
f 162/361/265 165/359/266 174/358/284
f 165/356/266 159/331/252 161/336/260
f 161/336/260 167/362/288 165/356/266
f 176/363/289 177/364/290 167/365/288
f 177/364/290 176/363/291 178/366/292
f 165/367/266 167/365/288 177/364/290
f 167/362/270 161/336/260 164/339/264
f 164/339/264 156/368/246 167/362/270
f 156/369/293 180/370/294 179/371/295
f 179/371/296 167/372/288 156/369/293
f 164/339/264 154/342/244 156/368/246
f 181/373/297 183/374/298 182/375/299
f 182/375/299 184/376/300 181/373/297
f 175/360/287 186/377/301 185/378/302
f 185/378/302 187/379/303 175/360/287
f 174/358/284 175/360/287 187/379/303
f 180/370/294 189/380/304 188/381/305
f 188/381/305 179/371/295 180/370/294
f 169/347/274 184/376/300 168/348/275
f 184/376/300 169/347/274 181/373/297
f 172/354/280 191/382/306 190/383/307
f 190/383/307 192/384/308 172/354/280
f 171/352/278 172/354/280 192/384/308
f 142/308/229 136/299/220 139/302/258
f 178/366/292 194/385/309 193/386/310
f 193/386/310 195/387/311 178/366/292
f 177/364/290 178/366/292 195/387/311
f 155/325/245 196/388/312 197/389/313
f 196/388/314 155/325/245 153/323/315
f 198/390/316 199/391/317 200/392/318
f 199/391/317 198/390/316 201/393/319
f 196/388/312 201/393/319 198/390/316
f 198/390/316 197/389/320 196/388/314
f 140/303/225 202/394/321 157/329/248
f 202/394/322 140/303/323 141/304/226
f 141/304/226 118/395/191 202/394/322
f 118/395/191 141/304/228 119/307/194
f 124/288/206 143/309/230 203/396/324
f 203/396/324 126/289/207 124/288/206
f 204/397/325 131/294/215 205/398/326
f 205/398/326 145/313/234 204/397/325
f 205/398/326 157/329/248 145/313/234
f 144/310/232 133/296/327 204/397/325
f 133/296/217 144/310/328 135/298/219
f 137/300/221 135/298/219 144/310/328
f 117/312/202 202/394/322 118/395/193
f 202/394/322 117/312/329 145/313/234
f 206/399/330 143/315/230 207/400/331
f 207/400/331 208/401/332 206/399/330
f 203/402/324 143/315/230 206/399/330
f 207/400/331 143/315/230 149/319/247
f 205/398/326 126/289/207 203/396/324
f 126/289/207 205/398/326 131/294/215
f 209/403/333 210/404/334 211/405/335
f 210/404/334 209/403/333 212/406/336
f 213/407/337 212/406/336 209/403/333
f 209/403/333 211/405/335 213/407/337
f 149/319/247 157/408/248 214/409/338
f 207/400/339 149/319/239 214/409/338
f 211/405/340 212/406/341 213/407/337
f 215/410/342 206/399/330 208/401/332
f 206/399/330 215/410/342 214/411/338
f 216/412/343 214/411/338 215/410/342
f 157/413/248 203/402/324 206/399/330
f 206/399/330 214/411/338 157/413/248
f 217/414/344 215/410/345 218/415/346
f 215/410/345 217/414/344 216/412/347
f 219/416/348 216/412/349 217/414/350
f 208/401/351 218/415/346 215/410/342
f 218/415/346 208/401/351 219/417/352
f 216/418/349 219/417/352 208/401/351
f 220/419/353 217/414/350 221/420/354
f 217/414/350 220/419/353 219/416/355
f 222/421/356 219/416/352 220/419/357
f 218/415/346 221/420/358 217/414/350
f 221/420/358 218/415/346 222/422/359
f 219/417/352 222/422/359 218/415/346
f 223/423/360 220/419/357 224/424/361
f 220/419/357 223/423/360 222/421/359
f 225/425/362 222/421/363 223/423/364
f 221/420/358 224/424/361 220/419/353
f 224/424/361 221/420/358 225/426/362
f 222/422/359 225/426/362 221/420/354
f 210/427/334 223/423/364 211/428/340
f 223/423/364 210/427/334 225/425/362
f 212/429/365 225/425/366 210/427/334
f 224/424/367 211/428/335 223/423/360
f 211/428/335 224/424/367 212/430/368
f 225/426/362 212/430/368 224/424/367
f 226/431/369 227/432/370 216/433/343
f 216/433/343 214/434/338 226/431/369
f 207/400/331 216/418/343 208/401/332
f 216/418/349 207/400/331 214/409/338
f 228/435/371 229/436/372 219/437/352
f 219/437/352 216/438/349 228/435/371
f 230/439/373 231/440/374 222/441/359
f 222/441/359 219/442/355 230/439/373
f 232/443/375 233/444/376 225/445/362
f 225/445/362 222/446/359 232/443/375
f 234/447/377 235/448/378 212/449/368
f 212/449/368 225/450/362 234/447/377
f 236/451/379 238/452/380 237/453/381
f 237/453/381 239/454/382 236/451/379
f 240/455/383 242/456/384 241/457/385
f 241/457/385 243/458/386 240/455/383
f 244/459/387 245/460/388 235/448/378
f 235/448/378 234/447/377 244/459/387
f 227/432/370 239/454/382 237/453/381
f 239/454/382 227/432/370 226/431/369
f 230/439/373 243/458/386 241/457/385
f 241/457/385 231/440/389 230/439/373
f 246/461/390 248/462/391 247/463/392
f 247/463/392 249/464/393 246/461/390
f 228/435/371 249/464/394 247/463/395
f 247/463/392 229/436/396 228/435/371
f 203/396/324 157/329/248 205/398/397
f 250/465/398 252/466/399 251/467/400
f 251/467/400 253/468/401 250/465/398
f 232/443/375 253/468/401 251/467/400
f 251/467/400 233/444/376 232/443/375
f 254/469/402 213/407/337 255/470/403
f 213/407/337 254/469/402 209/403/333
f 256/471/404 257/472/405 258/473/406
f 257/472/405 256/471/404 259/474/407
f 254/469/408 257/472/405 259/474/407
f 257/472/405 254/469/402 255/470/409
f 260/475/410 261/476/411 262/477/412
f 260/475/410 262/477/412 263/478/413
f 264/479/414 265/480/415 266/481/416
f 264/479/414 266/481/416 267/482/417
f 261/476/411 268/483/418 269/484/419
f 261/476/411 269/484/419 262/477/412
f 265/480/415 270/485/420 271/486/421
f 265/480/415 271/486/421 266/481/416
f 268/483/422 272/487/423 273/488/424
f 268/483/425 273/488/424 269/484/419
f 270/485/426 274/489/427 275/490/428
f 270/485/420 275/490/428 271/486/421
f 276/491/429 277/492/430 278/493/431
f 276/491/429 278/493/431 279/494/432
f 272/487/423 280/495/433 281/496/434
f 272/487/423 281/496/435 273/488/424
f 274/489/427 282/497/436 283/498/437
f 274/489/427 283/498/437 275/490/428
f 277/492/430 284/499/438 285/500/439
f 277/492/440 285/500/439 278/493/431
f 280/495/441 122/501/233 117/502/203
f 280/495/433 117/502/203 281/496/435
f 282/497/442 118/503/191 119/504/194
f 282/497/442 119/504/194 283/498/437
f 284/499/438 120/505/196 121/506/197
f 284/499/443 121/506/197 285/500/439
f 286/507/444 287/508/445 288/509/446
f 286/507/447 288/509/446 289/510/448
f 290/511/449 291/512/450 292/513/451
f 290/511/449 292/513/451 293/514/452
f 287/508/445 294/515/453 295/516/454
f 287/508/445 295/516/455 288/509/446
f 291/512/450 296/517/456 297/518/457
f 291/512/450 297/518/457 292/513/451
f 294/515/458 298/519/459 299/520/460
f 294/515/458 299/520/461 295/516/462
f 296/517/456 300/521/463 301/522/464
f 296/517/456 301/522/464 297/518/457
f 298/519/459 117/523/202 118/524/465
f 298/519/459 118/524/193 299/520/460
f 300/521/463 119/525/194 120/526/196
f 300/521/463 120/526/196 301/522/464
f 60/527/138 302/528/466 303/529/467
f 60/527/94 303/529/467 61/530/142
f 302/528/466 304/531/468 305/532/469
f 302/528/470 305/532/471 303/529/467
f 304/531/468 306/533/472 307/534/473
f 304/531/468 307/534/473 305/532/471
f 306/533/472 308/535/474 309/536/475
f 306/533/472 309/536/475 307/534/473
f 308/535/476 310/537/477 311/538/478
f 308/535/479 311/538/478 309/536/480
f 310/537/477 121/539/197 122/540/199
f 310/537/481 122/540/233 311/538/478
f 129/292/213 128/291/212 130/293/214
f 79/200/122 83/201/112 86/541/114
f 80/192/128 86/197/114 85/193/115
f 81/191/124 85/193/115 84/542/113
f 82/184/126 84/186/113 83/201/112
f 72/144/113 77/146/115 73/543/113
f 71/137/112 73/139/113 74/156/112
f 74/140/112 73/544/113 67/141/108
f 78/155/114 74/156/112 75/545/114
f 76/145/115 75/152/114 77/146/115
f 121/306/197 137/300/221 144/310/232
f 126/289/211 131/294/215 127/290/209
f 133/296/217 131/294/215 204/397/325
f 144/310/232 204/397/325 145/313/234
f 157/329/248 202/394/322 145/313/234
f 134/297/218 130/293/214 132/295/216
f 46/546/76 47/547/77 49/548/79
f 46/546/76 49/548/79 54/549/84
f 44/550/74 46/551/76 54/552/84
f 44/550/74 54/552/84 55/553/85
