# Blender v2.79 (sub 0) OBJ File: ''
# www.blender.org
mtllib w22ln01.mtl
o MDL_w22ln01_bod01.001
v -0.271900 0.963500 0.153800
v 0.052200 0.914700 0.256200
v 0.060300 0.996300 0.294100
v -0.249100 0.913800 0.142200
v 0.289700 1.028800 0.029100
v 0.262200 0.935100 0.027500
v 0.285000 0.913800 0.026900
v 0.101600 0.967600 -0.238700
v 0.119700 0.913800 -0.289700
v -0.244400 0.917600 -0.210600
v -0.192500 1.000400 -0.170000
v -0.217500 1.032900 0.122500
v 0.113400 1.061300 -0.262200
v -0.207800 1.094100 -0.186600
v 0.045300 1.065400 0.232800
v -0.234400 1.126600 0.132200
v 0.234100 1.110400 0.024700
v 0.051600 1.159100 0.251900
v 0.086600 1.130700 -0.205000
v 0.246900 1.191900 0.024400
v -0.165300 1.163200 -0.145300
v 0.095900 1.224400 -0.222800
v -0.185600 1.196000 0.104100
v -0.175600 1.256900 -0.157800
v 0.037500 1.228500 0.196900
v -0.196900 1.289700 0.110600
v 0.189100 1.261000 0.019700
v 0.042500 1.322200 0.209400
v 0.077500 1.293800 -0.170000
v 0.203700 1.354700 0.020000
v -0.134700 1.326300 -0.118700
v 0.078400 1.387600 -0.183100
v -0.150600 1.358800 0.090000
v -0.143400 1.420100 -0.128700
v 0.035000 1.391600 0.165900
v -0.159400 1.452900 0.088700
v 0.159100 1.424100 0.019400
v 0.033400 1.485400 0.167200
v 0.062200 1.456900 -0.135900
v 0.160600 1.517900 0.015300
v -0.106900 1.489400 -0.094100
v 0.060600 1.550700 -0.143400
v -0.118400 1.521900 0.071200
v -0.111200 1.583200 -0.099700
v 0.021300 1.554700 0.122500
v -0.121900 1.615700 0.067200
v 0.108100 1.587200 0.011900
v 0.024400 1.648500 0.124700
v 0.040300 1.619700 -0.094400
v 0.117500 1.681000 0.010900
v -0.074100 1.652600 -0.064700
v 0.043100 1.713500 -0.104100
v -0.080300 1.685100 0.045600
v -0.079100 1.746300 -0.070900
v 0.015300 1.717600 0.082500
v -0.084400 1.778800 0.045600
v 0.074700 1.750400 0.008400
v 0.015300 1.811300 0.082500
v 0.026600 1.782900 -0.063700
v 0.074700 1.844400 0.004700
v -0.049100 1.815400 -0.042200
v 0.025600 1.876600 -0.064400
v -0.051200 1.848200 0.028800
v -0.046900 1.909100 -0.041900
v 0.008400 1.880700 0.049400
v -0.046900 1.941900 0.024100
v 0.041300 1.913200 0.005000
v 0.005600 1.962900 0.040300
v 0.012800 1.946000 -0.033100
v 0.031600 1.996900 0.002500
v -0.024100 1.978500 -0.019400
v 0.012800 2.027900 -0.021900
v -0.021900 2.011000 0.011900
v -0.009700 2.125100 0.002200
v -0.201900 0.817600 0.122800
v -0.362800 0.854400 0.007200
v -0.310900 0.854400 0.188100
v -0.205900 0.817600 -0.114700
v -0.186600 0.854400 -0.310600
v -0.169700 0.911600 -0.282200
v -0.288400 0.911600 -0.159100
v -0.005600 0.854400 -0.362500
v -0.317200 0.854400 -0.175300
v -0.329700 0.911600 0.006600
v -0.282500 0.911600 0.171300
v 0.312200 0.854400 -0.186300
v 0.283700 0.911600 -0.169100
v 0.160900 0.911600 -0.288100
v 0.330900 0.911600 -0.004700
v 0.364100 0.854400 -0.005300
v 0.176900 0.854400 -0.316900
v -0.005000 0.911600 -0.329400
v 0.000600 0.911600 0.000900
v -0.159700 0.911600 0.290000
v 0.123800 0.769400 -0.073100
v 0.209400 0.817600 0.115600
v 0.126600 0.769400 0.070600
v 0.205300 0.817600 -0.121900
v 0.187800 0.854400 0.312500
v 0.006300 0.911600 0.331600
v 0.006900 0.854400 0.364400
v 0.170900 0.911600 0.284400
v 0.318400 0.854400 0.177200
v 0.289700 0.911600 0.161200
v -0.175600 0.854400 0.319100
v -0.002500 0.817600 -0.237200
v -0.001900 0.769400 -0.142800
v 0.005600 0.817600 0.237800
v -0.125300 0.769400 0.068800
v 0.003100 0.769400 0.144700
v -0.125300 0.769400 -0.068800
vt 0.750000 0.589800
vt 0.875000 0.574200
vt 0.750000 0.574200
vt 0.820300 0.589800
vt 0.750000 0.558600
vt 0.875000 0.558600
vt 0.929700 0.558600
vt 0.875000 0.543000
vt 0.976600 0.543000
vt 0.992200 0.527300
vt 0.875000 0.527300
vt 0.875000 0.511700
vt 0.750000 0.543000
vt 0.750000 0.527300
vt 0.992200 0.511700
vt 0.875000 0.492200
vt 0.750000 0.511700
vt 0.992200 0.500000
vt 0.875000 0.472700
vt 0.750000 0.492200
vt 0.992200 0.484400
vt 0.875000 0.457000
vt 0.750000 0.472700
vt 0.992200 0.472700
vt 0.875000 0.441400
vt 0.750000 0.457000
vt 0.992200 0.460900
vt 0.875000 0.425800
vt 0.750000 0.441400
vt 0.992200 0.445300
vt 0.875000 0.410200
vt 0.750000 0.425800
vt 0.992200 0.429700
vt 0.875000 0.394500
vt 0.750000 0.410200
vt 0.992200 0.414100
vt 0.875000 0.378900
vt 0.750000 0.394500
vt 0.992200 0.402300
vt 0.875000 0.359400
vt 0.750000 0.378900
vt 0.992200 0.386700
vt 0.875000 0.339800
vt 0.750000 0.359400
vt 0.992200 0.371100
vt 0.875000 0.324200
vt 0.750000 0.339800
vt 0.992200 0.355500
vt 0.875000 0.308600
vt 0.750000 0.324200
vt 0.992200 0.343800
vt 0.875000 0.289100
vt 0.750000 0.308600
vt 0.992200 0.328100
vt 0.875000 0.277300
vt 0.750000 0.289100
vt 0.992200 0.316400
vt 0.875000 0.261700
vt 0.750000 0.277300
vt 0.992200 0.300800
vt 0.875000 0.238300
vt 0.750000 0.261700
vt 0.992200 0.289100
vt 0.875000 0.222700
vt 0.750000 0.238300
vt 0.992200 0.277300
vt 0.875000 0.207000
vt 0.750000 0.222700
vt 0.992200 0.261700
vt 0.875000 0.191400
vt 0.750000 0.207000
vt 0.992200 0.242200
vt 0.875000 0.171900
vt 0.750000 0.191400
vt 0.992200 0.230500
vt 0.875000 0.160200
vt 0.750000 0.171900
vt 0.992200 0.214800
vt 0.875000 0.140600
vt 0.750000 0.160200
vt 0.992200 0.199200
vt 0.875000 0.121100
vt 0.750000 0.140600
vt 0.992200 0.183600
vt 0.875000 0.109400
vt 0.750000 0.121100
vt 0.992200 0.168000
vt 0.875000 0.093800
vt 0.750000 0.109400
vt 0.992200 0.160200
vt 0.875000 0.074200
vt 0.750000 0.093800
vt 0.992200 0.144500
vt 0.875000 0.054700
vt 0.750000 0.074200
vt 0.992200 0.128900
vt 0.875000 0.046900
vt 0.750000 0.054700
vt 0.992200 0.113300
vt 0.875000 0.035200
vt 0.750000 0.046900
vt 0.992200 0.105500
vt 0.875000 0.019500
vt 0.992200 0.085900
vt 0.992200 0.070300
vt 0.875000 0.003900
vt 0.734400 0.035200
vt 0.992200 0.019500
vt 0.750000 0.605500
vt 0.414100 0.550800
vt 0.390600 0.472700
vt 0.531300 0.472700
vt 0.648400 0.550800
vt 0.320300 0.621100
vt 0.273400 0.550800
vt 0.320300 0.550800
vt 0.367200 0.621100
vt 0.273400 0.621100
vt 0.226600 0.550800
vt 0.226600 0.621100
vt 0.273400 0.550800
vt 0.273400 0.621100
vt 0.273400 0.621100
vt 0.320300 0.550800
vt 0.273400 0.550800
vt 0.226600 0.550800
vt 0.226600 0.621100
vt 0.320300 0.621100
vt 0.367200 0.550800
vt 0.757800 0.621100
vt 0.992200 0.621100
vt 0.992200 0.558600
vt 0.992200 0.621100
vt 0.765600 0.621100
vt 0.992200 0.558600
vt 0.992200 0.621100
vt 0.992200 0.621100
vt 0.992200 0.558600
vt 0.617200 0.621100
vt 0.414100 0.550800
vt 0.453100 0.621100
vt 0.648400 0.550800
vt 0.320300 0.621100
vt 0.367200 0.550800
vt 0.367200 0.621100
vt 0.320300 0.550800
vt 0.273400 0.621100
vt 0.273400 0.550800
vt 0.320300 0.621100
vt 0.320300 0.550800
vt 0.992200 0.621100
vt 0.992200 0.558600
vt 0.992200 0.558600
vt 0.992200 0.621100
vt 0.992200 0.558600
vt 0.671900 0.472700
vt 0.531300 0.472700
vt 0.648400 0.550800
vt 0.414100 0.550800
vt 0.390600 0.472700
vt 0.617200 0.621100
vt 0.453100 0.621100
vt 0.398400 0.472700
vt 0.531300 0.472700
vt 0.414100 0.543000
vt 0.648400 0.543000
vt 0.617200 0.621100
vt 0.453100 0.621100
vt 0.414100 0.543000
vt 0.398400 0.472700
vt 0.531300 0.472700
vt 0.648400 0.543000
vt 0.617200 0.621100
vt 0.671900 0.472700
vt 0.531300 0.472700
vt 0.390600 0.472700
vt 0.671900 0.472700
vt 0.531300 0.472700
vt 0.414100 0.550800
vt 0.390600 0.472700
vt 0.453100 0.621100
vt 0.617200 0.621100
vt 0.453100 0.621100
vt 0.664100 0.472700
vt 0.664100 0.472700
vn -0.7098 0.1396 0.6904
vn 0.3525 -0.1823 0.9179
vn 0.3157 0.2573 0.9133
vn 0.3525 -0.1822 0.9179
vn -0.7326 -0.4544 0.5069
vn 0.9796 0.1650 0.1146
vn 0.3156 0.2573 0.9133
vn 0.9856 0.1652 -0.0353
vn 0.7144 0.6986 -0.0383
vn 0.2674 0.3458 -0.8994
vn 0.7144 0.6987 -0.0383
vn 0.3172 0.7065 -0.6327
vn -0.7276 0.4869 -0.4832
vn -0.8298 0.1386 -0.5406
vn -0.8245 0.2806 0.4914
vn 0.9856 0.1652 -0.0352
vn 0.4152 0.2404 -0.8774
vn 0.9796 0.1649 0.1147
vn -0.7086 0.2395 -0.6637
vn -0.8245 0.2805 0.4914
vn 0.2001 0.2994 0.9329
vn -0.8506 0.2436 0.4659
vn 0.9628 0.2592 0.0768
vn 0.1757 0.2481 0.9527
vn 0.3717 0.2604 -0.8911
vn 0.9563 0.2610 0.1318
vn -0.7217 0.3011 -0.6233
vn 0.4166 0.2499 -0.8741
vn -0.7216 0.3011 -0.6234
vn -0.8196 0.2960 0.4906
vn -0.7028 0.2585 -0.6627
vn 0.2104 0.2898 0.9337
vn -0.8466 0.2423 0.4738
vn 0.2104 0.2897 0.9337
vn 0.9487 0.3019 0.0940
vn 0.1931 0.2130 0.9578
vn 0.9487 0.3018 0.0939
vn 0.3837 0.2967 -0.8745
vn 0.9696 0.2137 0.1194
vn -0.7195 0.3007 -0.6260
vn 0.4208 0.2477 -0.8727
vn -0.8148 0.3112 0.4891
vn -0.7079 0.2429 -0.6632
vn 0.4208 0.2476 -0.8727
vn -0.8148 0.3113 0.4891
vn 0.2071 0.2996 0.9313
vn -0.8447 0.2419 0.4774
vn -0.7080 0.2428 -0.6632
vn 0.9543 0.2830 0.0962
vn 0.1719 0.2920 0.9408
vn -0.8448 0.2419 0.4774
vn 0.3860 0.2847 -0.8775
vn 0.9373 0.3197 0.1391
vn -0.7148 0.3026 -0.6305
vn 0.4237 0.2970 -0.8557
vn -0.8148 0.3030 0.4943
vn -0.6929 0.2743 -0.6668
vn 0.2203 0.2704 0.9372
vn -0.8463 0.2781 0.4544
vn 0.2203 0.2705 0.9372
vn 0.9546 0.2843 0.0891
vn 0.1770 0.2693 0.9467
vn 0.3853 0.3023 -0.8719
vn 0.9645 0.2343 0.1220
vn 0.3854 0.3023 -0.8719
vn -0.7081 0.3109 -0.6340
vn 0.4192 0.2266 -0.8792
vn 0.9645 0.2342 0.1220
vn -0.7069 0.3128 -0.6344
vn -0.8232 0.3123 0.4742
vn -0.7103 0.2211 -0.6682
vn 0.4192 0.2266 -0.8791
vn 0.1936 0.3073 0.9317
vn -0.8535 0.2170 0.4737
vn 0.1936 0.3074 0.9317
vn 0.9488 0.2986 0.1033
vn 0.1880 0.2178 0.9577
vn -0.8535 0.2170 0.4738
vn 0.3952 0.3025 -0.8673
vn 0.9672 0.2230 0.1214
vn 0.3952 0.3026 -0.8673
vn -0.6976 0.3129 -0.6445
vn 0.4184 0.2182 -0.8817
vn -0.6976 0.3128 -0.6445
vn -0.8297 0.3126 0.4624
vn -0.7036 0.2160 -0.6770
vn 0.1718 0.3052 0.9366
vn -0.8998 0.1817 0.3966
vn -0.7036 0.2160 -0.6769
vn 0.9466 0.2939 0.1325
vn -0.0012 0.2686 0.9633
vn 0.9466 0.2938 0.1324
vn 0.5584 0.3359 -0.7585
vn 0.7462 0.3987 0.5332
vn -0.4901 0.3072 -0.8157
vn 0.7315 0.3892 -0.5598
vn -0.4901 0.3073 -0.8157
vn -0.4825 0.6121 0.6266
vn -0.4825 0.6121 0.6265
vn -0.4824 0.6122 0.6265
vn -0.8431 0.3718 -0.3886
vn -0.7326 -0.4544 0.5068
vn -0.3074 -0.9418 0.1360
vn -0.7905 -0.3873 0.4744
vn -0.9153 -0.3950 0.0784
vn -0.2740 -0.9419 -0.1944
vn -0.5259 -0.3943 -0.7536
vn -0.4901 0.8061 -0.3316
vn -0.2585 0.8063 -0.5320
vn -0.0891 -0.1437 -0.9856
vn -0.5260 -0.3942 -0.7536
vn -0.8981 -0.1448 -0.4154
vn -0.5900 0.8063 -0.0425
vn -0.5569 0.7603 0.3343
vn 0.8572 0.0109 -0.5149
vn 0.3317 0.8064 -0.4896
vn 0.4219 0.8706 -0.2531
vn 0.6489 0.7608 -0.0112
vn 0.7921 -0.6103 -0.0135
vn 0.8572 0.0109 -0.5148
vn 0.3902 -0.3936 -0.8323
vn 0.0424 0.8062 -0.5901
vn 0.0425 0.8062 -0.5901
vn 0.0000 1.0000 0.0000
vn -0.2393 0.8702 0.4307
vn 0.4316 -0.8881 -0.1582
vn 0.3088 -0.9423 0.1290
vn 0.3546 -0.8865 0.2974
vn 0.3088 -0.9423 0.1291
vn 0.2658 -0.9425 -0.2028
vn 0.4185 -0.3958 0.8174
vn 0.0115 0.7595 0.6504
vn 0.0167 -0.3880 0.9215
vn 0.3496 0.8051 0.4791
vn 0.8746 0.0077 0.4847
vn 0.4326 0.8693 0.2393
vn -0.4731 -0.2211 0.8528
vn -0.4732 -0.2211 0.8528
vn 0.3496 0.8052 0.4791
vn -0.0890 -0.1437 -0.9856
vn -0.0890 -0.1436 -0.9856
vn 0.3902 -0.3936 -0.8324
vn -0.0058 -0.9500 -0.3123
vn -0.0094 -0.8903 -0.4552
vn -0.0057 -0.9500 -0.3123
vn -0.0094 -0.8903 -0.4553
vn 0.8746 0.0077 0.4848
vn 0.0168 -0.3880 0.9215
vn 0.0048 -0.9376 0.3475
vn -0.3572 -0.8833 0.3036
vn -0.0013 -0.8880 0.4598
vn 0.4186 -0.3958 0.8174
vn 0.0048 -0.9377 0.3475
vn -0.4511 -0.8801 -0.1479
vn -0.4511 -0.8801 -0.1480
vn -0.8980 -0.1448 -0.4154
usemtl TEX_w22ln01.001
s 1
f 1/1/1 2/2/2 3/3/3
f 2/2/4 1/1/1 4/4/5
f 2/2/4 5/5/6 3/3/7
f 5/5/6 2/2/4 6/6/8
f 7/7/9 6/6/8 2/2/4
f 8/8/10 7/7/11 9/9/12
f 9/9/12 10/10/13 8/8/10
f 11/11/14 8/8/10 10/10/13
f 10/10/13 12/12/15 11/11/14
f 8/8/10 6/6/16 7/7/11
f 6/6/8 13/13/17 5/5/18
f 13/13/17 6/6/8 8/8/10
f 8/8/10 14/14/19 13/13/17
f 14/14/19 8/8/10 11/11/14
f 12/12/20 10/10/13 1/15/1
f 1/15/1 15/16/21 12/12/20
f 11/11/14 16/17/22 14/14/19
f 16/17/22 11/11/14 12/12/15
f 15/16/21 1/15/1 3/18/3
f 3/18/3 17/19/23 15/16/21
f 12/12/20 18/20/24 16/17/22
f 18/20/24 12/12/20 15/16/21
f 17/19/23 3/18/7 5/21/6
f 5/21/6 19/22/25 17/19/23
f 15/16/21 20/23/26 18/20/24
f 20/23/26 15/16/21 17/19/23
f 19/22/25 5/21/18 13/24/17
f 13/24/17 21/25/27 19/22/25
f 17/19/23 22/26/28 20/23/26
f 22/26/28 17/19/23 19/22/25
f 21/25/29 13/24/17 14/27/19
f 14/27/19 23/28/30 21/25/29
f 19/22/25 24/29/31 22/26/28
f 24/29/31 19/22/25 21/25/27
f 23/28/30 14/27/19 16/30/22
f 16/30/22 25/31/32 23/28/30
f 21/25/29 26/32/33 24/29/31
f 26/32/33 21/25/29 23/28/30
f 25/31/34 16/30/22 18/33/24
f 18/33/24 27/34/35 25/31/34
f 23/28/30 28/35/36 26/32/33
f 28/35/36 23/28/30 25/31/32
f 27/34/37 18/33/24 20/36/26
f 20/36/26 29/37/38 27/34/37
f 25/31/34 30/38/39 28/35/36
f 30/38/39 25/31/34 27/34/35
f 29/37/38 20/36/26 22/39/28
f 22/39/28 31/40/40 29/37/38
f 27/34/37 32/41/41 30/38/39
f 32/41/41 27/34/37 29/37/38
f 31/40/40 22/39/28 24/42/31
f 24/42/31 33/43/42 31/40/40
f 29/37/38 34/44/43 32/41/44
f 34/44/43 29/37/38 31/40/40
f 33/43/45 24/42/31 26/45/33
f 26/45/33 35/46/46 33/43/45
f 31/40/40 36/47/47 34/44/48
f 36/47/47 31/40/40 33/43/42
f 35/46/46 26/45/33 28/48/36
f 28/48/36 37/49/49 35/46/46
f 33/43/45 38/50/50 36/47/51
f 38/50/50 33/43/45 35/46/46
f 37/49/49 28/48/36 30/51/39
f 30/51/39 39/52/52 37/49/49
f 35/46/46 40/53/53 38/50/50
f 40/53/53 35/46/46 37/49/49
f 39/52/52 30/51/39 32/54/41
f 32/54/41 41/55/54 39/52/52
f 37/49/49 42/56/55 40/53/53
f 42/56/55 37/49/49 39/52/52
f 41/55/54 32/54/44 34/57/43
f 34/57/43 43/58/56 41/55/54
f 39/52/52 44/59/57 42/56/55
f 44/59/57 39/52/52 41/55/54
f 43/58/56 34/57/48 36/60/47
f 36/60/47 45/61/58 43/58/56
f 41/55/54 46/62/59 44/59/57
f 46/62/59 41/55/54 43/58/56
f 45/61/60 36/60/51 38/63/50
f 38/63/50 47/64/61 45/61/60
f 43/58/56 48/65/62 46/62/59
f 48/65/62 43/58/56 45/61/58
f 47/64/61 38/63/50 40/66/53
f 40/66/53 49/67/63 47/64/61
f 45/61/60 50/68/64 48/65/62
f 50/68/64 45/61/60 47/64/61
f 49/67/65 40/66/53 42/69/55
f 42/69/55 51/70/66 49/67/65
f 47/64/61 52/71/67 50/68/68
f 52/71/67 47/64/61 49/67/63
f 51/70/69 42/69/55 44/72/57
f 44/72/57 53/73/70 51/70/69
f 49/67/65 54/74/71 52/71/72
f 54/74/71 49/67/65 51/70/66
f 53/73/70 44/72/57 46/75/59
f 46/75/59 55/76/73 53/73/70
f 51/70/69 56/77/74 54/74/71
f 56/77/74 51/70/69 53/73/70
f 55/76/75 46/75/59 48/78/62
f 48/78/62 57/79/76 55/76/75
f 53/73/70 58/80/77 56/77/78
f 58/80/77 53/73/70 55/76/73
f 57/79/76 48/78/62 50/81/64
f 50/81/64 59/82/79 57/79/76
f 55/76/75 60/83/80 58/80/77
f 60/83/80 55/76/75 57/79/76
f 59/82/81 50/81/68 52/84/67
f 52/84/67 61/85/82 59/82/81
f 57/79/76 62/86/83 60/83/80
f 62/86/83 57/79/76 59/82/79
f 61/85/84 52/84/72 54/87/71
f 54/87/71 63/88/85 61/85/84
f 59/82/81 64/89/86 62/86/83
f 64/89/86 59/82/81 61/85/82
f 63/88/85 54/87/71 56/90/74
f 56/90/74 65/91/87 63/88/85
f 61/85/84 66/92/88 64/89/89
f 66/92/88 61/85/84 63/88/85
f 65/91/87 56/90/78 58/93/77
f 58/93/77 67/94/90 65/91/87
f 63/88/85 68/95/91 66/92/88
f 68/95/91 63/88/85 65/91/87
f 67/94/92 58/93/77 60/96/80
f 60/96/80 69/97/93 67/94/92
f 65/91/87 70/98/94 68/95/91
f 70/98/94 65/91/87 67/94/90
f 69/97/93 60/96/80 62/99/83
f 62/99/83 71/100/95 69/97/93
f 67/94/92 72/101/96 70/98/94
f 72/101/96 67/94/92 69/97/93
f 71/100/97 62/99/83 64/102/86
f 64/102/86 73/103/98 71/100/97
f 73/103/99 64/102/89 66/104/88
f 66/104/88 68/105/91 73/103/99
f 73/103/100 72/106/96 74/107/101
f 74/107/101 71/100/97 73/103/99
f 72/106/96 73/103/100 70/108/94
f 73/103/99 68/105/91 70/108/94
f 1/1/1 10/109/13 4/4/102
f 71/100/95 72/101/96 69/97/93
f 72/101/96 71/100/97 74/107/101
f 75/110/103 77/111/104 76/112/105
f 76/112/105 78/113/106 75/110/103
f 79/114/107 81/115/108 80/116/109
f 80/116/109 82/117/110 79/114/107
f 81/115/108 79/114/111 83/118/112
f 83/118/112 84/119/113 81/115/108
f 76/120/105 85/121/114 84/119/113
f 85/121/114 76/120/105 77/122/104
f 86/123/115 88/124/116 87/125/117
f 87/125/117 89/126/118 86/123/115
f 90/127/119 86/123/115 89/126/118
f 88/124/116 86/123/120 91/128/121
f 91/128/121 92/129/122 88/124/116
f 80/116/109 92/129/123 82/117/110
f 93/130/124 84/131/113 85/132/114
f 85/132/114 94/133/125 93/130/124
f 93/134/124 92/135/122 80/136/109
f 92/135/122 93/134/124 88/137/116
f 93/134/124 80/136/109 81/138/108
f 93/134/124 81/138/108 84/131/113
f 95/139/126 96/140/127 97/141/128
f 96/140/129 95/139/126 98/142/130
f 99/143/131 100/144/132 101/145/133
f 100/144/132 99/143/131 102/146/134
f 103/147/135 102/146/134 99/143/131
f 102/146/134 103/147/135 104/148/136
f 89/126/118 104/148/136 103/147/135
f 105/149/137 85/121/114 77/122/104
f 85/121/114 105/149/138 94/150/125
f 100/144/132 94/150/125 105/149/138
f 93/130/124 102/151/139 104/152/136
f 102/151/139 93/130/124 100/153/132
f 104/152/136 89/154/118 93/130/124
f 93/130/124 94/133/125 100/153/132
f 93/134/124 87/155/117 88/137/116
f 89/154/118 87/155/117 93/134/124
f 84/119/113 83/118/112 76/120/105
f 92/129/122 91/128/121 82/117/140
f 82/156/141 91/157/142 106/158/143
f 91/157/121 98/159/130 106/158/143
f 98/159/130 91/157/121 86/160/120
f 107/161/144 106/158/145 98/159/130
f 107/161/146 98/159/130 95/162/126
f 89/126/118 103/147/147 90/127/119
f 100/144/132 105/149/137 101/145/148
f 101/163/148 105/164/138 108/165/149
f 108/165/149 105/164/138 75/166/103
f 75/166/103 109/167/150 108/165/149
f 108/165/149 109/167/150 110/168/151
f 96/169/129 103/170/147 99/171/152
f 108/172/153 96/169/127 99/171/131
f 96/169/127 108/172/153 97/141/128
f 108/172/149 110/173/151 97/141/128
f 86/174/115 90/175/119 98/142/130
f 90/175/119 96/140/129 98/142/130
f 96/140/129 90/175/119 103/176/147
f 83/177/112 79/178/111 78/113/106
f 79/178/107 106/179/145 78/113/106
f 106/179/145 79/178/107 82/180/110
f 78/113/106 106/179/145 107/181/146
f 78/113/106 107/181/146 111/182/154
f 75/110/103 78/113/106 111/182/155
f 75/110/103 111/182/155 109/183/150
f 99/171/131 101/184/148 108/172/153
f 75/166/103 105/164/138 77/185/104
f 76/112/105 83/177/156 78/113/106
o MDL_w22ln01_bod00.001
v 0.000000 0.319100 0.050000
v 0.042800 0.285000 -0.001200
v 0.044700 0.319100 -0.001200
v 0.000000 0.285000 0.047800
v 0.000000 0.284700 0.065000
v 0.057800 0.284700 -0.001600
v 0.000000 0.257800 0.049400
v 0.026600 0.135900 -0.000900
v 0.044400 0.257800 -0.001200
v 0.000000 0.135900 0.029100
v 0.000000 -0.915600 0.054100
v 0.024700 -0.915600 -0.000900
v 0.048400 -0.915600 -0.001200
v 0.000000 -0.915600 0.026600
v 0.082200 -0.948100 0.044400
v 0.000000 -1.124400 -0.000600
v 0.080600 -0.948100 -0.048400
v 0.000000 -0.948100 0.092200
v -0.082500 -0.948100 0.044400
v -0.044400 0.257800 -0.001200
v -0.058100 0.284700 -0.001600
v 0.026600 -0.399400 -0.000900
v 0.000000 -0.399400 0.029100
v 0.026600 -0.837800 -0.000900
v 0.000000 -0.837800 0.029100
v 0.024700 -0.935600 -0.000900
v 0.000000 -0.935600 0.026600
v 0.136300 0.375600 -0.081900
v 0.139100 0.375600 0.075900
v 0.137200 0.390000 0.075000
v 0.080600 0.341600 0.043100
v 0.078700 0.341600 -0.047200
v 0.134400 0.390000 -0.080900
v 0.090000 0.420600 0.048700
v 0.000000 0.319100 -0.051200
v 0.000000 0.285000 -0.049100
v -0.042800 0.285000 -0.001200
v 0.000000 0.284700 -0.066200
v 0.000000 0.257800 -0.050600
v 0.000000 0.135900 -0.030300
v -0.026900 0.135900 -0.000900
v 0.088400 0.420600 -0.053100
v 0.000000 -0.915600 -0.065300
v 0.000000 -0.915600 -0.027800
v -0.024700 -0.915600 -0.000900
v 0.000000 -0.948100 -0.093400
v -0.080600 -0.948100 -0.048400
v 0.000000 -0.399400 -0.030300
v -0.026900 -0.399400 -0.000900
v 0.000000 -0.837800 -0.030300
v -0.026900 -0.837800 -0.000900
v -0.048400 -0.915600 -0.001200
v 0.000000 -0.935600 -0.027800
v -0.024700 -0.935600 -0.000900
v 0.079100 0.319100 -0.047500
v 0.080600 0.319100 0.043400
v 0.000000 0.341600 0.089700
v 0.000000 0.319100 0.090300
v -0.385600 0.468800 0.000900
v -0.174400 0.613700 -0.086600
v -0.148400 0.517800 -0.084100
v -0.085600 0.443400 -0.049700
v -0.136300 0.483100 0.000900
v -0.085900 0.515000 -0.148800
v -0.099100 0.615000 -0.171600
v -0.124700 0.751300 -0.071200
v -0.002200 0.751300 -0.143400
v -0.186300 0.670000 0.000900
v -0.174400 0.613700 0.086900
v 0.000000 0.341600 -0.090900
v 0.000000 0.319100 -0.091600
v -0.079400 0.319100 -0.047500
v 0.000000 0.375600 -0.158700
v 0.000000 0.390000 -0.156600
v 0.000000 0.420600 -0.102500
v 0.000000 0.420600 0.101300
v 0.000000 0.390000 0.155300
v -0.137500 0.390000 0.075000
v -0.090300 0.420600 0.048700
v -0.134700 0.390000 -0.080900
v -0.088400 0.420600 -0.053100
v 0.000000 0.375600 0.157500
v -0.139400 0.375600 0.075900
v -0.125300 0.769100 -0.068800
v -0.001900 0.769100 -0.142800
v 0.000000 0.443400 -0.100000
v 0.001200 0.517800 -0.170300
v 0.011900 0.613700 -0.194400
v -0.148400 0.517800 0.084100
v -0.124700 0.751300 0.071600
v -0.099100 0.615000 0.171900
v -0.125300 0.769100 0.068800
v -0.085900 0.515000 0.149100
v 0.191900 0.468800 -0.334400
v 0.162200 0.613700 -0.107500
v 0.146900 0.517800 -0.086200
v 0.092200 0.670000 -0.161600
v 0.067200 0.483100 -0.118100
v 0.124100 0.751300 0.072200
v 0.126600 0.769100 0.070600
v 0.123800 0.769100 -0.073100
v 0.003100 0.769100 0.144700
v 0.000300 0.751300 0.143700
v 0.124100 0.751300 -0.071900
v 0.198100 0.615000 0.000000
v 0.162200 0.613700 0.107800
v 0.171900 0.515000 0.000000
v 0.085600 0.443400 -0.049700
v 0.086900 0.443400 0.049100
v 0.146900 0.517800 0.086200
v 0.193400 0.468800 0.333800
v 0.011900 0.613700 0.194700
v 0.001200 0.517800 0.170600
v 0.000000 0.443400 0.099100
v 0.068800 0.483100 0.117500
v 0.093800 0.670000 0.160900
v -0.087200 0.443400 0.049100
v -0.045000 0.319100 -0.001200
v -0.080600 0.341600 0.043100
v -0.136600 0.375600 -0.081900
v -0.079100 0.341600 -0.047200
v -0.080900 0.319100 0.043400
vt 0.367200 0.003900
vt 0.226600 0.074200
vt 0.226600 0.003900
vt 0.367200 0.074200
vt 0.210900 0.359400
vt 0.367200 0.386700
vt 0.210900 0.386700
vt 0.367200 0.359400
vt 0.367200 0.078100
vt 0.218800 0.234400
vt 0.218800 0.078100
vt 0.367200 0.234400
vt 0.242200 0.058600
vt 0.257800 0.062500
vt 0.257800 0.074200
vt 0.250000 0.054700
vt 0.578100 0.316400
vt 0.531300 0.464800
vt 0.648400 0.316400
vt 0.484400 0.316400
vt 0.406300 0.316400
vt 0.367200 0.550800
vt 0.367200 0.621100
vt 0.218800 0.621100
vt 0.218800 0.621100
vt 0.218800 0.550800
vt 0.218800 0.550800
vt 0.382800 0.003900
vt 0.531300 0.308600
vt 0.531300 0.003900
vt 0.382800 0.308600
vt 0.531300 0.003900
vt 0.382800 0.003900
vt 0.226600 0.082000
vt 0.093800 0.222700
vt 0.125000 0.082000
vt 0.242200 0.222700
vt 0.367200 0.003900
vt 0.218800 0.074200
vt 0.218800 0.003900
vt 0.367200 0.074200
vt 0.648400 0.433600
vt 0.625000 0.464800
vt 0.625000 0.433600
vt 0.648400 0.464800
vt 0.273400 0.488300
vt 0.171900 0.457000
vt 0.171900 0.488300
vt 0.171900 0.543000
vt 0.273400 0.543000
vt 0.273400 0.457000
vt 0.171900 0.390600
vt 0.070300 0.003900
vt 0.070300 0.074200
vt 0.226600 0.074200
vt 0.210900 0.386700
vt 0.210900 0.359400
vt 0.070300 0.359400
vt 0.070300 0.359400
vt 0.070300 0.386700
vt 0.070300 0.386700
vt 0.070300 0.078100
vt 0.070300 0.234400
vt 0.218800 0.234400
vt 0.273400 0.390600
vt 0.265600 0.043000
vt 0.257800 0.046900
vt 0.257800 0.062500
vt 0.484400 0.316400
vt 0.406300 0.316400
vt 0.648400 0.316400
vt 0.578100 0.316400
vt 0.070300 0.550800
vt 0.070300 0.621100
vt 0.679700 0.003900
vt 0.679700 0.308600
vt 0.531300 0.308600
vt 0.679700 0.003900
vt 0.531300 0.003900
vt 0.226600 0.082000
vt 0.242200 0.222700
vt 0.093800 0.222700
vt 0.070300 0.003900
vt 0.070300 0.074200
vt 0.218800 0.074200
vt 0.625000 0.433600
vt 0.648400 0.464800
vt 0.625000 0.464800
vt 0.648400 0.464800
vt 0.648400 0.433600
vt 0.171900 0.316400
vt 0.273400 0.359400
vt 0.273400 0.316400
vt 0.171900 0.359400
vt 0.070300 0.316400
vt 0.070300 0.359400
vt 0.070300 0.246100
vt 0.367200 0.269500
vt 0.367200 0.285200
vt 0.296900 0.863300
vt 0.320300 0.933600
vt 0.203100 0.898400
vt 0.507800 0.863300
vt 0.296900 0.769500
vt 0.507800 0.773400
vt 0.320300 0.628900
vt 0.687500 0.628900
vt 0.367200 0.238300
vt 0.367200 0.269500
vt 0.367200 0.308600
vt 0.367200 0.316400
vt 0.367200 0.359400
vt 0.273400 0.359400
vt 0.367200 0.543000
vt 0.367200 0.488300
vt 0.367200 0.457000
vt 0.367200 0.390600
vt 0.070300 0.390600
vt 0.070300 0.457000
vt 0.171900 0.457000
vt 0.171900 0.390600
vt 0.273400 0.457000
vt 0.273400 0.390600
vt 0.070300 0.488300
vt 0.171900 0.488300
vt 0.070300 0.543000
vt 0.668000 0.996100
vt 0.746100 0.996100
vt 0.144500 0.496100
vt 0.187500 0.496100
vt 0.632800 0.933600
vt 0.703100 0.863300
vt 0.710900 0.769500
vt 0.367200 0.285200
vt 0.320300 0.628900
vt 0.203100 0.718800
vt 0.296900 0.769500
vt 0.507800 0.773400
vt 0.078100 0.628900
vt 0.582000 0.996100
vt 0.187500 0.496100
vt 0.668000 0.996100
vt 0.226600 0.496100
vt 0.507800 0.863300
vt 0.296900 0.863300
vt 0.070300 0.246100
vt 0.367200 0.269500
vt 0.367200 0.285200
vt 0.367200 0.238300
vt 0.367200 0.269500
vt 0.367200 0.308600
vt 0.171900 0.621100
vt 0.265600 0.550800
vt 0.171900 0.550800
vt 0.070300 0.550800
vt 0.070300 0.621100
vt 0.265600 0.621100
vt 0.507800 0.773400
vt 0.687500 0.628900
vt 0.320300 0.628900
vt 0.296900 0.769500
vt 0.507800 0.863300
vt 0.710900 0.769500
vt 0.703100 0.863300
vt 0.632800 0.933600
vt 0.320300 0.933600
vt 0.296900 0.863300
vt 0.367200 0.285200
vt 0.820300 0.718800
vt 0.953100 0.628900
vt 0.367200 0.621100
vt 0.367200 0.550800
vt 0.070300 0.246100
vt 0.367200 0.269500
vt 0.367200 0.285200
vt 0.703100 0.863300
vt 0.632800 0.933600
vt 0.820300 0.902300
vt 0.710900 0.769500
vt 0.687500 0.628900
vt 0.367200 0.238300
vt 0.367200 0.269500
vt 0.367200 0.308600
vt 0.668000 0.996100
vt 0.746100 0.996100
vt 0.144500 0.496100
vt 0.187500 0.496100
vt 0.320300 0.933600
vt 0.367200 0.285200
vt 0.195300 0.718800
vt 0.820300 0.718800
vt 0.953100 0.628900
vt 0.367200 0.312500
vt 0.273400 0.312500
vt 0.273400 0.359400
vt 0.367200 0.359400
vt 0.171900 0.312500
vt 0.171900 0.359400
vt 0.070300 0.359400
vt 0.070300 0.312500
vt 0.171900 0.312500
vt 0.171900 0.359400
vt 0.273400 0.312500
vt 0.273400 0.359400
vt 0.820300 0.902300
vt 0.953100 0.933600
vt 0.210900 0.894500
vt 0.953100 0.933600
vt 0.226600 0.941400
vt 0.367200 0.363300
vt 0.250000 0.363300
vt 0.226600 0.378900
vt 0.328100 0.375000
vt 0.203100 0.363300
vt 0.070300 0.363300
vt 0.117200 0.375000
vt 0.226600 0.378900
vt 0.226600 0.003900
vt 0.210900 0.359400
vt 0.210900 0.386700
vt 0.218800 0.078100
vt 0.257800 0.074200
vt 0.531300 0.003900
vt 0.125000 0.082000
vt 0.218800 0.003900
vt 0.625000 0.464800
vt 0.625000 0.433600
vt 0.171900 0.543000
vt 0.273400 0.488300
vt 0.273400 0.543000
vt 0.648400 0.433600
vt 0.171900 0.316400
vt 0.273400 0.316400
vt 0.171900 0.359400
vt 0.250000 0.363300
vt 0.203100 0.363300
vn 0.0007 -0.6372 0.7707
vn 0.6258 0.7800 -0.0035
vn 0.2826 -0.9592 -0.0017
vn -0.0000 0.8174 0.5761
vn 0.6259 0.7799 -0.0035
vn 0.0010 0.7149 0.6993
vn 0.7438 0.6684 -0.0037
vn 0.0009 -0.2846 0.9586
vn 0.9952 -0.0978 -0.0052
vn 0.9343 -0.3565 -0.0052
vn 0.0028 -0.0552 0.9985
vn -0.0000 -0.9411 0.3382
vn 0.3471 -0.9378 -0.0044
vn 0.9350 -0.3541 0.0177
vn 0.0001 -0.5991 0.8007
vn 0.6094 0.7073 0.3582
vn 0.0007 -0.9998 -0.0186
vn 0.6021 0.7057 -0.3735
vn 0.0008 0.5002 0.8659
vn -0.6092 0.7079 0.3575
vn 0.0010 0.7148 0.6993
vn -0.9335 -0.3586 -0.0051
vn -0.7452 0.6668 -0.0037
vn 0.7438 0.6684 -0.0038
vn 1.0000 0.0000 -0.0050
vn 0.0028 -0.0000 1.0000
vn 0.9958 0.0917 -0.0049
vn 0.0017 0.2037 0.9790
vn 0.0017 0.2036 0.9791
vn 0.9351 -0.3540 0.0176
vn 0.0000 -0.5991 0.8007
vn 0.7580 0.6523 -0.0047
vn 0.3471 -0.9378 -0.0019
vn 0.0002 0.8970 0.4420
vn 0.7468 -0.4936 -0.4457
vn 0.7274 0.5861 0.3569
vn 0.6650 -0.4880 0.5654
vn 0.7976 -0.5421 0.2645
vn 0.7187 -0.5438 -0.4333
vn 0.7274 0.5860 0.3570
vn 0.7468 -0.4936 -0.4456
vn 0.6089 0.7054 -0.3629
vn 0.6089 0.7054 -0.3628
vn 0.7798 0.5693 0.2603
vn 0.0007 -0.6316 -0.7753
vn 0.0001 0.8143 -0.5804
vn -0.6264 0.7795 -0.0035
vn 0.0011 0.7064 -0.7078
vn -0.7452 0.6668 -0.0038
vn 0.0010 0.7064 -0.7078
vn 0.0009 -0.2849 -0.9586
vn 0.0029 -0.0552 -0.9985
vn -0.9952 -0.0976 -0.0053
vn 0.9343 -0.3565 -0.0051
vn 0.6766 0.5034 -0.5374
vn -0.0000 -0.9483 -0.3173
vn 0.0002 -0.5945 -0.8041
vn -0.3471 -0.9378 -0.0019
vn 0.9350 -0.3541 0.0176
vn 0.0000 0.4959 -0.8684
vn 0.6020 0.7058 -0.3735
vn -0.6017 0.7055 -0.3745
vn -0.6017 0.7054 -0.3746
vn 0.0007 -0.9998 -0.0187
vn 0.0028 0.0000 -1.0000
vn -1.0000 0.0000 -0.0050
vn 0.0021 0.2365 -0.9716
vn -0.9959 0.0905 -0.0049
vn -0.9340 -0.3568 0.0176
vn 0.7580 0.6523 -0.0046
vn -0.0000 0.8954 -0.4453
vn -0.7579 0.6524 -0.0049
vn 0.7486 -0.4874 -0.4496
vn 0.7486 -0.4874 -0.4495
vn 0.6092 -0.5978 0.5210
vn 0.0004 -0.5442 0.8390
vn 0.0004 -0.9162 0.4007
vn -0.9043 -0.4268 0.0079
vn -0.7220 0.1341 -0.6788
vn -0.5113 -0.6002 -0.6150
vn -0.8214 -0.4331 -0.3711
vn -0.4393 -0.8983 -0.0008
vn -0.4424 -0.4665 -0.7660
vn -0.4969 0.1404 -0.8564
vn -0.8074 0.3400 -0.4822
vn -0.8074 0.3399 -0.4822
vn -0.0224 0.2667 -0.9635
vn -0.8298 0.5580 0.0026
vn -0.9043 -0.4268 0.0080
vn -0.7202 0.1328 0.6810
vn -0.8298 0.5581 0.0026
vn -0.5114 -0.6002 -0.6150
vn -0.4393 -0.8984 -0.0008
vn 0.0007 -0.5401 -0.8416
vn 0.0004 -0.9144 -0.4049
vn -0.7490 -0.4865 -0.4497
vn 0.7188 -0.5437 -0.4333
vn 0.0004 -0.4953 -0.8687
vn 0.0005 0.4431 -0.8965
vn 0.0002 0.6971 -0.7169
vn 0.0006 0.5600 0.8285
vn 0.0004 0.4450 0.8955
vn -0.4495 0.7374 0.5041
vn -0.7795 0.5702 0.2594
vn -0.4496 0.7374 0.5042
vn -0.4738 0.7785 -0.4117
vn -0.6755 0.5041 -0.5381
vn 0.0005 0.5600 0.8285
vn 0.0004 -0.4948 0.8690
vn -0.5007 -0.5819 0.6408
vn -0.4496 0.7374 0.5041
vn 0.0005 0.4451 0.8955
vn 0.0004 -0.5442 0.8389
vn -0.8694 0.0198 -0.4938
vn -0.0168 0.0340 -0.9993
vn -0.8693 0.0198 -0.4938
vn -0.0223 0.2667 -0.9635
vn -0.4423 -0.4665 -0.7660
vn 0.0066 -0.3650 -0.9310
vn -0.2777 -0.5975 -0.7523
vn -0.2305 0.1331 -0.9639
vn -0.5126 -0.5975 0.6167
vn -0.5126 -0.5974 0.6167
vn -0.8296 0.2624 0.4929
vn -0.7201 0.1329 0.6810
vn -0.7201 0.1328 0.6810
vn -0.4954 0.1417 0.8571
vn -0.8685 0.0483 0.4934
vn -0.4419 -0.4676 0.7655
vn -0.4419 -0.4677 0.7655
vn -0.7202 0.1329 0.6810
vn 0.4450 -0.4271 -0.7871
vn 0.9486 0.1340 -0.2867
vn 0.7879 -0.6003 -0.1375
vn 0.4102 0.5601 -0.7197
vn 0.4449 -0.4272 -0.7871
vn 0.4103 0.5601 -0.7197
vn 0.2197 -0.8977 -0.3819
vn 0.8541 0.2190 0.4718
vn 0.8588 -0.0442 -0.5103
vn 0.8708 -0.0787 0.4852
vn 0.0017 0.0075 1.0000
vn -0.0174 0.3148 0.9490
vn 0.8261 0.3259 -0.4598
vn 0.9899 0.1419 -0.0003
vn 0.9498 0.1336 0.2830
vn 0.8846 -0.4664 -0.0012
vn 0.9899 0.1418 -0.0003
vn 0.8161 -0.4331 -0.3827
vn 0.7214 -0.4574 0.5200
vn 0.7906 -0.5972 0.1352
vn -0.2777 -0.5974 -0.7523
vn 0.4450 -0.4272 -0.7871
vn 0.8588 -0.0443 -0.5104
vn 0.4601 -0.4268 0.7786
vn -0.2264 0.1338 0.9648
vn -0.2755 -0.6015 0.7499
vn -0.2755 -0.6014 0.7499
vn 0.0084 -0.5444 0.8388
vn 0.2209 -0.8990 0.3781
vn 0.4180 0.5587 0.7163
vn 0.4601 -0.4268 0.7785
vn 0.2210 -0.8990 0.3781
vn 0.0017 0.0076 1.0000
vn -0.8296 0.2623 0.4929
vn -0.7290 -0.4579 0.5089
vn 0.7906 -0.5973 0.1352
vn 0.8160 -0.4331 -0.3827
vn 0.7798 0.5693 0.2604
vn 0.7214 -0.4573 0.5200
vn -0.2776 -0.5975 -0.7523
vn 0.2197 -0.8977 -0.3818
vn 0.6092 -0.5978 0.5211
vn 0.0003 -0.9162 0.4006
vn -0.2811 -0.9597 -0.0017
vn 0.0011 0.7148 0.6993
vn -0.6264 0.7795 -0.0021
vn 0.0009 -0.2847 0.9586
vn -0.9335 -0.3586 -0.0052
vn -0.9340 -0.3567 0.0177
vn 0.0017 0.2036 0.9790
vn -0.9340 -0.3567 0.0176
vn -0.2811 -0.9597 -0.0016
vn -0.7986 -0.5398 0.2661
vn -0.5121 -0.6647 -0.5439
vn -0.7184 -0.5453 -0.4318
vn -0.5008 -0.5819 0.6408
vn -0.5008 -0.5820 0.6408
vn 0.0009 -0.2848 -0.9586
vn -0.7491 -0.4865 -0.4497
vn -0.7184 -0.5454 -0.4318
vn -0.6111 -0.5940 0.5232
vn -0.6111 -0.5940 0.5233
vn -0.5121 -0.6648 -0.5439
vn -0.4738 0.7785 -0.4116
vn 0.0004 0.4431 -0.8965
vn -0.6017 0.7055 -0.3746
vn -0.7578 0.6524 -0.0049
usemtl TEX_w22ln01.001
s 1
f 112/186/157 113/187/158 114/188/159
f 113/187/158 112/186/157 115/189/160
f 113/190/161 116/191/162 117/192/163
f 116/191/162 113/190/161 115/193/160
f 118/194/164 119/195/165 120/196/166
f 119/195/165 118/194/164 121/197/167
f 122/198/168 123/199/169 124/200/170
f 123/199/169 122/198/168 125/201/171
f 126/202/172 127/203/173 128/204/174
f 129/205/175 130/206/176 127/203/173
f 127/203/173 126/202/172 129/205/175
f 116/207/177 118/208/164 120/209/166
f 118/208/164 116/207/177 131/210/178
f 132/211/179 131/210/178 116/207/177
f 120/209/166 117/212/180 116/207/177
f 121/213/167 133/214/181 119/215/165
f 133/214/181 121/213/167 134/216/182
f 134/216/182 135/217/183 133/214/181
f 135/217/183 134/216/182 136/218/184
f 136/219/185 124/220/186 135/221/183
f 124/220/186 136/219/185 122/222/168
f 125/223/187 137/224/188 123/225/189
f 137/224/188 125/223/187 138/226/190
f 138/227/190 126/228/172 137/229/188
f 126/228/172 138/227/190 129/230/175
f 139/231/191 141/232/192 140/233/193
f 140/233/193 142/234/194 139/231/191
f 143/235/195 139/231/191 142/234/194
f 141/232/196 139/231/197 144/236/198
f 144/236/199 145/237/200 141/232/192
f 146/238/201 113/187/158 147/239/202
f 147/239/202 148/240/203 146/238/201
f 146/238/201 114/188/159 113/187/158
f 149/241/204 147/242/202 113/243/158
f 147/242/202 149/241/204 148/244/203
f 132/245/205 148/244/203 149/241/204
f 113/243/161 117/246/180 149/241/206
f 150/247/207 119/195/165 151/248/208
f 151/248/208 152/249/209 150/247/207
f 150/247/207 120/196/210 119/195/165
f 144/236/199 153/250/211 145/237/200
f 154/251/212 123/199/189 155/252/213
f 155/252/213 156/253/214 154/251/212
f 154/251/212 124/200/215 123/199/189
f 157/254/216 128/255/217 127/203/173
f 130/256/176 158/257/218 127/203/173
f 158/257/219 157/254/216 127/203/220
f 120/209/210 149/258/204 117/212/180
f 149/258/204 120/209/210 150/259/207
f 151/260/208 133/214/181 159/261/221
f 159/261/221 160/262/222 151/260/208
f 151/260/208 119/215/165 133/214/181
f 159/261/221 135/217/183 161/263/223
f 161/263/223 162/264/224 159/261/221
f 159/261/221 133/214/181 135/217/183
f 161/265/223 124/220/215 154/266/212
f 154/266/212 163/267/225 161/265/223
f 161/265/223 135/221/183 124/220/215
f 155/268/213 137/224/226 164/269/227
f 164/269/227 165/270/228 155/268/213
f 155/268/213 123/225/189 137/224/226
f 164/271/227 128/272/217 157/273/216
f 157/273/216 158/274/219 164/271/227
f 128/272/174 164/271/227 137/275/188
f 137/275/188 126/228/172 128/272/174
f 142/276/194 166/277/229 143/278/195
f 166/277/230 142/276/194 167/279/231
f 168/280/232 167/279/231 142/276/194
f 167/279/231 168/280/232 169/281/233
f 170/282/234 171/283/235 172/284/236
f 172/285/236 173/286/237 174/287/238
f 173/286/237 172/285/236 175/288/239
f 171/289/235 175/288/239 172/285/236
f 175/288/239 171/289/235 176/290/240
f 177/291/241 176/290/240 171/289/235
f 176/290/240 177/291/242 178/292/243
f 179/293/244 171/283/235 170/282/234
f 170/282/245 180/294/246 179/293/247
f 170/282/245 172/284/248 174/295/249
f 181/296/250 166/277/229 182/297/251
f 182/297/251 183/298/252 181/296/250
f 181/296/250 143/278/253 166/277/229
f 139/231/191 181/299/250 184/300/254
f 184/300/254 185/301/255 139/231/191
f 144/236/199 139/231/191 185/301/255
f 185/301/255 186/302/256 144/236/199
f 153/250/211 144/236/199 186/302/256
f 139/231/191 143/235/195 181/299/250
f 187/303/257 188/304/258 141/232/192
f 188/304/258 187/303/257 189/305/259
f 190/306/260 189/305/259 187/303/257
f 189/305/261 190/306/260 191/307/262
f 192/308/263 191/307/262 190/306/260
f 141/232/192 145/237/200 187/303/264
f 188/304/258 193/309/265 140/233/193
f 193/309/265 188/304/258 194/310/266
f 189/305/267 194/310/266 188/304/258
f 140/233/193 141/232/192 188/304/268
f 168/311/232 140/233/193 193/309/265
f 193/309/265 194/310/266 168/311/269
f 168/311/232 142/234/194 140/233/193
f 195/312/270 196/313/271 178/314/243
f 195/312/272 178/314/273 177/315/241
f 175/288/274 197/316/275 173/286/237
f 197/316/275 175/288/274 198/317/276
f 199/318/277 198/317/276 175/288/274
f 200/319/278 170/282/234 174/295/249
f 170/282/245 200/319/279 180/294/246
f 201/320/280 179/321/244 180/322/281
f 180/322/282 202/323/283 201/320/280
f 177/324/241 179/321/244 201/320/280
f 195/325/272 201/326/280 203/327/284
f 201/326/280 195/325/272 177/328/242
f 180/322/282 204/329/285 202/323/283
f 204/329/286 180/322/287 200/330/278
f 205/331/288 206/332/289 207/333/290
f 208/334/291 206/332/289 205/331/288
f 205/331/292 199/335/277 208/334/293
f 205/331/288 207/333/290 209/336/294
f 210/337/295 212/338/296 211/339/297
f 211/339/297 213/340/298 210/337/295
f 214/341/299 210/337/295 213/340/298
f 212/338/296 210/337/295 215/342/300
f 216/343/301 215/344/300 210/345/295
f 210/345/295 217/346/302 216/343/301
f 218/347/303 216/343/301 217/346/302
f 206/348/289 215/344/300 216/343/304
f 216/343/301 218/347/303 206/348/289
f 207/349/290 206/348/289 218/347/303
f 218/347/303 219/350/305 207/349/290
f 218/347/303 220/351/306 219/350/305
f 220/351/306 218/347/303 221/352/307
f 217/346/302 221/352/307 218/347/303
f 198/353/308 205/331/309 209/336/294
f 205/331/292 198/353/308 199/335/277
f 178/292/273 208/354/291 199/318/277
f 199/318/277 176/290/240 178/292/243
f 215/355/300 208/354/291 178/292/273
f 212/338/296 178/356/273 196/357/271
f 178/356/273 212/338/310 215/342/300
f 199/318/277 175/288/274 176/290/240
f 222/358/311 223/359/312 224/360/313
f 224/361/314 225/362/315 226/363/316
f 225/362/315 224/361/314 204/329/286
f 223/364/312 204/329/286 224/361/314
f 204/329/286 223/364/312 202/323/283
f 214/365/299 202/323/283 223/364/312
f 202/323/283 214/365/299 201/320/280
f 227/366/317 223/359/312 222/358/311
f 222/358/311 217/367/302 227/366/317
f 222/358/318 224/360/313 226/368/319
f 213/369/320 203/370/284 201/371/321
f 213/369/298 201/371/280 214/372/299
f 204/329/286 228/373/322 225/362/315
f 228/373/322 204/329/286 200/330/278
f 221/374/307 222/358/311 226/368/319
f 222/358/311 221/374/323 217/367/302
f 227/375/317 217/346/302 210/345/295
f 214/365/299 227/376/317 210/377/295
f 197/378/275 219/379/324 153/380/211
f 197/378/275 153/380/211 186/381/256
f 219/379/305 220/382/306 145/383/325
f 219/379/305 145/383/325 153/380/211
f 187/384/257 220/382/326 225/385/315
f 225/385/315 228/386/322 187/384/257
f 190/387/260 187/384/257 228/386/322
f 228/386/322 173/388/237 190/387/260
f 192/389/263 190/387/260 173/388/237
f 173/388/237 197/378/275 192/389/263
f 186/381/256 192/389/263 197/378/275
f 220/382/326 187/384/257 145/383/325
f 198/317/327 209/390/328 197/316/275
f 209/390/328 219/350/305 197/391/275
f 219/350/305 209/390/294 207/349/290
f 221/352/323 226/392/319 220/351/306
f 220/393/326 226/363/319 225/362/315
f 228/394/322 174/287/249 173/286/237
f 228/373/322 200/330/278 174/287/249
f 182/395/251 166/396/229 114/397/159
f 182/395/251 114/397/159 146/398/201
f 114/397/159 167/399/329 169/400/330
f 112/401/157 114/397/159 169/400/330
f 169/400/330 229/402/331 112/401/157
f 166/396/229 167/399/231 114/397/159
f 208/354/291 215/344/300 206/348/289
f 227/376/317 214/365/299 223/364/312
f 179/321/244 177/291/241 171/289/235
f 148/240/203 112/186/157 229/403/331
f 112/186/157 148/240/203 115/189/160
f 116/191/332 148/404/333 132/405/179
f 148/404/333 116/191/332 115/193/160
f 152/249/209 118/194/334 131/406/335
f 118/194/334 152/249/209 121/197/167
f 156/253/214 122/198/168 163/407/336
f 122/198/168 156/253/214 125/201/171
f 160/262/222 121/213/167 152/408/209
f 134/216/182 121/213/167 160/262/222
f 160/262/222 162/264/224 134/216/182
f 134/216/182 162/264/224 136/218/337
f 163/267/338 136/219/337 162/409/224
f 136/219/337 163/267/338 122/222/168
f 165/270/228 125/223/187 156/410/214
f 125/223/187 165/270/228 138/226/190
f 130/411/176 138/227/190 165/412/228
f 138/227/190 130/411/176 129/230/175
f 146/238/201 148/240/203 229/403/339
f 150/247/207 152/249/209 131/406/178
f 154/251/212 156/253/214 163/407/225
f 230/413/340 231/414/341 232/415/342
f 194/310/343 231/414/341 230/413/340
f 230/413/340 168/311/232 194/310/344
f 149/258/206 131/210/178 132/211/205
f 131/210/178 149/258/206 150/259/345
f 151/260/208 160/262/222 152/408/209
f 159/261/221 162/264/224 160/262/222
f 161/265/223 163/267/225 162/409/224
f 155/268/213 165/270/228 156/410/214
f 164/271/227 158/274/219 165/416/228
f 183/298/346 230/417/340 232/418/347
f 233/419/348 230/417/340 183/298/252
f 230/417/340 233/419/349 168/280/232
f 169/281/330 168/280/232 233/419/349
f 181/296/250 183/298/252 232/418/342
f 181/299/250 231/414/350 184/300/254
f 231/414/341 181/299/250 232/415/347
f 231/414/350 185/301/255 184/300/254
f 191/307/351 185/301/352 231/414/341
f 185/301/255 191/307/351 186/302/256
f 192/308/263 186/302/256 191/307/351
f 182/395/251 229/402/331 183/420/252
f 229/402/331 182/395/251 146/398/201
f 229/402/331 169/400/330 233/421/348
f 158/274/353 130/411/176 165/416/354
f 183/420/252 229/402/331 233/421/348
