# Blender v2.79 (sub 0) OBJ File: ''
# www.blender.org
mtllib w22ln05.mtl
o MDL_w22ln05_bod01.001
v -0.075000 0.650600 0.075000
v 0.037500 0.716300 0.140600
v -0.103100 0.716300 0.103100
v 0.026900 0.650600 0.102500
v 0.000000 0.593800 0.000000
v 0.101900 0.650600 0.027500
v 0.075000 0.650600 -0.075000
v -0.027500 0.650600 -0.102500
v -0.102500 0.650600 -0.026900
v -0.140600 0.716300 -0.037500
v -0.103100 0.754400 0.103100
v -0.140600 0.754400 -0.037500
v 0.037500 0.754400 0.140600
v 0.140000 0.754400 0.037500
v 0.140000 0.716300 0.037500
v 0.102500 0.754400 -0.102500
v 0.102500 0.716300 -0.102500
v -0.037500 0.754400 -0.140000
v -0.037500 0.716300 -0.140000
v 0.000000 0.754400 0.000000
v 0.146900 0.883100 -0.165600
v 0.193100 1.023100 -0.193100
v 0.165600 0.883100 -0.146900
v 0.058100 0.753100 0.000000
v 0.046300 0.850000 -0.027500
v 0.115000 0.753100 -0.044400
v -0.000600 0.841300 0.000000
v 0.168100 0.820600 -0.126200
v 0.095600 1.110000 -0.076300
v 0.261900 1.111900 -0.261900
v 0.105000 1.272500 -0.085600
v 0.141200 1.294400 -0.141200
v 0.107500 1.421200 -0.107500
v 0.046300 1.531900 -0.027500
v 0.107500 1.511300 -0.107500
v 0.101300 1.705600 -0.101200
v 0.043700 1.701200 -0.034400
v 0.146900 1.551200 -0.146900
v 0.009400 1.993700 -0.009400
v 0.119400 1.534400 -0.119400
v 0.027500 0.850000 -0.046300
v 0.076300 1.110000 -0.095600
v 0.085600 1.272500 -0.105000
v 0.027500 1.531900 -0.046300
v 0.034400 1.701200 -0.043700
v 0.044400 0.753100 -0.115000
v 0.126200 0.820600 -0.168100
v 0.000000 0.753100 -0.058100
v 0.236200 0.853700 -0.216900
v 0.216900 0.853700 -0.236200
v 0.192500 0.875600 -0.211900
v 0.211300 0.875600 -0.192500
v -0.166300 0.883100 0.146900
v -0.146900 0.883100 0.166300
v -0.193100 1.023100 0.193100
v -0.027500 0.850000 0.046300
v -0.045000 0.753100 0.115000
v 0.000000 0.753100 0.058100
v -0.126900 0.820600 0.168100
v -0.193100 0.875600 0.211900
v -0.076900 1.110000 0.095600
v -0.261900 1.111900 0.261900
v -0.086200 1.272500 0.105000
v -0.141200 1.294400 0.141200
v -0.027500 1.531900 0.046300
v -0.107500 1.421200 0.107500
v -0.107500 1.511300 0.107500
v -0.035000 1.701200 0.044400
v -0.147500 1.551200 0.147500
v -0.101900 1.705600 0.101900
v -0.120000 1.534400 0.120000
v -0.095600 1.110000 0.076900
v -0.046900 0.850000 0.027500
v -0.105000 1.272500 0.086200
v -0.046900 1.531900 0.027500
v -0.044400 1.701200 0.034400
v -0.115000 0.753100 0.045000
v -0.168100 0.820600 0.126900
v -0.058700 0.753100 0.000000
v 0.000000 0.841300 0.000000
v -0.010000 1.993700 0.010000
v -0.217500 0.853700 0.236200
v -0.236200 0.853700 0.217500
v -0.211900 0.875600 0.192500
v 0.146900 0.883100 0.166300
v 0.165600 0.883100 0.146900
v 0.193100 1.023100 0.193100
v 0.046300 0.850000 0.027500
v 0.115000 0.753100 0.045000
v 0.168100 0.820600 0.126900
v 0.211300 0.875600 0.193100
v 0.095600 1.110000 0.076900
v 0.261900 1.111900 0.261900
v 0.105000 1.272500 0.086200
v 0.141200 1.294400 0.141200
v 0.046300 1.531900 0.027500
v 0.107500 1.421200 0.107500
v 0.107500 1.511300 0.107500
v 0.043700 1.701200 0.035000
v 0.146900 1.551200 0.147500
v 0.101300 1.705600 0.101900
v 0.119400 1.534400 0.120000
v 0.076300 1.110000 0.095600
v 0.027500 0.850000 0.046900
v 0.085600 1.272500 0.105000
v 0.027500 1.531900 0.046900
v 0.034400 1.701200 0.044400
v 0.044400 0.753100 0.115000
v 0.126200 0.820600 0.168100
v 0.000000 0.753100 0.058700
v 0.009400 1.993700 0.010000
v 0.236200 0.853700 0.217500
v 0.216900 0.853700 0.236200
v 0.192500 0.875600 0.211900
v -0.146900 0.883100 -0.165600
v -0.166300 0.883100 -0.146900
v -0.193100 1.023100 -0.193100
v -0.046900 0.850000 -0.027500
v -0.115000 0.753100 -0.044400
v -0.168100 0.820600 -0.126200
v -0.211900 0.875600 -0.192500
v -0.095600 1.110000 -0.076300
v -0.261900 1.111900 -0.261900
v -0.105000 1.272500 -0.085600
v -0.141200 1.294400 -0.141200
v -0.046900 1.531900 -0.027500
v -0.107500 1.421200 -0.107500
v -0.107500 1.511300 -0.107500
v -0.044400 1.701200 -0.034400
v -0.147500 1.551200 -0.146900
v -0.101900 1.705600 -0.101200
v -0.120000 1.534400 -0.119400
v -0.076900 1.110000 -0.095600
v -0.027500 0.850000 -0.046300
v -0.086200 1.272500 -0.105000
v -0.027500 1.531900 -0.046300
v -0.035000 1.701200 -0.043700
v -0.045000 0.753100 -0.115000
v -0.126900 0.820600 -0.168100
v -0.010000 1.993700 -0.009400
v -0.236200 0.853700 -0.216900
v -0.217500 0.853700 -0.236200
v -0.193100 0.875600 -0.211900
v 0.031900 1.550600 0.119400
v 0.070600 1.568100 0.070600
v 0.146900 1.550600 0.147500
v 0.000000 1.561200 0.057500
v 0.070600 1.533100 0.070600
v 0.000000 1.540000 0.057500
v -0.031900 1.550600 0.119400
v -0.070600 1.568100 0.070600
v -0.147500 1.550600 0.147500
v -0.119400 1.550600 0.031900
v -0.070600 1.533100 0.070600
v -0.057500 1.561200 0.000000
v -0.057500 1.540000 0.000000
v -0.119400 1.550600 -0.031900
v -0.070600 1.568100 -0.070600
v -0.147500 1.550600 -0.146900
v -0.070600 1.533100 -0.070600
v -0.031900 1.550600 -0.119400
v 0.000000 1.561200 -0.057500
v 0.000000 1.540000 -0.057500
v 0.031900 1.550600 -0.119400
v 0.070600 1.568100 -0.070600
v 0.146900 1.550600 -0.146900
v 0.119400 1.550600 -0.031900
v 0.070600 1.533100 -0.070600
v 0.057500 1.561200 0.000000
v 0.057500 1.540000 0.000000
v 0.119400 1.550600 0.031900
v 0.045600 1.111900 0.172500
v 0.110600 1.225000 0.110600
v 0.260000 1.111900 0.260600
v 0.022500 1.212500 0.084400
v 0.110600 1.169400 0.110600
v 0.022500 1.181900 0.084400
v -0.022500 1.212500 0.084400
v -0.046300 1.111900 0.172500
v -0.022500 1.181900 0.084400
v -0.110600 1.225000 0.110600
v -0.260600 1.111900 0.260600
v -0.110600 1.169400 0.110600
v -0.172500 1.111900 0.046300
v -0.084400 1.212500 0.022500
v -0.084400 1.181900 0.022500
v -0.084400 1.212500 -0.022500
v -0.172500 1.111900 -0.045600
v -0.084400 1.181900 -0.022500
v -0.110600 1.225000 -0.110600
v -0.260600 1.111900 -0.260000
v -0.110600 1.169400 -0.110600
v -0.046300 1.111900 -0.171900
v -0.022500 1.212500 -0.083800
v -0.022500 1.181900 -0.083800
v 0.022500 1.212500 -0.083800
v 0.045600 1.111900 -0.171900
v 0.022500 1.181900 -0.083800
v 0.110600 1.225000 -0.110600
v 0.260000 1.111900 -0.260000
v 0.110600 1.169400 -0.110600
v 0.171900 1.111900 -0.045600
v 0.083800 1.212500 -0.022500
v 0.083800 1.181900 -0.022500
v 0.083800 1.212500 0.022500
v 0.171900 1.111900 0.046300
v 0.083800 1.181900 0.022500
vt 0.992200 0.460900
vt 0.804700 0.371100
vt 0.992200 0.371100
vt 0.804700 0.460900
vt 0.906300 0.507800
vt 0.625000 0.460900
vt 0.710900 0.507800
vt 0.437500 0.460900
vt 0.531300 0.507800
vt 0.625000 0.460900
vt 0.804700 0.460900
vt 0.804700 0.371100
vt 0.992200 0.335900
vt 0.804700 0.335900
vt 0.804700 0.335900
vt 0.625000 0.335900
vt 0.625000 0.371100
vt 0.437500 0.335900
vt 0.437500 0.371100
vt 0.625000 0.335900
vt 0.625000 0.371100
vt 0.929700 0.164100
vt 0.953100 0.328100
vt 0.984400 0.328100
vt 0.906300 0.328100
vt 0.953100 0.328100
vt 0.906300 0.328100
vt 0.867200 0.328100
vt 0.445300 0.968800
vt 0.484400 0.835900
vt 0.507800 0.968800
vt 0.515600 0.515600
vt 0.515600 0.613300
vt 0.750000 0.554700
vt 0.734400 0.515600
vt 0.664100 0.679700
vt 0.781300 0.695300
vt 0.375000 0.968800
vt 0.203100 0.746100
vt 0.062500 0.996100
vt 0.671900 0.746100
vt 0.210900 0.597700
vt 0.343800 0.574200
vt 0.304700 0.457000
vt 0.062500 0.328100
vt 0.304700 0.355500
vt 0.289100 0.164100
vt 0.062500 0.164100
vt 0.414100 0.308600
vt 0.062500 0.003900
vt 0.335900 0.328100
vt 0.046900 0.996100
vt 0.007800 0.996100
vt 0.046900 0.750000
vt 0.007800 0.957000
vt 0.007800 0.750000
vt 0.046900 0.601600
vt 0.007800 0.601600
vt 0.046900 0.328100
vt 0.007800 0.328100
vt 0.046900 0.164100
vt 0.515600 0.613300
vt 0.750000 0.554700
vt 0.664100 0.679700
vt 0.515600 0.515600
vt 0.062500 0.996100
vt 0.375000 0.968800
vt 0.203100 0.746100
vt 0.210900 0.597700
vt 0.062500 0.328100
vt 0.062500 0.164100
vt 0.445300 0.328100
vt 0.570300 0.195300
vt 0.609400 0.328100
vt 0.484400 0.195300
vt 0.562500 0.238300
vt 0.492200 0.238300
vt 0.421900 0.359400
vt 0.335900 0.429700
vt 0.335900 0.359400
vt 0.781300 0.695300
vt 0.781300 0.746100
vt 0.757800 0.777300
vt 0.421900 0.429700
vt 0.335900 0.507800
vt 0.781300 0.746100
vt 0.757800 0.777300
vt 0.421900 0.507800
vt 0.007800 0.164100
vt 0.031300 0.003900
vt 0.445300 0.968800
vt 0.507800 0.968800
vt 0.484400 0.835900
vt 0.750000 0.554700
vt 0.515600 0.613300
vt 0.515600 0.515600
vt 0.664100 0.679700
vt 0.781300 0.695300
vt 0.781300 0.746100
vt 0.203100 0.746100
vt 0.375000 0.968800
vt 0.062500 0.996100
vt 0.671900 0.746100
vt 0.210900 0.597700
vt 0.343800 0.574200
vt 0.062500 0.328100
vt 0.304700 0.457000
vt 0.304700 0.355500
vt 0.062500 0.164100
vt 0.289100 0.164100
vt 0.414100 0.308600
vt 0.335900 0.328100
vt 0.046900 0.750000
vt 0.007800 0.996100
vt 0.046900 0.996100
vt 0.007800 0.750000
vt 0.046900 0.601600
vt 0.007800 0.601600
vt 0.046900 0.328100
vt 0.007800 0.328100
vt 0.046900 0.164100
vt 0.750000 0.554700
vt 0.515600 0.613300
vt 0.664100 0.679700
vt 0.515600 0.515600
vt 0.734400 0.515600
vt 0.062500 0.996100
vt 0.375000 0.968800
vt 0.203100 0.746100
vt 0.210900 0.597700
vt 0.062500 0.328100
vt 0.062500 0.164100
vt 0.062500 0.003900
vt 0.570300 0.195300
vt 0.445300 0.328100
vt 0.609400 0.328100
vt 0.484400 0.195300
vt 0.562500 0.238300
vt 0.492200 0.238300
vt 0.335900 0.429700
vt 0.421900 0.359400
vt 0.335900 0.359400
vt 0.421900 0.429700
vt 0.335900 0.507800
vt 0.421900 0.507800
vt 0.781300 0.695300
vt 0.781300 0.746100
vt 0.007800 0.957000
vt 0.757800 0.777300
vt 0.757800 0.777300
vt 0.007800 0.164100
vt 0.031300 0.003900
vt 0.445300 0.968800
vt 0.507800 0.968800
vt 0.484400 0.835900
vt 0.750000 0.554700
vt 0.515600 0.613300
vt 0.664100 0.679700
vt 0.781300 0.695300
vt 0.781300 0.746100
vt 0.203100 0.746100
vt 0.375000 0.968800
vt 0.062500 0.996100
vt 0.671900 0.746100
vt 0.210900 0.597700
vt 0.343800 0.574200
vt 0.062500 0.328100
vt 0.304700 0.457000
vt 0.304700 0.355500
vt 0.062500 0.164100
vt 0.289100 0.164100
vt 0.414100 0.308600
vt 0.335900 0.328100
vt 0.046900 0.750000
vt 0.007800 0.996100
vt 0.046900 0.996100
vt 0.007800 0.750000
vt 0.046900 0.601600
vt 0.007800 0.601600
vt 0.046900 0.328100
vt 0.007800 0.328100
vt 0.046900 0.164100
vt 0.750000 0.554700
vt 0.515600 0.613300
vt 0.664100 0.679700
vt 0.515600 0.515600
vt 0.062500 0.996100
vt 0.375000 0.968800
vt 0.203100 0.746100
vt 0.210900 0.597700
vt 0.062500 0.328100
vt 0.062500 0.164100
vt 0.062500 0.003900
vt 0.570300 0.195300
vt 0.445300 0.328100
vt 0.609400 0.328100
vt 0.484400 0.195300
vt 0.562500 0.238300
vt 0.492200 0.238300
vt 0.335900 0.429700
vt 0.421900 0.359400
vt 0.335900 0.359400
vt 0.421900 0.429700
vt 0.335900 0.507800
vt 0.421900 0.507800
vt 0.781300 0.695300
vt 0.781300 0.746100
vt 0.757800 0.777300
vt 0.757800 0.777300
vt 0.007800 0.164100
vt 0.031300 0.003900
vt 0.445300 0.968800
vt 0.507800 0.968800
vt 0.484400 0.835900
vt 0.750000 0.554700
vt 0.515600 0.613300
vt 0.664100 0.679700
vt 0.781300 0.695300
vt 0.781300 0.746100
vt 0.203100 0.746100
vt 0.375000 0.968800
vt 0.062500 0.996100
vt 0.671900 0.746100
vt 0.210900 0.597700
vt 0.343800 0.574200
vt 0.062500 0.328100
vt 0.304700 0.457000
vt 0.304700 0.355500
vt 0.062500 0.164100
vt 0.289100 0.164100
vt 0.414100 0.308600
vt 0.335900 0.328100
vt 0.046900 0.750000
vt 0.007800 0.996100
vt 0.046900 0.996100
vt 0.007800 0.750000
vt 0.046900 0.601600
vt 0.007800 0.601600
vt 0.046900 0.328100
vt 0.007800 0.328100
vt 0.046900 0.164100
vt 0.750000 0.554700
vt 0.515600 0.613300
vt 0.664100 0.679700
vt 0.062500 0.996100
vt 0.375000 0.968800
vt 0.203100 0.746100
vt 0.210900 0.597700
vt 0.062500 0.328100
vt 0.062500 0.164100
vt 0.062500 0.003900
vt 0.570300 0.195300
vt 0.445300 0.328100
vt 0.609400 0.328100
vt 0.484400 0.195300
vt 0.562500 0.238300
vt 0.492200 0.238300
vt 0.335900 0.429700
vt 0.421900 0.359400
vt 0.335900 0.359400
vt 0.421900 0.429700
vt 0.335900 0.507800
vt 0.421900 0.507800
vt 0.781300 0.695300
vt 0.781300 0.746100
vt 0.757800 0.777300
vt 0.757800 0.777300
vt 0.007800 0.164100
vt 0.031300 0.003900
vt 0.507800 0.003900
vt 0.140600 0.003900
vt 0.367200 0.140600
vt 0.593800 0.140600
vt 0.367200 0.187500
vt 0.593800 0.187500
vt 0.859400 0.003900
vt 0.734400 0.050800
vt 0.859400 0.074200
vt 0.734400 0.003900
vt 0.507800 0.003900
vt 0.679700 0.003900
vt 0.367200 0.140600
vt 0.734400 0.097700
vt 0.140600 0.003900
vt 0.507800 0.003900
vt 0.367200 0.187500
vt 0.859400 0.144500
vt 0.734400 0.144500
vt 0.593800 0.140600
vt 0.593800 0.187500
vt 0.734400 0.097700
vt 0.859400 0.074200
vt 0.679700 0.003900
vt 0.734400 0.050800
vt 0.507800 0.003900
vt 0.367200 0.140600
vt 0.140600 0.003900
vt 0.367200 0.187500
vt 0.859400 0.003900
vt 0.734400 0.003900
vt 0.507800 0.003900
vt 0.593800 0.140600
vt 0.593800 0.187500
vt 0.734400 0.050800
vt 0.859400 0.074200
vt 0.507800 0.003900
vt 0.679700 0.003900
vt 0.367200 0.140600
vt 0.734400 0.097700
vt 0.140600 0.003900
vt 0.507800 0.003900
vt 0.367200 0.187500
vt 0.859400 0.144500
vt 0.734400 0.144500
vt 0.593800 0.140600
vt 0.593800 0.187500
vt 0.734400 0.097700
vt 0.859400 0.074200
vt 0.679700 0.003900
vt 0.734400 0.050800
vt 0.507800 0.003900
vt 0.492200 0.003900
vt 0.140600 0.003900
vt 0.343800 0.144500
vt 0.515600 0.144500
vt 0.343800 0.187500
vt 0.515600 0.187500
vt 0.859400 0.144500
vt 0.734400 0.097700
vt 0.859400 0.097700
vt 0.734400 0.144500
vt 0.695300 0.003900
vt 0.515600 0.144500
vt 0.492200 0.003900
vt 0.679700 0.144500
vt 0.515600 0.187500
vt 0.679700 0.187500
vt 0.734400 0.050800
vt 0.859400 0.050800
vt 0.343800 0.144500
vt 0.140600 0.003900
vt 0.343800 0.187500
vt 0.859400 0.003900
vt 0.734400 0.003900
vt 0.492200 0.003900
vt 0.515600 0.144500
vt 0.515600 0.187500
vt 0.859400 0.144500
vt 0.734400 0.097700
vt 0.859400 0.097700
vt 0.734400 0.144500
vt 0.679700 0.144500
vt 0.695300 0.003900
vt 0.679700 0.144500
vt 0.515600 0.187500
vt 0.515600 0.144500
vt 0.679700 0.187500
vt 0.734400 0.050800
vt 0.859400 0.050800
vt 0.492200 0.003900
vt 0.343800 0.144500
vt 0.140600 0.003900
vt 0.343800 0.187500
vt 0.859400 0.003900
vt 0.734400 0.003900
vt 0.492200 0.003900
vt 0.515600 0.144500
vt 0.515600 0.187500
vt 0.859400 0.144500
vt 0.734400 0.097700
vt 0.859400 0.097700
vt 0.734400 0.144500
vt 0.679700 0.144500
vt 0.695300 0.003900
vt 0.679700 0.144500
vt 0.515600 0.187500
vt 0.515600 0.144500
vt 0.679700 0.187500
vt 0.734400 0.050800
vt 0.859400 0.050800
vt 0.492200 0.003900
vt 0.343800 0.144500
vt 0.140600 0.003900
vt 0.343800 0.187500
vt 0.859400 0.003900
vt 0.734400 0.003900
vt 0.492200 0.003900
vt 0.515600 0.144500
vt 0.515600 0.187500
vt 0.859400 0.144500
vt 0.734400 0.097700
vt 0.859400 0.097700
vt 0.734400 0.144500
vt 0.695300 0.003900
vt 0.515600 0.144500
vt 0.492200 0.003900
vt 0.679700 0.144500
vt 0.515600 0.187500
vt 0.679700 0.187500
vt 0.734400 0.050800
vt 0.859400 0.050800
vt 0.859400 0.003900
vt 0.734400 0.003900
vn -0.4372 -0.6894 0.5776
vn 0.2611 -0.2725 0.9261
vn -0.6721 -0.2727 0.6884
vn 0.2817 -0.6888 0.6680
vn 0.0002 -1.0000 0.0009
vn 0.7209 -0.6869 0.0919
vn 0.4404 -0.6863 -0.5788
vn 0.0002 -1.0000 0.0010
vn -0.2822 -0.6877 -0.6689
vn -0.7188 -0.6895 -0.0888
vn 0.0001 -1.0000 0.0009
vn -0.9323 -0.2710 -0.2394
vn -0.6606 0.6032 0.4469
vn -0.7167 0.6032 -0.3501
vn 0.0584 0.6032 0.7955
vn 0.7185 0.6027 0.3470
vn 0.2611 -0.2725 0.9260
vn 0.9326 -0.2718 0.2375
vn 0.6605 0.6030 -0.4473
vn 0.6736 -0.2696 -0.6882
vn -0.0565 0.6027 -0.7959
vn -0.0566 0.6027 -0.7960
vn -0.2583 -0.2681 -0.9281
vn -0.9323 -0.2711 -0.2394
vn 0.0000 1.0000 0.0000
vn -0.2584 -0.2681 -0.9281
vn 0.6736 -0.2695 -0.6882
vn -0.4073 0.3769 -0.8319
vn 0.0977 -0.2108 -0.9726
vn 0.7851 0.4704 0.4030
vn 0.8721 0.4893 0.0016
vn 0.8404 -0.1007 0.5325
vn 0.2551 0.4427 0.8596
vn -0.3111 0.9504 -0.0007
vn 0.8521 -0.3583 0.3815
vn 0.1831 0.0831 0.9796
vn 0.2551 0.4428 0.8596
vn 0.7813 0.4727 0.4076
vn 0.9117 0.0684 0.4051
vn 0.2524 -0.0544 0.9661
vn -0.1111 0.2423 -0.9638
vn 0.6842 0.2525 -0.6842
vn 0.2387 -0.0535 0.9696
vn -0.1111 0.2424 -0.9638
vn 0.6698 -0.3207 -0.6698
vn 0.6492 0.3985 -0.6479
vn 0.3691 -0.0126 0.9293
vn 0.7078 0.0010 -0.7065
vn -0.7041 -0.0900 0.7044
vn 0.6737 -0.3038 -0.6737
vn 0.7078 0.0009 -0.7065
vn -0.7991 0.3864 -0.4606
vn -0.9698 0.1156 -0.2146
vn -0.7991 0.3865 -0.4606
vn -0.9698 0.1155 -0.2146
vn -0.9938 -0.0062 -0.1107
vn -0.9615 -0.1228 -0.2457
vn 0.2387 -0.0534 0.9696
vn -0.9825 -0.0072 -0.1861
vn -0.2659 -0.4274 -0.8641
vn -0.7990 0.3865 -0.4606
vn -0.4321 -0.3961 -0.8102
vn 0.0003 0.4861 -0.8739
vn 0.0977 -0.2109 -0.9726
vn -0.4073 0.3770 -0.8319
vn -0.9699 0.1155 -0.2146
vn 0.0978 -0.2108 -0.9726
vn -0.1110 0.2423 -0.9638
vn 0.6842 0.2524 -0.6842
vn 0.6697 -0.3207 -0.6698
vn 0.7077 0.0009 -0.7065
vn -0.7042 -0.0898 0.7043
vn 0.6737 -0.3037 -0.6737
vn -0.9616 -0.1228 -0.2456
vn -0.9825 -0.0072 -0.1860
vn -0.9615 -0.1228 -0.2456
vn -0.2659 -0.4275 -0.8640
vn 0.8576 -0.5078 -0.0818
vn 0.1707 0.4499 -0.8766
vn 0.7850 0.4704 0.4030
vn -0.1932 0.8342 -0.5165
vn -0.4322 -0.3961 -0.8101
vn -0.3111 0.9504 -0.0006
vn -0.1933 0.8342 -0.5164
vn 0.1707 0.4500 -0.8766
vn -0.1932 0.8342 -0.5164
vn 0.5936 0.7958 0.1195
vn 0.5937 0.7958 0.1195
vn 0.8576 -0.5078 -0.0817
vn 0.8575 -0.5079 -0.0818
vn 0.3691 -0.0125 0.9293
vn -0.9825 -0.0073 -0.1861
vn -0.7041 -0.0899 0.7043
vn -0.8353 0.3698 -0.4069
vn 0.4035 0.4665 0.7871
vn -0.9749 -0.2007 0.0964
vn 0.8598 0.4419 0.2558
vn 0.5290 -0.1021 0.8424
vn 0.8014 0.2911 0.5225
vn 0.3788 -0.3665 0.8498
vn 0.4035 0.4666 0.7871
vn 0.1161 0.7939 0.5969
vn 0.9796 0.0850 0.1820
vn 0.4138 0.0672 0.9079
vn 0.9669 -0.0563 0.2490
vn 0.4139 0.0672 0.9079
vn 0.9796 0.0851 0.1820
vn -0.9633 0.2386 -0.1229
vn 0.9697 -0.0535 0.2384
vn -0.6843 0.2466 0.6863
vn -0.6647 -0.3339 0.6684
vn 0.9270 -0.0107 0.3749
vn -0.6469 0.3984 0.6502
vn -0.7053 -0.0003 0.7089
vn -0.6667 -0.3258 0.6703
vn -0.2150 0.1162 -0.9697
vn -0.4622 0.3837 -0.7995
vn -0.1095 -0.0071 -0.9940
vn 0.9669 -0.0564 0.2490
vn -0.2511 -0.1245 -0.9599
vn -0.1833 -0.0117 -0.9830
vn -0.8653 -0.4279 -0.2611
vn -0.8085 -0.4039 -0.4281
vn -0.8730 0.4877 0.0016
vn 0.3118 0.9502 0.0000
vn -0.4621 0.3837 -0.7995
vn -0.2150 0.1163 -0.9697
vn -0.9633 0.2386 -0.1228
vn -0.1095 -0.0072 -0.9940
vn -0.6647 -0.3340 0.6683
vn -0.1830 -0.0054 -0.9831
vn -0.1830 -0.0055 -0.9831
vn 0.7301 -0.0867 -0.6778
vn -0.6668 -0.3258 0.6703
vn -0.6647 -0.3339 0.6683
vn -0.8085 -0.4038 -0.4281
vn -0.0838 -0.5130 0.8543
vn -0.8816 0.4423 0.1648
vn -0.5229 0.8292 -0.1974
vn 0.4036 0.4666 0.7870
vn -0.8352 0.3698 -0.4069
vn -0.0838 -0.5129 0.8543
vn -0.8084 -0.4039 -0.4281
vn -0.5229 0.8293 -0.1974
vn 0.3117 0.9502 0.0000
vn -0.4042 0.3756 0.8340
vn 0.7867 0.4665 -0.4043
vn 0.1052 -0.2070 0.9727
vn 0.2568 0.4418 -0.8596
vn 0.8425 -0.1023 -0.5289
vn 0.8517 -0.3621 -0.3789
vn 0.5935 0.7964 -0.1161
vn 0.1876 0.0836 -0.9787
vn 0.1051 -0.2070 0.9727
vn 0.1877 0.0835 -0.9787
vn 0.9090 0.0668 -0.4114
vn 0.2522 -0.0557 -0.9661
vn 0.1877 0.0836 -0.9787
vn -0.1151 0.2397 0.9640
vn 0.2357 -0.0503 -0.9705
vn 0.6869 0.2483 0.6830
vn 0.2522 -0.0556 -0.9661
vn 0.6726 -0.3273 0.6637
vn 0.3691 -0.0114 -0.9293
vn 0.6489 0.3984 0.6482
vn 0.7075 0.0004 0.7068
vn 0.6755 -0.3093 0.6693
vn -0.9701 0.1162 0.2130
vn -0.7991 0.3847 0.4620
vn -0.9946 -0.0061 0.1037
vn -0.9603 -0.1270 0.2485
vn -0.9819 -0.0068 0.1891
vn 0.2358 -0.0503 -0.9705
vn -0.2652 -0.4266 0.8647
vn -0.4307 -0.3979 0.8101
vn -0.8006 0.2910 0.5238
vn -0.9603 -0.1270 0.2486
vn 0.6726 -0.3271 0.6637
vn -0.9819 -0.0068 0.1892
vn 0.6489 0.3985 0.6482
vn -0.7087 -0.0897 -0.6998
vn 0.6755 -0.3094 0.6693
vn -0.9819 -0.0067 0.1892
vn 0.6726 -0.3272 0.6638
vn 0.2357 -0.0504 -0.9705
vn 0.6726 -0.3272 0.6637
vn 0.8516 -0.3621 -0.3789
vn -0.4307 -0.3979 0.8100
vn 0.8554 -0.5103 0.0881
vn 0.1623 0.4474 0.8795
vn -0.1939 0.8321 0.5196
vn 0.1623 0.4475 0.8795
vn 0.8554 -0.5104 0.0881
vn -0.7991 0.3848 0.4620
vn 0.2569 0.4418 -0.8595
vn 0.1623 0.4475 0.8794
vn 0.4088 0.3708 -0.8339
vn -0.7857 0.4703 0.4017
vn -0.0890 -0.2045 -0.9748
vn -0.2566 0.4415 0.8598
vn -0.8420 -0.1017 0.5298
vn -0.8505 -0.3631 0.3806
vn -0.7857 0.4704 0.4017
vn -0.5991 0.7916 0.1203
vn -0.1778 0.0845 0.9804
vn -0.0890 -0.2046 -0.9748
vn -0.9106 0.0688 0.4076
vn -0.2515 -0.0547 0.9663
vn 0.1187 0.2412 -0.9632
vn -0.2438 -0.0569 0.9682
vn -0.6830 0.2482 -0.6869
vn -0.6637 -0.3271 -0.6726
vn -0.6830 0.2483 -0.6869
vn 0.1187 0.2413 -0.9632
vn -0.3704 -0.0124 0.9288
vn -0.6488 0.3985 -0.6482
vn -0.7074 0.0010 -0.7068
vn -0.6693 -0.3093 -0.6755
vn 0.9698 0.1156 -0.2149
vn -0.2567 0.4415 0.8597
vn 0.7994 0.3864 -0.4600
vn 0.9932 -0.0073 -0.1165
vn 0.9621 -0.1199 -0.2449
vn -0.2438 -0.0570 0.9682
vn 0.9830 -0.0063 -0.1835
vn 0.9621 -0.1198 -0.2450
vn 0.2617 -0.4287 -0.8647
vn 0.4294 -0.4002 -0.8096
vn 0.0002 0.4861 -0.8739
vn 0.9932 -0.0074 -0.1165
vn 0.9621 -0.1198 -0.2449
vn -0.6637 -0.3273 -0.6726
vn 0.9830 -0.0064 -0.1835
vn -0.6489 0.3985 -0.6482
vn 0.6997 -0.0896 0.7088
vn -0.6637 -0.3272 -0.6726
vn -0.6693 -0.3094 -0.6755
vn 0.4294 -0.4001 -0.8096
vn -0.8564 -0.5104 -0.0775
vn -0.1772 0.4493 -0.8756
vn 0.1934 0.8329 -0.5185
vn -0.7858 0.4704 0.4017
vn 0.4087 0.3708 -0.8339
vn -0.1772 0.4493 -0.8757
vn -0.8564 -0.5105 -0.0774
vn -0.2567 0.4415 0.8598
vn -0.1772 0.4492 -0.8757
vn -0.2879 0.0000 0.9577
vn 0.7064 0.0000 0.7078
vn -0.1245 0.9844 -0.1244
vn -0.1245 0.9844 -0.1243
vn 0.0000 0.6622 -0.7493
vn -0.2879 0.0000 0.9576
vn -0.1244 0.9844 -0.1243
vn -0.3030 -0.9036 -0.3029
vn 0.0000 -0.9100 -0.4147
vn 0.2874 0.0000 0.9578
vn -0.0001 0.6622 -0.7493
vn 0.1246 0.9843 -0.1246
vn -0.7071 0.0000 0.7071
vn 0.2875 -0.0000 0.9578
vn -0.9578 -0.0000 -0.2874
vn -0.7072 0.0000 0.7071
vn 0.3030 -0.9035 -0.3031
vn 0.7493 0.6622 0.0000
vn 0.4147 -0.9100 0.0000
vn 0.7493 0.6622 -0.0001
vn -0.9577 0.0000 0.2879
vn -0.9576 -0.0000 0.2879
vn 0.1244 0.9844 0.1245
vn -0.7078 0.0000 -0.7064
vn 0.1243 0.9844 0.1245
vn 0.3029 -0.9036 0.3030
vn 0.1243 0.9844 0.1244
vn 0.2855 0.0000 -0.9584
vn -0.0000 0.6622 0.7493
vn -0.0000 -0.9100 0.4147
vn -0.2860 0.0000 -0.9582
vn 0.0001 0.6622 0.7493
vn -0.1242 0.9845 0.1242
vn -0.2859 0.0000 -0.9583
vn 0.7071 0.0000 -0.7071
vn -0.2859 0.0000 -0.9582
vn 0.9582 0.0000 0.2860
vn -0.3027 -0.9037 0.3027
vn -0.7493 0.6622 -0.0000
vn -0.4147 -0.9100 -0.0000
vn 0.9583 -0.0000 0.2859
vn -0.7493 0.6622 0.0001
vn 0.9584 -0.0000 -0.2855
vn 0.9584 0.0000 -0.2854
vn -0.2507 0.0941 0.9635
vn 0.2552 -0.9319 0.2579
vn 0.0916 0.9918 0.0896
vn 0.0967 0.4561 -0.8846
vn 0.0967 0.4562 -0.8846
vn -0.4977 -0.7133 -0.4934
vn 0.0808 -0.5185 -0.8512
vn -0.1298 0.9365 -0.3256
vn 0.2311 -0.9662 -0.1144
vn -0.0808 -0.3447 -0.9352
vn 0.2310 -0.9662 -0.1144
vn -0.2508 0.0941 0.9635
vn -0.0900 0.9919 0.0901
vn -0.2569 -0.9317 0.2569
vn -0.0900 0.9919 0.0900
vn -0.1298 0.9366 -0.3256
vn 0.4965 -0.7120 -0.4965
vn -0.0901 0.9919 0.0900
vn -0.9636 0.0931 -0.2506
vn 0.8848 0.4559 0.0967
vn 0.8513 -0.5184 0.0808
vn 0.3259 0.9365 -0.1298
vn 0.1146 -0.9661 0.2314
vn 0.9352 -0.3447 -0.0808
vn 0.1147 -0.9661 0.2314
vn 0.9352 -0.3448 -0.0808
vn -0.0896 0.9918 -0.0916
vn -0.2579 -0.9319 -0.2552
vn -0.0897 0.9918 -0.0916
vn 0.3259 0.9365 -0.1297
vn 0.3258 0.9365 -0.1298
vn 0.4934 -0.7133 0.4977
vn 0.2508 0.0920 -0.9636
vn -0.0994 0.4558 0.8845
vn -0.0832 -0.5183 0.8512
vn 0.2509 0.0921 -0.9636
vn 0.1335 0.9364 0.3247
vn -0.2310 -0.9660 0.1158
vn 0.0831 -0.3446 0.9351
vn 0.1335 0.9364 0.3246
vn 0.0831 -0.3446 0.9350
vn 0.2509 0.0920 -0.9636
vn 0.0912 0.9917 -0.0912
vn 0.2562 -0.9321 -0.2561
vn 0.0911 0.9917 -0.0911
vn -0.2309 -0.9661 0.1158
vn 0.1334 0.9364 0.3246
vn -0.4946 -0.7147 0.4946
vn 0.0912 0.9917 -0.0911
vn 0.9635 0.0930 0.2510
vn -0.8844 0.4561 -0.0994
vn -0.8844 0.4560 -0.0994
vn -0.8511 -0.5184 -0.0831
vn 0.9635 0.0931 0.2509
vn -0.3244 0.9364 0.1335
vn -0.1156 -0.9662 -0.2306
vn -0.9351 -0.3445 0.0831
vn -0.1156 -0.9661 -0.2307
vn -0.9351 -0.3445 0.0832
vn 0.9635 0.0930 0.2509
vn 0.0916 0.9918 0.0897
vn -0.1155 -0.9662 -0.2306
usemtl TEX_w22ln05.001
s 1
f 1/1/1 2/2/2 3/3/3
f 2/2/2 1/1/1 4/4/4
f 5/5/5 4/4/4 1/1/1
f 6/6/6 4/4/4 5/7/5
f 7/8/7 6/6/6 5/9/8
f 8/10/9 7/8/7 5/9/8
f 9/11/10 8/10/9 5/7/11
f 3/3/3 9/11/10 1/1/1
f 9/11/10 3/3/3 10/12/12
f 11/13/13 10/12/12 3/3/3
f 10/12/12 11/13/13 12/14/14
f 1/1/1 9/11/10 5/5/8
f 13/15/15 3/3/3 2/2/2
f 2/2/2 14/16/16 13/15/15
f 13/15/15 11/13/13 3/3/3
f 14/16/16 2/2/17 15/17/18
f 15/17/18 16/18/19 14/16/16
f 16/18/19 15/17/18 17/19/20
f 17/19/20 18/20/21 16/18/19
f 18/20/22 17/19/20 19/21/23
f 19/21/23 12/14/14 18/20/21
f 19/21/23 10/12/24 12/14/14
f 20/22/25 11/23/13 13/24/15
f 11/23/13 20/22/25 12/25/14
f 20/22/25 13/24/15 14/26/16
f 20/22/25 14/26/16 16/27/19
f 20/22/25 16/27/19 18/28/21
f 20/22/25 18/28/21 12/25/14
f 7/8/7 19/21/26 17/19/27
f 17/19/20 6/6/6 7/8/7
f 8/10/9 10/12/24 19/21/23
f 19/21/23 7/8/7 8/10/9
f 8/10/9 9/11/10 10/12/24
f 4/4/4 15/17/18 2/2/17
f 15/17/18 4/4/4 6/6/6
f 17/19/20 15/17/18 6/6/6
f 21/29/28 22/30/29 23/31/30
f 24/32/31 26/33/32 25/34/33
f 25/34/33 27/35/34 24/32/31
f 25/34/33 28/36/35 23/37/30
f 28/36/35 25/34/33 26/33/32
f 23/38/30 29/39/36 25/40/37
f 29/39/36 23/38/38 22/30/29
f 30/41/39 29/39/36 22/30/29
f 29/39/36 30/41/39 31/42/40
f 32/43/41 31/42/40 30/41/39
f 31/42/40 33/44/42 34/45/43
f 33/44/42 31/42/40 32/43/44
f 34/45/43 33/44/42 35/46/45
f 36/47/46 37/48/47 38/49/48
f 37/48/47 36/47/46 39/50/49
f 40/51/50 38/49/51 37/48/47
f 41/52/52 25/53/37 42/54/53
f 25/53/33 41/52/54 27/55/34
f 29/56/36 42/54/55 25/53/33
f 42/54/55 29/56/36 43/57/56
f 31/58/40 43/57/56 29/56/36
f 43/57/56 31/58/40 44/59/57
f 34/60/58 44/59/57 31/58/40
f 44/59/57 34/60/58 45/61/59
f 46/62/60 41/63/61 47/64/62
f 41/63/61 46/62/60 48/65/63
f 41/66/61 22/30/64 21/67/65
f 42/68/66 22/30/67 41/66/54
f 22/30/67 42/68/66 30/41/39
f 42/68/55 32/43/68 30/41/39
f 43/69/56 32/43/41 42/68/66
f 32/43/41 43/69/56 33/44/69
f 44/70/57 33/44/69 43/69/56
f 33/44/69 44/70/57 35/46/70
f 45/71/59 38/49/71 40/51/50
f 38/49/71 45/71/59 36/47/46
f 39/50/72 36/47/46 45/71/59
f 40/51/73 44/70/74 45/71/75
f 34/45/58 40/51/50 37/48/47
f 40/51/50 34/45/58 35/46/45
f 44/70/76 40/51/73 35/46/45
f 46/72/60 28/73/35 26/74/32
f 47/75/62 28/73/35 46/72/77
f 28/73/35 47/75/62 49/76/78
f 50/77/79 49/76/78 47/75/62
f 23/78/80 51/79/81 21/80/65
f 21/81/28 47/64/62 41/63/54
f 47/64/82 21/81/28 51/82/81
f 48/65/63 27/35/83 41/63/61
f 47/64/82 51/82/84 50/83/85
f 51/79/86 52/84/87 50/85/85
f 52/84/87 51/79/86 23/78/30
f 28/36/35 52/86/88 23/37/30
f 52/86/88 28/36/35 49/87/89
f 50/85/85 52/84/88 49/88/90
f 34/60/43 37/89/91 45/61/92
f 37/89/91 39/90/93 45/61/59
f 53/91/94 54/92/95 55/93/96
f 56/94/97 57/95/98 58/96/99
f 57/95/98 56/94/97 59/97/100
f 59/97/100 56/94/97 54/98/101
f 54/98/101 60/99/102 59/97/100
f 61/100/103 54/101/101 56/102/97
f 54/101/101 61/100/103 55/93/96
f 61/100/103 62/103/104 55/93/96
f 63/104/105 62/103/106 61/100/107
f 62/103/106 63/104/105 64/105/108
f 65/106/109 66/107/110 63/104/105
f 66/107/110 65/106/109 67/108/111
f 63/104/105 66/107/110 64/105/108
f 68/109/112 70/110/113 69/111/114
f 69/111/114 71/112/115 68/109/112
f 72/113/116 56/114/97 73/115/117
f 56/114/97 72/113/116 61/116/107
f 74/117/118 61/116/107 72/113/116
f 61/116/107 74/117/118 63/118/119
f 75/119/120 63/118/119 74/117/118
f 63/118/119 75/119/120 65/120/109
f 76/121/121 65/120/109 75/119/120
f 73/122/117 77/123/122 78/124/123
f 79/125/124 77/123/122 73/122/117
f 73/122/117 80/126/125 79/125/124
f 55/93/96 73/127/126 53/128/94
f 73/127/126 55/93/96 72/129/127
f 62/103/104 72/129/127 55/93/96
f 64/105/128 72/129/116 62/103/106
f 72/129/116 64/105/128 74/130/129
f 66/107/110 74/130/129 64/105/128
f 74/130/129 66/107/110 75/131/120
f 67/108/130 75/131/120 66/107/110
f 76/132/131 71/112/115 69/111/114
f 70/110/113 76/132/132 69/111/114
f 76/132/121 70/110/113 81/133/133
f 75/131/120 71/112/134 76/132/131
f 71/112/134 75/131/120 67/108/111
f 65/106/109 68/109/112 71/112/115
f 65/106/109 71/112/134 67/108/135
f 59/134/100 77/135/122 57/136/98
f 77/135/122 59/134/100 78/137/136
f 82/138/137 78/137/136 59/134/100
f 78/137/136 82/138/137 83/139/138
f 84/140/139 54/141/140 53/142/141
f 54/141/101 84/140/139 60/143/102
f 83/144/138 60/143/102 84/140/139
f 60/143/102 83/144/138 82/145/142
f 78/124/143 53/146/94 73/122/126
f 53/146/94 78/124/143 84/147/144
f 58/96/99 80/126/145 56/94/97
f 73/115/117 56/114/97 80/148/125
f 78/124/123 83/149/138 84/147/139
f 59/97/100 60/99/102 82/150/137
f 68/151/112 65/120/109 76/121/121
f 76/121/121 81/152/133 68/151/112
f 70/110/113 68/109/112 81/133/133
f 85/153/146 86/154/147 87/155/148
f 88/156/149 89/157/150 24/32/31
f 89/157/150 88/156/149 90/158/151
f 90/158/151 88/156/149 86/159/147
f 86/159/147 91/160/152 90/158/151
f 92/161/153 86/162/147 88/163/149
f 86/162/147 92/161/153 87/155/154
f 92/161/155 93/164/156 87/155/148
f 94/165/157 93/164/156 92/161/158
f 93/164/156 94/165/157 95/166/159
f 96/167/160 97/168/161 94/165/162
f 97/168/161 96/167/160 98/169/163
f 94/165/157 97/168/161 95/166/159
f 99/170/164 101/171/165 100/172/166
f 100/172/166 102/173/167 99/170/164
f 103/174/168 88/175/149 104/176/169
f 88/175/149 103/174/168 92/177/153
f 105/178/170 92/177/153 103/174/168
f 92/177/153 105/178/170 94/179/157
f 106/180/171 94/179/157 105/178/170
f 94/179/157 106/180/171 96/181/160
f 107/182/172 96/181/173 106/180/171
f 104/183/169 108/184/174 109/185/175
f 110/186/176 108/184/174 104/183/169
f 104/183/169 27/35/34 110/186/176
f 87/155/148 104/187/169 85/188/146
f 104/187/169 87/155/148 103/189/168
f 93/164/156 103/189/168 87/155/148
f 95/166/159 103/189/168 93/164/156
f 103/189/168 95/166/159 105/190/170
f 97/168/161 105/190/170 95/166/159
f 105/190/170 97/168/161 106/191/177
f 98/169/178 106/191/177 97/168/161
f 107/192/172 102/173/167 100/172/166
f 101/171/165 107/192/179 100/172/166
f 107/192/172 101/171/180 111/193/181
f 106/191/177 102/173/182 107/192/183
f 102/173/182 106/191/177 98/169/184
f 96/167/173 99/170/164 102/173/167
f 96/167/185 102/173/167 98/169/186
f 90/194/187 108/195/174 89/196/150
f 108/195/174 90/194/187 109/197/188
f 112/198/189 109/197/188 90/194/187
f 109/197/188 112/198/189 113/199/190
f 114/200/191 86/201/147 85/202/146
f 86/201/147 114/200/191 91/203/152
f 113/204/192 91/203/152 114/200/191
f 91/203/152 113/204/192 112/205/193
f 109/185/188 85/206/146 104/183/194
f 85/206/146 109/185/188 114/207/191
f 24/32/31 27/35/34 88/156/195
f 104/176/169 88/175/195 27/55/34
f 109/185/175 113/208/196 114/207/191
f 90/158/151 91/160/152 112/209/193
f 99/210/164 96/181/173 107/182/172
f 107/182/172 111/211/181 99/210/164
f 101/171/165 99/170/164 111/193/181
f 115/212/197 116/213/198 117/214/199
f 118/215/200 119/216/201 79/125/124
f 119/216/201 118/215/200 120/217/202
f 120/217/202 118/215/200 116/218/203
f 116/218/203 121/219/204 120/217/202
f 122/220/205 116/221/203 118/222/200
f 116/221/203 122/220/205 117/214/206
f 122/220/205 123/223/207 117/214/199
f 124/224/208 123/223/207 122/220/205
f 123/223/207 124/224/208 125/225/209
f 126/226/210 127/227/211 124/224/208
f 127/227/211 126/226/210 128/228/212
f 124/224/208 127/227/213 125/225/214
f 129/229/215 131/230/216 130/231/217
f 130/231/217 132/232/218 129/229/215
f 133/233/219 118/234/220 134/235/221
f 118/234/220 133/233/219 122/236/205
f 135/237/222 122/236/205 133/233/219
f 122/236/205 135/237/222 124/238/208
f 136/239/223 124/238/208 135/237/222
f 124/238/208 136/239/223 126/240/224
f 137/241/225 126/240/210 136/239/226
f 134/242/221 138/243/227 139/244/228
f 48/65/229 138/243/227 134/242/221
f 134/242/221 80/126/125 48/65/229
f 117/214/199 134/245/221 115/246/197
f 134/245/221 117/214/199 133/247/219
f 123/223/207 133/247/219 117/214/199
f 125/225/214 133/247/219 123/223/207
f 133/247/219 125/225/214 135/248/230
f 127/227/213 135/248/230 125/225/214
f 135/248/230 127/227/213 136/249/231
f 128/228/232 136/249/231 127/227/213
f 137/250/225 132/232/218 130/231/217
f 131/230/216 137/250/233 130/231/217
f 137/250/225 131/230/234 140/251/235
f 136/249/231 132/232/218 137/250/225
f 132/232/218 136/249/231 128/228/236
f 126/226/210 129/229/215 132/232/218
f 126/226/210 132/232/237 128/228/236
f 120/252/202 138/253/227 119/254/201
f 138/253/227 120/252/202 139/255/238
f 141/256/239 139/255/238 120/252/202
f 139/255/238 141/256/239 142/257/240
f 143/258/241 116/259/242 115/260/243
f 116/259/203 143/258/241 121/261/204
f 142/262/244 121/261/204 143/258/241
f 121/261/204 142/262/244 141/263/245
f 139/244/228 115/264/197 134/242/221
f 115/264/197 139/244/228 143/265/241
f 79/125/124 80/126/125 118/215/246
f 134/235/221 118/234/200 80/148/125
f 139/244/228 142/266/247 143/265/241
f 120/217/202 121/219/204 141/267/245
f 129/268/215 126/240/210 137/241/225
f 137/241/225 140/269/235 129/268/215
f 131/230/216 129/229/215 140/251/235
f 144/270/248 146/271/249 145/272/250
f 145/272/251 147/273/252 144/270/253
f 147/273/252 145/272/254 148/274/255
f 148/274/255 149/275/256 147/273/252
f 148/276/255 144/277/253 149/278/256
f 144/277/248 148/276/255 146/279/249
f 150/280/257 144/281/248 147/273/258
f 147/273/252 151/282/259 150/280/257
f 149/278/256 144/277/248 150/283/257
f 152/284/260 150/280/261 151/282/259
f 151/282/259 153/285/262 152/284/263
f 147/273/252 154/286/264 151/282/259
f 154/286/264 147/273/252 149/275/256
f 154/287/264 149/278/256 150/283/257
f 150/283/257 152/288/263 154/287/264
f 153/285/262 151/282/259 155/289/265
f 155/289/265 151/282/259 154/286/264
f 154/286/264 156/290/266 155/289/265
f 154/287/264 153/291/262 156/292/266
f 153/291/262 154/287/264 152/288/263
f 153/285/262 155/289/267 157/293/268
f 156/292/266 153/291/262 157/294/269
f 157/295/269 158/296/270 159/297/271
f 158/296/272 157/295/269 155/289/265
f 155/289/265 160/298/273 158/296/274
f 160/298/273 155/289/265 156/290/266
f 160/299/273 156/292/266 157/294/269
f 157/294/269 159/300/271 160/299/273
f 161/301/275 159/297/271 158/296/270
f 158/296/270 162/302/276 161/301/275
f 162/302/276 158/296/274 160/298/273
f 160/298/273 163/303/277 162/302/276
f 160/299/273 161/304/275 163/305/277
f 161/304/275 160/299/273 159/300/271
f 164/306/278 161/307/275 162/302/279
f 162/302/276 165/308/280 164/306/281
f 163/305/277 161/304/275 164/309/278
f 166/310/282 164/306/283 165/308/280
f 165/308/280 167/311/284 166/310/282
f 162/302/276 168/312/285 165/308/280
f 168/312/285 162/302/276 163/303/277
f 168/313/285 163/305/277 164/309/278
f 164/309/278 166/314/282 168/313/285
f 167/311/284 165/308/280 169/315/286
f 169/315/286 165/308/280 168/312/285
f 168/312/285 170/316/287 169/315/286
f 168/313/285 167/317/288 170/318/287
f 167/317/284 168/313/285 166/314/282
f 167/311/284 169/315/289 171/319/290
f 170/318/287 167/317/284 171/320/291
f 171/321/291 145/272/250 146/271/249
f 145/272/250 171/321/290 169/315/286
f 169/315/286 148/274/255 145/272/254
f 148/274/255 169/315/286 170/316/287
f 148/276/255 170/318/287 171/320/291
f 171/320/291 146/279/249 148/276/255
f 172/322/292 174/323/293 173/324/294
f 173/324/294 175/325/295 172/322/292
f 175/325/296 173/324/294 176/326/297
f 176/326/297 177/327/298 175/325/296
f 176/328/297 172/329/292 177/330/298
f 172/329/292 176/328/297 174/331/293
f 172/332/292 178/333/299 179/334/300
f 178/333/299 172/332/292 175/335/295
f 175/335/296 180/336/301 178/333/299
f 180/336/301 175/335/296 177/337/298
f 177/330/298 179/338/302 180/339/301
f 179/338/302 177/330/298 172/329/303
f 179/334/302 181/340/304 182/341/305
f 181/340/306 179/334/302 178/333/299
f 178/333/307 183/342/308 181/340/309
f 183/342/308 178/333/307 180/336/301
f 183/343/308 180/339/301 179/338/302
f 179/338/302 182/344/305 183/343/308
f 184/345/310 182/341/305 181/340/304
f 181/340/304 185/346/311 184/345/310
f 185/346/311 181/340/309 183/342/308
f 183/342/308 186/347/312 185/346/311
f 183/348/308 184/349/310 186/350/312
f 184/349/310 183/348/308 182/351/305
f 184/345/310 187/352/313 188/353/314
f 187/352/313 184/345/310 185/346/311
f 185/354/311 189/355/315 187/356/313
f 189/355/315 185/354/311 186/357/312
f 186/350/312 188/358/316 189/359/317
f 188/358/316 186/350/312 184/349/310
f 188/360/316 190/361/318 191/362/319
f 190/361/320 188/360/314 187/356/321
f 187/356/322 192/363/323 190/361/318
f 192/363/323 187/356/322 189/355/317
f 192/364/323 189/359/317 188/358/316
f 188/358/316 191/365/319 192/364/323
f 193/366/324 191/362/319 190/361/318
f 190/361/318 194/367/325 193/366/324
f 194/367/325 190/361/318 192/363/323
f 192/363/323 195/368/326 194/367/325
f 192/369/323 193/370/327 195/371/326
f 193/370/324 192/369/323 191/372/319
f 193/366/324 196/373/328 197/374/329
f 196/373/328 193/366/324 194/367/325
f 194/375/325 198/376/330 196/377/331
f 198/376/330 194/375/325 195/378/326
f 195/371/326 197/379/329 198/380/332
f 197/379/329 195/371/326 193/370/333
f 197/381/329 199/382/334 200/383/335
f 199/382/336 197/381/337 196/377/331
f 196/377/338 201/384/339 199/382/340
f 201/384/339 196/377/338 198/376/332
f 201/385/339 198/380/332 197/379/329
f 197/379/329 200/386/335 201/385/339
f 202/387/341 200/383/335 199/382/334
f 199/382/334 203/388/342 202/387/341
f 203/388/343 199/382/340 201/384/339
f 201/384/339 204/389/344 203/388/343
f 201/390/339 202/391/345 204/392/344
f 202/391/341 201/390/339 200/393/335
f 202/394/341 205/395/346 206/396/347
f 205/395/346 202/394/341 203/397/342
f 203/397/343 207/398/348 205/395/346
f 207/398/348 203/397/343 204/399/344
f 204/392/344 206/400/349 207/401/350
f 206/400/349 204/392/344 202/391/351
f 206/396/349 173/324/294 174/323/293
f 173/324/352 206/396/353 205/395/346
f 205/395/346 176/326/297 173/324/294
f 176/326/297 205/395/346 207/398/350
f 176/402/297 207/401/350 206/400/349
f 206/400/349 174/403/293 176/402/297
o MDL_w22ln05_bod00.001
v 0.025900 0.153100 0.000000
v 0.025900 -0.904700 -0.000000
v 0.000000 -0.904700 0.025900
v 0.000000 0.153100 -0.025900
v 0.000000 0.153100 0.025900
v -0.025900 -0.904700 -0.000000
v 0.000000 -0.904700 -0.025900
v -0.025900 0.153100 0.000000
v 0.000000 0.589100 0.109100
v 0.212800 0.439700 0.123100
v 0.094100 0.589100 0.054700
v 0.000000 0.624400 0.056200
v 0.048400 0.624400 0.028100
v 0.212800 0.439700 -0.122800
v 0.094100 0.589100 -0.054400
v 0.048400 0.624400 -0.027800
v 0.000000 0.439700 -0.245900
v 0.000000 0.589100 -0.108800
v -0.213100 0.439700 -0.122800
v -0.094700 0.589100 -0.054400
v 0.000000 0.624400 -0.055900
v -0.048700 0.624400 -0.027800
v -0.213100 0.439700 0.123100
v -0.094700 0.589100 0.054700
v 0.000000 0.439700 0.246300
v -0.048700 0.624400 0.028100
v 0.074400 0.360300 -0.042800
v 0.000600 0.360300 -0.085600
v -0.073100 0.360300 -0.042800
v 0.074400 0.360300 0.042200
v 0.000600 0.360300 0.084700
v -0.073100 0.360300 0.042200
v 0.085600 -0.970000 -0.000000
v 0.000000 -0.970000 -0.085600
v 0.000000 -0.970000 0.085600
v -0.085600 -0.970000 -0.000000
v 0.000000 -1.006300 -0.000000
vt 0.062500 0.460900
vt 0.125000 0.847700
vt 0.062500 0.847700
vt 0.125000 0.460900
vt 0.125000 0.460900
vt 0.062500 0.847700
vt 0.125000 0.847700
vt 0.062500 0.460900
vt 0.765600 0.835900
vt 0.531300 0.996100
vt 0.531300 0.835900
vt 0.625000 0.828100
vt 0.625000 0.785200
vt 0.804700 0.785200
vt 0.804700 0.828100
vt 0.765600 0.996100
vt 0.765600 0.835900
vt 0.804700 0.785200
vt 0.804700 0.828100
vt 0.992200 0.996100
vt 0.992200 0.835900
vt 0.992200 0.828100
vt 0.765600 0.996100
vt 0.765600 0.835900
vt 0.804700 0.785200
vt 0.992200 0.785200
vt 0.531300 0.996100
vt 0.531300 0.835900
vt 0.804700 0.828100
vt 0.625000 0.828100
vt 0.992200 0.996100
vt 0.765600 0.996100
vt 0.625000 0.785200
vt 0.882800 0.152300
vt 0.625000 0.328100
vt 0.992200 0.328100
vt 0.625000 0.328100
vt 0.710900 0.152300
vt 0.882800 0.152300
vt 0.710900 0.152300
vt 0.882800 0.152300
vt 0.992200 0.328100
vt 0.625000 0.328100
vt 0.710900 0.152300
vt 0.992200 0.328100
vt 0.992200 0.003900
vt 0.875000 0.003900
vt 0.875000 0.113300
vt 0.992200 0.113300
vt 0.992200 0.003900
vt 0.992200 0.113300
vt 0.875000 0.113300
vt 0.875000 0.003900
vt 0.875000 0.140600
vt 0.992200 0.835900
vt 0.992200 0.777300
vt 0.929700 0.515600
vt 0.898400 0.777300
vt 0.992200 0.515600
vt 0.929700 0.515600
vt 0.859400 0.515600
vt 0.796900 0.777300
vt 0.796900 0.515600
vt 0.859400 0.515600
vt 0.898400 0.777300
vn 0.9715 -0.1795 0.1546
vn 0.1402 0.4306 0.8916
vn 0.9312 0.3056 -0.1990
vn 0.1329 -0.2024 -0.9702
vn 0.9715 -0.1794 0.1546
vn -0.1334 -0.2004 0.9706
vn -0.9312 0.3055 0.1990
vn 0.9311 0.3056 -0.1990
vn -0.1402 0.4306 -0.8916
vn -0.9721 -0.1765 -0.1544
vn -0.9311 0.3056 0.1990
vn -0.1334 -0.2005 0.9706
vn 0.0007 0.7337 0.6794
vn 0.8458 -0.2168 0.4874
vn 0.5359 0.7858 0.3087
vn 0.4815 0.8317 0.2766
vn 0.0010 0.8323 0.5543
vn 0.8458 -0.2161 -0.4878
vn 0.5885 0.7338 -0.3394
vn 0.4815 0.8314 -0.2772
vn 0.4816 0.8314 -0.2772
vn 0.5886 0.7338 -0.3394
vn 0.0009 -0.2168 -0.9762
vn 0.0010 0.7863 -0.6179
vn -0.8449 -0.2188 -0.4881
vn -0.5879 0.7341 -0.3398
vn -0.4793 0.8327 -0.2774
vn 0.0011 0.8318 -0.5551
vn -0.8449 -0.2194 0.4879
vn -0.5345 0.7866 0.3093
vn -0.4792 0.8327 -0.2774
vn 0.0007 -0.2185 0.9758
vn 0.0006 0.7337 0.6794
vn -0.5345 0.7866 0.3092
vn -0.4792 0.8330 0.2767
vn -0.4792 0.8329 0.2767
vn 0.5985 -0.6989 -0.3917
vn 0.5985 -0.6989 -0.3916
vn -0.0001 -0.6582 -0.7528
vn -0.5981 -0.6990 -0.3919
vn 0.6725 -0.5840 0.4547
vn 0.0002 -0.7589 0.6512
vn -0.6731 -0.5829 0.4552
vn 0.9894 0.1455 0.0000
vn -0.0000 -0.3122 -0.9500
vn 0.0000 -0.3123 0.9500
vn -0.9894 0.1455 0.0000
vn 0.0000 -1.0000 0.0000
vn -0.9894 0.1456 -0.0000
vn 0.5359 0.7858 0.3088
vn 0.0007 0.7337 0.6795
vn -0.5982 -0.6990 -0.3919
vn 0.1329 -0.2025 -0.9702
vn -0.9721 -0.1764 -0.1545
usemtl TEX_w22ln05.001
s 1
f 208/404/354 210/405/355 209/406/356
f 209/406/356 211/407/357 208/404/354
f 210/405/355 208/404/358 212/408/359
f 212/408/359 213/409/360 210/405/355
f 211/407/357 209/406/361 214/410/362
f 214/410/362 215/411/363 211/407/357
f 215/411/363 214/410/362 213/409/364
f 213/409/364 212/408/365 215/411/363
f 216/412/366 217/413/367 218/414/368
f 218/415/368 220/416/369 219/417/370
f 219/417/370 216/418/366 218/415/368
f 217/413/367 221/419/371 222/420/372
f 218/415/368 223/421/373 220/416/369
f 223/421/374 218/415/368 222/422/375
f 222/420/372 224/423/376 225/424/377
f 225/425/377 223/421/374 222/422/375
f 224/423/376 226/426/378 227/427/379
f 225/425/377 229/428/380 228/429/381
f 228/429/381 223/421/374 225/425/377
f 227/427/379 230/430/382 231/431/383
f 227/432/379 231/433/383 229/428/384
f 229/428/384 225/425/377 227/432/379
f 230/434/382 232/435/385 216/412/386
f 231/433/387 219/417/370 233/436/388
f 233/436/389 229/428/380 231/433/383
f 234/437/390 224/438/376 221/439/371
f 221/439/371 217/440/367 234/437/390
f 224/438/376 234/437/391 235/441/392
f 235/441/392 236/442/393 224/438/376
f 237/443/394 234/437/391 217/440/367
f 217/440/367 238/444/395 237/443/394
f 238/444/395 217/440/367 232/445/385
f 232/445/385 230/446/382 238/444/395
f 239/447/396 238/444/395 230/446/382
f 230/446/382 236/442/393 239/447/396
f 236/442/393 230/446/382 226/448/378
f 226/448/378 224/438/376 236/442/393
f 214/449/362 209/450/356 240/451/397
f 240/451/397 241/452/398 214/449/362
f 210/453/355 240/451/397 209/450/356
f 242/454/399 240/451/397 210/453/355
f 210/453/355 243/455/400 242/454/399
f 213/456/360 243/455/400 210/453/355
f 214/449/362 243/455/400 213/456/364
f 243/455/400 214/449/362 241/452/398
f 241/452/398 240/451/397 244/457/401
f 240/451/397 242/454/399 244/457/401
f 242/454/399 243/455/400 244/457/401
f 243/455/402 241/452/398 244/457/401
f 230/434/382 216/412/386 231/458/383
f 231/433/387 216/418/366 219/417/370
f 226/426/378 230/430/382 227/427/379
f 224/423/376 227/427/379 225/424/377
f 221/419/371 224/423/376 222/420/372
f 217/413/367 222/420/372 218/414/403
f 232/435/385 217/413/367 216/412/404
f 211/459/357 234/460/391 208/461/354
f 235/462/392 234/460/391 211/459/357
f 211/459/357 236/463/405 235/462/392
f 208/461/354 234/460/391 237/464/394
f 237/464/394 212/465/365 208/461/354
f 212/465/365 237/464/394 238/466/395
f 238/466/395 239/467/396 212/465/365
f 212/465/365 239/467/396 215/468/363
f 215/468/363 239/467/396 236/463/393
f 236/463/405 211/459/406 215/468/407
