# Blender v2.79 (sub 0) OBJ File: ''
# www.blender.org
mtllib w22sw08.mtl
o MDL_w22sw08body0
v 0.018800 2.504800 0.041900
v -0.018100 2.504800 0.041900
v 0.000000 2.491000 0.151900
v -0.018100 2.504800 -0.179400
v -0.018100 2.305400 -0.179400
v -0.018100 2.379100 -0.179400
v -0.015600 2.326600 -0.188700
v -0.018100 1.139100 0.041900
v -0.018100 0.969100 0.038800
v -0.013100 1.035400 0.062500
v -0.014400 0.144100 0.013700
v 0.000000 0.160400 0.018800
v -0.018100 0.160400 0.013100
v 0.000000 0.144800 0.017500
v -0.011300 0.129800 0.017500
v 0.000000 0.132900 0.020600
v 0.000000 0.120400 0.030000
v 0.011900 0.129800 0.017500
v 0.014400 0.116000 0.025600
v 0.000000 0.160400 -0.015000
v 0.000000 0.144800 -0.013100
v -0.014400 0.144100 -0.009400
v 0.015000 0.144100 -0.009400
v 0.018800 0.160400 -0.008800
v 0.015000 0.144100 0.013700
v 0.018800 0.160400 0.013100
v -0.018100 0.160400 -0.008800
v -0.014400 0.116000 0.025600
v 0.000000 0.107900 0.060600
v 0.000000 0.091000 0.055000
v 0.000000 0.120400 -0.025600
v 0.000000 0.107900 -0.056200
v -0.014400 0.116000 -0.021300
v 0.014400 0.116000 -0.021300
v 0.000000 0.091000 -0.050600
v 0.000000 1.034800 0.063100
v 0.000000 1.080400 0.102500
v -0.006200 1.080400 0.101900
v 0.006900 1.080400 0.101900
v 0.013800 1.035400 0.062500
v 0.000000 0.966600 0.041300
v 0.018800 0.969100 0.038800
v -0.030000 0.810400 -0.046900
v -0.033100 0.832900 -0.071200
v -0.025600 0.792900 -0.081900
v 0.000000 0.882300 0.053100
v 0.018800 0.882300 0.045600
v -0.018100 0.882300 0.045600
v -0.025000 0.756600 0.043100
v 0.000000 0.756600 0.051900
v 0.000000 1.122900 0.151900
v 0.000000 2.327300 -0.196300
v 0.000000 2.306000 -0.186900
v 0.018800 2.305400 -0.179400
v 0.015600 2.326600 -0.188700
v 0.000000 2.374800 -0.186900
v 0.018800 2.379100 -0.179400
v -0.025000 0.887900 -0.179400
v -0.013100 0.062300 -0.015600
v -0.018100 0.116000 0.001900
v -0.017500 0.062300 0.001200
v 0.000000 0.009100 -0.008100
v 0.000000 0.003500 0.001900
v -0.013100 0.062300 0.019400
v -0.011300 0.079100 0.038800
v -0.011300 0.129800 -0.013100
v -0.009400 0.079100 -0.034400
v -0.030000 0.773500 0.006900
v -0.025000 0.787300 -0.030000
v -0.031900 0.784800 -0.030000
v -0.024400 0.776000 0.007500
v -0.035000 0.886000 -0.179400
v -0.035600 0.879800 -0.241200
v -0.035000 0.859800 -0.115600
v -0.025000 0.861600 -0.115600
v -0.025000 0.834800 -0.071200
v -0.025000 0.812300 -0.046300
v -0.021900 0.686600 0.023700
v -0.021300 0.701600 -0.017500
v -0.020000 0.674800 0.021300
v -0.032500 0.789100 -0.081200
v -0.031900 0.651000 -0.208100
v -0.028800 0.622900 -0.181300
v -0.031300 0.622900 -0.198800
v -0.025000 0.667300 -0.130000
v -0.035000 0.710400 -0.225000
v -0.028100 0.697900 -0.115000
v -0.031900 0.768500 -0.190600
v -0.031900 0.790400 -0.130600
v -0.021300 0.597900 -0.140000
v -0.026900 0.593500 -0.161200
v -0.021900 0.622300 -0.131200
v -0.027500 0.716600 -0.051200
v 0.000000 0.672900 0.035000
v 0.000000 0.736600 0.050000
v 0.025600 0.756600 0.043100
v -0.033800 0.855400 -0.239400
v -0.019400 0.751600 -0.220000
v 0.000000 0.132900 -0.016200
v 0.000000 0.074800 0.060600
v 0.000000 0.063500 0.053100
v 0.000000 0.009100 0.011900
v 0.000000 0.012300 0.023100
v 0.000000 0.035400 -0.043700
v 0.011900 0.129800 -0.013100
v 0.000000 0.035400 0.047500
v 0.000000 0.025400 0.033100
v 0.000000 0.063500 -0.048700
v 0.009400 0.079100 -0.034400
v 0.000000 0.074800 -0.056200
v 0.013700 0.062300 0.019400
v 0.000000 0.012300 -0.018800
v 0.000000 0.025400 -0.029400
v 0.013700 0.062300 -0.015600
v 0.018100 0.062300 0.001200
v -0.018100 0.568500 -0.008800
v -0.018100 0.568500 0.013100
v 0.000000 0.568500 -0.015000
v 0.018800 0.568500 -0.008800
v 0.000000 0.568500 0.018800
v -0.030000 0.715400 -0.099400
v -0.031900 0.719800 -0.080000
v -0.022500 0.607900 -0.106900
v -0.020000 0.590400 -0.109400
v 0.000000 0.663500 0.030000
v 0.022500 0.648500 0.020000
v 0.018800 0.771000 -0.190600
v -0.018100 0.771000 -0.190600
v 0.019400 0.751600 -0.220000
v -0.019400 0.702900 -0.252500
v 0.020000 0.702900 -0.252500
v -0.030600 0.795400 -0.277500
v -0.036200 0.824800 -0.287500
v -0.026900 0.714800 -0.270000
v -0.026900 0.727300 -0.293100
v 0.030000 0.715400 -0.099400
v 0.028800 0.697900 -0.115000
v 0.031900 0.719800 -0.080000
v 0.025600 0.667300 -0.130000
v 0.023700 0.631600 -0.113800
v -0.023100 0.631600 -0.113800
v 0.028100 0.716600 -0.051200
v 0.034400 0.857900 -0.240600
v 0.035600 0.824800 -0.287500
v 0.029400 0.795400 -0.277500
v -0.030600 0.767300 -0.295000
v 0.029400 0.767300 -0.295000
v 0.036200 0.879800 -0.241200
v 0.025000 0.699800 -0.281900
v -0.026900 0.699800 -0.281900
v 0.020600 0.714800 -0.270000
v -0.026900 0.746600 -0.281900
v 0.027500 0.746600 -0.281900
v 0.026900 0.727300 -0.293100
v 0.035000 0.710400 -0.225000
v 0.031900 0.768500 -0.190600
v -0.033100 0.658500 -0.228800
v 0.033800 0.658500 -0.228800
v 0.031900 0.651000 -0.208100
v 0.031300 0.622900 -0.198800
v 0.028800 0.622900 -0.181300
v 0.027500 0.593500 -0.161200
v 0.024400 0.597900 -0.140000
v 0.023100 0.590400 -0.109400
v 0.024400 0.607900 -0.106900
v 0.022500 0.622300 -0.131200
v 0.000000 0.697900 -0.026900
v 0.018800 2.504800 -0.179400
v -0.023100 0.792900 -0.130600
v 0.021900 0.702900 0.026200
v 0.025600 0.887900 -0.179400
v 0.018800 1.139100 0.041900
v 0.033100 0.832900 -0.071200
v 0.025600 0.792900 -0.081900
v 0.030600 0.810400 -0.046900
v 0.023100 0.792900 -0.130600
v 0.018800 0.116000 0.001900
v 0.011900 0.079100 0.038800
v 0.025600 0.787300 -0.030000
v 0.030000 0.773500 0.006900
v 0.031900 0.784800 -0.030000
v 0.024400 0.776000 0.007500
v 0.035600 0.886000 -0.179400
v 0.025600 0.861600 -0.115600
v 0.035600 0.859800 -0.115600
v 0.025600 0.834800 -0.071200
v 0.025600 0.812300 -0.046300
v 0.033100 0.789100 -0.081200
v 0.031900 0.790400 -0.130600
v 0.026200 0.701600 -0.017500
v 0.018800 0.568500 0.013100
v 0.025600 0.690400 0.004400
v 0.000000 0.632300 -0.018800
v 0.000000 0.648500 -0.022500
v -0.021300 0.619800 -0.010600
v 0.025000 0.671000 -0.015600
v 0.021300 0.642300 -0.011300
v 0.018800 0.625400 -0.008800
v 0.000000 0.603500 -0.015000
v 0.000000 0.615400 -0.016900
v -0.020000 0.608500 -0.009400
v 0.018800 0.625400 0.013100
v 0.000000 0.625400 0.018800
v -0.018100 0.625400 0.013100
v -0.018100 0.597300 -0.008800
vt 0.687500 0.386700
vt 0.687500 0.363300
vt 0.804700 0.375000
vt 0.507800 0.363300
vt 0.007800 0.117200
vt 0.007800 0.074200
vt 0.015600 0.085900
vt 0.257800 0.781300
vt 0.257800 0.878900
vt 0.289100 0.839800
vt 0.695300 0.660200
vt 0.773400 0.625000
vt 0.695300 0.625000
vt 0.773400 0.660200
vt 0.710900 0.675800
vt 0.742200 0.675800
vt 0.757800 0.687500
vt 0.710900 0.675800
vt 0.734400 0.691400
vt 0.523400 0.625000
vt 0.523400 0.660200
vt 0.593800 0.660200
vt 0.593800 0.660200
vt 0.593800 0.625000
vt 0.695300 0.660200
vt 0.695300 0.625000
vt 0.593800 0.625000
vt 0.734400 0.691400
vt 0.875000 0.718800
vt 0.882800 0.761700
vt 0.523400 0.683600
vt 0.406300 0.703100
vt 0.562500 0.687500
vt 0.562500 0.687500
vt 0.398400 0.750000
vt 0.875000 0.437500
vt 0.875000 0.406300
vt 0.828100 0.406300
vt 0.929700 0.406300
vt 0.929700 0.437500
vt 0.820300 0.437500
vt 0.875000 0.457000
vt 0.929700 0.457000
vt 0.843800 0.066400
vt 0.804700 0.046900
vt 0.781300 0.082000
vt 0.820300 0.457000
vt 0.875000 0.480500
vt 0.929700 0.480500
vt 0.820300 0.480500
vt 0.820300 0.613300
vt 0.875000 0.609400
vt 0.382800 0.789100
vt 0.257800 0.003900
vt 0.382800 0.011700
vt 0.968800 0.285200
vt 0.968800 0.296900
vt 0.992200 0.296900
vt 0.945300 0.296900
vt 0.945300 0.285200
vt 0.992200 0.285200
vt 0.968800 0.261700
vt 0.945300 0.261700
vt 0.992200 0.261700
vt 0.992200 0.203100
vt 0.328100 0.812500
vt 0.007800 0.918000
vt 0.273400 0.921900
vt 0.570300 0.773400
vt 0.640600 0.691400
vt 0.640600 0.773400
vt 0.585900 0.859400
vt 0.640600 0.871100
vt 0.710900 0.773400
vt 0.773400 0.750000
vt 0.578100 0.675800
vt 0.500000 0.757800
vt 0.875000 0.269500
vt 0.867200 0.289100
vt 0.867200 0.265600
vt 0.875000 0.289100
vt 0.882800 0.289100
vt 0.796900 0.335900
vt 0.585900 0.355500
vt 0.796900 0.355500
vt 0.812500 0.355500
vt 0.812500 0.335900
vt 0.835900 0.355500
vt 0.835900 0.335900
vt 0.859400 0.355500
vt 0.859400 0.335900
vt 0.882800 0.347700
vt 0.945300 0.171900
vt 0.890600 0.160200
vt 0.937500 0.175800
vt 0.851600 0.265600
vt 0.851600 0.289100
vt 0.554700 0.207000
vt 0.578100 0.230500
vt 0.609400 0.230500
vt 0.695300 0.191400
vt 0.523400 0.152300
vt 0.718800 0.168000
vt 0.593800 0.101600
vt 0.695300 0.082000
vt 0.632800 0.253900
vt 0.671900 0.253900
vt 0.687500 0.234400
vt 0.875000 0.363300
vt 0.882800 0.089800
vt 0.835900 0.148400
vt 0.937500 0.101600
vt 0.976600 0.113300
vt 0.976600 0.183600
vt 0.875000 0.621100
vt 0.929700 0.613300
vt 0.617200 0.003900
vt 0.500000 0.007800
vt 0.500000 0.027300
vt 0.531300 0.117200
vt 0.554700 0.675800
vt 0.882800 0.789100
vt 0.835900 0.800800
vt 0.695300 0.855500
vt 0.734400 0.851600
vt 0.445300 0.816400
vt 0.578100 0.675800
vt 0.812500 0.820300
vt 0.765600 0.828100
vt 0.421900 0.785200
vt 0.500000 0.757800
vt 0.398400 0.773400
vt 0.710900 0.773400
vt 0.523400 0.855500
vt 0.476600 0.828100
vt 0.570300 0.773400
vt 0.640600 0.773400
vt 0.398400 0.964800
vt 0.882800 0.996100
vt 0.882800 0.964800
vt 0.398400 0.914100
vt 0.398400 0.996100
vt 0.398400 0.964800
vt 0.882800 0.914100
vt 0.398400 0.882800
vt 0.882800 0.882800
vt 0.882800 0.914100
vt 0.750000 0.148400
vt 0.789100 0.144500
vt 0.781300 0.085900
vt 0.718800 0.246100
vt 0.718800 0.257800
vt 0.968800 0.195300
vt 0.906300 0.164100
vt 0.398400 0.410200
vt 0.492200 0.363300
vt 0.398400 0.363300
vt 0.492200 0.410200
vt 0.398400 0.453100
vt 0.492200 0.453100
vt 0.875000 0.085900
vt 0.414100 0.054700
vt 0.437500 0.082000
vt 0.445300 0.148400
vt 0.468800 0.160200
vt 0.406300 0.140600
vt 0.398400 0.406300
vt 0.492200 0.394500
vt 0.492200 0.406300
vt 0.398400 0.421900
vt 0.398400 0.394500
vt 0.492200 0.378900
vt 0.398400 0.437500
vt 0.492200 0.421900
vt 0.492200 0.437500
vt 0.398400 0.453100
vt 0.492200 0.453100
vt 0.398400 0.378900
vt 0.750000 0.265600
vt 0.585900 0.355500
vt 0.750000 0.355500
vt 0.585900 0.265600
vt 0.750000 0.265600
vt 0.585900 0.355500
vt 0.750000 0.355500
vt 0.585900 0.265600
vt 0.468800 0.355500
vt 0.585900 0.265600
vt 0.468800 0.265600
vt 0.585900 0.355500
vt 0.398400 0.453100
vt 0.492200 0.425800
vt 0.492200 0.453100
vt 0.398400 0.425800
vt 0.468800 0.355500
vt 0.585900 0.265600
vt 0.468800 0.265600
vt 0.585900 0.355500
vt 0.468800 0.355500
vt 0.585900 0.265600
vt 0.468800 0.265600
vt 0.585900 0.355500
vt 0.468800 0.355500
vt 0.585900 0.265600
vt 0.468800 0.265600
vt 0.585900 0.355500
vt 0.750000 0.265600
vt 0.585900 0.355500
vt 0.750000 0.355500
vt 0.585900 0.265600
vt 0.476600 0.355500
vt 0.585900 0.265600
vt 0.476600 0.265600
vt 0.585900 0.355500
vt 0.703100 0.265600
vt 0.796900 0.265600
vt 0.796900 0.289100
vt 0.796900 0.335900
vt 0.703100 0.355500
vt 0.796900 0.355500
vt 0.585900 0.265600
vt 0.585900 0.355500
vt 0.476600 0.355500
vt 0.585900 0.265600
vt 0.476600 0.265600
vt 0.585900 0.355500
vt 0.476600 0.355500
vt 0.585900 0.265600
vt 0.476600 0.265600
vt 0.585900 0.355500
vt 0.476600 0.355500
vt 0.585900 0.265600
vt 0.476600 0.265600
vt 0.585900 0.355500
vt 0.476600 0.355500
vt 0.585900 0.265600
vt 0.476600 0.265600
vt 0.585900 0.355500
vt 0.476600 0.355500
vt 0.585900 0.265600
vt 0.476600 0.265600
vt 0.585900 0.355500
vt 0.437500 0.363300
vt 0.492200 0.363300
vt 0.679700 0.265600
vt 0.585900 0.355500
vt 0.679700 0.355500
vt 0.585900 0.265600
vt 0.679700 0.265600
vt 0.585900 0.355500
vt 0.679700 0.355500
vt 0.585900 0.265600
vt 0.679700 0.265600
vt 0.585900 0.355500
vt 0.679700 0.355500
vt 0.585900 0.265600
vt 0.492200 0.453100
vt 0.398400 0.425800
vt 0.492200 0.425800
vt 0.398400 0.453100
vt 0.945300 0.203100
vt 0.507800 0.386700
vt 0.726600 0.023400
vt 0.593800 0.101600
vt 0.695300 0.082000
vt 0.398400 0.105500
vt 0.429700 0.121100
vt 0.429700 0.160200
vt 0.523400 0.199200
vt 0.710900 0.230500
vt 0.828100 0.289100
vt 0.828100 0.265600
vt 0.992200 0.121100
vt 0.953100 0.105500
vt 0.218800 0.984400
vt 0.273400 0.996100
vt 0.171900 0.976600
vt 0.156300 0.960900
vt 0.132800 0.949200
vt 0.078100 0.933600
vt 0.992200 0.996100
vt 0.945300 0.996100
vt 0.796900 0.289100
vt 0.585900 0.265600
vt 0.007800 0.074200
vt 0.007800 0.117200
vt 0.015600 0.085900
vt 0.257800 0.781300
vt 0.289100 0.839800
vt 0.257800 0.878900
vt 0.328100 0.812500
vt 0.804700 0.046900
vt 0.843800 0.066400
vt 0.781300 0.082000
vt 0.695300 0.082000
vt 0.257800 0.003900
vt 0.007800 0.918000
vt 0.273400 0.921900
vt 0.640600 0.691400
vt 0.773400 0.750000
vt 0.867200 0.335900
vt 0.875000 0.355500
vt 0.867200 0.355500
vt 0.875000 0.335900
vt 0.882800 0.335900
vt 0.796900 0.265600
vt 0.812500 0.289100
vt 0.812500 0.265600
vt 0.835900 0.265600
vt 0.835900 0.289100
vt 0.859400 0.265600
vt 0.859400 0.289100
vt 0.882800 0.273400
vt 0.851600 0.355500
vt 0.851600 0.335900
vt 0.828100 0.355500
vt 0.609400 0.230500
vt 0.578100 0.230500
vt 0.554700 0.207000
vt 0.695300 0.191400
vt 0.687500 0.234400
vt 0.671900 0.253900
vt 0.632800 0.253900
vt 0.882800 0.089800
vt 0.890600 0.160200
vt 0.835900 0.148400
vt 0.937500 0.101600
vt 0.976600 0.113300
vt 0.953100 0.160200
vt 0.500000 0.007800
vt 0.617200 0.003900
vt 0.500000 0.027300
vt 0.882800 0.964800
vt 0.398400 0.914100
vt 0.695300 0.082000
vt 0.718800 0.168000
vt 0.593800 0.101600
vt 0.750000 0.148400
vt 0.789100 0.144500
vt 0.718800 0.246100
vt 0.718800 0.257800
vt 0.875000 0.085900
vt 0.414100 0.054700
vt 0.437500 0.082000
vt 0.445300 0.148400
vt 0.531300 0.117200
vt 0.468800 0.160200
vt 0.398400 0.363300
vt 0.593800 0.101600
vt 0.726600 0.023400
vt 0.429700 0.121100
vt 0.398400 0.105500
vt 0.406300 0.140600
vt 0.429700 0.160200
vt 0.523400 0.152300
vt 0.523400 0.199200
vt 0.710900 0.230500
vt 0.781300 0.085900
vt 0.828100 0.335900
vt 0.218800 0.984400
vt 0.273400 0.996100
vt 0.171900 0.976600
vt 0.156300 0.960900
vt 0.132800 0.949200
vt 0.078100 0.933600
vt 0.007800 0.003900
vt 0.007800 0.003900
vt 0.921900 0.171900
vt 0.820300 0.097700
vt 0.781300 0.085900
vt 0.820300 0.085900
vt 0.882800 0.089800
vt 0.851600 0.121100
vt 0.835900 0.136700
vt 0.781300 0.121100
vt 0.921900 0.097700
vt 0.812500 0.109400
vt 0.773400 0.101600
vt 0.507800 0.558600
vt 0.539100 0.578100
vt 0.507800 0.578100
vt 0.460900 0.578100
vt 0.539100 0.543000
vt 0.570300 0.531300
vt 0.570300 0.578100
vt 0.617200 0.531300
vt 0.617200 0.578100
vt 0.429700 0.531300
vt 0.460900 0.546900
vt 0.429700 0.562500
vt 0.398400 0.531300
vt 0.460900 0.531300
vt 0.398400 0.582000
vt 0.539100 0.621100
vt 0.507800 0.621100
vt 0.570300 0.621100
vt 0.429700 0.621100
vt 0.460900 0.621100
vt 0.429700 0.589800
vt 0.398400 0.601600
vt 0.617200 0.621100
vt 0.398400 0.621100
vt 0.617200 0.601600
vt 0.617200 0.593800
vt 0.429700 0.582000
vt 0.460900 0.570300
vt 0.429700 0.578100
vt 0.398400 0.593800
vt 0.507800 0.531300
vn 0.7953 0.5992 0.0924
vn -0.8894 0.4459 0.1005
vn -0.0010 0.9089 0.4171
vn -0.4408 0.6559 -0.6128
vn -0.8107 -0.1387 -0.5688
vn -0.9119 0.0286 -0.4095
vn -0.5933 -0.0016 -0.8050
vn -0.9952 -0.0063 0.0976
vn -0.7601 -0.0234 0.6494
vn -0.5637 -0.3228 0.7603
vn -0.8462 -0.1408 0.5140
vn -0.0052 -0.0393 0.9992
vn -0.7076 -0.0626 0.7039
vn -0.0059 0.1246 0.9922
vn -0.7138 0.3537 0.6045
vn -0.0059 0.1245 0.9922
vn -0.0082 0.4335 0.9011
vn -0.0031 0.7236 0.6902
vn 0.7077 0.3502 0.6137
vn 0.8735 0.2187 0.4349
vn -0.0055 -0.0409 -0.9991
vn -0.0058 0.1101 -0.9939
vn -0.6928 -0.0997 -0.7142
vn 0.6877 -0.1007 -0.7190
vn 0.9191 -0.0989 -0.3815
vn 0.8438 -0.1428 0.5174
vn 0.7024 -0.0641 0.7089
vn -0.6927 -0.0997 -0.7143
vn -0.9205 -0.0964 -0.3786
vn -0.8782 0.2182 0.4256
vn 0.0000 0.7248 0.6890
vn 0.0000 0.0827 0.9966
vn -0.0031 0.7246 -0.6892
vn -0.0000 0.7245 -0.6893
vn -0.8807 0.2051 -0.4269
vn 0.8781 0.2024 -0.4335
vn 0.0000 0.0829 -0.9966
vn -0.8821 0.2054 -0.4240
vn -0.0023 -0.5469 0.8372
vn -0.0034 -0.7079 0.7063
vn -0.5525 -0.5375 0.6370
vn 0.5491 -0.5370 0.6404
vn 0.5615 -0.3236 0.7616
vn -0.0023 -0.1673 0.9859
vn 0.7575 -0.0235 0.6525
vn -0.7317 0.4073 0.5466
vn -0.8169 0.4442 0.3678
vn -0.8890 0.4580 0.0008
vn -0.0023 -0.1674 0.9859
vn -0.0047 0.0537 0.9985
vn 0.7575 -0.0235 0.6524
vn 0.9645 0.0474 0.2597
vn -0.7600 -0.0234 0.6495
vn -0.9647 0.0491 0.2586
vn -0.7361 0.0179 0.6766
vn -0.0037 -0.0521 0.9986
vn -0.0034 -0.5705 0.8213
vn -0.8894 0.4459 0.1006
vn -0.0009 0.9089 0.4171
vn -0.0013 -0.1987 -0.9801
vn -0.0051 -0.1642 -0.9864
vn 0.8009 -0.1363 -0.5831
vn 0.5786 0.0008 -0.8156
vn -0.0035 0.1073 -0.9942
vn 0.9049 0.0280 -0.4247
vn -0.9952 -0.0064 0.0976
vn -0.7685 0.6076 -0.2006
vn -0.9632 -0.1561 -0.2189
vn -0.9903 0.1387 -0.0036
vn -0.9815 -0.1914 -0.0065
vn -0.0048 -0.8599 -0.5104
vn -0.0060 -1.0000 -0.0034
vn -0.8782 0.2182 0.4255
vn -0.9674 -0.1623 0.1946
vn -0.8990 -0.0344 0.4367
vn -0.7898 0.2849 -0.5432
vn -0.7076 -0.0626 0.7038
vn -0.9054 -0.0380 -0.4228
vn -0.8821 0.2054 -0.4239
vn -0.7758 0.5719 0.2667
vn -0.7477 0.6144 0.2520
vn -0.9428 0.3039 0.1369
vn -0.8257 0.5204 0.2179
vn -0.7361 0.0180 0.6766
vn -0.3549 0.8445 -0.4010
vn -0.9475 0.3055 0.0946
vn -0.9475 0.3055 0.0947
vn -0.8131 0.5171 0.2673
vn -0.6288 0.6850 0.3680
vn -0.8169 0.4443 0.3678
vn -0.6665 0.5807 0.4675
vn -0.7962 0.3925 0.4604
vn -0.7479 0.6149 0.2501
vn -0.8857 -0.1927 0.4224
vn -0.9551 -0.1931 -0.2248
vn -0.7464 -0.2382 0.6214
vn -0.7756 0.6295 0.0468
vn -0.9428 0.3038 0.1369
vn -0.8387 -0.4755 -0.2656
vn -0.3842 -0.6221 -0.6822
vn -0.8839 -0.4675 -0.0154
vn -0.8517 0.0130 0.5239
vn -0.7474 0.2563 -0.6130
vn -0.7859 -0.3441 0.5138
vn -0.6765 0.6233 -0.3922
vn -0.8851 0.4577 -0.0838
vn -0.3809 -0.7917 -0.4777
vn -0.7860 -0.6097 0.1023
vn -0.9565 -0.0595 0.2857
vn -0.0033 -0.5704 0.8214
vn -0.4958 -0.8461 -0.1957
vn -0.7758 0.5719 0.2666
vn -0.1546 -0.3020 0.9407
vn 0.1356 -0.1922 0.9719
vn 0.1357 -0.1921 0.9719
vn 0.7515 0.0447 0.6582
vn -0.8726 0.0621 -0.4845
vn -0.8632 -0.3592 0.3548
vn -0.0082 0.4334 -0.9011
vn 0.0000 0.0582 0.9983
vn -0.0153 -0.0249 0.9996
vn -0.0153 -0.0248 0.9996
vn -0.0049 -0.8692 0.4944
vn -0.0073 -0.7925 0.6098
vn -0.0052 -0.4445 -0.8958
vn -0.7898 0.2850 -0.5432
vn 0.7849 0.2819 -0.5518
vn -0.0098 -0.5024 0.8646
vn -0.0075 -0.7163 0.6977
vn 0.0000 -0.0831 -0.9965
vn 0.9005 -0.0342 -0.4334
vn 0.0000 0.0586 -0.9983
vn 0.9005 -0.0341 -0.4334
vn -0.0075 -0.7163 0.6978
vn 0.9654 -0.1665 0.2008
vn -0.0071 -0.8017 -0.5977
vn -0.0074 -0.7264 -0.6872
vn 0.9599 -0.1586 -0.2311
vn 0.9801 -0.1985 -0.0065
vn -0.9903 0.1387 -0.0037
vn -0.8782 0.2183 0.4255
vn -0.0074 -0.7265 -0.6872
vn -0.8137 0.0000 -0.5813
vn -0.8064 -0.0000 0.5914
vn -0.8136 -0.0000 -0.5814
vn -0.0057 0.0000 -1.0000
vn 0.7181 -0.0000 -0.6959
vn -0.8063 0.0000 0.5915
vn 0.0388 0.0000 0.9992
vn 0.0387 0.0000 0.9992
vn -0.7858 -0.3441 0.5138
vn -0.5686 -0.6903 0.4474
vn -0.7839 -0.6163 0.0759
vn -0.5233 0.3373 0.7825
vn -0.3973 -0.8936 0.2091
vn -0.5233 0.3374 0.7825
vn -0.1967 -0.3703 0.9079
vn 0.8248 -0.2274 0.5177
vn 0.8210 0.2779 -0.4987
vn -0.8970 0.1742 -0.4063
vn 0.8660 -0.3405 0.3661
vn -0.2944 -0.9210 0.2551
vn 0.5753 -0.7997 0.1720
vn -0.8890 0.4580 0.0009
vn -0.4110 0.4828 -0.7733
vn -0.8637 -0.1198 -0.4895
vn -0.8726 0.0620 -0.4845
vn -0.7577 -0.5524 0.3474
vn -0.2943 -0.9210 0.2551
vn -0.7590 0.1707 -0.6283
vn 0.5640 -0.7681 0.3033
vn -0.7839 -0.6163 0.0760
vn -0.5686 -0.6904 0.4474
vn 0.7852 -0.3834 0.4863
vn -0.7838 -0.6163 0.0758
vn 0.5639 -0.7681 0.3033
vn 0.7842 -0.6204 0.0066
vn 0.7843 -0.6204 0.0067
vn 0.8475 -0.1340 0.5135
vn -0.8517 0.0129 0.5239
vn 0.4032 -0.0498 0.9138
vn -0.3965 -0.5642 0.7242
vn 0.6014 -0.7572 -0.2549
vn 0.8745 0.2553 -0.4124
vn 0.3865 0.0054 -0.9223
vn 0.8689 0.0781 -0.4887
vn -0.3746 0.1653 -0.9124
vn 0.3658 -0.2153 -0.9055
vn 0.3798 0.5827 -0.7185
vn 0.8745 0.2554 -0.4124
vn 0.4644 -0.7620 0.4514
vn -0.7577 -0.5525 0.3474
vn -0.4978 -0.6849 -0.5320
vn 0.7699 -0.6371 0.0366
vn 0.3658 -0.2152 -0.9055
vn -0.7887 -0.2167 -0.5753
vn -0.3746 0.1652 -0.9124
vn 0.7976 0.0705 -0.5990
vn 0.7993 -0.1375 -0.5850
vn -0.4978 -0.6849 -0.5321
vn -0.7590 0.1706 -0.6283
vn 0.4644 -0.7619 0.4514
vn 0.7994 -0.1374 -0.5849
vn -0.7577 -0.5525 0.3475
vn 0.7507 0.1819 -0.6351
vn 0.7818 0.4897 -0.3861
vn -0.3788 -0.3164 -0.8697
vn -0.3788 -0.3165 -0.8697
vn 0.7507 0.1820 -0.6351
vn 0.3788 -0.6982 -0.6075
vn 0.8505 -0.3479 -0.3945
vn 0.3776 -0.8732 -0.3083
vn 0.9027 -0.3864 -0.1894
vn 0.3693 -0.9232 -0.1061
vn 0.8144 -0.5803 -0.0033
vn 0.4110 -0.5490 0.7278
vn -0.3972 -0.8936 0.2091
vn 0.7674 0.2806 0.5765
vn 0.8793 -0.0140 0.4761
vn -0.3966 -0.5642 0.7242
vn 0.4032 -0.0499 0.9138
vn 0.6014 -0.7572 -0.2548
vn 0.0448 -0.5631 -0.8252
vn 0.9026 -0.3865 -0.1894
vn 0.4109 -0.5490 0.7278
vn 0.8793 -0.0141 0.4761
vn -0.9565 -0.0595 0.2858
vn 0.5291 0.4083 -0.7439
vn 0.7953 0.5992 0.0923
vn -0.4408 0.6559 -0.6127
vn -0.8326 0.5213 -0.1874
vn -0.8325 0.5213 -0.1874
vn -0.8637 -0.1199 -0.4895
vn -0.7887 -0.2167 -0.5754
vn 0.1356 -0.1921 0.9720
vn 0.8370 -0.1040 0.5373
vn 0.6943 0.6910 -0.2011
vn 0.8009 -0.1364 -0.5831
vn 0.6944 0.6909 -0.2012
vn 0.8008 -0.1364 -0.5831
vn 0.9951 -0.0054 0.0992
vn 0.9951 -0.0054 0.0991
vn 0.8437 -0.1429 0.5174
vn 0.7077 0.3501 0.6137
vn -0.0082 0.4334 0.9011
vn -0.0032 0.7236 0.6902
vn 0.8209 0.4408 0.3631
vn 0.7370 0.4076 0.5392
vn 0.8836 0.4681 -0.0078
vn 0.9263 0.3559 -0.1238
vn 0.6944 0.6910 -0.2011
vn 0.9909 0.1344 -0.0038
vn 0.8924 -0.0297 0.4502
vn 0.9909 0.1345 -0.0038
vn 0.7513 0.6105 0.2506
vn 0.7656 0.5851 0.2676
vn 0.9417 0.3160 0.1158
vn 0.8273 0.5181 0.2171
vn 0.7513 0.6105 0.2507
vn 0.7514 0.0447 0.6583
vn 0.9486 0.3038 0.0884
vn 0.6317 0.6827 0.3672
vn 0.8138 0.5127 0.2737
vn 0.6713 0.5776 0.4645
vn 0.6713 0.5776 0.4644
vn 0.7965 0.3923 0.4601
vn 0.7513 0.6106 0.2506
vn 0.6944 0.6909 -0.2011
vn 0.7722 0.6337 0.0456
vn 0.9417 0.3160 0.1159
vn 0.8177 0.5609 -0.1296
vn 0.8836 0.4682 -0.0078
vn 0.8792 -0.0140 0.4762
vn 0.9741 -0.1743 -0.1440
vn 0.7656 0.5851 0.2675
vn 0.7515 0.0446 0.6583
vn 0.7515 0.0447 0.6583
vn 0.8369 -0.1040 0.5373
vn 0.7849 0.2820 -0.5518
vn -0.0058 0.1102 -0.9939
vn 0.7077 0.3502 0.6136
vn 0.8438 -0.1429 0.5174
vn 0.9801 -0.1984 -0.0065
vn 0.8924 -0.0297 0.4503
vn 0.7181 -0.0000 -0.6960
vn 0.9227 -0.0000 0.3856
vn 0.9227 -0.0003 0.3856
vn 0.7818 0.4896 -0.3861
vn 0.4110 -0.5489 0.7279
vn 0.8661 -0.3405 0.3661
vn 0.8689 0.0781 -0.4888
vn 0.7993 -0.1374 -0.5850
vn 0.7993 -0.1374 -0.5849
vn 0.7699 -0.6371 0.0365
vn 0.8505 -0.3479 -0.3944
vn 0.3788 -0.6982 -0.6074
vn 0.7723 0.6337 0.0456
vn 0.8836 0.4682 -0.0077
vn 0.8176 0.5609 -0.1297
vn 0.8273 0.5181 0.2172
vn 0.6713 0.5777 0.4644
vn 0.5290 0.4082 -0.7440
vn -0.8894 0.4460 0.1005
vn 0.9971 0.0049 0.0763
vn 0.0639 -0.1683 -0.9837
vn -0.7487 -0.1321 -0.6496
vn -0.0641 -0.1420 -0.9878
vn 0.7714 -0.1328 -0.6223
vn 0.7065 -0.1745 -0.6858
vn 0.8776 -0.0867 -0.4715
vn 0.0578 -0.1066 -0.9926
vn 0.7065 -0.1745 -0.6859
vn 0.8248 -0.2274 0.5176
vn 0.0460 -0.1345 -0.9898
vn -0.6676 -0.1571 -0.7277
vn -0.0910 -0.1521 0.9842
vn 0.7048 -0.1174 0.6996
vn -0.9376 -0.0640 0.3419
vn -0.0642 -0.1420 -0.9878
vn -0.0910 -0.1522 0.9842
vn -0.7381 -0.0645 -0.6717
vn -0.9376 -0.0639 0.3419
vn -0.7381 -0.0645 -0.6716
vn -0.6676 -0.1571 -0.7278
vn -0.7381 -0.0644 -0.6716
vn -0.8325 0.5213 -0.1875
usemtl w22sw08_TEX_w22sw08
s 1
f 1/1/1 2/2/2 3/3/3
f 2/2/2 1/1/1 4/4/4
f 5/5/5 6/6/6 7/7/7
f 8/8/8 9/9/9 10/10/10
f 11/11/11 12/12/12 13/13/13
f 12/12/12 11/11/11 14/14/14
f 15/15/15 14/14/14 11/11/11
f 14/14/16 15/15/15 16/16/17
f 17/17/18 16/16/17 15/15/15
f 16/16/17 17/17/18 18/18/19
f 19/19/20 18/18/19 17/17/18
f 20/20/21 21/21/22 22/22/23
f 21/21/22 20/20/21 23/23/24
f 24/24/25 23/23/24 20/20/21
f 23/23/24 24/24/25 25/25/26
f 26/26/27 25/25/26 24/24/25
f 22/22/28 27/27/29 20/20/21
f 28/28/30 29/29/31 17/17/18
f 29/29/31 28/28/30 30/30/32
f 31/31/33 32/32/34 33/33/35
f 32/32/34 31/31/33 34/34/36
f 35/35/37 33/33/38 32/32/34
f 36/36/39 37/37/40 38/38/41
f 37/37/40 36/36/39 39/39/42
f 40/40/43 39/39/42 36/36/39
f 36/36/39 38/38/41 10/41/10
f 10/41/10 41/42/44 36/36/39
f 40/40/43 36/36/39 41/42/44
f 41/42/44 42/43/45 40/40/43
f 43/44/46 44/45/47 45/46/48
f 41/42/49 10/41/10 9/47/9
f 9/47/9 46/48/50 41/42/49
f 42/43/51 41/42/49 46/48/50
f 46/48/50 47/49/52 42/43/51
f 46/48/50 9/47/53 48/50/54
f 48/50/54 49/51/55 46/48/50
f 50/52/56 46/48/50 49/51/55
f 51/53/57 2/54/58 8/8/8
f 2/54/58 51/53/57 3/55/59
f 52/56/60 53/57/61 5/58/5
f 53/57/61 52/56/60 54/59/62
f 55/60/63 54/59/62 52/56/60
f 52/56/60 5/58/5 7/61/7
f 7/61/7 56/62/64 52/56/60
f 55/60/63 52/56/60 56/62/64
f 56/62/64 57/63/65 55/60/63
f 56/62/64 7/61/7 6/64/6
f 6/64/6 4/65/4 56/62/64
f 8/8/66 10/10/10 38/66/41
f 58/67/67 48/68/54 9/9/53
f 58/67/67 9/9/53 8/8/8
f 59/69/68 60/70/69 33/33/35
f 60/70/69 59/69/68 61/71/70
f 62/72/71 61/71/70 59/69/68
f 61/71/70 62/72/71 63/73/72
f 28/28/73 64/74/74 65/75/75
f 11/11/11 27/27/29 22/22/28
f 22/22/28 66/76/76 11/11/11
f 15/15/15 11/11/11 66/76/76
f 66/76/76 60/70/69 15/15/15
f 11/11/11 13/13/77 27/27/29
f 67/77/78 59/69/68 33/33/79
f 68/78/80 69/79/81 70/80/82
f 69/79/81 68/78/80 71/81/83
f 49/82/84 71/81/83 68/78/80
f 58/83/67 73/84/85 72/85/86
f 72/85/87 74/86/88 58/83/67
f 75/87/89 58/83/67 74/86/88
f 74/86/88 44/88/90 75/87/89
f 76/89/91 75/87/89 44/88/90
f 44/88/47 43/90/46 76/89/91
f 77/91/92 76/89/91 43/90/46
f 43/90/46 69/92/93 77/91/92
f 78/93/94 79/94/95 80/95/96
f 69/79/93 81/96/97 70/80/98
f 81/96/97 69/79/93 45/97/48
f 82/98/99 84/99/100 83/100/101
f 83/100/101 85/101/102 82/98/99
f 86/102/103 82/98/99 85/101/102
f 85/101/102 87/103/104 86/102/103
f 88/104/105 86/102/103 87/103/104
f 87/103/104 89/105/106 88/104/105
f 83/100/101 91/106/107 90/107/108
f 90/107/108 92/108/109 83/100/101
f 8/8/8 38/66/41 51/53/57
f 51/109/57 38/38/41 37/37/40
f 37/37/40 39/39/42 51/109/110
f 79/94/95 70/110/82 93/111/111
f 70/110/82 79/94/95 68/112/112
f 49/113/55 68/112/112 79/94/95
f 49/113/55 79/94/95 78/93/94
f 78/93/94 94/114/113 49/113/55
f 50/52/56 49/51/55 95/115/114
f 95/115/115 96/116/116 50/52/56
f 46/48/50 50/52/56 96/116/116
f 72/117/87 73/118/85 97/119/117
f 97/119/117 98/120/118 72/117/87
f 21/21/22 66/76/76 22/22/28
f 66/76/76 21/21/22 99/121/119
f 28/28/73 100/122/120 30/30/32
f 100/122/120 28/28/73 101/123/121
f 65/75/75 101/123/122 28/28/73
f 102/124/123 103/125/124 64/74/74
f 64/74/74 61/71/70 102/124/123
f 63/73/72 102/124/123 61/71/70
f 59/69/68 67/77/78 104/126/125
f 15/15/15 28/28/73 17/17/18
f 28/28/73 15/15/15 60/70/69
f 66/76/126 31/31/33 33/33/35
f 33/33/35 60/70/69 66/76/126
f 31/31/33 66/76/76 99/121/119
f 99/121/119 105/127/127 31/31/33
f 106/128/128 101/123/122 65/75/75
f 65/75/75 64/74/74 106/128/128
f 107/129/129 106/128/128 64/74/74
f 104/126/125 67/77/78 108/130/130
f 108/130/130 109/131/131 104/126/125
f 33/33/38 108/130/130 67/77/78
f 108/130/130 33/33/38 110/132/132
f 110/132/132 33/33/38 35/35/37
f 35/35/37 34/34/36 110/132/132
f 108/130/130 110/132/132 34/34/36
f 34/34/36 109/131/133 108/130/130
f 107/129/134 64/74/74 103/125/124
f 103/125/124 111/133/135 107/129/129
f 106/128/128 107/129/129 111/133/135
f 112/134/136 59/69/68 113/135/137
f 113/135/137 114/136/138 112/134/136
f 62/72/71 112/134/136 114/136/138
f 114/136/138 115/137/139 62/72/71
f 59/69/68 112/134/136 62/72/71
f 60/70/140 64/74/74 28/28/141
f 64/74/74 60/70/140 61/71/70
f 113/135/142 59/69/68 104/126/125
f 104/126/125 114/136/138 113/135/142
f 116/138/143 20/139/21 27/140/29
f 27/140/29 117/141/144 116/138/143
f 20/139/21 116/138/145 118/142/146
f 118/142/146 119/143/147 20/139/21
f 117/141/148 27/140/29 13/144/77
f 13/144/77 120/145/149 117/141/148
f 120/145/150 13/144/13 12/146/12
f 12/146/12 26/147/27 120/145/150
f 89/105/106 87/103/151 121/148/152
f 121/148/152 122/149/153 89/105/106
f 81/150/97 89/105/106 122/149/153
f 122/149/153 70/110/98 81/150/97
f 123/151/154 90/107/108 124/152/155
f 90/107/108 123/151/156 92/108/109
f 94/114/113 80/95/96 125/153/157
f 125/153/157 126/154/158 94/114/113
f 94/114/113 78/93/94 80/95/96
f 98/155/118 127/156/159 128/157/160
f 127/156/159 98/155/118 129/158/161
f 130/159/162 129/158/161 98/155/118
f 129/158/161 130/159/162 131/160/163
f 69/161/93 43/44/46 45/46/164
f 97/119/117 133/162/165 132/163/166
f 132/163/166 98/120/118 97/119/167
f 98/120/118 134/164/168 130/165/169
f 134/164/168 98/120/118 135/166/170
f 136/167/171 122/168/172 121/169/173
f 121/169/173 137/170/174 136/167/171
f 122/168/175 136/167/176 138/171/177
f 138/171/178 93/172/111 122/168/153
f 139/173/179 87/174/104 85/175/102
f 85/175/180 140/176/181 139/173/179
f 87/174/104 139/173/179 137/170/174
f 137/170/174 121/169/173 87/174/104
f 85/175/180 141/177/182 140/176/181
f 138/171/178 142/178/183 93/172/111
f 143/179/184 133/180/165 97/181/117
f 133/180/165 143/179/184 144/182/185
f 145/183/186 146/184/187 132/185/166
f 146/184/187 145/183/186 147/186/188
f 148/187/189 97/188/117 73/189/85
f 97/188/117 148/187/189 143/190/190
f 149/191/191 134/192/192 150/193/193
f 134/192/192 149/191/191 151/194/194
f 144/195/185 132/196/166 133/197/165
f 132/196/166 144/195/185 145/198/186
f 147/199/195 152/200/196 146/201/197
f 152/200/196 147/199/195 153/202/198
f 154/203/199 150/204/200 135/205/201
f 150/204/200 154/203/199 149/206/202
f 153/207/198 135/208/201 152/209/196
f 135/208/201 153/207/198 154/210/203
f 151/211/194 130/212/169 134/213/204
f 130/212/169 151/211/194 131/214/163
f 86/215/103 88/216/105 128/217/160
f 128/217/160 127/218/159 86/215/103
f 155/219/205 86/215/103 127/218/159
f 127/218/159 156/220/206 155/219/205
f 155/219/205 157/221/207 86/215/103
f 157/221/208 155/219/209 158/222/210
f 158/223/210 82/224/99 157/225/208
f 82/224/99 158/223/210 159/226/211
f 160/227/212 83/228/101 84/229/100
f 83/228/101 160/227/212 161/230/213
f 162/231/214 90/232/108 91/233/107
f 90/232/108 162/231/214 163/234/215
f 164/235/216 123/236/156 124/237/217
f 123/236/156 164/235/216 165/238/218
f 166/239/219 141/240/220 92/241/109
f 141/240/220 166/239/219 140/242/221
f 142/178/222 167/243/223 93/172/111
f 167/243/223 79/244/95 93/172/111
f 159/245/211 84/246/100 82/247/99
f 84/246/100 159/245/211 160/248/212
f 161/249/224 91/250/107 83/251/101
f 91/250/107 161/249/224 162/252/214
f 163/253/215 124/254/155 90/255/108
f 124/254/155 163/253/215 164/256/225
f 123/257/156 166/258/226 92/259/227
f 166/258/226 123/257/156 165/260/218
f 168/261/228 56/62/64 4/65/4
f 56/62/64 168/261/228 57/63/65
f 1/1/229 168/262/228 4/4/230
f 74/263/88 128/264/160 169/265/231
f 169/265/232 44/45/47 74/263/88
f 72/117/87 128/264/160 74/263/88
f 128/264/160 72/117/87 98/120/118
f 132/163/233 146/266/197 152/267/234
f 98/120/118 132/163/166 152/267/196
f 98/120/118 152/267/196 135/166/170
f 135/166/201 150/268/200 134/164/168
f 44/45/47 169/265/232 45/46/48
f 86/102/103 157/269/208 82/98/99
f 85/101/102 92/108/109 141/270/220
f 92/108/109 85/101/102 83/100/101
f 70/110/98 122/149/153 93/111/111
f 45/97/48 169/271/231 89/272/106
f 45/97/48 89/272/106 81/96/97
f 95/273/235 49/113/55 94/114/113
f 94/114/113 170/274/236 95/273/115
f 48/68/54 71/275/83 49/276/55
f 71/275/83 48/68/54 69/277/93
f 48/68/54 77/278/92 69/277/93
f 48/68/54 76/279/91 77/278/92
f 76/279/91 48/68/54 75/280/89
f 58/67/67 75/280/89 48/68/54
f 53/57/61 58/281/67 5/58/5
f 58/281/67 53/57/61 171/282/237
f 54/59/238 171/282/237 53/57/61
f 171/283/239 148/284/189 73/84/85
f 171/283/239 73/84/85 58/83/67
f 57/285/65 54/286/238 55/287/63
f 54/286/240 57/285/65 172/288/241
f 172/288/242 40/289/43 42/290/45
f 40/289/43 172/288/242 39/291/42
f 12/12/12 25/25/243 26/26/27
f 14/14/14 25/25/26 12/12/12
f 25/25/26 14/14/14 18/18/244
f 16/16/245 18/18/244 14/14/14
f 19/19/20 17/17/246 29/29/31
f 35/35/37 32/32/34 34/34/36
f 173/292/247 175/293/248 174/294/249
f 174/294/249 176/295/250 173/292/247
f 172/288/242 1/296/1 51/53/110
f 51/53/110 39/291/42 172/288/242
f 51/53/110 1/296/1 3/55/59
f 171/297/251 42/290/51 47/298/52
f 42/290/51 171/297/251 172/288/241
f 34/34/36 177/299/252 114/136/138
f 114/136/138 109/131/131 34/34/36
f 114/136/138 177/299/252 115/137/139
f 111/133/135 19/19/20 178/300/253
f 19/19/20 111/133/135 177/299/254
f 115/137/139 177/299/254 111/133/135
f 179/301/255 180/302/256 181/303/257
f 182/304/258 180/302/256 179/301/259
f 180/302/256 182/304/258 96/305/260
f 148/284/189 171/283/251 183/306/261
f 184/307/262 185/308/263 171/283/237
f 185/308/263 184/307/262 173/309/247
f 186/310/264 173/309/247 184/307/262
f 173/309/247 186/310/265 175/311/248
f 187/312/266 175/311/248 186/310/265
f 175/311/248 187/312/266 179/313/267
f 171/283/268 185/308/263 183/306/261
f 188/314/269 179/301/255 181/303/270
f 174/315/249 179/301/255 188/314/269
f 188/314/269 189/316/271 174/315/272
f 161/317/213 160/318/212 159/319/211
f 159/319/211 139/320/179 161/317/213
f 166/321/219 161/317/213 139/320/179
f 163/322/215 162/323/214 161/317/224
f 161/317/224 166/321/273 163/322/215
f 181/324/257 190/325/274 142/326/183
f 190/325/274 181/324/257 180/327/275
f 96/328/276 190/325/274 180/327/256
f 190/325/274 96/328/277 170/329/278
f 148/330/189 183/331/261 143/332/184
f 105/127/279 21/21/280 23/23/24
f 21/21/280 105/127/127 99/121/119
f 19/19/20 30/30/32 100/122/120
f 30/30/32 19/19/20 29/29/31
f 25/25/26 105/127/279 23/23/24
f 18/18/281 105/127/279 25/25/282
f 105/127/279 18/18/19 177/299/254
f 103/125/124 102/124/123 111/133/135
f 62/72/71 115/137/139 63/73/72
f 114/136/138 104/126/125 109/131/131
f 34/34/36 31/31/33 105/127/127
f 105/127/279 177/299/254 34/34/36
f 101/123/122 178/300/253 19/19/20
f 178/300/253 101/123/122 106/128/128
f 19/19/20 100/122/120 101/123/121
f 102/124/123 115/137/139 111/133/135
f 115/137/283 102/124/123 63/73/72
f 18/18/19 19/19/20 177/299/252
f 111/133/135 178/300/284 106/128/128
f 24/333/25 20/139/21 119/143/147
f 119/143/285 191/334/286 24/333/25
f 26/147/27 24/333/25 191/334/286
f 191/334/287 120/145/149 26/147/27
f 189/335/271 137/336/174 156/337/288
f 136/338/176 137/336/174 189/335/271
f 189/335/271 138/339/178 136/338/176
f 163/322/215 165/340/218 164/341/289
f 165/340/218 163/322/215 166/321/273
f 179/342/255 174/294/249 175/293/248
f 144/343/185 143/332/184 145/344/186
f 151/345/194 129/346/290 131/347/163
f 167/243/223 142/178/183 190/348/274
f 127/349/159 185/350/263 176/295/250
f 185/350/263 127/349/159 183/331/261
f 129/346/161 183/331/261 127/349/159
f 143/332/184 183/331/261 129/346/161
f 129/346/161 145/344/186 143/332/184
f 145/344/291 153/351/198 147/352/195
f 129/346/161 153/351/198 145/344/186
f 153/351/198 129/346/290 154/353/292
f 154/353/293 151/345/194 149/354/191
f 129/346/290 151/345/294 154/353/199
f 173/292/247 176/295/250 185/350/263
f 137/336/174 155/355/205 156/337/206
f 155/355/205 137/336/174 139/320/179
f 155/355/209 159/319/295 158/356/296
f 139/320/179 159/319/211 155/355/205
f 139/320/179 140/357/181 166/321/219
f 138/339/178 189/335/271 188/358/269
f 181/324/270 138/339/178 188/358/297
f 138/339/178 181/324/270 142/326/183
f 176/359/250 174/315/298 189/316/299
f 189/316/271 127/218/159 176/359/250
f 96/328/116 95/273/115 170/329/236
f 182/360/258 47/298/52 96/361/277
f 47/298/52 182/360/300 179/362/259
f 47/298/52 179/362/259 187/363/266
f 186/364/264 47/298/52 187/363/266
f 184/365/262 47/298/52 186/364/301
f 47/298/52 184/365/262 171/297/239
f 96/116/116 47/49/52 46/48/50
f 1/296/1 57/285/65 168/366/302
f 57/285/65 1/296/1 172/288/242
f 171/297/251 54/286/238 172/288/241
f 6/6/6 2/54/303 4/367/4
f 2/54/303 6/6/6 8/8/8
f 8/8/8 6/6/6 5/5/5
f 5/5/5 58/67/67 8/8/8
f 190/325/274 170/329/236 192/368/304
f 193/369/305 195/370/306 194/371/307
f 194/371/307 196/372/308 193/369/305
f 197/373/309 198/374/310 199/375/311
f 198/374/310 197/373/312 126/154/313
f 196/372/308 126/154/313 197/373/312
f 126/154/313 196/372/308 192/376/304
f 197/373/312 193/369/305 196/372/308
f 193/369/305 197/373/312 200/377/314
f 193/369/305 200/377/314 201/378/315
f 126/379/313 203/380/316 202/381/317
f 202/381/317 198/382/310 126/379/313
f 203/380/316 126/379/313 125/383/157
f 125/383/157 80/384/96 203/380/316
f 204/385/318 203/380/316 80/384/96
f 80/384/96 79/386/95 204/385/318
f 195/387/306 204/385/318 79/386/95
f 167/388/223 196/389/308 194/390/319
f 194/390/307 79/391/95 167/388/223
f 167/388/223 190/392/274 196/389/308
f 194/390/307 195/393/306 79/391/95
f 202/381/317 120/394/149 191/395/286
f 191/395/286 198/382/310 202/381/317
f 120/394/150 202/381/317 203/380/320
f 203/380/320 117/396/148 120/394/150
f 118/397/146 198/382/310 119/398/147
f 198/382/310 118/397/146 199/399/311
f 205/400/321 199/399/311 118/397/146
f 191/395/286 119/398/285 198/382/310
f 117/396/148 203/380/320 204/385/322
f 204/385/318 116/401/143 117/396/144
f 118/397/146 116/402/145 205/400/323
f 204/385/318 205/403/323 116/401/143
f 201/404/324 204/385/318 195/387/306
f 204/385/318 201/404/324 205/403/325
f 199/399/311 200/405/314 197/406/312
f 193/407/305 201/408/324 195/393/306
f 199/399/311 201/408/315 200/405/314
f 201/408/315 199/399/311 205/400/323
f 190/392/274 192/409/304 196/389/308
f 170/274/236 94/114/113 126/154/158
f 192/376/304 170/274/236 126/154/313
f 169/271/231 128/217/160 88/216/105
f 169/271/326 88/216/105 89/272/106
f 127/218/159 189/316/271 156/220/206
