# Blender v2.79 (sub 0) OBJ File: ''
# www.blender.org
mtllib w22sw14.mtl
o MDL_w22sw14_bod00
v -0.029500 1.080200 0.190100
v 0.000000 1.059800 0.260000
v 0.000000 0.910000 0.190100
v -0.029500 1.239800 0.240100
v -0.029500 0.929800 0.119800
v 0.000000 0.784800 0.120800
v -0.029500 1.860100 0.229900
v 0.000000 2.020200 0.249800
v -0.029500 2.010000 0.170300
v 0.000000 1.860100 0.300200
v -0.029500 1.639900 0.264800
v 0.000000 1.639900 0.335200
v -0.029500 1.410000 0.270200
v 0.000000 1.410000 0.340000
v 0.000000 1.230100 0.309900
v -0.039700 0.809000 -0.069800
v 0.039700 0.970100 0.000000
v 0.039700 0.809000 -0.069800
v -0.039700 0.970100 0.000000
v -0.044600 1.109800 0.050000
v 0.050000 1.260200 0.080000
v 0.045100 1.109800 0.050000
v -0.050000 1.260200 0.080000
v -0.050500 1.321900 0.080000
v -0.029500 0.809000 0.050000
v -0.029500 2.159800 0.090200
v -0.059600 2.050300 -0.109600
v -0.049900 2.300000 0.099900
v -0.059600 1.963800 -0.050000
v -0.034900 1.890200 0.179900
v -0.069800 2.260300 -0.149900
v 0.069800 2.260300 -0.149900
v 0.065000 2.150200 -0.209500
v -0.065000 2.150200 -0.209500
v 0.060200 2.050300 -0.109600
v -0.019900 2.360200 0.340000
v 0.000000 2.159800 0.179900
v 0.000000 2.311800 0.279800
v 0.030100 0.929800 0.119800
v 0.030100 0.809000 0.050000
v 0.030100 2.010000 0.170300
v 0.030100 1.860100 0.229900
v 0.030100 1.639900 0.264800
v 0.030100 1.410000 0.270200
v 0.030100 1.239800 0.240100
v 0.030100 1.080200 0.190100
v 0.050000 2.300000 0.099900
v 0.030100 2.159800 0.090200
v 0.019900 2.360200 0.340000
v 0.019900 2.419800 0.340000
v -0.019900 2.419800 0.340000
v 0.000000 2.390200 0.409800
v 0.039700 2.459000 -0.529600
v -0.079500 2.390200 -0.529600
v -0.039700 2.459000 -0.529600
v 0.080000 2.390200 -0.529600
v 0.039700 2.390200 0.340000
v -0.039700 2.321000 -0.529600
v 0.039700 2.321000 -0.529600
v 0.069800 2.510000 -0.409800
v 0.140200 2.390200 -0.149900
v 0.140200 2.390200 -0.409800
v 0.069800 2.510000 -0.149900
v -0.069800 2.510000 -0.149900
v -0.069800 2.510000 -0.409800
v -0.139600 2.390200 -0.149900
v -0.139600 2.390200 -0.409800
v -0.069800 2.260300 -0.409800
v 0.050000 2.479900 0.099900
v 0.099900 2.390200 0.099900
v -0.049900 2.479900 0.099900
v -0.039700 2.390200 0.340000
v -0.099900 2.390200 0.099900
v 0.094500 2.390200 -0.459800
v 0.047300 2.471900 -0.459800
v -0.046700 2.471900 -0.459800
v -0.094000 2.390200 -0.459800
v -0.046700 2.308600 -0.459800
v 0.047300 2.308600 -0.459800
v 0.069800 2.260300 -0.409800
v -0.033300 1.802100 -0.359900
v 0.066600 1.860100 -0.359900
v 0.033300 1.802100 -0.359900
v -0.066600 1.860100 -0.359900
v 0.033300 1.917600 -0.359900
v -0.033300 1.917600 -0.359900
v -0.059600 1.755900 -0.260000
v -0.119800 1.860100 -0.050000
v -0.119800 1.860100 -0.260000
v -0.059600 1.755900 -0.050000
v 0.060200 1.755900 -0.260000
v 0.060200 1.755900 -0.050000
v 0.119800 1.860100 -0.050000
v 0.119800 1.860100 -0.260000
v 0.060200 1.963800 -0.260000
v 0.060200 1.963800 -0.050000
v -0.034900 1.830000 0.179900
v -0.054800 1.775300 0.019900
v 0.054800 1.775300 0.019900
v -0.078400 1.860100 -0.299700
v -0.039200 1.791900 -0.299700
v 0.039200 1.791900 -0.299700
v 0.078400 1.860100 -0.299700
v 0.039200 1.928300 -0.299700
v -0.039200 1.928300 -0.299700
v -0.059600 1.963800 -0.260000
v 0.034900 1.890200 0.179900
v 0.028500 1.458900 -0.189600
v -0.049900 1.410000 -0.189600
v -0.027900 1.458900 -0.189600
v 0.056400 1.410000 -0.189600
v -0.027900 1.361100 -0.189600
v 0.028500 1.361100 -0.189600
v 0.102100 1.410000 -0.109600
v 0.102100 1.410000 0.080000
v 0.051000 1.498100 0.080000
v 0.051000 1.321900 -0.109600
v 0.051000 1.498100 -0.109600
v -0.050500 1.498100 0.080000
v -0.050500 1.498100 -0.109600
v -0.101500 1.410000 0.080000
v -0.101500 1.410000 -0.109600
v 0.035500 1.440100 0.229900
v -0.034900 1.379900 0.229900
v -0.034900 1.440100 0.229900
v 0.066600 1.410000 -0.139600
v 0.033300 1.468000 -0.139600
v 0.033300 1.352000 -0.139600
v -0.033300 1.468000 -0.139600
v -0.066600 1.410000 -0.139600
v -0.033300 1.352000 -0.139600
v -0.050500 1.321900 -0.109600
v 0.051000 1.321900 0.080000
v 0.034900 1.379900 0.229900
v 0.034900 1.830000 0.179900
v 0.053200 1.639900 0.060200
v -0.052600 1.639900 0.060200
v 0.054800 0.610800 0.000000
v 0.039700 0.550100 0.000000
v 0.000000 0.550100 0.050000
v 0.000000 0.550100 -0.050000
v 0.000000 0.610800 -0.069800
v -0.054800 0.610800 0.000000
v 0.000000 0.610800 0.069800
v -0.039700 0.550100 0.000000
v -0.029500 0.010300 0.000000
v 0.030100 0.010300 0.000000
v 0.000000 0.010300 0.039700
v 0.000000 0.010300 -0.039700
v 0.000000 0.110200 0.030100
v 0.019900 0.110200 0.000000
v 0.019900 0.539900 0.000000
v 0.000000 0.539900 0.030100
v -0.019900 0.110200 0.000000
v 0.000000 0.110200 -0.029500
v 0.000000 0.539900 -0.029500
v -0.019900 0.539900 0.000000
v -0.059600 0.610300 0.099900
v -0.119800 0.710200 0.050000
v -0.059600 0.610300 0.050000
v -0.099900 0.710200 0.119800
v -0.059600 0.639800 0.130000
v 0.000000 0.619900 0.149900
v 0.000000 0.700000 0.039700
v 0.060200 0.610300 0.099900
v 0.060200 0.610300 0.050000
v 0.099900 0.710200 0.119800
v 0.119800 0.710200 0.050000
v 0.060200 0.639800 0.130000
v 0.119800 0.710200 -0.109600
v -0.028500 0.758000 -0.209500
v 0.057500 0.710200 -0.209500
v -0.057500 0.710200 -0.209500
v 0.029000 0.758000 -0.209500
v -0.059600 0.610300 -0.109600
v 0.060200 0.610300 -0.109600
v -0.119800 0.710200 -0.109600
v 0.000000 0.740200 0.140200
v 0.029000 0.661800 -0.209500
v -0.028500 0.661800 -0.209500
v 0.039700 0.780000 0.140200
v 0.060200 0.689800 0.220200
v 0.069800 0.790200 0.050000
v 0.030100 0.730000 0.220200
v -0.059600 0.689800 0.220200
v -0.029500 0.730000 0.220200
v 0.000000 0.660200 0.290000
v -0.039700 0.780000 0.140200
v -0.069800 0.790200 0.050000
v -0.069800 0.790200 -0.109600
v -0.036000 0.650000 -0.149900
v 0.036000 0.650000 -0.149900
v -0.072000 0.710200 -0.149900
v -0.039700 0.810100 -0.109600
v 0.036000 0.769800 -0.149900
v -0.036000 0.769800 -0.149900
v 0.039700 0.810100 -0.109600
v 0.072000 0.710200 -0.149900
v 0.069800 0.790200 -0.109600
v -0.039700 0.810100 0.050000
v 0.039700 0.810100 0.050000
v 0.123000 0.912100 0.030100
v 0.186900 1.020100 -0.179900
v 0.112800 0.917000 -0.019900
v 0.133200 0.906200 -0.019900
v 0.203000 1.046900 -0.299700
v 0.133200 0.906200 -0.159500
v 0.112800 0.917000 -0.159500
v -0.186900 1.020100 -0.179900
v -0.112800 0.917000 -0.019900
v -0.123000 0.912100 0.030100
v -0.202500 1.046900 -0.299700
v -0.132700 0.906200 -0.019900
v -0.132700 0.906200 -0.159500
v -0.112800 0.917000 -0.159500
v -0.009700 2.150200 -0.229900
v 0.000000 2.200100 -0.229900
v 0.000000 2.150200 -0.179900
v 0.000000 2.230200 -0.340000
v -0.019900 2.150200 -0.340000
v -0.009700 2.150200 -0.449600
v 0.000000 2.100200 -0.229900
v 0.010200 2.150200 -0.229900
v 0.000000 2.120100 -0.449600
v 0.000000 2.150200 -0.589700
v 0.000000 2.070100 -0.340000
v 0.000000 2.180200 -0.449600
v 0.010200 2.150200 -0.449600
v 0.019900 2.150200 -0.340000
v -0.009700 1.639900 0.030100
v 0.000000 1.689900 0.030100
v 0.000000 1.639900 0.080000
v 0.000000 1.719900 -0.079500
v -0.019900 1.639900 -0.079500
v -0.009700 1.639900 -0.189600
v 0.000000 1.589900 0.030100
v 0.010200 1.639900 0.030100
v 0.000000 1.609800 -0.189600
v 0.000000 1.639900 -0.329800
v 0.000000 1.559900 -0.079500
v 0.000000 1.670000 -0.189600
v 0.010200 1.639900 -0.189600
v 0.019900 1.639900 -0.079500
v -0.009700 1.169900 0.030100
v 0.000000 1.219900 0.030100
v 0.000000 1.169900 0.080000
v 0.000000 1.250000 -0.079500
v -0.019900 1.169900 -0.079500
v -0.009700 1.169900 -0.189600
v 0.000000 1.120000 0.030100
v 0.010200 1.169900 0.030100
v 0.000000 1.139900 -0.189600
v 0.000000 1.169900 -0.329800
v 0.000000 1.089900 -0.079500
v 0.000000 1.200000 -0.189600
v 0.010200 1.169900 -0.189600
v 0.019900 1.169900 -0.079500
vt 0.062500 0.871100
vt 0.007800 0.941400
vt 0.007800 0.871100
vt 0.062500 0.793000
vt 0.062500 0.941400
vt 0.007800 0.996100
vt 0.062500 0.527300
vt 0.007800 0.464800
vt 0.062500 0.464800
vt 0.007800 0.527300
vt 0.062500 0.621100
vt 0.007800 0.621100
vt 0.062500 0.714800
vt 0.007800 0.714800
vt 0.007800 0.793000
vt 0.250000 0.601600
vt 0.156300 0.718800
vt 0.156300 0.601600
vt 0.250000 0.718800
vt 0.250000 0.703100
vt 0.156300 0.625000
vt 0.156300 0.703100
vt 0.250000 0.625000
vt 0.421900 0.867200
vt 0.296900 0.773400
vt 0.257800 0.851600
vt 0.351600 0.937500
vt 0.484400 0.785200
vt 0.296900 0.738300
vt 0.210900 0.918000
vt 0.273400 0.996100
vt 0.320300 0.308600
vt 0.328100 0.242200
vt 0.109400 0.363300
vt 0.156300 0.406300
vt 0.406300 0.382800
vt 0.414100 0.449200
vt 0.476600 0.460900
vt 0.250000 0.601600
vt 0.156300 0.601600
vt 0.156300 0.742200
vt 0.250000 0.742200
vt 0.156300 0.687500
vt 0.250000 0.687500
vt 0.554700 0.222700
vt 0.070300 0.261700
vt 0.007800 0.312500
vt 0.007800 0.402300
vt 0.007800 0.324200
vt 0.062500 0.402300
vt 0.062500 0.941400
vt 0.062500 0.996100
vt 0.062500 0.527300
vt 0.062500 0.464800
vt 0.062500 0.621100
vt 0.062500 0.714800
vt 0.062500 0.793000
vt 0.062500 0.871100
vt 0.421900 0.867200
vt 0.296900 0.773400
vt 0.484400 0.785200
vt 0.257800 0.851600
vt 0.351600 0.937500
vt 0.210900 0.918000
vt 0.273400 0.996100
vt 0.148400 0.996100
vt 0.328100 0.242200
vt 0.109400 0.363300
vt 0.007800 0.312500
vt 0.320300 0.308600
vt 0.554700 0.222700
vt 0.070300 0.261700
vt 0.062500 0.402300
vt 0.929700 0.238300
vt 0.960900 0.109400
vt 0.929700 0.066400
vt 0.992200 0.238300
vt 0.992200 0.066400
vt 0.492200 0.027300
vt 0.492200 0.054700
vt 0.585900 0.039100
vt 0.476600 0.066400
vt 0.656300 0.113300
vt 0.601600 0.066400
vt 0.414100 0.113300
vt 0.585900 0.164100
vt 0.492200 0.187500
vt 0.492200 0.164100
vt 0.492200 0.140600
vt 0.601600 0.066400
vt 0.476600 0.066400
vt 0.992200 0.750000
vt 0.773400 0.562500
vt 0.773400 0.750000
vt 0.992200 0.562500
vt 0.773400 0.562500
vt 0.773400 0.750000
vt 0.992200 0.562500
vt 0.992200 0.750000
vt 0.773400 0.750000
vt 0.773400 0.562500
vt 0.992200 0.562500
vt 0.265600 0.105500
vt 0.265600 0.164100
vt 0.007800 0.085900
vt 0.265600 0.011700
vt 0.265600 0.070300
vt 0.007800 0.003900
vt 0.007800 0.078100
vt 0.265600 0.105500
vt 0.492200 0.164100
vt 0.492200 0.140600
vt 0.265600 0.164100
vt 0.007800 0.085900
vt 0.007800 0.164100
vt 0.945300 0.886700
vt 0.804700 0.941400
vt 0.804700 0.886700
vt 0.945300 0.941400
vt 0.804700 0.941400
vt 0.945300 0.941400
vt 0.804700 0.886700
vt 0.945300 0.886700
vt 0.804700 0.941400
vt 0.945300 0.941400
vt 0.804700 0.886700
vt 0.945300 0.886700
vt 0.804700 0.941400
vt 0.007800 0.164100
vt 0.742200 0.949200
vt 0.914100 0.996100
vt 0.773400 0.996100
vt 0.914100 0.996100
vt 0.945300 0.949200
vt 0.945300 0.949200
vt 0.914100 0.996100
vt 0.742200 0.949200
vt 0.945300 0.949200
vt 0.773400 0.996100
vt 0.945300 0.949200
vt 0.773400 0.996100
vt 0.742200 0.949200
vt 0.914100 0.996100
vt 0.773400 0.996100
vt 0.992200 0.750000
vt 0.265600 0.222700
vt 0.007800 0.242200
vt 0.492200 0.187500
vt 0.265600 0.222700
vt 0.007800 0.242200
vt 0.945300 0.941400
vt 0.945300 0.886700
vt 0.804700 0.886700
vt 0.945300 0.941400
vt 0.945300 0.886700
vt 0.804700 0.941400
vt 0.804700 0.886700
vt 0.742200 0.949200
vt 0.742200 0.949200
vt 0.914100 0.996100
vt 0.945300 0.949200
vt 0.773400 0.996100
vt 0.531300 0.015600
vt 0.437500 0.003900
vt 0.437500 0.031300
vt 0.476600 0.066400
vt 0.656300 0.113300
vt 0.601600 0.066400
vt 0.414100 0.113300
vt 0.601600 0.066400
vt 0.476600 0.066400
vt 0.992200 0.750000
vt 0.773400 0.562500
vt 0.773400 0.750000
vt 0.992200 0.562500
vt 0.773400 0.750000
vt 0.773400 0.562500
vt 0.992200 0.562500
vt 0.992200 0.750000
vt 0.773400 0.750000
vt 0.773400 0.562500
vt 0.992200 0.562500
vt 0.757800 0.781300
vt 0.679700 0.601600
vt 0.757800 0.562500
vt 0.679700 0.601600
vt 0.539100 0.781300
vt 0.578100 0.726600
vt 0.539100 0.781300
vt 0.578100 0.726600
vt 0.539100 0.781300
vt 0.757800 0.781300
vt 0.945300 0.886700
vt 0.804700 0.941400
vt 0.804700 0.886700
vt 0.945300 0.941400
vt 0.804700 0.941400
vt 0.945300 0.886700
vt 0.804700 0.941400
vt 0.804700 0.886700
vt 0.945300 0.941400
vt 0.945300 0.941400
vt 0.804700 0.886700
vt 0.945300 0.886700
vt 0.804700 0.941400
vt 0.742200 0.949200
vt 0.914100 0.996100
vt 0.773400 0.996100
vt 0.914100 0.996100
vt 0.945300 0.949200
vt 0.945300 0.949200
vt 0.945300 0.949200
vt 0.773400 0.996100
vt 0.742200 0.949200
vt 0.914100 0.996100
vt 0.945300 0.949200
vt 0.773400 0.996100
vt 0.742200 0.949200
vt 0.914100 0.996100
vt 0.773400 0.996100
vt 0.992200 0.750000
vt 0.679700 0.601600
vt 0.539100 0.781300
vt 0.757800 0.562500
vt 0.945300 0.941400
vt 0.945300 0.886700
vt 0.804700 0.941400
vt 0.945300 0.886700
vt 0.804700 0.886700
vt 0.945300 0.941400
vt 0.804700 0.886700
vt 0.742200 0.949200
vt 0.773400 0.996100
vt 0.945300 0.949200
vt 0.742200 0.949200
vt 0.914100 0.996100
vt 0.476600 0.066400
vt 0.656300 0.113300
vt 0.601600 0.066400
vt 0.414100 0.113300
vt 0.601600 0.066400
vt 0.476600 0.066400
vt 0.773400 0.750000
vt 0.992200 0.562500
vt 0.773400 0.562500
vt 0.992200 0.750000
vt 0.992200 0.750000
vt 0.773400 0.562500
vt 0.773400 0.750000
vt 0.992200 0.562500
vt 0.992200 0.750000
vt 0.773400 0.562500
vt 0.679700 0.601600
vt 0.757800 0.781300
vt 0.539100 0.781300
vt 0.757800 0.562500
vt 0.757800 0.562500
vt 0.539100 0.781300
vt 0.757800 0.781300
vt 0.679700 0.601600
vt 0.679700 0.601600
vt 0.945300 0.886700
vt 0.804700 0.941400
vt 0.804700 0.886700
vt 0.945300 0.941400
vt 0.804700 0.886700
vt 0.804700 0.941400
vt 0.945300 0.886700
vt 0.804700 0.941400
vt 0.804700 0.886700
vt 0.945300 0.941400
vt 0.945300 0.886700
vt 0.804700 0.941400
vt 0.804700 0.886700
vt 0.945300 0.941400
vt 0.742200 0.949200
vt 0.914100 0.996100
vt 0.773400 0.996100
vt 0.914100 0.996100
vt 0.945300 0.949200
vt 0.945300 0.949200
vt 0.945300 0.949200
vt 0.773400 0.996100
vt 0.742200 0.949200
vt 0.914100 0.996100
vt 0.945300 0.949200
vt 0.773400 0.996100
vt 0.742200 0.949200
vt 0.914100 0.996100
vt 0.773400 0.996100
vt 0.773400 0.750000
vt 0.992200 0.562500
vt 0.539100 0.781300
vt 0.539100 0.781300
vt 0.679700 0.601600
vt 0.945300 0.941400
vt 0.945300 0.886700
vt 0.804700 0.886700
vt 0.945300 0.941400
vt 0.945300 0.886700
vt 0.804700 0.941400
vt 0.742200 0.949200
vt 0.742200 0.949200
vt 0.914100 0.996100
vt 0.945300 0.949200
vt 0.773400 0.996100
vt 0.406300 0.382800
vt 0.414100 0.449200
vt 0.156300 0.406300
vt 0.156300 0.609400
vt 0.250000 0.656300
vt 0.156300 0.656300
vt 0.250000 0.609400
vt 0.414100 0.480500
vt 0.507800 0.574200
vt 0.281300 0.574200
vt 0.476600 0.460900
vt 0.234400 0.503900
vt 0.507800 0.574200
vt 0.414100 0.480500
vt 0.250000 0.605500
vt 0.156300 0.668000
vt 0.250000 0.668000
vt 0.156300 0.605500
vt 0.773400 0.058600
vt 0.992200 0.003900
vt 0.992200 0.058600
vt 0.773400 0.003900
vt 0.679700 0.601600
vt 0.476600 0.679700
vt 0.515600 0.695300
vt 0.296900 0.652300
vt 0.476600 0.679700
vt 0.156300 0.609400
vt 0.250000 0.671900
vt 0.156300 0.671900
vt 0.250000 0.609400
vt 0.234400 0.503900
vt 0.281300 0.574200
vt 0.296900 0.652300
vt 0.515600 0.695300
vt 0.062500 0.996100
vt 0.250000 0.625000
vt 0.156300 0.703100
vt 0.250000 0.703100
vt 0.156300 0.625000
vt 0.148400 0.996100
vt 0.476600 0.710900
vt 0.250000 0.601600
vt 0.156300 0.632800
vt 0.250000 0.632800
vt 0.156300 0.601600
vt 0.296900 0.738300
vt 0.476600 0.710900
vt 0.078100 0.429700
vt 0.078100 0.492200
vt 0.203100 0.492200
vt 0.203100 0.492200
vt 0.242200 0.429700
vt 0.078100 0.429700
vt 0.242200 0.429700
vt 0.078100 0.492200
vt 0.156300 0.820300
vt 0.234400 0.793000
vt 0.156300 0.765600
vt 0.234400 0.793000
vt 0.140600 0.867200
vt 0.078100 0.867200
vt 0.078100 0.945300
vt 0.078100 0.523400
vt 0.140600 0.523400
vt 0.156300 0.945300
vt 0.078100 0.945300
vt 0.078100 0.867200
vt 0.140600 0.867200
vt 0.156300 0.945300
vt 0.140600 0.523400
vt 0.078100 0.523400
vt 0.710900 0.410200
vt 0.867200 0.445300
vt 0.710900 0.445300
vt 0.867200 0.390600
vt 0.757800 0.386700
vt 0.679700 0.074200
vt 0.757800 0.027300
vt 0.687500 0.046900
vt 0.632800 0.144500
vt 0.789100 0.179700
vt 0.632800 0.179700
vt 0.789100 0.144500
vt 0.710900 0.101600
vt 0.710900 0.410200
vt 0.867200 0.445300
vt 0.867200 0.390600
vt 0.757800 0.386700
vt 0.710900 0.445300
vt 0.867200 0.554700
vt 0.710900 0.367200
vt 0.601600 0.066400
vt 0.414100 0.113300
vt 0.656300 0.113300
vt 0.476600 0.066400
vt 0.789100 0.289100
vt 0.632800 0.289100
vt 0.867200 0.554700
vt 0.710900 0.554700
vt 0.710900 0.554700
vt 0.695300 0.027300
vt 0.679700 0.003900
vt 0.695300 0.027300
vt 0.476600 0.066400
vt 0.601600 0.066400
vt 0.687500 0.046900
vt 0.992200 0.378900
vt 0.843800 0.304700
vt 0.992200 0.445300
vt 0.929700 0.304700
vt 0.843800 0.304700
vt 0.804700 0.226600
vt 0.929700 0.304700
vt 0.992200 0.378900
vt 0.992200 0.445300
vt 0.992200 0.554700
vt 0.632800 0.027300
vt 0.570300 0.027300
vt 0.632800 0.027300
vt 0.945300 0.949200
vt 0.773400 0.996100
vt 0.914100 0.996100
vt 0.742200 0.949200
vt 0.945300 0.949200
vt 0.773400 0.996100
vt 0.914100 0.996100
vt 0.742200 0.949200
vt 0.898400 0.949200
vt 0.773400 0.996100
vt 0.914100 0.996100
vt 0.789100 0.949200
vt 0.773400 0.996100
vt 0.945300 0.949200
vt 0.742200 0.949200
vt 0.914100 0.996100
vt 0.742200 0.949200
vt 0.914100 0.996100
vt 0.945300 0.949200
vt 0.773400 0.996100
vt 0.804700 0.886700
vt 0.945300 0.941400
vt 0.804700 0.941400
vt 0.945300 0.941400
vt 0.945300 0.886700
vt 0.945300 0.886700
vt 0.804700 0.941400
vt 0.804700 0.886700
vt 0.804700 0.886700
vt 0.945300 0.941400
vt 0.945300 0.886700
vt 0.804700 0.941400
vt 0.945300 0.941400
vt 0.945300 0.886700
vt 0.804700 0.941400
vt 0.804700 0.886700
vt 0.648400 0.343800
vt 0.593800 0.265600
vt 0.539100 0.343800
vt 0.656300 0.418000
vt 0.656300 0.484400
vt 0.531300 0.418000
vt 0.531300 0.484400
vt 0.656300 0.593800
vt 0.531300 0.593800
vt 0.742200 0.949200
vt 0.992200 0.554700
vt 0.945300 0.949200
vt 0.914100 0.996100
vt 0.742200 0.949200
vt 0.773400 0.996100
vt 0.945300 0.949200
vt 0.500000 0.878900
vt 0.804700 0.781300
vt 0.562500 0.878900
vt 0.562500 0.878900
vt 0.453100 0.976600
vt 0.976600 0.765600
vt 0.773400 0.878900
vt 0.453100 0.976600
vt 0.773400 0.878900
vt 0.695300 0.976600
vt 0.320300 0.996100
vt 0.695300 0.976600
vt 0.992200 0.996100
vt 0.960900 0.898400
vt 0.960900 0.996100
vt 0.992200 0.898400
vt 0.976600 0.781300
vt 0.804700 0.781300
vt 0.500000 0.878900
vt 0.562500 0.878900
vt 0.976600 0.765600
vt 0.562500 0.878900
vt 0.773400 0.878900
vt 0.453100 0.976600
vt 0.773400 0.878900
vt 0.320300 0.996100
vt 0.453100 0.976600
vt 0.695300 0.976600
vt 0.695300 0.976600
vt 0.992200 0.898400
vt 0.960900 0.996100
vt 0.992200 0.996100
vt 0.960900 0.898400
vt 0.976600 0.781300
vt 0.203100 0.500000
vt 0.171900 0.515600
vt 0.101600 0.515600
vt 0.078100 0.500000
vt 0.171900 0.515600
vt 0.101600 0.515600
vt 0.078100 0.500000
vt 0.203100 0.500000
vt 0.203100 0.500000
vt 0.171900 0.515600
vt 0.101600 0.515600
vt 0.078100 0.500000
vt 0.171900 0.515600
vt 0.101600 0.515600
vt 0.078100 0.500000
vt 0.203100 0.500000
vt 0.515600 0.277300
vt 0.515600 0.250000
vt 0.437500 0.277300
vt 0.398400 0.347700
vt 0.515600 0.347700
vt 0.515600 0.414100
vt 0.437500 0.277300
vt 0.515600 0.277300
vt 0.515600 0.492200
vt 0.468800 0.414100
vt 0.398400 0.347700
vt 0.468800 0.414100
vt 0.515600 0.414100
vt 0.515600 0.347700
vt 0.515600 0.277300
vt 0.515600 0.250000
vt 0.437500 0.277300
vt 0.398400 0.347700
vt 0.515600 0.347700
vt 0.515600 0.414100
vt 0.437500 0.277300
vt 0.515600 0.277300
vt 0.515600 0.492200
vt 0.468800 0.414100
vt 0.398400 0.347700
vt 0.468800 0.414100
vt 0.515600 0.414100
vt 0.515600 0.347700
vt 0.515600 0.277300
vt 0.515600 0.250000
vt 0.437500 0.277300
vt 0.398400 0.347700
vt 0.515600 0.347700
vt 0.515600 0.414100
vt 0.437500 0.277300
vt 0.515600 0.277300
vt 0.515600 0.492200
vt 0.468800 0.414100
vt 0.398400 0.347700
vt 0.468800 0.414100
vt 0.515600 0.414100
vt 0.515600 0.347700
vn -0.9687 -0.0962 0.2289
vn -0.0036 -0.4439 0.8961
vn -0.0036 -0.3347 0.9423
vn -0.9704 -0.0565 0.2346
vn -0.9714 -0.1142 0.2082
vn -0.9714 -0.1142 0.2081
vn -0.0036 -0.4922 0.8705
vn -0.9582 0.0562 0.2806
vn -0.0035 0.3708 0.9287
vn -0.9682 0.1064 0.2263
vn -0.0037 0.2061 0.9785
vn -0.9783 0.0224 0.2061
vn -0.0036 0.0674 0.9977
vn -0.9565 -0.0044 0.2917
vn -0.0037 -0.0729 0.9973
vn -0.0035 -0.2071 0.9783
vn -0.9704 -0.0565 0.2347
vn -0.4627 0.3525 -0.8134
vn 0.6226 0.2782 -0.7314
vn 0.7372 0.2684 -0.6201
vn -0.4627 0.3524 -0.8134
vn -0.8637 0.1730 -0.4734
vn -0.6279 0.1908 -0.7545
vn 0.6336 0.0609 -0.7712
vn 0.8675 0.1092 -0.4854
vn -0.8760 0.0278 -0.4816
vn -0.8760 0.0279 -0.4816
vn -0.8409 -0.4662 -0.2747
vn -0.9829 -0.0890 0.1611
vn -0.9398 -0.1600 0.3020
vn -0.9463 -0.2777 0.1655
vn -0.7313 -0.4774 -0.4870
vn -0.8720 0.4878 -0.0417
vn -0.9503 0.2347 0.2047
vn -0.8658 -0.3751 -0.3312
vn 0.7599 -0.6415 -0.1056
vn 0.6496 0.0494 -0.7587
vn -0.6405 -0.3334 -0.6918
vn 0.7292 -0.5086 -0.4577
vn -0.7313 -0.4775 -0.4870
vn 0.6496 0.0494 -0.7586
vn -0.4988 -0.7185 0.4847
vn -0.9463 -0.2777 0.1656
vn -0.0039 0.1333 0.9911
vn -0.0007 -0.7399 0.6727
vn -0.9398 -0.1599 0.3020
vn 0.9709 -0.1156 0.2095
vn 0.9831 -0.0886 0.1601
vn -0.0036 0.3708 0.9287
vn 0.9586 0.0560 0.2793
vn 0.9681 0.1060 0.2269
vn 0.9755 0.0233 0.2187
vn 0.9549 -0.0330 0.2952
vn 0.9705 -0.0572 0.2343
vn 0.9680 -0.0967 0.2314
vn -0.0036 -0.4440 0.8960
vn 0.8674 0.1093 -0.4854
vn 0.9709 -0.1157 0.2095
vn 0.7372 0.2686 -0.6200
vn 0.9469 -0.2760 0.1649
vn 0.7292 -0.5087 -0.4577
vn 0.6496 0.0495 -0.7587
vn 0.9395 -0.1590 0.3035
vn 0.4992 -0.7181 0.4849
vn 0.7598 -0.6415 -0.1055
vn 0.4371 0.8226 0.3637
vn -0.3483 0.8720 0.3439
vn -0.0000 0.0047 1.0000
vn 0.3896 0.6773 -0.6241
vn -0.4531 0.0006 -0.8914
vn -0.5636 0.6515 -0.5079
vn 0.4521 0.0006 -0.8919
vn 0.9398 0.0023 0.3417
vn -0.4700 -0.5428 -0.6961
vn 0.4462 -0.7751 -0.4474
vn 0.4813 0.8420 -0.2437
vn 0.9984 0.0173 0.0533
vn 0.8714 0.0134 -0.4903
vn 0.4974 0.8621 0.0970
vn -0.4988 0.8636 0.0738
vn -0.4808 0.7973 -0.3650
vn -0.9985 0.0173 0.0526
vn -0.9985 0.0173 0.0525
vn -0.8710 0.0133 -0.4911
vn -0.4255 -0.8311 -0.3581
vn 0.4828 0.8461 0.2259
vn 0.9825 0.0067 0.1860
vn 0.4372 0.8226 0.3637
vn -0.4833 0.8517 0.2025
vn 0.4974 0.8620 0.0971
vn -0.4832 0.8517 0.2026
vn -0.9398 0.0023 0.3416
vn -0.9399 0.0023 0.3416
vn -0.9826 0.0067 0.1854
vn 0.9248 0.0002 -0.3804
vn 0.4204 0.7335 -0.5341
vn 0.4522 0.0006 -0.8919
vn 0.4461 -0.7751 -0.4474
vn 0.3897 0.6773 -0.6240
vn -0.4262 0.7795 -0.4590
vn 0.4204 0.7334 -0.5341
vn -0.5636 0.6514 -0.5079
vn -0.9261 0.0002 -0.3774
vn -0.4262 0.7795 -0.4591
vn 0.9984 0.0173 0.0534
vn -0.4268 -0.7641 -0.4838
vn -0.4255 -0.8311 -0.3580
vn 0.8714 0.0134 -0.4904
vn 0.4200 -0.7012 -0.5761
vn 0.5901 -0.7380 -0.3271
vn -0.9399 0.0024 0.3416
vn -0.4700 -0.5428 -0.6960
vn -0.9260 0.0002 -0.3774
vn -0.4269 -0.7640 -0.4838
vn 0.5902 -0.7380 -0.3272
vn -0.4732 -0.5447 -0.6924
vn 0.4559 0.0009 -0.8900
vn 0.4500 -0.7776 -0.4392
vn -0.4559 0.0009 -0.8900
vn 0.3930 0.6801 -0.6189
vn -0.5665 0.6535 -0.5021
vn -0.4795 -0.7779 -0.4060
vn -0.9853 -0.0561 0.1615
vn -0.8494 0.0008 -0.5278
vn -0.3957 -0.9122 0.1066
vn 0.4826 -0.8323 -0.2729
vn 0.3965 -0.9022 0.1697
vn 0.9853 -0.0560 0.1616
vn 0.8486 0.0008 -0.5290
vn 0.4818 0.8333 -0.2710
vn 0.9540 0.2112 -0.2130
vn -0.9627 -0.1867 0.1960
vn -0.9853 -0.0561 0.1616
vn -0.7294 -0.6699 -0.1385
vn -0.3957 -0.9122 0.1065
vn 0.7810 -0.6236 -0.0335
vn -0.9193 0.0006 -0.3937
vn -0.4164 -0.7670 -0.4883
vn -0.4559 0.0008 -0.8900
vn -0.5665 0.6535 -0.5020
vn -0.4163 -0.7670 -0.4883
vn 0.4500 -0.7775 -0.4392
vn 0.4091 -0.7065 -0.5775
vn 0.9193 0.0005 -0.3937
vn 0.4086 0.7075 -0.5766
vn -0.4795 -0.7779 -0.4061
vn 0.4826 -0.8322 -0.2728
vn -0.4157 0.7664 -0.4898
vn -0.8719 0.4878 -0.0417
vn -0.4787 0.7800 -0.4030
vn 0.9512 0.2345 0.2007
vn 0.3930 0.6801 -0.6188
vn 0.3931 0.6801 -0.6189
vn 0.9192 0.0006 -0.3937
vn 0.3931 0.6801 -0.6188
vn 0.4086 0.7075 -0.5767
vn -0.9192 0.0006 -0.3937
vn -0.4157 0.7663 -0.4898
vn -0.4787 0.7800 -0.4031
vn 0.4715 0.5412 -0.6963
vn -0.5681 0.1069 -0.8160
vn -0.3034 0.8009 -0.5162
vn 0.5853 -0.1119 -0.8031
vn -0.4697 -0.5080 -0.7220
vn 0.2836 -0.8141 -0.5068
vn 0.8659 0.0866 -0.4927
vn 0.8623 0.4204 -0.2823
vn 0.9835 -0.0388 0.1764
vn 0.5694 -0.7458 -0.3459
vn 0.8659 0.0866 -0.4926
vn 0.2951 0.8549 -0.4266
vn -0.8583 0.5082 -0.0715
vn -0.8583 0.5082 -0.0714
vn -0.5705 0.7456 -0.3445
vn -0.9836 0.0387 0.1764
vn -0.8685 -0.0863 -0.4881
vn -0.8409 -0.4663 -0.2748
vn 0.9544 0.2024 0.2192
vn 0.9549 -0.0331 0.2952
vn -0.9565 -0.0043 0.2917
vn -0.9506 -0.2132 0.2254
vn -0.9942 -0.0238 0.1045
vn 0.8824 0.1141 -0.4565
vn 0.4030 0.7533 -0.5197
vn 0.4838 -0.6744 -0.5577
vn 0.2836 -0.8140 -0.5068
vn -0.4885 0.6586 -0.5723
vn -0.8634 -0.0923 -0.4960
vn -0.4885 0.6586 -0.5724
vn -0.4042 -0.7532 -0.5189
vn -0.2961 -0.8551 -0.4255
vn 0.8659 0.0865 -0.4927
vn -0.8685 -0.0863 -0.4882
vn 0.8405 -0.5380 -0.0642
vn 0.5693 -0.7458 -0.3459
vn 0.9836 -0.0388 0.1764
vn 0.9933 -0.0057 0.1157
vn -0.4698 -0.5080 -0.7220
vn -0.4697 -0.5081 -0.7220
vn 0.2837 -0.8140 -0.5068
vn 0.4838 -0.6745 -0.5577
vn 0.9539 0.2112 -0.2130
vn -0.7313 -0.4774 -0.4871
vn 0.9731 -0.1474 0.1769
vn 0.7472 -0.1657 -0.6437
vn 0.9731 -0.1473 0.1769
vn 0.7472 -0.1657 -0.6436
vn -0.5831 -0.1595 -0.7966
vn 0.7810 -0.6237 -0.0336
vn -0.7294 -0.6699 -0.1384
vn -0.3956 -0.9122 0.1066
vn 0.9545 0.2024 0.2192
vn -0.9682 0.1063 0.2262
vn -0.6279 0.1907 -0.7546
vn 0.8675 0.1093 -0.4853
vn 0.6336 0.0609 -0.7713
vn 0.9705 -0.0572 0.2342
vn 0.9933 -0.0058 0.1157
vn -0.9507 -0.2132 0.2254
vn 0.9933 -0.0057 0.1156
vn -0.9696 0.2447 0.0000
vn -0.6832 0.7303 -0.0003
vn -0.0000 0.5844 -0.8115
vn 0.0000 0.5891 0.8081
vn 0.0000 0.3101 0.9507
vn 0.9696 0.2448 -0.0000
vn 0.0000 0.3101 -0.9507
vn -0.9696 0.2448 0.0000
vn 0.9696 0.2447 -0.0000
vn 0.6832 0.7303 -0.0003
vn 0.8842 0.4672 0.0021
vn 0.0039 0.5939 -0.8045
vn -0.8847 0.4661 0.0000
vn -0.8847 0.4661 0.0021
vn 0.0037 0.5909 0.8068
vn 0.8842 0.4672 0.0020
vn 0.0013 -0.0620 -0.9981
vn -0.9987 -0.0509 0.0047
vn 0.0013 -0.0621 -0.9981
vn -0.9270 0.3750 0.0046
vn -0.0000 0.7953 -0.6062
vn 0.9988 -0.0479 0.0047
vn 0.0013 -0.0628 0.9980
vn 0.0014 -0.0628 0.9980
vn 0.0000 0.7952 0.6063
vn 0.9270 0.3750 0.0046
vn 0.0014 -0.0621 -0.9981
vn -0.5766 -0.7657 0.2851
vn -0.9952 0.0269 0.0945
vn -0.4919 -0.8707 0.0000
vn -0.9952 0.0269 0.0946
vn -0.7701 -0.1518 0.6196
vn -0.2445 0.0784 0.9665
vn -0.0010 -0.2440 0.9698
vn -0.0001 0.1987 0.9801
vn -0.2446 0.0784 0.9665
vn 0.5007 -0.8297 0.2468
vn 0.4938 -0.8696 0.0000
vn -0.5766 -0.7656 0.2852
vn -0.0010 -0.2441 0.9698
vn 0.9951 0.0292 0.0945
vn 0.7713 -0.1503 0.6184
vn 0.2448 0.0779 0.9665
vn 0.9289 -0.1183 -0.3510
vn -0.2840 0.5054 -0.8148
vn 0.6625 0.0020 -0.7491
vn -0.6599 0.0016 -0.7514
vn 0.2761 0.8081 -0.5204
vn -0.4175 -0.8004 -0.4302
vn 0.4071 -0.7220 -0.5594
vn -0.9285 -0.1211 -0.3511
vn -0.4176 -0.8003 -0.4303
vn -0.9285 -0.1212 -0.3511
vn 0.4071 -0.7221 -0.5593
vn 0.0002 -0.9881 -0.1539
vn 0.2877 -0.5035 -0.8147
vn -0.2750 -0.8074 -0.5220
vn 0.4035 0.7859 0.4685
vn 0.9000 -0.1462 0.4108
vn 0.7713 -0.1503 0.6185
vn 0.9852 -0.0096 0.1710
vn 0.2822 0.7304 0.6220
vn -0.8989 -0.1466 0.4128
vn -0.0008 -0.1498 0.9887
vn -0.3536 0.6856 0.6363
vn -0.4013 0.7651 0.5036
vn -0.9855 -0.0089 0.1696
vn -0.7591 0.3139 -0.5703
vn 0.9000 -0.1461 0.4108
vn -0.4409 -0.7283 -0.5246
vn 0.4451 -0.7856 -0.4298
vn -0.4175 -0.8003 -0.4302
vn -0.7841 0.0045 -0.6207
vn -0.4410 -0.7283 -0.5246
vn 0.1378 0.7044 -0.6963
vn 0.4385 0.7131 -0.5470
vn -0.4414 0.7649 -0.4690
vn -0.1925 0.5652 -0.8021
vn 0.7833 0.0055 -0.6216
vn 0.7591 0.3136 -0.5705
vn 0.9289 -0.1184 -0.3510
vn 0.4386 0.7131 -0.5469
vn -0.7840 0.0045 -0.6207
vn -0.6599 0.0016 -0.7513
vn -0.7841 0.0044 -0.6207
vn -0.3536 0.6856 0.6364
vn 0.4995 0.8496 0.1697
vn 0.4035 0.7859 0.4686
vn -0.4996 0.8580 0.1191
vn 0.4994 0.8496 0.1696
vn -0.1926 0.5653 -0.8021
vn 0.8999 -0.1462 0.4108
vn -0.0011 -0.2440 0.9698
vn 0.2447 0.0779 0.9665
vn -0.1925 0.5653 -0.8021
vn 0.9852 -0.0095 0.1710
vn -0.4415 0.7649 -0.4690
vn -0.7591 0.3140 -0.5703
vn -0.7840 0.0044 -0.6207
vn 0.3558 0.6205 0.6988
vn 0.4435 0.7754 0.4494
vn -0.7660 0.6366 0.0901
vn 0.9248 -0.3677 0.0973
vn -0.1402 -0.3170 -0.9380
vn 0.9248 -0.3677 0.0974
vn 0.4717 -0.6228 -0.6243
vn -0.7659 0.6366 0.0901
vn -0.8467 0.2269 -0.4812
vn 0.4717 -0.6228 -0.6242
vn 0.7591 0.3135 -0.5705
vn -0.8468 0.2268 -0.4812
vn -0.1403 -0.3170 -0.9380
vn -0.1403 -0.3169 -0.9380
vn 0.4717 -0.6227 -0.6243
vn -0.4515 0.7709 0.4492
vn -0.3602 0.6187 0.6982
vn 0.7654 0.6371 0.0911
vn 0.1507 -0.3230 -0.9343
vn -0.9234 -0.3726 0.0925
vn 0.1508 -0.3230 -0.9343
vn -0.4712 -0.6217 -0.6256
vn 0.8474 0.2271 -0.4799
vn 0.7654 0.6371 0.0910
vn -0.3603 0.6186 0.6982
vn 0.1377 0.7044 -0.6964
vn 0.8475 0.2270 -0.4799
vn 0.6832 0.7302 -0.0003
vn -0.9937 0.0002 0.1122
vn -0.0093 0.0009 1.0000
vn -0.0061 0.8451 0.5346
vn -0.0034 0.9960 -0.0898
vn -1.0000 0.0001 -0.0002
vn -0.0034 0.9959 -0.0899
vn -0.9947 0.0003 -0.1025
vn -0.0093 0.0010 1.0000
vn -0.0061 -0.8447 0.5352
vn 0.9934 0.0002 0.1148
vn -0.0363 0.0069 -0.9993
vn -0.0079 -0.9482 -0.3177
vn -0.0034 -0.9960 -0.0898
vn -1.0000 0.0002 -0.0002
vn -0.0034 -0.9960 -0.0897
vn -0.0364 0.0070 -0.9993
vn -0.0079 0.9483 -0.3174
vn 0.9945 0.0004 -0.1045
vn -0.0034 0.9959 -0.0900
vn -0.0079 -0.9481 -0.3177
vn -0.0363 0.0070 -0.9993
vn 1.0000 0.0001 -0.0002
vn -0.9937 -0.0000 0.1124
vn -0.0093 -0.0001 1.0000
vn -0.0061 0.8443 0.5359
vn -0.0034 0.9961 -0.0880
vn -1.0000 -0.0000 0.0002
vn -0.0034 0.9961 -0.0879
vn -0.9948 -0.0000 -0.1019
vn -0.0093 0.0000 1.0000
vn -0.0061 -0.8443 0.5359
vn 0.9934 0.0000 0.1151
vn -0.0362 -0.0001 -0.9993
vn -0.0079 -0.9486 -0.3163
vn -0.0034 -0.9961 -0.0879
vn -0.0034 -0.9961 -0.0880
vn -0.0363 -0.0000 -0.9993
vn -0.0079 0.9486 -0.3163
vn 0.9946 0.0000 -0.1040
vn -0.0093 0.0001 1.0000
vn -0.0079 -0.9486 -0.3164
vn -0.0363 -0.0001 -0.9993
vn 1.0000 -0.0000 0.0002
vn -0.9936 -0.0002 0.1125
vn -0.0093 -0.0009 1.0000
vn -0.0061 0.8441 0.5361
vn -0.0034 0.9961 -0.0881
vn -1.0000 -0.0002 0.0002
vn -0.9948 -0.0004 -0.1021
vn -1.0000 -0.0001 0.0002
vn -0.0093 -0.0010 1.0000
vn -0.0061 -0.8445 0.5356
vn 0.9934 -0.0002 0.1151
vn -0.0364 -0.0070 -0.9993
vn -0.0034 -0.9961 -0.0882
vn -0.0363 -0.0070 -0.9993
vn -0.0079 0.9485 -0.3167
vn 0.9946 -0.0004 -0.1042
vn 0.9933 -0.0002 0.1151
vn -0.0034 0.9961 -0.0882
vn -0.0079 -0.9486 -0.3165
vn 1.0000 -0.0001 0.0002
usemtl w22sw14_TEX_w22sw14
s 1
f 1/1/1 3/2/2 2/3/3
f 2/3/3 4/4/4 1/1/1
f 3/2/2 1/1/1 5/5/5
f 5/5/6 6/6/7 3/2/2
f 7/7/8 8/8/9 9/9/10
f 8/8/9 7/7/8 10/10/11
f 11/11/12 10/10/11 7/7/8
f 10/10/11 11/11/12 12/12/13
f 13/13/14 12/12/13 11/11/12
f 12/12/13 13/13/14 14/14/15
f 15/15/16 14/14/15 13/13/14
f 4/4/17 2/3/3 15/15/16
f 15/15/16 13/13/14 4/4/17
f 16/16/18 17/17/19 18/18/20
f 17/17/19 16/16/21 19/19/22
f 20/20/23 21/21/24 22/22/25
f 21/21/24 20/20/23 23/23/26
f 1/24/1 23/25/26 20/26/23
f 20/26/23 5/27/5 1/24/1
f 23/25/27 1/24/1 4/28/17
f 4/28/4 24/29/28 23/25/26
f 5/27/6 20/26/23 19/30/22
f 19/30/22 25/31/29 5/27/6
f 26/32/30 28/33/31 27/34/32
f 27/34/32 29/35/33 26/32/30
f 9/36/10 26/32/30 29/35/33
f 29/35/33 30/37/34 9/36/10
f 7/38/8 9/36/10 30/37/34
f 31/39/35 32/40/36 33/41/37
f 33/41/37 34/42/38 31/39/35
f 34/42/38 35/43/39 27/44/40
f 35/43/39 34/42/38 33/41/41
f 36/45/42 28/33/31 26/32/30
f 28/33/43 31/46/35 34/47/38
f 37/48/44 38/49/45 26/50/46
f 6/6/7 39/51/47 3/2/2
f 39/51/47 6/6/7 40/52/48
f 8/8/49 42/53/50 41/54/51
f 41/54/51 37/48/44 8/8/49
f 42/53/50 8/8/9 10/10/11
f 10/10/11 43/55/52 42/53/50
f 43/55/52 10/10/11 12/12/13
f 12/12/13 44/56/53 43/55/52
f 2/3/3 45/57/54 15/15/16
f 45/57/54 2/3/3 46/58/55
f 3/2/2 46/58/55 2/3/3
f 46/58/55 3/2/56 39/51/47
f 46/59/55 21/60/24 45/61/54
f 21/60/24 46/59/55 22/62/57
f 39/63/58 22/62/57 46/59/55
f 22/62/57 39/63/58 17/64/19
f 40/65/48 17/64/19 39/63/58
f 17/64/19 40/65/48 18/66/59
f 47/67/60 35/68/61 33/69/62
f 35/68/61 47/67/60 48/70/63
f 49/71/64 48/70/63 47/67/60
f 47/67/60 33/69/37 32/72/65
f 37/48/44 48/73/63 38/49/45
f 26/74/46 38/75/45 36/76/42
f 38/75/45 48/77/63 49/78/64
f 49/78/64 36/76/42 38/75/45
f 50/79/66 51/80/67 52/81/68
f 53/82/69 54/83/70 55/84/71
f 54/83/70 53/82/69 56/85/72
f 52/86/68 49/87/64 57/88/73
f 57/88/73 50/89/66 52/86/68
f 58/90/74 56/85/72 59/91/75
f 56/85/72 58/90/74 54/83/70
f 60/92/76 61/93/77 62/94/78
f 61/93/77 60/92/76 63/95/79
f 64/96/80 63/95/79 60/92/76
f 64/96/80 60/92/76 65/97/81
f 65/97/81 66/98/82 64/96/80
f 66/98/83 65/97/81 67/99/84
f 67/99/84 68/100/85 66/98/83
f 31/101/35 66/98/83 68/100/85
f 68/100/85 32/102/36 31/101/35
f 69/103/86 57/88/73 70/104/87
f 70/104/87 63/105/79 69/103/86
f 69/103/86 50/89/66 57/88/73
f 69/106/86 51/80/67 50/79/88
f 51/80/67 69/106/86 71/107/89
f 63/108/79 71/107/89 69/106/86
f 71/107/89 63/108/90 64/109/80
f 71/110/91 72/111/92 51/112/67
f 72/111/93 71/110/91 73/113/94
f 64/114/80 73/113/94 71/110/91
f 73/113/94 64/114/80 66/115/82
f 74/116/95 53/117/69 75/118/96
f 53/117/69 74/116/95 56/119/97
f 59/120/98 56/119/97 74/116/95
f 53/121/99 76/122/100 75/123/101
f 76/122/100 53/121/99 55/124/102
f 55/125/71 77/126/103 76/127/104
f 77/126/103 55/125/71 54/128/70
f 70/104/87 61/129/105 63/105/79
f 67/130/84 76/131/104 77/132/103
f 77/132/103 78/133/106 67/130/84
f 68/134/107 67/130/84 78/133/106
f 67/130/84 65/135/81 76/131/104
f 75/136/101 65/137/81 60/138/76
f 65/137/81 75/136/101 76/139/104
f 62/140/108 75/141/96 60/142/76
f 75/141/96 62/140/108 74/143/95
f 79/144/109 74/143/95 62/140/108
f 32/102/65 68/100/107 80/145/110
f 80/145/110 61/93/77 32/102/65
f 80/145/110 62/94/108 61/93/77
f 28/146/43 72/111/93 73/113/94
f 73/113/94 31/147/35 28/146/43
f 72/111/111 28/146/31 36/148/42
f 36/148/42 52/86/68 72/111/111
f 47/149/60 57/88/73 49/87/64
f 57/88/73 47/149/60 70/104/87
f 32/150/65 70/104/87 47/149/60
f 70/104/87 32/150/65 61/129/77
f 77/126/103 58/151/112 78/152/106
f 58/151/74 77/126/113 54/128/70
f 78/153/114 59/154/75 79/155/109
f 59/154/75 78/153/114 58/156/74
f 74/116/95 79/157/109 59/120/75
f 73/113/94 66/115/83 31/147/35
f 62/140/78 80/158/115 79/144/109
f 68/159/107 79/160/109 80/161/110
f 79/160/109 68/159/107 78/162/106
f 51/112/67 72/111/111 52/86/68
f 52/163/68 36/164/42 49/165/64
f 81/166/116 82/167/117 83/168/118
f 82/167/117 81/166/116 84/169/119
f 85/170/120 84/169/119 86/171/121
f 84/169/119 85/170/120 82/167/117
f 87/172/122 88/173/123 89/174/124
f 88/173/123 87/172/122 90/175/125
f 91/176/126 90/175/125 87/172/122
f 90/175/125 91/176/126 92/177/127
f 93/178/128 92/177/127 91/176/126
f 93/178/128 91/176/126 94/179/129
f 94/179/129 95/180/130 93/178/128
f 96/181/131 93/178/128 95/180/130
f 95/180/130 29/182/33 96/181/131
f 88/183/123 97/184/132 7/185/8
f 7/185/8 30/186/34 88/183/133
f 29/187/33 88/183/133 30/186/34
f 88/183/123 98/188/134 97/184/132
f 98/188/134 88/183/133 90/189/135
f 99/190/136 92/191/127 93/192/128
f 100/193/137 81/194/116 101/195/138
f 81/194/116 100/193/137 84/196/139
f 86/197/140 84/196/139 100/193/137
f 101/198/141 83/199/142 102/200/143
f 83/199/142 101/198/141 81/201/116
f 83/202/142 103/203/144 102/204/143
f 103/203/144 83/202/142 82/205/117
f 94/206/129 102/207/143 103/208/144
f 103/208/144 104/209/145 94/206/129
f 95/210/130 94/206/129 104/209/145
f 94/206/129 91/211/126 102/207/143
f 87/212/146 102/213/143 91/214/147
f 102/213/143 87/212/146 101/215/138
f 89/216/124 101/217/138 87/218/146
f 101/217/138 89/216/124 100/219/137
f 105/220/148 100/219/137 89/216/124
f 29/182/149 95/180/130 106/221/150
f 106/221/150 88/173/123 29/182/149
f 106/221/150 89/174/124 88/173/123
f 107/222/151 93/192/128 96/223/131
f 93/192/128 107/222/151 42/224/50
f 103/203/144 85/225/152 104/226/145
f 85/225/153 103/203/154 82/205/117
f 85/227/155 105/228/148 104/229/156
f 105/228/148 85/227/155 86/230/121
f 100/193/157 105/231/158 86/197/140
f 89/216/124 106/232/159 105/220/148
f 104/233/145 106/234/150 95/235/130
f 106/234/159 104/233/145 105/236/148
f 108/237/160 109/238/161 110/239/162
f 109/238/161 108/237/160 111/240/163
f 112/241/164 111/240/163 113/242/165
f 111/240/163 112/241/164 109/238/161
f 114/243/166 116/244/167 115/245/168
f 115/245/168 117/246/169 114/243/166
f 116/244/167 114/243/170 118/247/171
f 118/247/171 119/248/172 116/244/167
f 119/248/173 118/247/171 120/249/174
f 120/249/174 121/250/175 119/248/173
f 121/250/175 120/249/174 122/251/176
f 122/251/176 24/252/177 121/250/175
f 123/253/178 115/254/168 116/255/167
f 115/254/168 123/253/178 44/256/179
f 13/257/180 119/258/172 121/259/175
f 121/259/175 124/260/181 13/257/14
f 13/257/180 125/261/182 119/258/172
f 126/262/183 108/263/160 127/264/184
f 108/263/160 126/262/183 111/265/163
f 128/266/185 111/265/163 126/262/183
f 111/265/163 128/266/185 113/267/186
f 127/268/184 110/269/162 129/270/187
f 110/269/162 127/268/184 108/271/160
f 129/272/187 109/273/161 130/274/188
f 109/273/161 129/272/189 110/275/162
f 122/276/176 129/277/187 130/278/188
f 130/278/188 131/279/190 122/276/176
f 132/280/191 122/276/176 131/279/190
f 122/276/176 120/281/174 129/277/187
f 118/282/171 129/283/187 120/284/174
f 129/283/187 118/282/171 127/285/184
f 114/286/170 127/287/184 118/288/171
f 127/287/184 114/286/192 126/289/183
f 128/290/185 126/289/183 114/286/192
f 24/252/28 122/251/193 132/291/191
f 132/291/191 133/292/194 24/252/28
f 133/292/194 132/291/191 117/246/195
f 117/246/195 115/245/196 133/292/194
f 121/259/175 24/293/177 124/260/181
f 44/256/179 133/294/194 115/254/196
f 133/294/194 44/256/179 134/295/197
f 130/274/188 112/296/198 131/297/190
f 112/296/199 130/274/188 109/273/161
f 131/298/190 113/299/200 128/300/201
f 113/299/200 131/298/190 112/301/164
f 114/286/166 117/302/169 128/290/185
f 132/303/191 128/304/201 117/305/195
f 128/304/201 132/303/191 131/306/190
f 41/307/51 107/308/151 96/309/131
f 96/309/131 48/70/63 41/307/51
f 96/310/202 27/311/203 35/312/61
f 27/311/32 96/310/131 29/313/33
f 135/314/204 43/315/52 136/316/205
f 43/315/52 135/314/204 42/317/50
f 136/316/205 99/318/136 135/314/206
f 11/319/12 7/38/8 97/320/132
f 98/321/134 136/322/207 137/323/208
f 136/322/207 98/321/134 99/324/209
f 92/325/127 98/326/210 90/327/211
f 98/326/210 92/325/127 99/328/136
f 93/192/128 135/329/206 99/190/136
f 135/329/206 93/192/128 42/224/50
f 28/33/31 34/47/38 27/34/32
f 125/330/182 13/331/14 11/319/12
f 44/56/179 12/12/13 14/14/15
f 14/14/15 15/15/16 44/56/179
f 45/57/54 44/56/179 15/15/16
f 43/315/52 116/332/167 136/316/205
f 116/332/167 43/315/52 123/333/178
f 116/334/167 137/335/208 136/336/205
f 137/335/208 116/334/167 119/337/172
f 11/319/12 98/338/134 137/339/208
f 137/339/208 119/340/172 11/319/12
f 125/330/182 11/319/12 119/340/172
f 11/319/12 97/320/132 98/338/134
f 43/315/52 44/341/53 123/333/212
f 96/309/131 35/68/61 48/70/63
f 41/54/51 48/73/63 37/48/44
f 37/48/44 9/9/213 8/8/49
f 9/9/10 37/48/44 26/50/30
f 41/307/51 42/317/50 107/308/151
f 5/5/6 25/342/29 6/6/7
f 20/343/23 17/344/19 19/345/22
f 17/344/19 20/343/214 22/346/215
f 19/30/22 16/347/18 25/31/29
f 4/28/17 13/331/14 124/348/181
f 24/349/28 21/350/216 23/351/26
f 21/350/216 24/349/28 133/352/194
f 133/353/194 45/61/217 21/60/24
f 45/61/217 133/353/194 134/354/218
f 4/28/4 124/348/219 24/29/28
f 134/354/220 44/341/179 45/61/54
f 138/355/221 139/356/222 140/357/223
f 139/356/222 138/355/221 141/358/224
f 142/359/225 141/358/224 138/355/221
f 141/358/224 142/359/225 143/360/226
f 140/357/223 144/361/227 138/355/228
f 144/361/227 140/357/223 143/360/229
f 145/362/230 143/360/229 140/357/223
f 143/360/229 145/362/230 141/358/224
f 146/363/231 148/364/232 147/365/233
f 147/365/234 149/366/235 146/363/236
f 150/367/237 151/368/238 147/369/234
f 151/368/238 150/367/239 152/370/240
f 153/371/241 152/370/240 150/367/239
f 150/367/237 147/369/234 148/372/232
f 146/373/236 154/374/242 150/367/237
f 154/374/242 146/373/236 155/375/243
f 149/376/235 155/375/243 146/373/236
f 155/375/244 149/376/235 147/369/234
f 146/373/236 150/367/237 148/372/232
f 155/375/244 151/368/238 152/370/240
f 152/370/240 156/377/245 155/375/244
f 157/378/246 155/375/244 156/377/245
f 157/378/246 154/374/242 155/375/244
f 154/374/242 157/378/246 150/367/247
f 153/371/241 150/367/247 157/378/246
f 155/375/244 147/369/234 151/368/238
f 158/379/248 159/380/249 160/381/250
f 159/380/251 158/379/248 161/382/252
f 162/383/253 161/382/252 158/379/248
f 163/384/254 164/385/255 162/386/256
f 165/387/257 160/388/250 166/389/258
f 160/388/250 165/387/257 158/390/259
f 165/387/257 163/391/260 158/390/248
f 165/392/257 168/393/261 167/394/262
f 167/394/262 169/395/263 165/392/257
f 168/393/261 165/392/257 166/396/258
f 166/396/258 170/397/264 168/393/261
f 165/392/257 169/395/263 163/398/254
f 171/399/265 172/400/266 173/401/267
f 172/400/266 171/399/265 174/402/268
f 166/389/258 175/403/269 176/404/270
f 175/403/269 166/389/258 160/388/250
f 160/381/250 177/405/271 175/406/272
f 177/405/273 160/381/250 159/380/251
f 166/396/258 176/407/274 170/397/264
f 164/385/255 167/408/262 178/409/275
f 178/409/275 161/410/252 164/385/255
f 179/411/276 173/401/267 172/400/266
f 173/401/267 179/411/276 180/412/277
f 167/408/262 164/385/255 169/413/263
f 181/414/278 182/415/279 167/394/262
f 167/394/280 183/416/281 181/414/278
f 181/414/278 184/417/282 182/415/279
f 185/418/283 187/419/284 186/420/285
f 186/420/285 188/421/286 185/418/283
f 161/382/252 185/418/283 188/421/286
f 188/421/286 189/422/287 161/382/252
f 159/380/251 161/382/252 189/422/287
f 189/422/287 190/423/288 159/380/251
f 177/405/273 159/380/251 190/423/288
f 178/409/275 185/424/283 161/410/252
f 185/424/283 178/409/275 187/425/284
f 182/426/289 187/425/284 178/409/275
f 178/409/275 167/408/262 182/426/279
f 176/427/270 191/428/290 192/429/291
f 191/428/290 176/427/270 175/430/269
f 175/431/292 193/432/293 191/433/294
f 193/432/293 175/431/292 177/434/273
f 194/435/295 195/436/296 196/437/297
f 195/436/296 194/435/295 197/438/298
f 198/439/299 199/440/300 170/441/301
f 199/440/300 198/439/299 195/442/302
f 176/443/270 198/444/299 170/445/301
f 198/444/299 176/443/274 192/446/291
f 192/447/291 180/448/277 179/449/276
f 179/449/276 172/450/266 192/447/291
f 198/451/299 192/447/291 172/450/266
f 180/448/277 192/447/291 191/452/290
f 191/452/290 173/453/267 180/448/277
f 191/452/290 193/454/303 173/453/267
f 196/455/297 173/456/304 193/457/305
f 173/456/304 196/455/297 171/458/265
f 174/459/268 171/458/265 196/455/297
f 174/459/268 196/455/297 195/460/296
f 195/460/296 172/461/266 174/459/268
f 195/460/296 198/462/299 172/461/266
f 186/463/306 187/464/284 184/465/282
f 184/465/282 188/466/286 186/463/306
f 200/467/307 181/468/308 201/469/309
f 201/469/309 194/470/295 200/467/307
f 181/468/278 200/467/310 188/466/286
f 188/466/286 184/465/282 181/468/278
f 201/469/309 197/471/311 194/470/295
f 184/417/282 187/419/284 182/415/312
f 158/379/248 163/398/254 162/383/256
f 164/385/255 163/384/313 169/413/314
f 164/385/255 161/410/252 162/386/253
f 195/436/296 197/438/315 199/472/300
f 168/393/261 199/473/300 183/416/281
f 183/416/316 167/394/262 168/393/261
f 168/393/261 170/397/264 199/473/300
f 196/437/317 190/474/318 194/435/295
f 193/475/293 190/476/288 196/477/317
f 190/476/288 193/475/319 177/478/273
f 202/479/320 203/480/321 204/481/322
f 203/480/321 202/479/320 205/482/323
f 183/483/281 205/482/323 202/479/320
f 206/484/324 205/482/325 207/485/326
f 205/482/325 206/484/324 203/480/321
f 204/481/327 203/480/321 206/484/324
f 201/486/309 208/487/328 197/488/298
f 208/487/328 201/486/309 204/481/322
f 202/479/320 204/481/322 201/486/309
f 202/479/320 201/486/309 181/489/308
f 181/489/308 183/483/281 202/479/320
f 183/483/281 207/485/326 205/482/325
f 207/485/326 183/483/281 199/490/300
f 197/491/315 207/492/329 199/493/330
f 207/492/329 197/491/315 208/494/331
f 206/484/332 208/487/328 204/481/327
f 208/494/331 206/495/333 207/492/334
f 209/496/335 211/497/336 210/498/337
f 210/498/337 212/499/338 209/496/335
f 213/500/339 212/499/340 214/501/341
f 212/499/338 213/500/339 209/496/335
f 211/497/336 209/496/335 213/500/339
f 200/502/307 215/503/342 210/498/337
f 210/498/343 211/497/344 200/502/307
f 188/504/286 200/502/307 211/497/344
f 211/497/344 189/505/287 188/504/286
f 200/502/307 194/506/295 215/503/342
f 189/505/287 211/497/336 213/500/339
f 213/500/339 214/501/341 189/505/287
f 190/507/288 189/505/287 214/501/341
f 214/508/341 194/509/295 190/510/288
f 194/509/345 214/508/341 215/511/346
f 212/512/340 215/511/346 214/508/341
f 210/498/337 215/503/342 212/499/338
f 139/513/222 152/514/240 153/515/241
f 153/515/241 140/516/223 139/513/222
f 156/517/245 152/518/240 139/519/222
f 139/519/222 141/520/224 156/517/245
f 145/521/230 157/522/246 156/523/245
f 156/523/245 141/524/224 145/521/230
f 153/525/241 157/526/246 145/527/347
f 145/527/230 140/528/223 153/525/241
f 216/529/348 218/530/349 217/531/350
f 217/531/350 219/532/351 216/529/348
f 220/533/352 216/529/348 219/532/351
f 219/532/353 221/534/354 220/533/352
f 218/530/355 216/529/348 222/535/356
f 222/535/356 223/536/357 218/530/355
f 221/534/354 225/537/358 224/538/359
f 224/538/359 226/539/360 221/534/354
f 220/533/361 221/534/354 226/539/360
f 226/539/362 216/529/348 220/533/352
f 225/537/363 221/534/354 227/540/364
f 227/540/364 228/541/365 225/537/363
f 219/532/353 227/540/364 221/534/354
f 226/539/362 222/535/356 216/529/348
f 217/531/350 218/530/355 223/536/357
f 223/536/357 219/532/366 217/531/350
f 224/538/367 225/537/368 228/541/365
f 228/541/365 226/539/360 224/538/359
f 219/532/353 223/536/357 229/542/369
f 229/542/369 228/541/365 219/532/353
f 227/540/364 219/532/353 228/541/365
f 223/536/357 226/539/362 229/542/369
f 226/539/362 223/536/357 222/535/356
f 228/541/365 229/542/369 226/539/360
f 230/543/370 232/544/371 231/545/372
f 231/545/372 233/546/373 230/543/370
f 234/547/374 230/543/370 233/546/373
f 233/546/375 235/548/376 234/547/374
f 232/544/377 230/543/370 236/549/378
f 236/549/378 237/550/379 232/544/377
f 235/548/376 239/551/380 238/552/381
f 238/552/381 240/553/382 235/548/376
f 234/547/374 235/548/376 240/553/382
f 240/553/383 230/543/370 234/547/374
f 239/551/384 235/548/376 241/554/385
f 241/554/385 242/555/386 239/551/384
f 233/546/375 241/554/385 235/548/376
f 240/553/383 236/549/378 230/543/370
f 231/545/372 232/544/387 237/550/379
f 237/550/379 233/546/375 231/545/372
f 238/552/388 239/551/389 242/555/386
f 242/555/386 240/553/382 238/552/381
f 233/546/375 237/550/379 243/556/390
f 243/556/390 242/555/386 233/546/375
f 241/554/385 233/546/375 242/555/386
f 237/550/379 240/553/383 243/556/390
f 240/553/383 237/550/379 236/549/378
f 242/555/386 243/556/390 240/553/382
f 244/557/391 246/558/392 245/559/393
f 245/559/393 247/560/394 244/557/391
f 248/561/395 244/557/391 247/560/394
f 247/560/394 249/562/396 248/561/397
f 246/558/398 244/557/391 250/563/399
f 250/563/399 251/564/400 246/558/398
f 249/562/396 253/565/401 252/566/388
f 252/566/388 254/567/402 249/562/396
f 248/561/397 249/562/396 254/567/402
f 254/567/402 244/557/391 248/561/397
f 253/565/403 249/562/396 255/568/404
f 255/568/404 256/569/405 253/565/403
f 247/560/394 255/568/404 249/562/396
f 254/567/402 250/563/399 244/557/391
f 245/559/393 246/558/392 251/564/406
f 251/564/406 247/560/407 245/559/393
f 252/566/408 253/565/401 256/569/405
f 256/569/405 254/567/402 252/566/388
f 247/560/394 251/564/400 257/570/409
f 257/570/409 256/569/405 247/560/394
f 255/568/404 247/560/394 256/569/405
f 251/564/400 254/567/402 257/570/409
f 254/567/402 251/564/400 250/563/399
f 256/569/405 257/570/409 254/567/402
