# Blender MTL File: 'None'
# Material Count: 1

newmtl w22sw15_TEX_w22sw15
Ns 94.117647
Ka 1.000000 1.000000 1.000000
Kd 1.000000 1.000000 1.000000
Ks 0.000000 0.000000 0.000000
Ke 0.000000 0.000000 0.000000
Ni 1.500000
d 1.000000
illum 2
map_Kd minecraft:items/w22sw15
map_Ka minecraft:items/w22sw15
