# Blender v2.79 (sub 0) OBJ File: ''
# www.blender.org
mtllib w22sw11.mtl
o MDL_w22sw11_bod00
v 0.000000 0.121100 -0.044400
v -0.045000 0.001100 0.000000
v -0.045000 0.121100 0.000000
v 0.000000 0.001100 -0.045000
v 0.045000 0.121100 0.000000
v 0.045000 0.001100 0.000000
v 0.000000 0.121100 0.045000
v 0.000000 0.001100 0.045000
v 0.000000 0.151100 -0.025000
v -0.025000 0.582900 0.000000
v 0.000000 0.582900 -0.025000
v -0.025000 0.151100 0.000000
v 0.000000 0.582900 0.025000
v 0.000000 0.151100 0.025000
v 0.025000 0.582900 0.000000
v 0.025000 0.151100 0.000000
v 0.000000 0.786100 0.060000
v 0.000000 0.931100 0.040000
v 0.020000 0.786100 0.000000
v -0.020000 0.786100 0.000000
v 0.000000 0.731100 0.030000
v -0.020000 0.606100 0.000000
v 0.000000 0.606100 0.030000
v 0.020000 0.606100 0.000000
v 0.000000 0.731100 -0.030000
v 0.000000 1.246100 0.040000
v 0.020000 1.246100 0.000000
v -0.020000 1.246100 0.000000
v 0.000000 0.931100 -0.040000
v 0.000000 1.246100 -0.040000
v 0.000000 0.786100 -0.060000
v 0.000000 0.606100 -0.030000
v -0.059400 1.321100 0.000000
v 0.000000 1.321100 0.060000
v 0.060000 1.321100 0.000000
v 0.000000 1.321100 -0.060000
v -0.034400 0.606100 0.000000
v -0.034400 0.586100 0.000000
v 0.000000 0.586100 -0.035000
v 0.000000 0.606100 0.035000
v 0.000000 0.606100 -0.035000
v 0.035000 0.586100 0.000000
v 0.000000 0.586100 0.035000
v 0.035000 0.606100 0.000000
v 0.015000 1.319800 -0.040000
v 0.016300 1.371100 0.060000
v 0.015000 1.319800 0.043100
v 0.016300 1.371100 -0.040000
v 0.020600 1.551100 0.120000
v 0.020600 1.559800 -0.095000
v 0.018800 1.461100 -0.050000
v 0.021900 1.599200 -0.145600
v 0.021900 1.607900 0.103100
v 0.022500 1.631100 -0.145600
v 0.023100 1.651100 0.140000
v 0.025000 1.724800 -0.185000
v 0.025000 1.724800 0.206200
v 0.019400 1.501100 0.085000
v -0.014400 1.319800 -0.039400
v -0.016200 1.371100 0.060000
v -0.016200 1.371100 -0.039400
v -0.014400 1.319800 0.043100
v -0.018100 1.452900 0.083800
v 0.019400 1.487900 0.106300
v -0.018700 1.487900 0.106300
v 0.018100 1.452900 0.083800
v -0.016900 1.412300 0.075000
v 0.017500 1.412300 0.075000
v 0.016300 1.372900 0.076900
v -0.020600 1.551100 0.120000
v -0.018100 1.461100 -0.049400
v -0.019400 1.501100 0.085000
v -0.020600 1.559800 -0.095000
v -0.021900 1.599200 -0.145600
v -0.022500 1.631100 -0.145600
v -0.023100 1.651100 0.140000
v -0.021900 1.607900 0.103100
v -0.025000 1.724800 -0.185000
v -0.024400 1.724800 0.206200
v -0.022500 1.631100 -0.185000
v 0.022500 1.631100 -0.185000
v -0.023100 1.651100 0.230000
v 0.023100 1.651100 0.230000
v -0.016200 1.372900 0.076900
v 0.050000 2.121100 -0.040000
v 0.060000 2.079800 0.043100
v 0.030000 2.079800 -0.210600
v 0.030000 2.121100 -0.210600
v -0.050000 2.121100 -0.039400
v -0.030000 2.121100 -0.210600
v -0.030000 2.079800 -0.210600
v -0.059400 2.079800 0.043100
v -0.055000 2.144200 0.001900
v -0.056200 2.162900 0.013100
v 0.056300 2.162900 0.013100
v -0.055600 2.187900 0.011300
v 0.056300 2.187900 0.011300
v 0.055000 2.144200 0.001900
v 0.060000 2.194800 0.043100
v -0.059400 2.194800 0.043100
v 0.039400 1.724200 0.160000
v 0.030000 1.724200 -0.210600
v 0.032500 1.772300 -0.210600
v 0.044400 1.814200 0.156900
v 0.045000 1.771100 0.270000
v -0.039400 1.724200 0.160000
v -0.043700 1.814200 0.156900
v -0.032500 1.772300 -0.210600
v -0.030000 1.724200 -0.210600
v -0.039400 1.709200 0.190000
v 0.039400 1.709200 0.190000
v -0.038700 1.679800 0.218800
v 0.038800 1.679800 0.218800
v -0.036200 1.631100 0.236200
v 0.036900 1.631100 0.236200
v -0.034400 1.591100 0.238700
v 0.035000 1.591100 0.238700
v -0.031900 1.549800 0.228100
v 0.032500 1.549800 0.228100
v 0.030000 1.517900 0.203700
v -0.029400 1.517900 0.203700
v 0.031900 1.517900 0.280000
v -0.044400 1.771100 0.270000
v -0.031900 1.517900 0.280000
v 0.000000 1.701100 -0.210000
v -0.120000 1.756100 -0.209400
v -0.120000 1.756100 -0.229400
v 0.000000 1.701100 -0.230000
v -0.120000 2.086100 -0.209400
v -0.120000 2.086100 -0.229400
v 0.000000 2.141100 -0.210000
v 0.000000 2.141100 -0.230000
v 0.120000 2.086100 -0.210000
v 0.120000 2.086100 -0.230000
v 0.120000 1.756100 -0.210000
v 0.120000 1.756100 -0.230000
v 0.000000 1.921100 -0.210000
v 0.000000 1.921100 -0.230000
v 0.000000 1.801100 -0.228800
v 0.000000 1.801100 -0.290000
v -0.103700 1.861100 -0.290000
v 0.103800 1.861100 -0.228800
v -0.103700 1.861100 -0.228800
v -0.103700 1.981100 -0.290000
v -0.103700 1.981100 -0.228800
v 0.000000 2.041100 -0.290000
v 0.000000 2.041100 -0.228800
v 0.103800 1.981100 -0.290000
v 0.103800 1.981100 -0.228800
v 0.103800 1.861100 -0.290000
v 0.000000 1.921100 -0.290000
v 0.000000 1.864800 -0.310000
v -0.060000 1.886100 -0.288700
v -0.048100 1.892900 -0.310000
v 0.000000 1.851100 -0.288700
v 0.048800 1.892900 -0.310000
v 0.060600 1.886100 -0.288700
v 0.048800 1.949200 -0.310000
v 0.060600 1.956100 -0.288700
v 0.000000 1.977300 -0.310000
v 0.000000 1.991100 -0.288700
v -0.048100 1.949200 -0.310000
v -0.060000 1.956100 -0.288700
v 0.000000 1.851100 -0.330600
v -0.060000 1.886100 -0.330600
v -0.060000 1.956100 -0.330600
v 0.000000 1.991100 -0.330600
v 0.060600 1.956100 -0.330600
v 0.060600 1.886100 -0.330600
v 0.000000 1.807300 -0.330000
v 0.000000 1.809200 -0.350000
v -0.096200 1.865400 -0.350000
v 0.098800 1.864200 -0.330000
v -0.098100 1.864200 -0.330000
v -0.098100 1.977900 -0.330000
v -0.096200 1.976700 -0.350000
v 0.000000 2.034800 -0.330000
v 0.000000 2.032900 -0.350000
v 0.098800 1.977900 -0.330000
v 0.096900 1.976700 -0.350000
v 0.096900 1.865400 -0.350000
v 0.000000 1.921100 -0.330000
v 0.000000 1.831700 -0.348700
v 0.000000 1.921100 -0.620000
v -0.076900 1.876100 -0.348700
v 0.077500 1.876100 -0.348700
v -0.076900 1.966100 -0.348700
v 0.000000 2.010400 -0.348700
v 0.077500 1.966100 -0.348700
v 0.000000 1.921100 -0.350000
v 0.100000 1.771100 -0.210600
v 0.070600 1.771100 0.080000
v -0.070000 1.771100 0.080000
v -0.100000 1.771100 -0.210600
v 0.077500 2.081100 0.010000
v 0.100000 2.081100 -0.210600
v -0.100000 2.081100 -0.210600
v -0.077500 2.081100 0.010000
v -0.025000 0.751100 0.210000
v -0.040600 0.849200 0.086900
v 0.040600 0.849200 0.086900
v 0.025000 0.751100 0.210000
v 0.075000 2.111100 0.036900
v -0.074400 2.111100 0.036900
v -0.086200 2.351100 -0.079400
v 0.086900 2.351100 -0.080000
v 0.080000 2.194800 -0.011900
v -0.079400 2.194800 -0.011900
v 0.075600 2.179200 0.028800
v -0.075600 2.179200 0.028800
v 0.074400 2.144800 0.041900
v -0.073700 2.144800 0.041900
v -0.050000 1.524200 0.220000
v 0.050000 1.524200 0.220000
v 0.053800 1.516100 0.178700
v -0.053700 1.516100 0.178700
v -0.045600 1.141100 0.133800
v -0.055000 1.447300 0.143700
v 0.055000 1.447300 0.143700
v 0.045600 1.141100 0.133800
v 0.028100 1.447300 0.410000
v 0.023800 1.141100 0.350000
v -0.019400 0.561100 0.200000
v 0.020000 0.561100 0.200000
v 0.010000 0.511100 0.280000
v -0.009400 0.511100 0.280000
v 0.015600 0.751100 0.306300
v -0.035600 2.191100 0.420000
v 0.000000 2.067300 0.515000
v 0.000000 2.201100 0.470000
v -0.031200 2.062300 0.465000
v 0.000000 1.921100 0.530000
v -0.029400 1.921100 0.480000
v -0.031900 1.711100 0.460000
v 0.000000 1.711100 0.510000
v 0.000000 1.447300 0.450000
v -0.028100 1.447300 0.410000
v 0.000000 1.141100 0.390000
v -0.023700 1.141100 0.350000
v 0.000000 0.751100 0.346200
v -0.015000 0.751100 0.306300
v 0.000000 0.491100 0.320000
v 0.031900 1.711100 0.460000
v 0.030000 1.921100 0.480000
v 0.036300 2.191100 0.420000
v 0.042500 2.269200 0.356900
v 0.031300 2.062300 0.465000
v 0.000000 2.369200 0.308100
v 0.051300 2.331100 0.270000
v 0.000000 2.294200 0.401900
v 0.062500 2.364800 0.156900
v -0.041900 2.269200 0.356900
v 0.000000 2.421100 0.060000
v 0.074400 2.371100 0.040000
v 0.000000 2.409800 0.186900
v -0.062500 2.364800 0.156900
v 0.000000 2.401100 -0.101300
v -0.074400 2.371100 0.040000
v -0.051200 2.331100 0.270000
v -0.046900 1.561100 0.260000
v 0.047500 1.561100 0.260000
v -0.047500 1.631100 0.275000
v 0.048100 1.631100 0.275000
v -0.051200 1.711100 0.265000
v 0.051900 1.711100 0.265000
v -0.056900 1.791100 0.210000
v 0.068100 1.804800 0.105000
v -0.067500 1.804800 0.105000
v 0.057500 1.791100 0.210000
v 0.062500 1.812900 0.156900
v -0.062500 1.812900 0.156900
v 0.005000 0.516100 0.285000
v 0.005000 0.391100 0.265000
v 0.020000 0.451100 0.130000
v 0.019400 0.526100 0.145000
v 0.016200 0.756100 0.215000
v 0.024400 0.541100 0.105000
v 0.025000 0.816100 0.140000
v -0.004400 0.516100 0.285000
v -0.019400 0.526100 0.145000
v -0.019400 0.451100 0.130000
v -0.004400 0.391100 0.265000
v -0.015600 0.756100 0.215000
v -0.024400 0.816100 0.140000
v -0.023700 0.541100 0.105000
v 0.040000 2.232900 -0.117500
v 0.040000 2.227900 -0.138800
v 0.040000 2.344800 -0.171900
v 0.040000 2.371100 -0.085600
v 0.040000 2.219200 -0.020000
v 0.040000 2.192900 -0.105600
v -0.040000 2.232900 -0.117500
v -0.039400 2.371100 -0.085600
v -0.040000 2.344800 -0.171900
v -0.040000 2.227900 -0.138800
v -0.039400 2.219200 -0.019400
v -0.040000 2.192900 -0.105600
vt 0.773400 0.878900
vt 0.882800 0.996100
vt 0.882800 0.878900
vt 0.773400 0.996100
vt 0.882800 0.878900
vt 0.882800 0.996100
vt 0.773400 0.878900
vt 0.773400 0.996100
vt 0.773400 0.851600
vt 0.882800 0.511700
vt 0.773400 0.511700
vt 0.882800 0.851600
vt 0.773400 0.511700
vt 0.773400 0.851600
vt 0.882800 0.511700
vt 0.882800 0.851600
vt 0.093800 0.656300
vt 0.046900 0.605500
vt 0.007800 0.656300
vt 0.046900 0.605500
vt 0.632800 0.832000
vt 0.757800 0.832000
vt 0.671900 0.734400
vt 0.757800 0.832000
vt 0.695300 0.882800
vt 0.757800 0.996100
vt 0.695300 0.996100
vt 0.757800 0.996100
vt 0.695300 0.882800
vt 0.757800 0.515600
vt 0.671900 0.515600
vt 0.757800 0.515600
vt 0.671900 0.734400
vt 0.671900 0.515600
vt 0.632800 0.832000
vt 0.695300 0.996100
vt 0.906300 0.273400
vt 0.992200 0.343800
vt 0.906300 0.343800
vt 0.820300 0.343800
vt 0.820300 0.273400
vt 0.906300 0.273400
vt 0.992200 0.273400
vt 0.906300 0.343800
vt 0.804700 0.273400
vt 0.804700 0.347700
vt 0.742200 0.312500
vt 0.742200 0.312500
vt 0.679700 0.957000
vt 0.453100 0.980500
vt 0.679700 0.980500
vt 0.453100 0.957000
vt 0.453100 0.957000
vt 0.679700 0.980500
vt 0.453100 0.980500
vt 0.679700 0.957000
vt 0.468800 0.980500
vt 0.351600 0.996100
vt 0.351600 0.980500
vt 0.468800 0.996100
vt 0.351600 0.980500
vt 0.351600 0.996100
vt 0.468800 0.980500
vt 0.468800 0.996100
vt 0.468800 0.953100
vt 0.351600 0.937500
vt 0.468800 0.937500
vt 0.351600 0.937500
vt 0.351600 0.953100
vt 0.468800 0.937500
vt 0.468800 0.953100
vt 0.351600 0.953100
vt 0.617200 0.621100
vt 0.507800 0.621100
vt 0.484400 0.589800
vt 0.617200 0.589800
vt 0.421900 0.468800
vt 0.687500 0.464800
vt 0.632800 0.527300
vt 0.742200 0.441400
vt 0.445300 0.433600
vt 0.750000 0.418000
vt 0.406300 0.398400
vt 0.796900 0.355500
vt 0.335900 0.355500
vt 0.460900 0.500000
vt 0.617200 0.621100
vt 0.617200 0.589800
vt 0.484400 0.589800
vt 0.507800 0.621100
vt 0.625000 0.597700
vt 0.625000 0.574200
vt 0.656300 0.574200
vt 0.656300 0.597700
vt 0.625000 0.566400
vt 0.656300 0.566400
vt 0.656300 0.554700
vt 0.421900 0.468800
vt 0.460900 0.500000
vt 0.632800 0.527300
vt 0.687500 0.464800
vt 0.742200 0.441400
vt 0.750000 0.418000
vt 0.406300 0.398400
vt 0.445300 0.433600
vt 0.796900 0.355500
vt 0.335900 0.355500
vt 0.804700 0.425800
vt 0.796900 0.418000
vt 0.804700 0.355500
vt 0.773400 0.425800
vt 0.773400 0.441400
vt 0.656300 0.546900
vt 0.656300 0.574200
vt 0.632800 0.574200
vt 0.632800 0.546900
vt 0.656300 0.515600
vt 0.632800 0.515600
vt 0.656300 0.601600
vt 0.632800 0.601600
vt 0.632800 0.621100
vt 0.656300 0.621100
vt 0.656300 0.550800
vt 0.625000 0.550800
vt 0.625000 0.531300
vt 0.656300 0.585900
vt 0.656300 0.531300
vt 0.625000 0.585900
vt 0.656300 0.609400
vt 0.625000 0.609400
vt 0.625000 0.574200
vt 0.656300 0.574200
vt 0.656300 0.543000
vt 0.625000 0.543000
vt 0.625000 0.554700
vt 0.656300 0.515600
vt 0.625000 0.515600
vt 0.468800 0.562500
vt 0.460900 0.589800
vt 0.468800 0.562500
vt 0.460900 0.589800
vt 0.460900 0.535200
vt 0.429700 0.511700
vt 0.281300 0.398400
vt 0.796900 0.418000
vt 0.281300 0.398400
vt 0.460900 0.535200
vt 0.429700 0.511700
vt 0.539100 0.140600
vt 0.468800 0.156300
vt 0.718800 0.156300
vt 0.718800 0.140600
vt 0.539100 0.140600
vt 0.718800 0.140600
vt 0.718800 0.156300
vt 0.468800 0.156300
vt 0.507800 0.128900
vt 0.492200 0.117200
vt 0.007800 0.707000
vt 0.117200 0.707000
vt 0.117200 0.730500
vt 0.007800 0.730500
vt 0.007800 0.742200
vt 0.117200 0.742200
vt 0.007800 0.781300
vt 0.117200 0.781300
vt 0.007800 0.863300
vt 0.117200 0.863300
vt 0.507800 0.128900
vt 0.492200 0.117200
vt 0.468800 0.097700
vt 0.492200 0.105500
vt 0.468800 0.097700
vt 0.492200 0.105500
vt 0.328100 0.347700
vt 0.710900 0.320300
vt 0.710900 0.347700
vt 0.335900 0.304700
vt 0.234400 0.324200
vt 0.328100 0.347700
vt 0.710900 0.320300
vt 0.335900 0.304700
vt 0.710900 0.347700
vt 0.617200 0.750000
vt 0.523400 0.812500
vt 0.617200 0.812500
vt 0.523400 0.750000
vt 0.617200 0.726600
vt 0.523400 0.726600
vt 0.617200 0.707000
vt 0.523400 0.707000
vt 0.617200 0.695300
vt 0.523400 0.695300
vt 0.617200 0.675800
vt 0.523400 0.675800
vt 0.617200 0.648400
vt 0.523400 0.648400
vt 0.523400 0.628900
vt 0.617200 0.628900
vt 0.304700 0.355500
vt 0.273400 0.371100
vt 0.257800 0.394500
vt 0.234400 0.449200
vt 0.257800 0.418000
vt 0.265600 0.437500
vt 0.289100 0.453100
vt 0.234400 0.324200
vt 0.304700 0.355500
vt 0.273400 0.371100
vt 0.257800 0.394500
vt 0.234400 0.449200
vt 0.265600 0.437500
vt 0.257800 0.418000
vt 0.289100 0.453100
vt 0.328100 0.929700
vt 0.414100 0.929700
vt 0.414100 0.902300
vt 0.328100 0.902300
vt 0.593800 0.929700
vt 0.593800 0.902300
vt 0.671900 0.929700
vt 0.671900 0.902300
vt 0.593800 0.929700
vt 0.593800 0.902300
vt 0.414100 0.929700
vt 0.414100 0.902300
vt 0.429700 0.894500
vt 0.492200 0.773400
vt 0.546900 0.894500
vt 0.328100 0.894500
vt 0.492200 0.773400
vt 0.546900 0.894500
vt 0.429700 0.894500
vt 0.664100 0.894500
vt 0.546900 0.894500
vt 0.546900 0.894500
vt 0.664100 0.894500
vt 0.328100 0.894500
vt 0.429700 0.894500
vt 0.429700 0.894500
vt 0.335900 0.996100
vt 0.445300 0.937500
vt 0.335900 0.937500
vt 0.445300 0.996100
vt 0.445300 0.996100
vt 0.578100 0.937500
vt 0.578100 0.996100
vt 0.679700 0.937500
vt 0.679700 0.996100
vt 0.578100 0.937500
vt 0.578100 0.996100
vt 0.445300 0.937500
vt 0.500000 0.785200
vt 0.421900 0.894500
vt 0.562500 0.894500
vt 0.328100 0.894500
vt 0.421900 0.894500
vt 0.656300 0.894500
vt 0.562500 0.894500
vt 0.859400 0.043000
vt 0.812500 0.082000
vt 0.812500 0.043000
vt 0.859400 0.082000
vt 0.812500 0.043000
vt 0.812500 0.082000
vt 0.742200 0.043000
vt 0.742200 0.082000
vt 0.687500 0.043000
vt 0.687500 0.082000
vt 0.742200 0.043000
vt 0.742200 0.082000
vt 0.812500 0.003900
vt 0.859400 0.003900
vt 0.742200 0.003900
vt 0.687500 0.003900
vt 0.742200 0.003900
vt 0.812500 0.003900
vt 0.335900 0.976600
vt 0.445300 0.957000
vt 0.335900 0.957000
vt 0.445300 0.976600
vt 0.445300 0.976600
vt 0.578100 0.976600
vt 0.578100 0.957000
vt 0.679700 0.976600
vt 0.679700 0.957000
vt 0.578100 0.976600
vt 0.578100 0.957000
vt 0.445300 0.957000
vt 0.562500 0.894500
vt 0.500000 0.785200
vt 0.656300 0.894500
vt 0.421900 0.894500
vt 0.562500 0.894500
vt 0.328100 0.894500
vt 0.421900 0.894500
vt 0.742200 0.265600
vt 0.742200 0.222700
vt 0.992200 0.199200
vt 0.742200 0.222700
vt 0.742200 0.179700
vt 0.742200 0.140600
vt 0.742200 0.179700
vt 0.421900 0.894500
vt 0.500000 0.785200
vt 0.328100 0.894500
vt 0.562500 0.894500
vt 0.421900 0.894500
vt 0.656300 0.894500
vt 0.562500 0.894500
vt 0.406300 0.628900
vt 0.406300 0.722700
vt 0.500000 0.722700
vt 0.500000 0.628900
vt 0.406300 0.640600
vt 0.406300 0.714800
vt 0.500000 0.714800
vt 0.500000 0.640600
vt 0.484400 0.687500
vt 0.484400 0.628900
vt 0.421900 0.628900
vt 0.421900 0.687500
vt 0.523400 0.761700
vt 0.523400 0.808600
vt 0.617200 0.808600
vt 0.617200 0.761700
vt 0.992200 0.351600
vt 0.820300 0.351600
vt 0.820300 0.445300
vt 0.992200 0.445300
vt 0.523400 0.683600
vt 0.617200 0.683600
vt 0.617200 0.632800
vt 0.523400 0.632800
vt 0.523400 0.722700
vt 0.617200 0.722700
vt 0.617200 0.785200
vt 0.523400 0.785200
vt 0.523400 0.812500
vt 0.617200 0.812500
vt 0.117200 0.789100
vt 0.117200 0.734400
vt 0.007800 0.734400
vt 0.007800 0.789100
vt 0.085900 0.496100
vt 0.367200 0.660200
vt 0.351600 0.496100
vt 0.148400 0.660200
vt 0.406300 0.812500
vt 0.117200 0.992200
vt 0.007800 0.992200
vt 0.484400 0.726600
vt 0.421900 0.726600
vt 0.421900 0.765600
vt 0.484400 0.765600
vt 0.218800 0.992200
vt 0.312500 0.968800
vt 0.296900 0.867200
vt 0.195300 0.867200
vt 0.992200 0.640600
vt 0.898400 0.687500
vt 0.898400 0.640600
vt 0.992200 0.687500
vt 0.898400 0.738300
vt 0.992200 0.738300
vt 0.992200 0.789100
vt 0.898400 0.789100
vt 0.898400 0.839800
vt 0.992200 0.839800
vt 0.898400 0.886700
vt 0.992200 0.886700
vt 0.898400 0.945300
vt 0.992200 0.886700
vt 0.992200 0.945300
vt 0.898400 0.996100
vt 0.992200 0.996100
vt 0.992200 0.945300
vt 0.992200 0.996100
vt 0.992200 0.839800
vt 0.992200 0.789100
vt 0.992200 0.738300
vt 0.992200 0.640600
vt 0.992200 0.601600
vt 0.992200 0.687500
vt 0.898400 0.562500
vt 0.898400 0.601600
vt 0.992200 0.562500
vt 0.992200 0.519500
vt 0.992200 0.601600
vt 0.898400 0.484400
vt 0.898400 0.519500
vt 0.992200 0.484400
vt 0.992200 0.453100
vt 0.992200 0.519500
vt 0.898400 0.453100
vt 0.992200 0.453100
vt 0.992200 0.484400
vt 0.992200 0.562500
vt 0.617200 0.761700
vt 0.523400 0.761700
vt 0.617200 0.734400
vt 0.523400 0.734400
vt 0.617200 0.710900
vt 0.523400 0.710900
vt 0.617200 0.687500
vt 0.523400 0.648400
vt 0.617200 0.648400
vt 0.617200 0.628900
vt 0.523400 0.628900
vt 0.523400 0.687500
vt 0.523400 0.668000
vt 0.617200 0.668000
vt 0.117200 0.671900
vt 0.007800 0.671900
vt 0.437500 0.324200
vt 0.726600 0.324200
vt 0.726600 0.160200
vt 0.406300 0.304700
vt 0.351600 0.300800
vt 0.484400 0.105500
vt 0.515600 0.093800
vt 0.343800 0.003900
vt 0.218800 0.023400
vt 0.468800 0.121100
vt 0.492200 0.160200
vt 0.007800 0.168000
vt 0.007800 0.242200
vt 0.062500 0.097700
vt 0.585900 0.011700
vt 0.468800 0.003900
vt 0.468800 0.140600
vt 0.132800 0.054700
vt 0.312500 0.460900
vt 0.265600 0.449200
vt 0.859400 0.863300
vt 0.859400 0.902300
vt 0.933600 0.882800
vt 0.898400 0.472700
vt 0.992200 0.472700
vt 0.945300 0.546900
vt 0.234400 0.433600
vt 0.218800 0.398400
vt 0.023400 0.355500
vt 0.218800 0.355500
vt 0.281300 0.312500
vt 0.148400 0.660200
vt 0.085900 0.496100
vt 0.351600 0.496100
vt 0.367200 0.660200
vt 0.218800 0.992200
vt 0.195300 0.867200
vt 0.296900 0.867200
vt 0.312500 0.968800
vt 0.406300 0.812500
vt 0.726600 0.160200
vt 0.437500 0.324200
vt 0.406300 0.304700
vt 0.351600 0.300800
vt 0.492200 0.160200
vt 0.281300 0.312500
vt 0.007800 0.242200
vt 0.218800 0.355500
vt 0.726600 0.324200
vt 0.484400 0.105500
vt 0.218800 0.023400
vt 0.343800 0.003900
vt 0.515600 0.093800
vt 0.468800 0.003900
vt 0.007800 0.168000
vt 0.585900 0.011700
vt 0.062500 0.097700
vt 0.468800 0.140600
vt 0.132800 0.054700
vt 0.468800 0.121100
vt 0.312500 0.460900
vt 0.234400 0.433600
vt 0.265600 0.449200
vt 0.218800 0.398400
vt 0.023400 0.355500
vt 0.914100 0.027300
vt 0.992200 0.105500
vt 0.992200 0.027300
vt 0.914100 0.105500
vt 0.648400 0.082000
vt 0.914100 0.132800
vt 0.648400 0.132800
vt 0.914100 0.027300
vt 0.992200 0.105500
vt 0.914100 0.105500
vt 0.992200 0.027300
vt 0.648400 0.082000
vt 0.914100 0.132800
vt 0.648400 0.132800
vt 0.992200 0.003900
vt 0.914100 0.003900
vt 0.890600 0.054700
vt 0.929700 0.031300
vt 0.929700 0.054700
vt 0.890600 0.031300
vt 0.687500 0.082000
vt 0.968800 0.058600
vt 0.968800 0.082000
vt 0.687500 0.058600
vt 0.875000 0.054700
vt 0.914100 0.031300
vt 0.914100 0.054700
vt 0.875000 0.031300
vt 0.656300 0.093800
vt 0.953100 0.070300
vt 0.953100 0.093800
vt 0.656300 0.070300
vt 0.914100 0.105500
vt 0.984400 0.105500
vt 0.984400 0.019500
vt 0.648400 0.019500
vt 0.648400 0.132800
vt 0.914100 0.132800
vt 0.914100 0.105500
vt 0.648400 0.019500
vt 0.984400 0.019500
vt 0.984400 0.105500
vt 0.648400 0.132800
vt 0.914100 0.132800
vt 0.984400 0.003900
vt 0.648400 0.003900
vt 0.984400 0.246100
vt 0.742200 0.246100
vt 0.742200 0.210900
vt 0.984400 0.210900
vt 0.851600 0.117200
vt 0.851600 0.054700
vt 0.773400 0.058600
vt 0.773400 0.121100
vt 0.812500 0.250000
vt 0.742200 0.250000
vt 0.742200 0.210900
vt 0.812500 0.210900
vt 0.875000 0.250000
vt 0.875000 0.199200
vt 0.773400 0.199200
vt 0.773400 0.250000
vn -0.3019 0.2833 -0.9103
vn -0.8656 -0.4075 -0.2911
vn -0.9090 0.2878 0.3014
vn 0.2343 -0.6649 -0.7093
vn 0.9079 0.2869 -0.3057
vn 0.8660 -0.4085 0.2884
vn 0.3026 0.2879 0.9086
vn -0.2353 -0.6668 0.7071
vn -0.9090 0.2879 0.3014
vn -0.8656 -0.4074 -0.2911
vn -0.0171 0.2971 -0.9547
vn -0.7232 -0.6486 -0.2375
vn 0.2391 -0.6544 -0.7174
vn -0.9541 0.2990 0.0139
vn -0.9541 0.2991 0.0139
vn -0.2434 -0.6505 0.7195
vn 0.0159 0.3018 0.9532
vn 0.3029 0.2877 0.9086
vn 0.7173 -0.6544 0.2391
vn -0.2434 -0.6504 0.7195
vn 0.9532 0.3018 -0.0159
vn 0.9079 0.2868 -0.3057
vn 0.2391 -0.6544 -0.7173
vn 0.7174 -0.6544 0.2391
vn -0.3019 0.2834 -0.9103
vn 0.8660 -0.4082 0.2887
vn -0.2357 -0.6667 0.7071
vn 0.0000 -0.1975 0.9803
vn 0.9994 -0.0350 0.0000
vn -0.0000 0.0360 0.9994
vn -0.9994 -0.0350 -0.0000
vn 0.0000 -0.1188 0.9929
vn -0.7428 0.6695 -0.0000
vn -0.0000 0.9379 0.3469
vn 0.8571 0.5151 -0.0000
vn 0.0000 -0.1188 -0.9929
vn 0.0000 0.0359 0.9994
vn 0.9865 -0.1636 -0.0000
vn -0.0018 -0.3688 0.9295
vn -0.9869 -0.1615 -0.0000
vn 0.0000 0.0360 -0.9994
vn -0.0019 -0.3688 -0.9295
vn -0.0000 -0.1975 -0.9803
vn 0.0000 0.9636 -0.2673
vn -0.9974 -0.0725 0.0000
vn -0.0018 -0.3688 -0.9295
vn -0.0017 -0.3688 0.9295
vn -0.0017 0.7618 0.6478
vn 0.9970 -0.0769 -0.0000
vn -0.0017 -0.3688 -0.9295
vn -0.0017 0.7618 -0.6478
vn -0.5704 0.7998 -0.1869
vn -0.2458 -0.6524 -0.7169
vn -0.7258 -0.6457 0.2372
vn -0.1925 0.8028 0.5643
vn 0.2341 0.6680 -0.7064
vn 0.7173 -0.6544 -0.2391
vn -0.1925 0.8028 0.5644
vn 0.2370 -0.6554 0.7172
vn 0.4629 0.8729 0.1543
vn 0.2370 -0.6554 0.7171
vn 0.8572 0.5151 0.0000
vn 0.2342 0.6679 -0.7064
vn -0.7000 0.0177 0.7139
vn -0.4457 0.2903 -0.8468
vn -0.8308 0.5011 -0.2420
vn -0.7003 0.0719 0.7102
vn -0.7000 0.0182 0.7139
vn -0.7412 0.1258 -0.6594
vn -0.5595 0.5727 0.5991
vn -0.8562 0.1860 0.4820
vn -0.7412 0.1259 -0.6594
vn -0.7366 0.2125 0.6421
vn -0.7424 0.2680 -0.6140
vn -0.9373 0.2578 0.2344
vn -0.8135 0.5606 -0.1546
vn -0.8317 0.0220 0.5548
vn -0.9997 0.0258 0.0000
vn -0.9118 -0.0598 -0.4064
vn 0.8957 0.0314 0.4435
vn 0.5656 0.0460 0.8234
vn 0.8826 0.3085 -0.3549
vn 0.7028 0.2447 -0.6680
vn 0.7062 0.3243 -0.6293
vn 0.5777 -0.1629 -0.7998
vn -0.3380 -0.2002 -0.9196
vn -0.7102 0.2448 -0.6601
vn 0.6024 0.0787 -0.7943
vn -0.7102 0.2448 -0.6600
vn -0.8943 0.0596 -0.4435
vn -0.3982 0.3699 -0.8394
vn 0.9105 0.0895 -0.4037
vn 0.7377 -0.1173 -0.6649
vn 0.8956 0.1160 0.4295
vn 0.5625 0.4704 0.6800
vn 0.7339 0.4048 0.5454
vn 0.8096 0.4251 0.4048
vn 0.8159 0.4877 -0.3105
vn 0.7453 0.0368 -0.6657
vn 0.9485 0.0243 0.3159
vn 0.9998 0.0182 -0.0007
vn 0.4063 0.4173 0.8129
vn -0.4045 0.8201 0.4047
vn -0.8317 0.0219 0.5547
vn -0.8317 0.0220 0.5547
vn 0.9485 0.0229 0.3159
vn 0.8096 0.4251 0.4049
vn 0.5625 0.4704 0.6799
vn -0.8564 0.1827 0.4829
vn 0.8956 0.1159 0.4295
vn 0.8957 0.0315 0.4435
vn 0.4440 0.8960 -0.0000
vn 0.8160 0.4876 -0.3105
vn -0.6979 0.7161 0.0000
vn 0.7454 0.0368 -0.6656
vn 0.9105 0.0896 -0.4037
vn 0.7377 -0.1174 -0.6648
vn 0.3982 0.7799 -0.4829
vn 0.8825 0.3084 -0.3549
vn -0.8308 0.5012 -0.2420
vn 0.6024 0.0788 -0.7943
vn -0.8943 0.0596 -0.4436
vn 0.8825 0.3085 -0.3549
vn 0.5657 0.0460 0.8234
vn -0.9118 -0.0598 -0.4063
vn -0.6979 0.7162 -0.0000
vn 0.6978 0.6456 -0.3104
vn 0.9929 0.0018 -0.1192
vn 0.9931 0.0020 -0.1169
vn 0.6978 0.6456 -0.3105
vn 0.9931 0.0021 -0.1169
vn 0.4442 0.8944 -0.0521
vn -0.7072 0.6786 -0.1982
vn -0.7023 0.7071 -0.0823
vn -0.9933 -0.0019 -0.1156
vn -0.9938 -0.0027 -0.1110
vn -0.9938 -0.0028 -0.1111
vn -0.5466 0.6194 -0.5635
vn -0.6818 0.2220 -0.6970
vn 0.6783 0.0828 -0.7301
vn -0.4239 -0.0549 -0.9040
vn 0.6656 -0.0536 -0.7444
vn 0.5403 0.5186 -0.6627
vn -0.6818 0.2221 -0.6970
vn 0.6782 0.0828 -0.7302
vn -0.7023 0.7071 -0.0821
vn 0.5403 0.5186 -0.6626
vn 0.9930 -0.0041 -0.1181
vn 0.6655 -0.0536 -0.7444
vn -0.9935 0.0075 -0.1140
vn -0.7832 0.5901 0.1962
vn -0.9982 0.0541 0.0256
vn -0.4375 0.8992 0.0111
vn -0.9981 0.0563 0.0259
vn -0.7832 0.5901 0.1961
vn -0.9982 0.0530 0.0276
vn -0.9981 0.0564 0.0268
vn 0.7861 0.6087 0.1076
vn 0.9984 0.0503 0.0251
vn 0.9985 0.0486 0.0248
vn 0.6883 0.7252 0.0184
vn 0.6883 0.7252 0.0175
vn 0.5450 0.7058 0.4526
vn 0.7861 0.6086 0.1076
vn -0.5437 0.6534 0.5267
vn 0.5503 0.5070 0.6634
vn -0.5489 0.4050 0.7312
vn 0.6973 0.2067 0.6863
vn -0.6992 0.1428 0.7005
vn 0.5517 -0.0070 0.8340
vn -0.6992 0.1429 0.7005
vn -0.5559 -0.0924 0.8261
vn 0.4525 -0.3643 0.8140
vn -0.7142 -0.2655 0.6476
vn -0.4492 -0.5203 0.7263
vn 0.7080 -0.3932 0.5866
vn -0.9984 0.0537 0.0198
vn -0.9984 0.0536 0.0197
vn 0.9984 0.0503 0.0238
vn 0.5503 0.5071 0.6634
vn 0.9984 0.0504 0.0238
vn 0.9983 0.0506 0.0298
vn 0.4525 -0.3643 0.8139
vn 0.7080 -0.3932 0.5867
vn -0.1208 -0.8005 0.5871
vn -0.7386 -0.2790 0.6137
vn -0.5635 -0.5557 -0.6113
vn 0.1208 -0.8005 -0.5870
vn -0.7385 -0.2790 0.6138
vn -0.5592 0.5577 0.6134
vn -0.7413 0.2777 -0.6110
vn -0.5634 -0.5558 -0.6113
vn -0.5593 0.5576 0.6134
vn 0.1237 0.8002 0.5868
vn -0.1237 0.8002 -0.5868
vn 0.7400 0.2783 0.6123
vn 0.5613 0.5567 -0.6124
vn 0.7399 0.2784 0.6124
vn 0.5614 -0.5567 0.6123
vn 0.7399 -0.2784 -0.6124
vn 0.5614 0.5567 -0.6123
vn 0.5613 -0.5567 0.6124
vn 0.7400 -0.2783 -0.6123
vn 0.7400 0.2783 0.6124
vn 0.0025 -0.0000 1.0000
vn -0.0025 0.0000 -1.0000
vn 0.1208 -0.8005 -0.5871
vn 0.7400 -0.2783 -0.6124
vn -0.1895 -0.9819 -0.0000
vn -0.6034 -0.5219 -0.6029
vn 0.1508 -0.7832 -0.6032
vn 0.7562 -0.6544 0.0000
vn -0.9450 -0.3271 0.0000
vn -0.7539 0.2609 -0.6029
vn -0.7564 0.6541 0.0000
vn -0.1512 0.7831 -0.6032
vn -0.1511 0.7832 -0.6032
vn 0.1891 0.9820 0.0000
vn 0.6033 0.5220 -0.6029
vn 0.6032 0.5221 -0.6030
vn 0.9450 0.3272 -0.0000
vn 0.7539 -0.2610 -0.6030
vn 0.7538 -0.2610 -0.6030
vn 0.9450 0.3272 -0.0001
vn -0.0000 0.0000 -1.0000
vn -0.1512 0.7832 -0.6032
vn 0.6033 0.5220 -0.6030
vn -0.1927 -0.9812 0.0081
vn -0.6410 -0.5516 -0.5337
vn -0.9453 -0.3260 0.0081
vn -0.1928 -0.9812 0.0081
vn 0.1585 -0.8309 -0.5333
vn 0.7558 -0.6548 0.0081
vn 0.8002 -0.2772 -0.5318
vn 0.9449 0.3273 0.0081
vn 0.6391 0.5532 -0.5344
vn 0.1872 0.9823 0.0082
vn -0.1623 0.8279 -0.5369
vn -0.7583 0.6519 0.0081
vn -0.7986 0.2752 -0.5353
vn -0.9453 -0.3261 0.0081
vn -0.6348 -0.5462 0.5465
vn 0.1570 -0.8229 0.5461
vn -0.7908 0.2725 0.5481
vn -0.7908 0.2726 0.5481
vn -0.1607 0.8197 0.5497
vn -0.1607 0.8198 0.5497
vn 0.6328 0.5479 0.5471
vn 0.6329 0.5478 0.5471
vn 0.7925 -0.2745 0.5446
vn -0.1599 -0.8193 0.5506
vn -0.7147 -0.4110 -0.5659
vn 0.1423 -0.7448 -0.6520
vn 0.7831 -0.4520 0.4272
vn -0.5985 -0.3446 0.7232
vn -0.7926 0.2739 0.5448
vn -0.5735 0.4942 -0.6533
vn -0.1599 0.8193 0.5506
vn 0.1423 0.7448 -0.6520
vn 0.6327 0.5476 0.5476
vn 0.7136 0.2467 -0.6557
vn 0.5357 -0.3085 -0.7861
vn 0.0000 -0.0000 1.0000
vn -0.0015 -0.9498 -0.3130
vn -0.8229 -0.4748 -0.3120
vn -0.0038 0.0006 -1.0000
vn 0.8215 -0.4762 -0.3137
vn -0.8226 0.4753 -0.3120
vn -0.0016 0.9499 -0.3126
vn -0.0039 0.0006 -1.0000
vn 0.8213 0.4765 -0.3137
vn 0.8213 0.4766 -0.3136
vn 0.4450 -0.8944 0.0450
vn 0.7258 -0.5823 0.3662
vn -0.4766 -0.7648 0.4336
vn -0.7034 -0.7071 0.0726
vn 0.9136 0.4059 -0.0223
vn 0.9647 0.2439 0.0991
vn -0.8905 0.4458 0.0911
vn -0.9218 0.3632 -0.1359
vn -0.6681 -0.3487 -0.6573
vn -0.7842 -0.1472 -0.6028
vn 0.7723 -0.3900 -0.5015
vn 0.8858 -0.2468 -0.3929
vn 0.7502 0.3715 -0.5470
vn 0.9136 0.4059 -0.0224
vn -0.7518 0.2477 -0.6111
vn -0.5805 0.1389 -0.8023
vn 0.6945 0.3034 -0.6524
vn 0.7591 -0.4406 -0.4792
vn -0.7506 -0.5686 -0.3367
vn 0.7543 -0.5616 -0.3402
vn -0.7621 -0.4220 -0.4911
vn 0.7543 -0.5615 -0.3402
vn 0.6412 -0.0886 -0.7622
vn -0.8777 -0.0653 -0.4748
vn -0.5839 0.7713 -0.2532
vn 0.5887 0.7025 -0.3999
vn 0.5027 0.7070 -0.4975
vn -0.7747 0.5298 -0.3452
vn -0.5805 0.0456 -0.8129
vn -0.7515 0.2114 -0.6249
vn 0.5893 0.1335 -0.7968
vn 0.7433 0.0621 -0.6661
vn 0.9605 -0.0664 0.2701
vn 0.9566 -0.0558 0.2860
vn 0.7722 -0.3901 -0.5015
vn -0.5806 0.0456 -0.8129
vn 0.7433 0.0620 -0.6661
vn -0.3599 -0.6075 -0.7081
vn 0.3640 -0.2836 -0.8872
vn 0.7131 -0.6505 -0.2612
vn -0.8367 -0.5240 -0.1592
vn -0.6680 -0.3488 -0.6573
vn 0.7131 -0.6505 -0.2613
vn 0.9772 -0.0413 0.2084
vn -0.9397 0.1192 0.3205
vn -0.0020 0.2369 0.9715
vn -0.0044 0.4997 0.8662
vn -0.9323 0.0505 0.3581
vn -0.0024 0.0038 1.0000
vn -0.9705 0.0007 0.2410
vn -0.9461 -0.0457 0.3207
vn -0.9461 -0.0456 0.3207
vn -0.0000 -0.1763 0.9843
vn -0.0000 -0.2071 0.9783
vn 0.0000 -0.1764 0.9843
vn -0.9556 -0.0686 0.2865
vn -0.0006 -0.1740 0.9847
vn -0.9648 -0.0529 0.2577
vn -0.0042 -0.1244 0.9922
vn -0.0042 -0.1243 0.9922
vn -0.9781 -0.0399 0.2043
vn -0.0061 -0.8359 0.5489
vn -0.9781 -0.0399 0.2042
vn -0.0061 -0.8358 0.5490
vn -0.8367 -0.5240 -0.1593
vn 0.9606 -0.0664 0.2701
vn 0.9450 -0.0470 0.3238
vn 0.9606 -0.0664 0.2700
vn 0.9697 0.0012 0.2442
vn 0.9390 0.1154 0.3241
vn 0.9271 0.2148 0.3070
vn 0.9315 0.0504 0.3603
vn -0.0020 0.2368 0.9715
vn -0.0004 0.8988 0.4383
vn -0.0027 0.7157 0.6984
vn 0.9177 0.3049 0.2547
vn 0.9017 0.3981 0.1687
vn 0.9271 0.2149 0.3070
vn -0.0027 0.7158 0.6983
vn -0.9287 0.2111 0.3049
vn -0.0005 0.9989 -0.0469
vn 0.0000 0.9840 0.1780
vn 0.8337 0.5481 0.0671
vn 0.6945 0.3035 -0.6524
vn -0.9018 0.3986 0.1667
vn -0.0039 0.7557 -0.6549
vn -0.5806 0.1389 -0.8023
vn -0.8343 0.5475 0.0652
vn -0.0005 0.9989 -0.0468
vn -0.0000 0.9840 0.1781
vn -0.8343 0.5474 0.0652
vn -0.9189 0.2994 0.2569
vn 0.5887 0.7026 -0.3999
vn -0.5965 0.4862 -0.6386
vn 0.5986 0.3262 -0.7316
vn -0.7468 0.0496 -0.6632
vn 0.7466 -0.0344 -0.6643
vn -0.7479 -0.2122 -0.6290
vn 0.7454 -0.3228 -0.5833
vn -0.6333 -0.6329 -0.4453
vn 0.5615 -0.6135 0.5552
vn -0.5667 -0.7346 0.3730
vn 0.8625 -0.4323 -0.2629
vn 0.6149 -0.7880 -0.0313
vn -0.6333 -0.6329 -0.4454
vn -0.8411 -0.5404 0.0222
vn -0.5668 -0.7346 0.3730
vn 0.8626 -0.4322 -0.2630
vn -0.9189 0.2993 0.2569
vn -0.0004 0.8989 0.4383
vn -0.0024 0.0037 1.0000
vn 0.9697 0.0013 0.2441
vn -0.7748 0.5297 -0.3451
vn 0.7542 -0.5615 -0.3403
vn 0.4449 -0.8944 0.0451
vn 0.9647 0.2439 0.0990
vn 0.5616 -0.6135 0.5552
vn 0.7543 -0.5615 -0.3403
vn 0.7591 -0.4406 -0.4793
vn 0.9177 0.3049 0.2546
vn 0.6412 -0.0886 -0.7623
vn 0.7502 0.3714 -0.5470
vn 0.7132 -0.6505 -0.2613
vn -0.0061 -0.8358 0.5489
vn 0.7466 -0.0345 -0.6644
vn 0.8625 -0.4323 -0.2630
vn -0.5805 0.0457 -0.8130
vn -0.5805 0.0456 -0.8130
vn -0.6333 -0.6330 -0.4453
vn -0.9157 0.0625 -0.3969
vn -0.6546 0.5463 0.5226
vn -0.4305 0.5394 -0.7237
vn -0.8202 0.1635 0.5483
vn -0.9941 0.0179 -0.1071
vn -0.6516 0.5847 0.4832
vn -0.8202 0.1636 0.5483
vn -0.4647 -0.1109 0.8785
vn 0.7896 0.0977 -0.6058
vn 0.6655 0.1871 0.7225
vn 0.8041 0.4657 0.3695
vn 0.4415 0.8887 -0.1236
vn 0.9945 0.0153 -0.1037
vn 0.6630 0.2380 0.7098
vn 0.7434 -0.0825 0.6638
vn 0.7896 0.0978 -0.6057
vn 0.7896 0.0969 -0.6059
vn -0.9158 0.0625 -0.3969
vn -0.6545 0.5463 0.5226
vn 0.4415 0.8887 -0.1235
vn -0.8202 0.1636 0.5482
vn -0.4648 -0.1108 0.8785
vn -0.4648 -0.1118 0.8784
vn 0.8680 -0.3350 -0.3664
vn 0.4022 -0.8927 -0.2031
vn 0.6637 0.1366 -0.7354
vn 0.7071 0.6764 -0.2061
vn 0.8946 -0.4271 0.1312
vn 0.4101 -0.8992 -0.1526
vn -0.8691 -0.4834 -0.1049
vn -0.8941 0.4302 -0.1247
vn -0.6641 0.5457 -0.5111
vn -0.4022 -0.6107 -0.6821
vn -0.7068 -0.6749 0.2118
vn -0.8691 -0.4834 -0.1048
vn -0.4101 -0.6254 -0.6639
vn -0.6641 0.5458 -0.5110
vn 0.6637 0.1367 -0.7354
vn -0.7068 -0.6750 0.2117
vn -0.4102 -0.6254 -0.6638
vn 0.8681 -0.3350 -0.3664
vn 0.4102 -0.8992 -0.1526
vn -0.4101 -0.6253 -0.6639
vn -0.8691 -0.4833 -0.1049
vn 0.4022 -0.8927 -0.2032
vn -0.9941 0.0180 -0.1072
usemtl w22sw11_TEX_w22sw11
s 1
f 1/1/1 2/2/2 3/3/3
f 2/2/2 1/1/1 4/4/4
f 5/5/5 4/4/4 1/1/1
f 4/4/4 5/5/5 6/6/6
f 7/7/7 6/6/6 5/5/5
f 6/6/6 7/7/7 8/8/8
f 3/3/9 8/8/8 7/7/7
f 8/8/8 3/3/9 2/2/10
f 9/9/11 10/10/12 11/11/13
f 10/10/12 9/9/11 12/12/14
f 1/1/1 12/12/14 9/9/11
f 12/12/14 1/1/1 3/3/9
f 12/12/15 13/13/16 10/10/12
f 13/13/16 12/12/15 14/14/17
f 3/3/9 14/14/17 12/12/15
f 14/14/17 3/3/9 7/7/18
f 14/14/17 15/15/19 13/13/20
f 15/15/19 14/14/17 16/16/21
f 7/7/18 16/16/21 14/14/17
f 16/16/21 7/7/18 5/5/22
f 16/16/21 11/11/23 15/15/24
f 11/11/23 16/16/21 9/9/11
f 5/5/5 9/9/11 16/16/21
f 9/9/11 5/5/5 1/1/25
f 4/17/4 6/18/26 8/19/27
f 8/19/27 2/20/2 4/17/4
f 17/21/28 19/22/29 18/23/30
f 18/23/30 20/24/31 17/21/28
f 21/25/32 17/21/28 20/24/31
f 20/24/31 22/26/33 21/25/32
f 23/27/34 21/25/32 22/26/33
f 24/28/35 21/25/32 23/27/34
f 21/25/32 24/28/35 19/22/29
f 25/29/36 19/22/29 24/28/35
f 19/22/29 17/21/28 21/25/32
f 18/23/37 27/30/38 26/31/39
f 26/31/39 28/32/40 18/23/37
f 20/24/31 18/23/37 28/32/40
f 28/32/40 29/33/41 20/24/31
f 27/30/38 18/23/30 19/22/29
f 19/22/29 29/33/41 27/30/38
f 30/34/42 27/30/38 29/33/41
f 29/33/41 28/32/40 30/34/42
f 19/22/29 31/35/43 29/33/41
f 31/35/43 19/22/29 25/29/36
f 25/29/36 24/28/35 32/36/44
f 32/36/44 22/26/33 25/29/36
f 20/24/31 25/29/36 22/26/33
f 20/24/31 29/33/41 31/35/43
f 20/24/31 31/35/43 25/29/36
f 33/37/45 30/38/46 28/39/40
f 28/39/40 26/40/47 33/37/45
f 34/41/48 33/37/45 26/40/47
f 26/40/47 35/42/49 34/41/48
f 30/38/50 33/37/45 36/43/51
f 36/43/51 35/42/49 30/38/50
f 27/44/38 30/38/50 35/42/49
f 35/42/49 26/40/39 27/44/38
f 36/45/51 34/46/48 35/47/49
f 34/46/48 36/45/51 33/48/45
f 37/49/52 39/50/53 38/51/54
f 38/51/54 40/52/55 37/49/52
f 39/50/53 37/49/52 41/53/56
f 41/53/56 42/54/57 39/50/53
f 40/52/58 38/51/54 43/55/59
f 43/55/59 44/56/60 40/52/58
f 44/56/60 43/55/61 42/54/57
f 42/54/57 41/53/56 44/56/60
f 38/57/54 13/58/20 43/59/59
f 13/58/20 38/57/54 10/60/12
f 39/61/53 10/60/12 38/57/54
f 10/60/12 39/61/53 11/62/23
f 42/63/57 11/62/23 39/61/53
f 11/62/23 42/63/57 15/64/19
f 43/59/61 15/64/19 42/63/57
f 15/64/19 43/59/61 13/58/16
f 44/65/60 32/66/44 24/67/62
f 24/67/35 23/68/34 44/65/60
f 40/69/58 44/65/60 23/68/34
f 23/68/34 22/70/33 40/69/58
f 37/71/52 40/69/58 22/70/33
f 22/70/33 32/66/44 37/71/52
f 41/72/63 37/71/52 32/66/44
f 32/66/44 44/65/60 41/72/63
f 45/73/64 47/74/65 46/75/66
f 46/75/66 48/76/67 45/73/68
f 49/77/69 50/78/70 51/79/71
f 50/78/70 49/77/72 52/80/73
f 53/81/74 52/80/73 49/77/72
f 52/80/73 53/81/74 54/82/75
f 55/83/76 54/82/75 53/81/74
f 54/82/75 55/83/76 56/84/77
f 57/85/78 56/84/77 55/83/76
f 49/77/69 51/79/71 58/86/79
f 59/87/80 61/88/81 60/89/82
f 60/89/82 62/90/83 59/87/80
f 63/91/84 65/92/85 64/93/86
f 64/93/86 66/94/87 63/91/84
f 67/95/88 63/91/84 66/94/87
f 66/94/89 68/96/90 67/95/88
f 69/97/91 67/95/88 68/96/90
f 70/98/92 72/99/93 71/100/94
f 71/100/94 73/101/95 70/98/92
f 74/102/96 70/98/92 73/101/95
f 75/103/97 76/104/98 77/105/99
f 76/104/98 75/103/97 78/106/100
f 77/105/99 74/102/96 75/103/97
f 74/102/96 77/105/99 70/98/92
f 76/104/98 78/106/100 79/107/101
f 80/108/102 81/109/103 56/84/104
f 56/84/105 78/110/106 80/108/102
f 75/111/97 54/82/75 81/109/103
f 81/109/103 80/108/102 75/111/97
f 75/111/97 74/112/96 52/80/73
f 52/80/73 54/82/75 75/111/107
f 73/113/108 71/114/94 51/115/109
f 51/115/71 50/116/70 73/113/108
f 74/117/96 73/113/108 50/116/70
f 50/116/70 52/118/73 74/117/96
f 71/114/110 61/119/81 48/120/67
f 48/120/67 51/115/109 71/114/110
f 45/121/68 48/120/67 61/119/81
f 61/119/81 59/122/111 45/121/68
f 55/123/76 76/124/98 82/125/112
f 76/124/113 55/123/76 53/126/74
f 55/123/76 82/125/112 83/127/114
f 53/126/74 77/128/115 76/124/98
f 77/128/115 53/126/74 49/129/72
f 49/129/69 70/130/116 77/128/99
f 70/130/92 49/129/69 72/131/93
f 58/132/79 72/131/93 49/129/69
f 64/93/86 65/92/85 72/131/117
f 72/131/93 58/132/79 64/93/86
f 46/133/66 60/134/82 84/135/118
f 84/135/118 69/97/91 46/133/66
f 47/136/65 62/137/83 60/134/119
f 60/134/119 46/133/120 47/136/65
f 67/95/121 69/97/91 84/135/118
f 68/138/122 48/76/67 46/75/66
f 46/75/66 69/139/91 68/138/122
f 48/76/67 68/138/90 51/79/109
f 60/89/123 61/88/124 71/100/94
f 71/100/94 67/140/88 60/89/123
f 84/141/118 60/89/123 67/140/88
f 51/79/109 68/138/90 66/142/87
f 58/86/125 51/79/109 66/142/87
f 66/142/87 64/143/86 58/86/125
f 54/82/75 56/84/77 81/109/103
f 57/85/78 55/83/76 83/144/126
f 75/103/97 80/145/102 78/106/100
f 79/107/101 82/146/112 76/104/98
f 71/100/94 63/147/84 67/140/88
f 63/147/84 71/100/94 72/99/93
f 63/147/84 72/99/93 65/148/85
f 85/149/127 86/150/128 87/151/129
f 85/149/130 87/151/131 88/152/132
f 89/153/133 90/154/134 91/155/135
f 92/156/136 89/153/133 91/155/135
f 89/153/133 92/156/137 93/157/138
f 94/158/139 93/157/138 92/156/137
f 95/159/140 94/160/139 96/161/141
f 95/159/140 96/161/141 97/162/142
f 98/163/143 93/164/138 94/160/144
f 93/164/138 98/163/143 85/165/130
f 98/163/143 94/160/139 95/159/145
f 89/166/133 93/164/138 85/165/130
f 85/165/130 88/167/132 89/166/133
f 90/168/146 89/166/133 88/167/132
f 98/169/147 86/150/128 85/149/127
f 86/150/128 98/169/147 95/170/145
f 99/171/148 95/170/145 97/172/149
f 95/170/145 99/171/148 86/150/128
f 94/158/139 100/173/150 96/174/141
f 100/173/150 94/158/139 92/156/137
f 101/175/151 103/176/152 102/177/153
f 104/178/154 103/176/152 101/175/151
f 101/175/155 105/179/156 104/178/157
f 106/180/158 108/181/159 107/182/160
f 106/180/158 109/183/161 108/181/159
f 106/184/158 102/185/153 109/186/162
f 106/184/158 101/187/155 102/185/153
f 110/188/163 101/187/155 106/184/164
f 110/188/163 111/189/165 101/187/155
f 112/190/166 111/189/165 110/188/163
f 112/190/166 113/191/167 111/189/165
f 114/192/168 113/191/167 112/190/166
f 114/192/168 115/193/169 113/191/167
f 116/194/170 115/193/171 114/192/168
f 117/195/172 115/193/169 116/194/170
f 116/194/170 118/196/173 117/195/172
f 118/196/173 119/197/174 117/195/172
f 119/197/174 118/196/173 120/198/175
f 118/196/173 121/199/176 120/198/175
f 111/200/165 105/179/156 101/175/155
f 105/179/156 111/200/165 113/201/167
f 115/202/169 105/179/156 113/201/167
f 105/179/156 115/202/169 122/203/177
f 122/203/178 117/204/172 119/205/174
f 119/205/174 120/206/175 122/203/178
f 117/204/172 122/203/177 115/202/169
f 106/180/158 123/207/179 110/208/163
f 110/208/163 123/207/179 112/209/180
f 112/209/166 123/207/181 114/210/168
f 114/210/168 123/207/181 124/211/182
f 124/211/182 118/212/183 116/213/170
f 124/211/182 121/214/184 118/212/183
f 116/213/170 114/210/168 124/211/182
f 107/182/160 123/207/179 106/180/158
f 125/215/185 126/216/186 127/217/187
f 125/215/185 127/217/187 128/218/188
f 126/216/189 129/219/190 130/220/191
f 126/216/189 130/220/191 127/217/192
f 129/219/193 131/221/194 132/222/195
f 129/219/193 132/222/195 130/220/191
f 131/221/194 133/223/196 134/224/197
f 131/221/194 134/224/197 132/222/195
f 133/223/198 135/225/199 136/226/200
f 133/223/198 136/226/200 134/224/201
f 135/225/202 125/215/185 128/218/188
f 135/225/202 128/218/188 136/226/203
f 133/227/204 137/228/205 135/229/202
f 137/228/205 133/227/204 131/230/194
f 138/231/206 127/232/192 130/233/191
f 127/232/192 138/231/206 128/234/207
f 136/235/208 128/234/207 138/231/206
f 137/228/205 126/236/186 125/237/185
f 125/237/185 135/229/202 137/228/205
f 138/231/206 130/233/191 132/238/195
f 132/238/195 134/239/197 138/231/206
f 138/231/206 134/239/197 136/235/208
f 129/240/190 137/228/205 131/230/194
f 137/228/205 129/240/190 126/236/186
f 139/241/209 141/242/210 140/243/211
f 140/243/211 142/244/212 139/241/209
f 141/242/210 139/241/209 143/245/213
f 143/245/213 144/246/214 141/242/210
f 144/246/214 143/245/213 145/247/215
f 145/247/215 146/248/216 144/246/214
f 146/248/217 145/247/215 147/249/218
f 147/249/218 148/250/219 146/248/217
f 148/250/220 147/249/218 149/251/221
f 149/251/221 150/252/222 148/250/220
f 150/252/223 149/251/224 142/244/212
f 142/244/212 140/243/211 150/252/223
f 151/253/225 141/254/210 144/255/214
f 141/254/210 151/253/225 140/256/211
f 150/257/223 140/256/211 151/253/225
f 151/253/225 144/255/214 146/258/226
f 146/258/226 148/259/227 151/253/225
f 150/257/223 151/253/225 148/259/227
f 152/260/228 153/261/229 154/262/230
f 153/261/229 152/260/231 155/263/232
f 156/264/233 155/263/232 152/260/231
f 155/263/232 156/264/233 157/265/234
f 158/266/235 157/265/234 156/264/233
f 157/265/234 158/266/235 159/267/236
f 160/268/237 159/267/236 158/266/235
f 159/267/236 160/268/237 161/269/238
f 162/270/239 161/269/238 160/268/237
f 161/269/238 162/270/239 163/271/240
f 154/262/241 163/271/240 162/270/239
f 163/271/240 154/262/241 153/261/229
f 152/260/231 165/272/242 164/273/243
f 164/273/243 156/264/233 152/260/231
f 165/272/242 152/260/228 154/262/230
f 154/262/230 166/274/244 165/272/242
f 166/274/245 154/262/241 162/270/239
f 162/270/239 167/275/246 166/274/245
f 167/275/247 162/270/239 160/268/237
f 160/268/237 168/276/248 167/275/247
f 168/276/249 160/268/237 158/266/235
f 158/266/235 169/277/250 168/276/249
f 169/277/250 158/266/235 156/264/233
f 156/264/233 164/273/243 169/277/250
f 170/278/251 172/279/252 171/280/253
f 171/280/253 173/281/254 170/278/251
f 172/279/252 170/278/251 174/282/255
f 174/282/255 175/283/256 172/279/252
f 176/284/257 172/279/252 175/283/256
f 175/283/256 177/285/258 176/284/257
f 178/286/259 176/284/257 177/285/258
f 177/285/258 179/287/260 178/286/259
f 180/288/261 178/286/259 179/287/260
f 179/287/260 173/281/254 180/288/261
f 181/289/262 180/288/261 173/281/254
f 173/281/254 171/280/253 181/289/262
f 175/290/256 182/291/263 177/292/258
f 173/293/254 179/294/260 182/291/263
f 179/294/260 177/292/258 182/291/263
f 182/291/263 170/295/251 173/293/254
f 175/290/256 174/296/255 182/291/263
f 174/296/255 170/295/251 182/291/263
f 183/297/264 185/298/265 184/299/266
f 184/299/266 186/300/267 183/297/264
f 187/301/268 184/299/266 185/298/265
f 188/302/269 184/299/270 187/301/268
f 189/303/271 184/299/266 188/302/269
f 186/300/267 184/299/266 189/303/272
f 172/304/252 190/305/225 171/306/253
f 190/305/225 172/304/252 176/307/257
f 171/306/253 190/305/225 181/308/262
f 190/305/225 176/307/257 178/309/259
f 178/309/259 180/310/261 190/305/225
f 190/305/225 180/310/261 181/308/262
f 191/311/273 192/312/274 193/313/275
f 191/311/273 193/313/275 194/314/276
f 195/315/277 196/316/278 197/317/279
f 195/315/277 197/317/279 198/318/280
f 199/319/281 200/320/282 201/321/283
f 199/319/281 201/321/283 202/322/284
f 203/323/285 195/324/286 198/325/280
f 203/323/285 198/325/280 204/326/287
f 205/327/288 206/328/289 207/329/290
f 205/327/288 207/329/290 208/330/291
f 209/331/292 210/332/293 208/333/291
f 209/331/294 208/333/291 207/334/290
f 211/335/295 203/323/285 204/326/287
f 211/335/295 204/326/287 212/336/296
f 213/337/297 214/338/298 215/339/299
f 213/337/297 215/339/299 216/340/300
f 217/341/301 218/342/302 219/343/303
f 217/341/301 219/343/303 220/344/304
f 221/345/305 220/346/304 219/347/303
f 222/348/306 220/346/304 221/345/305
f 220/346/304 222/348/306 201/349/307
f 200/350/282 217/341/308 220/344/309
f 200/350/282 220/344/309 201/351/307
f 223/352/310 224/353/311 225/354/312
f 223/352/310 225/354/312 226/355/313
f 224/353/311 223/352/310 199/319/314
f 224/353/311 199/319/314 202/322/284
f 225/356/315 224/357/311 202/358/284
f 227/359/316 225/356/315 202/358/284
f 202/358/284 201/349/283 227/359/316
f 222/348/306 227/359/316 201/349/283
f 228/360/317 229/361/318 230/362/319
f 231/363/320 229/361/318 228/360/317
f 229/361/318 231/363/320 232/364/321
f 233/365/322 232/364/321 231/363/320
f 232/364/321 233/365/322 234/366/323
f 232/364/321 234/366/324 235/367/325
f 236/368/326 235/367/327 237/369/328
f 237/369/328 238/370/329 236/368/326
f 234/366/323 237/369/328 235/367/327
f 239/371/330 238/370/329 237/369/328
f 240/372/331 238/370/329 239/371/330
f 238/370/329 240/372/331 222/373/306
f 240/372/332 239/371/330 241/374/333
f 242/375/334 240/372/332 241/374/335
f 242/375/336 241/374/335 226/376/337
f 227/377/316 242/375/336 225/378/315
f 240/372/331 242/375/336 227/377/316
f 240/372/331 227/377/316 222/373/306
f 236/368/326 238/370/329 221/379/338
f 238/370/329 222/373/306 221/379/305
f 243/380/339 235/367/327 221/379/340
f 235/367/327 243/380/339 232/364/321
f 244/381/341 232/364/321 243/380/339
f 235/367/327 236/368/326 221/379/338
f 230/362/319 229/361/318 245/382/342
f 245/382/342 246/383/343 230/362/319
f 229/361/318 247/384/344 245/382/342
f 247/384/344 229/361/345 232/364/321
f 248/385/346 250/386/347 249/387/348
f 249/387/348 251/388/349 248/385/346
f 250/386/347 246/383/350 249/387/348
f 246/383/343 250/386/351 230/362/319
f 252/389/352 230/362/319 250/386/351
f 253/390/353 255/391/354 254/392/355
f 254/392/355 206/393/356 253/390/353
f 255/391/354 251/388/349 254/392/355
f 251/388/349 255/391/354 248/385/346
f 256/394/357 248/385/346 255/391/354
f 253/390/353 206/393/356 257/395/358
f 205/396/359 258/397/360 253/390/361
f 205/396/288 253/390/353 257/395/358
f 258/397/360 255/391/354 253/390/353
f 256/394/357 255/391/362 258/397/363
f 259/398/364 250/386/347 248/385/346
f 252/389/352 250/386/351 259/398/364
f 214/338/365 213/337/297 260/399/366
f 261/400/367 214/338/365 260/399/366
f 260/399/366 262/401/368 261/400/367
f 263/402/369 261/400/367 262/401/368
f 262/401/368 264/403/370 263/402/369
f 265/404/371 263/402/369 264/403/370
f 264/403/370 266/405/372 265/404/371
f 267/406/373 268/407/374 193/408/275
f 267/406/373 193/408/275 192/409/274
f 265/404/371 266/405/372 269/410/375
f 270/411/376 266/405/377 271/412/378
f 271/412/378 268/407/379 270/411/376
f 267/406/373 270/411/376 268/407/374
f 266/405/377 270/411/376 269/410/380
f 259/398/381 248/385/382 256/394/357
f 228/360/317 230/362/319 252/389/352
f 247/384/344 232/364/383 244/381/384
f 218/342/302 216/413/385 215/414/299
f 218/342/302 215/414/299 219/343/303
f 211/335/295 212/336/296 210/332/293
f 211/335/295 210/332/293 209/331/386
f 192/415/274 191/416/387 196/417/388
f 267/418/373 192/415/274 196/417/388
f 196/417/388 270/419/376 267/418/389
f 209/420/390 207/421/391 251/422/349
f 249/423/348 209/420/390 251/422/349
f 209/420/294 249/423/392 211/424/393
f 195/425/286 247/426/344 244/427/341
f 247/426/344 195/425/286 245/428/342
f 207/421/290 206/429/356 254/430/355
f 245/428/342 195/425/286 203/431/285
f 203/431/394 246/432/343 245/428/342
f 249/423/392 246/432/343 211/424/393
f 215/433/299 221/345/305 219/347/303
f 221/345/305 215/433/299 214/434/298
f 226/435/337 225/436/395 242/437/396
f 206/438/289 205/439/288 257/440/358
f 214/434/365 261/441/367 221/345/340
f 221/345/340 261/441/367 263/442/369
f 263/442/369 243/443/339 221/345/340
f 207/421/391 254/430/355 251/422/349
f 265/444/371 244/427/341 243/443/339
f 243/443/339 263/442/397 265/444/371
f 269/445/398 244/427/341 265/444/371
f 244/427/341 269/445/398 195/425/286
f 270/419/376 196/417/388 195/425/286
f 269/445/398 270/419/376 195/425/286
f 246/432/343 203/431/394 211/424/393
f 239/446/330 237/447/328 218/448/302
f 239/446/330 218/448/302 217/449/399
f 226/450/337 241/451/333 199/452/281
f 226/450/337 199/452/281 223/453/310
f 239/446/330 217/449/400 200/454/282
f 241/451/333 239/446/330 200/454/282
f 200/454/282 199/452/281 241/451/333
f 197/455/279 193/456/275 268/457/374
f 268/457/374 271/458/378 197/455/279
f 198/459/280 197/455/279 271/458/378
f 271/458/378 266/460/401 198/459/280
f 233/461/322 198/459/280 266/460/401
f 266/460/401 264/462/370 233/461/322
f 193/456/275 197/455/279 194/463/276
f 210/464/293 259/465/364 256/466/357
f 208/467/291 210/464/293 256/466/357
f 256/466/357 258/468/363 208/467/291
f 198/459/280 233/461/322 231/469/320
f 208/467/291 258/468/363 205/470/288
f 198/459/280 231/469/320 228/471/317
f 204/472/287 198/459/280 228/471/317
f 228/471/317 252/473/352 204/472/287
f 212/474/296 204/472/287 252/473/352
f 252/473/352 259/465/364 212/474/296
f 210/464/293 212/474/296 259/465/364
f 237/447/328 216/475/300 218/448/302
f 260/476/366 213/477/297 237/447/328
f 237/447/328 262/478/368 260/476/366
f 234/479/323 262/478/368 237/447/328
f 216/475/300 237/447/328 213/477/297
f 234/479/323 233/461/322 264/462/370
f 264/462/370 262/478/368 234/479/323
f 272/480/402 274/481/403 273/482/404
f 272/480/402 275/483/405 274/481/403
f 276/484/406 277/485/407 275/483/408
f 276/484/406 278/486/409 277/485/407
f 279/487/410 281/488/411 280/489/412
f 279/487/410 282/490/413 281/488/411
f 283/491/414 285/492/415 284/493/416
f 283/491/414 280/489/412 285/492/415
f 279/487/417 273/494/404 282/490/413
f 279/487/418 272/495/419 273/494/404
f 274/496/420 282/497/421 273/498/404
f 274/496/420 281/499/411 282/497/421
f 275/500/422 281/501/411 274/502/403
f 275/500/422 280/503/412 281/501/411
f 277/504/407 280/505/412 275/506/422
f 277/504/407 285/507/415 280/505/412
f 278/508/423 285/509/415 277/510/407
f 278/508/424 284/511/416 285/509/415
f 286/512/425 287/513/426 288/514/427
f 286/512/425 288/514/427 289/515/428
f 290/516/429 291/517/430 286/512/425
f 290/516/429 286/512/425 289/515/428
f 292/518/431 293/519/432 294/520/433
f 292/518/431 294/520/433 295/521/434
f 296/522/435 293/519/432 292/518/436
f 296/522/435 292/518/436 297/523/437
f 289/515/428 288/514/427 294/524/433
f 289/515/428 294/524/438 293/525/432
f 288/526/439 287/527/426 295/528/434
f 288/526/439 295/528/434 294/529/438
f 291/530/430 290/531/429 296/532/440
f 291/530/430 296/532/435 297/533/441
f 286/534/442 291/535/443 297/536/444
f 286/534/442 297/536/444 292/537/445
f 287/538/446 286/539/425 292/540/436
f 287/538/446 292/540/436 295/541/434
f 275/483/408 272/480/419 276/484/447
f 280/489/412 283/491/414 279/487/410
