# Blender v2.79 (sub 0) OBJ File: ''
# www.blender.org
mtllib w22sc03.mtl
o MDL_w22sc03_bod00
v -0.027500 0.625600 -0.020000
v 0.000000 0.455600 -0.043100
v 0.000000 0.622500 0.006300
v -0.028100 0.455600 -0.070000
v 0.000000 0.486300 -0.123800
v 0.000000 0.510600 -0.085600
v 0.000000 0.628100 -0.046300
v -0.030600 0.787500 -0.003700
v 0.000000 0.791900 0.023100
v 0.000000 0.783700 -0.035000
v -0.031900 0.931200 -0.046300
v 0.000000 0.945600 -0.023100
v 0.000000 0.915000 -0.072500
v -0.036200 1.050600 -0.143100
v 0.000000 1.073800 -0.123100
v 0.000000 1.029400 -0.165600
v 0.000000 0.284400 -0.010000
v -0.023700 0.257500 -0.039400
v 0.000000 0.170600 0.006900
v -0.020600 0.004400 -0.004400
v 0.000000 0.396900 -0.114400
v 0.000000 0.219400 -0.065000
v 0.000000 0.005000 -0.025600
v -0.033100 0.575000 0.005600
v -0.041900 0.713100 -0.078100
v -0.053800 0.718800 -0.065000
v -0.020600 0.565600 -0.006900
v -0.012500 0.535600 0.038800
v -0.051200 0.704400 -0.091900
v -0.031300 0.553100 -0.019400
v -0.010000 0.526900 0.020600
v -0.063100 0.710000 -0.078700
v -0.043700 0.562500 -0.006300
v -0.020600 0.509400 0.020000
v -0.032500 0.518100 0.038100
v -0.070000 0.929400 -0.151300
v -0.081900 0.931900 -0.137500
v -0.081200 0.924400 -0.165000
v -0.093700 0.926900 -0.151300
v -0.111200 1.113100 -0.183100
v -0.110000 1.094400 -0.235600
v -0.128100 1.104400 -0.201900
v -0.107500 1.155000 -0.200600
v -0.122500 1.150000 -0.223700
v -0.107500 1.195000 -0.225600
v -0.125600 1.145000 -0.257500
v -0.107500 1.206200 -0.269400
v 0.000000 0.498800 0.040000
v -0.012500 0.481200 0.039400
v -0.010600 0.483100 0.065600
v 0.000000 0.500600 0.066200
v 0.000000 0.483100 0.069400
v 0.013100 0.535600 0.038800
v 0.010600 0.526900 0.020600
v 0.000000 0.475000 0.020600
v -0.010600 0.281900 0.020600
v 0.000000 0.281300 0.033100
v 0.000000 0.170600 0.031300
v 0.000000 0.281900 0.010000
v 0.000000 0.005000 0.019400
v -0.010600 0.171300 0.019400
v -0.088700 1.267500 -0.281300
v -0.088700 1.245600 -0.193700
v -0.088700 1.217500 -0.355600
v -0.107500 1.181200 -0.306900
v -0.088700 1.100000 -0.386900
v -0.107500 1.135000 -0.315000
v -0.088700 1.034400 -0.339400
v -0.107500 1.102500 -0.280000
v -0.088700 1.060600 -0.280600
v -0.088700 1.165000 -0.143100
v -0.088700 1.087500 -0.162500
v -0.065000 1.028100 -0.237500
v -0.020000 1.316200 -0.291900
v -0.020000 1.289400 -0.165600
v 0.000000 1.247500 -0.396300
v -0.010000 1.135600 -0.101900
v 0.000000 1.006300 -0.208100
v -0.045000 0.933100 -0.281300
v 0.000000 0.914400 -0.283100
v 0.000000 0.936200 -0.322500
v -0.043700 0.960600 -0.315000
v -0.055000 1.013100 -0.336300
v -0.020600 1.030000 -0.369400
v 0.000000 1.000000 -0.358700
v 0.000000 1.093800 -0.415600
v -0.088700 1.037500 -0.268100
v 0.000000 1.054400 -0.393800
v 0.000000 1.030600 -0.395600
v 0.000000 0.444400 -0.132500
v -0.018100 -0.316900 -0.009400
v 0.000000 -0.316200 -0.028800
v 0.000000 -0.316200 0.011300
v -0.047500 -1.556200 0.045600
v 0.000000 -1.454400 0.005600
v 0.000000 -1.570600 -0.005600
v -0.026300 -1.445600 0.029400
v 0.000000 -1.219400 -0.000000
v -0.018100 -1.215600 0.016900
v 0.000000 -1.440000 0.053800
v 0.000000 -1.544400 0.098100
v 0.000000 -1.621300 0.083100
v 0.000000 -1.631300 0.046300
v 0.048100 -1.556200 0.045600
v 0.000000 -0.757500 0.015000
v 0.000000 -1.212500 0.034400
v -0.018100 -0.758100 -0.004400
v 0.000000 -0.757500 -0.023100
v -0.011900 -1.626300 0.065000
v 0.000000 -1.734400 0.078700
v -0.008800 -1.670000 0.026200
v 0.000000 -1.703800 0.003700
v -0.008800 -1.687500 0.075600
v 0.000000 -1.605600 -0.051900
v -0.008800 -1.661900 0.138800
v 0.000000 -1.701200 0.158100
v 0.000000 -1.721300 0.272500
v 0.000000 -1.637500 0.163700
v 0.000000 -1.632500 0.018100
v 0.018800 -0.758100 -0.004400
v 0.018800 -0.316900 -0.009400
v 0.028100 0.625600 -0.020000
v 0.028100 0.455600 -0.070000
v 0.030600 0.787500 -0.003700
v 0.032500 0.931200 -0.046300
v 0.036900 1.050600 -0.143100
v 0.024400 0.257500 -0.039400
v 0.020600 0.004400 -0.004400
v 0.042500 0.713100 -0.078100
v 0.033800 0.575000 0.005600
v 0.054400 0.718800 -0.065000
v 0.020600 0.565600 -0.006900
v 0.051900 0.704400 -0.091900
v 0.031300 0.553100 -0.019400
v 0.021300 0.509400 0.020000
v 0.013100 0.481200 0.039400
v 0.063100 0.710000 -0.078700
v 0.044400 0.562500 -0.006300
v 0.033100 0.518100 0.038100
v 0.010600 0.483100 0.065600
v 0.070600 0.929400 -0.151300
v 0.082500 0.931900 -0.137500
v 0.081900 0.924400 -0.165000
v 0.093800 0.926900 -0.151300
v 0.111300 1.113100 -0.183100
v 0.110600 1.094400 -0.235600
v 0.128800 1.104400 -0.201900
v 0.107500 1.155000 -0.200600
v 0.123100 1.150000 -0.223700
v 0.107500 1.195000 -0.225600
v 0.126300 1.145000 -0.257500
v 0.107500 1.206200 -0.269400
v 0.010600 0.281900 0.020600
v 0.010600 0.171300 0.019400
v 0.089400 1.267500 -0.281300
v 0.089400 1.245600 -0.193700
v 0.089400 1.165000 -0.143100
v 0.089400 1.087500 -0.162500
v 0.065000 1.028100 -0.237500
v 0.107500 1.102500 -0.280000
v 0.089400 1.060600 -0.280600
v 0.107500 1.135000 -0.315000
v 0.089400 1.034400 -0.339400
v 0.089400 1.100000 -0.386900
v 0.089400 1.217500 -0.355600
v 0.107500 1.181200 -0.306900
v 0.020600 1.316200 -0.291900
v 0.020600 1.289400 -0.165600
v 0.010000 1.135600 -0.101900
v 0.045600 0.933100 -0.281300
v 0.043800 0.960600 -0.315000
v 0.055600 1.013100 -0.336300
v 0.021300 1.030000 -0.369400
v 0.089400 1.037500 -0.268100
v 0.026900 -1.445600 0.029400
v 0.018700 -1.215600 0.016900
v 0.011900 -1.626300 0.065000
v 0.008700 -1.670000 0.026200
v 0.008700 -1.687500 0.075600
v 0.008700 -1.661900 0.138800
v -0.005600 0.549400 1.265000
v 0.005600 0.549400 1.265000
v 0.011900 0.763100 1.262500
v 0.000000 0.393800 1.295600
v -0.005600 0.538700 1.201900
v 0.016900 1.037500 1.165600
v -0.011300 0.763100 1.262500
v -0.016200 1.037500 1.165600
v 0.020600 1.265000 0.944400
v -0.020000 1.265000 0.944400
v 0.020600 1.370600 0.600000
v -0.020000 1.370600 0.600000
v 0.020600 1.347500 0.286200
v -0.020000 1.347500 0.286200
v -0.020000 1.401900 -0.066900
v 0.020600 1.401900 -0.066900
v 0.020600 1.493100 -0.282500
v -0.020000 1.236300 0.290600
v -0.020000 1.255000 0.588800
v 0.000000 1.147500 0.585000
v 0.000000 1.070000 0.843800
v 0.020600 1.255000 0.588800
v 0.000000 0.733700 1.153100
v -0.011300 0.737500 1.181900
v 0.000000 0.536200 1.184400
v 0.005600 0.538700 1.201900
v -0.016200 0.975600 1.090600
v 0.000000 0.923700 1.036200
v -0.020000 1.168800 0.886900
v 0.000000 1.114400 0.276900
v -0.020000 1.397500 -0.289400
v -0.016200 1.348100 -0.308100
v -0.020000 1.493100 -0.282500
v 0.000000 1.107500 -0.043700
v -0.020000 1.260600 -0.062500
v 0.020600 1.236300 0.290600
v 0.020600 1.397500 -0.289400
v 0.016300 1.348100 -0.308100
v 0.020600 1.260600 -0.062500
v 0.020600 1.168800 0.886900
v 0.016900 0.975600 1.090600
v 0.011900 0.737500 1.181900
v 0.000000 1.096900 -0.085000
v 0.000000 0.971200 0.091300
v 0.000000 0.853700 0.089400
v 0.000000 0.972500 0.170000
v 0.000000 1.036200 0.111200
v 0.000000 1.001900 0.112500
v 0.000000 1.042500 0.150000
v 0.000000 1.053800 0.085600
v 0.000000 1.111300 0.145600
v 0.000000 1.113100 0.093100
v 0.000000 0.970600 0.401900
v 0.000000 0.831900 0.393100
v 0.000000 0.968800 0.495000
v 0.000000 1.046200 0.429400
v 0.000000 1.006300 0.428800
v 0.000000 1.052500 0.475600
v 0.000000 1.068800 0.399400
v 0.000000 1.133700 0.473700
v 0.000000 1.138100 0.411900
v 0.000000 0.999400 0.636900
v 0.000000 0.893100 0.608100
v 0.000000 0.983700 0.708800
v 0.000000 1.054400 0.669400
v 0.000000 1.023100 0.663100
v 0.000000 1.051900 0.706300
v 0.000000 1.076200 0.650000
v 0.000000 1.115600 0.717500
v 0.000000 1.128700 0.670000
v 0.000000 0.876300 0.815000
v 0.000000 0.756900 0.721200
v 0.000000 0.816900 0.897500
v 0.000000 0.927500 0.886300
v 0.000000 0.891300 0.860600
v 0.000000 0.904400 0.931900
v 0.000000 0.966300 0.873700
v 0.000000 0.978700 0.980600
v 0.000000 1.021300 0.927500
v 0.000000 0.628100 1.092500
v 0.000000 0.620600 1.023700
v 0.000000 0.582500 1.099400
v 0.000000 0.621200 1.131300
v 0.000000 0.618100 1.111900
v 0.000000 0.599400 1.138100
v 0.000000 0.637500 1.140000
v 0.000000 0.606900 1.177500
v 0.000000 0.637500 1.174400
v 0.000000 0.783700 0.973100
v 0.000000 0.716900 0.884400
v 0.000000 0.726200 1.020600
v 0.000000 0.806900 1.033100
v 0.000000 0.785600 1.008700
v 0.000000 0.781900 1.061200
v 0.000000 0.836300 1.031300
v 0.000000 0.825000 1.109400
v 0.000000 0.865000 1.080000
vt 0.867200 0.726600
vt 0.992200 0.996100
vt 0.992200 0.726600
vt 0.867200 0.996100
vt 0.687500 0.730500
vt 0.609400 0.750000
vt 0.625000 0.722700
vt 0.726600 0.925800
vt 0.726600 0.726600
vt 0.867200 0.726600
vt 0.992200 0.996100
vt 0.992200 0.726600
vt 0.867200 0.996100
vt 0.726600 0.726600
vt 0.726600 0.996100
vt 0.867200 0.726600
vt 0.992200 0.996100
vt 0.992200 0.726600
vt 0.867200 0.996100
vt 0.726600 0.726600
vt 0.726600 0.996100
vt 0.867200 0.738300
vt 0.992200 0.996100
vt 0.992200 0.738300
vt 0.867200 0.996100
vt 0.726600 0.738300
vt 0.726600 0.996100
vt 0.554700 0.863300
vt 0.554700 0.753900
vt 0.625000 0.878900
vt 0.554700 0.918000
vt 0.656300 0.996100
vt 0.710900 0.789100
vt 0.710900 0.894500
vt 0.710900 0.996100
vt 0.460900 0.378900
vt 0.406300 0.289100
vt 0.460900 0.289100
vt 0.406300 0.378900
vt 0.460900 0.457000
vt 0.351600 0.289100
vt 0.351600 0.378900
vt 0.406300 0.457000
vt 0.406300 0.289100
vt 0.406300 0.378900
vt 0.351600 0.457000
vt 0.406300 0.457000
vt 0.414100 0.195300
vt 0.460900 0.195300
vt 0.359400 0.195300
vt 0.414100 0.195300
vt 0.460900 0.097700
vt 0.367200 0.105500
vt 0.429700 0.097700
vt 0.460900 0.046900
vt 0.414100 0.050800
vt 0.429700 0.011700
vt 0.359400 0.050800
vt 0.359400 0.000000
vt 0.406300 0.570300
vt 0.375000 0.570300
vt 0.406300 0.570300
vt 0.460900 0.543000
vt 0.460900 0.570300
vt 0.460900 0.457000
vt 0.406300 0.457000
vt 0.359400 0.546900
vt 0.343800 0.570300
vt 0.406300 0.437500
vt 0.460900 0.437500
vt 0.460900 0.316400
vt 0.343800 0.441400
vt 0.460900 0.242200
vt 0.406300 0.316400
vt 0.343800 0.242200
vt 0.343800 0.316400
vt 0.187500 0.562500
vt 0.328100 0.539100
vt 0.187500 0.527300
vt 0.328100 0.574200
vt 0.187500 0.617200
vt 0.328100 0.652300
vt 0.218800 0.707000
vt 0.328100 0.691400
vt 0.226600 0.796900
vt 0.390600 0.781300
vt 0.320300 0.824200
vt 0.328100 0.507800
vt 0.187500 0.488300
vt 0.328100 0.453100
vt 0.187500 0.437500
vt 0.250000 0.394500
vt 0.328100 0.418000
vt 0.070300 0.414100
vt 0.015600 0.386700
vt 0.429700 0.835900
vt 0.007800 0.554700
vt 0.007800 0.515600
vt 0.007800 0.609400
vt 0.007800 0.476600
vt 0.007800 0.437500
vt 0.242200 0.996100
vt 0.171900 0.945300
vt 0.007800 0.964800
vt 0.390600 0.968800
vt 0.007800 0.925800
vt 0.140600 0.902300
vt 0.148400 0.832000
vt 0.062500 0.793000
vt 0.007800 0.832000
vt 0.007800 0.707000
vt 0.343800 0.875000
vt 0.007800 0.753900
vt 0.007800 0.777300
vt 0.078100 0.355500
vt 0.296900 0.015600
vt 0.273400 0.050800
vt 0.312500 0.089800
vt 0.710900 0.753900
vt 0.492200 0.996100
vt 0.539100 0.722700
vt 0.539100 0.996100
vt 0.492200 0.722700
vt 0.445300 0.996100
vt 0.445300 0.722700
vt 0.554700 0.828100
vt 0.710900 0.890600
vt 0.710900 0.828100
vt 0.601600 0.890600
vt 0.710900 0.996100
vt 0.656300 0.996100
vt 0.710900 0.890600
vt 0.710900 0.828100
vt 0.656300 0.722700
vt 0.656300 0.722700
vt 0.554700 0.828100
vt 0.445300 0.722700
vt 0.492200 0.996100
vt 0.445300 0.996100
vt 0.492200 0.722700
vt 0.539100 0.996100
vt 0.539100 0.722700
vt 0.554700 0.722700
vt 0.710900 0.996100
vt 0.382800 0.714800
vt 0.515600 0.625000
vt 0.531300 0.714800
vt 0.351600 0.644500
vt 0.687500 0.710900
vt 0.531300 0.640600
vt 0.531300 0.714800
vt 0.687500 0.710900
vt 0.632800 0.628900
vt 0.351600 0.578100
vt 0.632800 0.628900
vt 0.476600 0.578100
vt 0.476600 0.578100
vt 0.539100 0.722700
vt 0.492200 0.996100
vt 0.492200 0.722700
vt 0.539100 0.996100
vt 0.492200 0.996100
vt 0.445300 0.996100
vt 0.445300 0.722700
vt 0.492200 0.722700
vt 0.867200 0.726600
vt 0.867200 0.996100
vt 0.609400 0.750000
vt 0.867200 0.726600
vt 0.867200 0.996100
vt 0.867200 0.726600
vt 0.867200 0.996100
vt 0.867200 0.738300
vt 0.867200 0.996100
vt 0.625000 0.878900
vt 0.656300 0.996100
vt 0.406300 0.289100
vt 0.460900 0.378900
vt 0.460900 0.289100
vt 0.406300 0.378900
vt 0.351600 0.289100
vt 0.351600 0.378900
vt 0.351600 0.457000
vt 0.375000 0.570300
vt 0.406300 0.289100
vt 0.406300 0.378900
vt 0.406300 0.457000
vt 0.406300 0.570300
vt 0.414100 0.195300
vt 0.460900 0.195300
vt 0.359400 0.195300
vt 0.414100 0.195300
vt 0.460900 0.097700
vt 0.367200 0.105500
vt 0.429700 0.097700
vt 0.460900 0.046900
vt 0.414100 0.050800
vt 0.429700 0.011700
vt 0.359400 0.050800
vt 0.359400 0.000000
vt 0.406300 0.437500
vt 0.406300 0.316400
vt 0.343800 0.242200
vt 0.328100 0.539100
vt 0.187500 0.562500
vt 0.187500 0.527300
vt 0.328100 0.507800
vt 0.187500 0.488300
vt 0.328100 0.453100
vt 0.187500 0.437500
vt 0.328100 0.418000
vt 0.250000 0.394500
vt 0.390600 0.781300
vt 0.429700 0.835900
vt 0.320300 0.824200
vt 0.328100 0.691400
vt 0.226600 0.796900
vt 0.218800 0.707000
vt 0.187500 0.617200
vt 0.328100 0.652300
vt 0.328100 0.574200
vt 0.007800 0.554700
vt 0.007800 0.515600
vt 0.007800 0.476600
vt 0.070300 0.414100
vt 0.171900 0.945300
vt 0.390600 0.968800
vt 0.140600 0.902300
vt 0.148400 0.832000
vt 0.062500 0.793000
vt 0.343800 0.875000
vt 0.296900 0.015600
vt 0.273400 0.050800
vt 0.312500 0.089800
vt 0.492200 0.996100
vt 0.492200 0.722700
vt 0.601600 0.890600
vt 0.492200 0.996100
vt 0.492200 0.722700
vt 0.554700 0.722700
vt 0.656300 0.996100
vt 0.515600 0.625000
vt 0.351600 0.644500
vt 0.351600 0.578100
vt 0.531300 0.640600
vt 0.937500 0.332000
vt 0.992200 0.332000
vt 0.992200 0.003900
vt 0.843800 0.253900
vt 0.656300 0.332000
vt 0.992200 0.332000
vt 0.937500 0.332000
vt 0.937500 0.003900
vt 0.992200 0.003900
vt 0.937500 0.003900
vt 0.992200 0.332000
vt 0.937500 0.332000
vt 0.992200 0.003900
vt 0.937500 0.003900
vt 0.992200 0.714800
vt 0.960900 0.714800
vt 0.960900 0.503900
vt 0.992200 0.367200
vt 0.937500 0.367200
vt 0.703100 0.003900
vt 0.703100 0.332000
vt 0.476600 0.332000
vt 0.476600 0.003900
vt 0.703100 0.332000
vt 0.476600 0.003900
vt 0.640600 0.003900
vt 0.476600 0.332000
vt 0.656300 0.332000
vt 0.937500 0.332000
vt 0.656300 0.332000
vt 0.476600 0.332000
vt 0.703100 0.003900
vt 0.476600 0.003900
vt 0.679700 0.652300
vt 0.796900 0.503900
vt 0.640600 0.503900
vt 0.960900 0.503900
vt 0.476600 0.367200
vt 0.703100 0.367200
vt 0.703100 0.003900
vt 0.960900 0.714800
vt 0.796900 0.503900
vt 0.640600 0.503900
vt 0.640600 0.484400
vt 0.679700 0.652300
vt 0.796900 0.484400
vt 0.531300 0.453100
vt 0.703100 0.367200
vt 0.687500 0.464800
vt 0.937500 0.003900
vt 0.703100 0.003900
vt 0.656300 0.332000
vt 0.640600 0.003900
vt 0.937500 0.003900
vt 0.937500 0.367200
vt 0.937500 0.332000
vt 0.937500 0.003900
vt 0.937500 0.332000
vt 0.531300 0.453100
vt 0.687500 0.464800
vt 0.992200 0.503900
vt 0.609400 0.546900
vt 0.609400 0.546900
vt 0.500000 0.492200
vt 0.500000 0.503900
vt 0.960900 0.484400
vt 0.476600 0.425800
vt 0.476600 0.457000
vt 0.226600 0.199200
vt 0.226600 0.347700
vt 0.015600 0.199200
vt 0.195300 0.113300
vt 0.187500 0.160200
vt 0.078100 0.105500
vt 0.250000 0.089800
vt 0.085900 0.003900
vt 0.234400 0.003900
vt 0.226600 0.199200
vt 0.226600 0.347700
vt 0.015600 0.199200
vt 0.195300 0.113300
vt 0.187500 0.160200
vt 0.078100 0.105500
vt 0.250000 0.089800
vt 0.085900 0.003900
vt 0.234400 0.003900
vt 0.226600 0.199200
vt 0.226600 0.347700
vt 0.015600 0.199200
vt 0.195300 0.113300
vt 0.187500 0.160200
vt 0.078100 0.105500
vt 0.250000 0.089800
vt 0.085900 0.003900
vt 0.234400 0.003900
vt 0.226600 0.199200
vt 0.226600 0.347700
vt 0.015600 0.199200
vt 0.195300 0.113300
vt 0.187500 0.160200
vt 0.078100 0.105500
vt 0.250000 0.089800
vt 0.085900 0.003900
vt 0.234400 0.003900
vt 0.226600 0.199200
vt 0.226600 0.347700
vt 0.015600 0.199200
vt 0.195300 0.113300
vt 0.187500 0.160200
vt 0.078100 0.105500
vt 0.250000 0.089800
vt 0.085900 0.003900
vt 0.234400 0.003900
vt 0.226600 0.199200
vt 0.226600 0.347700
vt 0.015600 0.199200
vt 0.195300 0.113300
vt 0.187500 0.160200
vt 0.078100 0.105500
vt 0.250000 0.089800
vt 0.085900 0.003900
vt 0.234400 0.003900
vn -0.9914 0.0076 -0.1305
vn -0.0019 -0.1287 0.9917
vn -0.0036 -0.1661 0.9861
vn -0.9975 0.0669 -0.0210
vn -0.9914 0.0076 -0.1306
vn 0.0000 0.5785 -0.8157
vn -0.0028 0.4539 -0.8910
vn -0.0028 0.4540 -0.8910
vn -0.0054 0.1971 -0.9804
vn -0.9969 -0.0730 0.0284
vn -0.0035 -0.1661 0.9861
vn -0.0015 0.1577 0.9875
vn -0.0019 -0.0389 -0.9992
vn -0.9962 -0.0671 0.0560
vn -0.0015 0.1578 0.9875
vn -0.0047 0.5118 0.8591
vn -0.9969 -0.0731 0.0284
vn -0.0031 -0.4079 -0.9130
vn -0.7931 -0.3040 0.5278
vn -0.0047 0.5119 0.8591
vn -0.0026 -0.0800 0.9968
vn -0.9962 -0.0672 0.0560
vn -0.0032 -0.9882 -0.1534
vn -0.7932 -0.3039 0.5277
vn -0.0040 0.1567 0.9876
vn -0.9994 -0.0218 0.0251
vn -0.0192 0.8906 -0.4544
vn -0.9997 -0.0152 -0.0192
vn -0.0031 -0.2695 -0.9630
vn -0.0041 -0.1987 -0.9800
vn -0.9997 -0.0153 -0.0192
vn -0.9994 -0.0217 0.0251
vn -0.0031 -0.0550 -0.9985
vn 0.0540 0.5752 0.8162
vn 0.9883 0.1523 -0.0058
vn -0.0672 0.3727 0.9255
vn 0.9748 0.1582 -0.1575
vn 0.6723 0.5945 0.4411
vn 0.0540 0.5753 0.8162
vn 0.0732 -0.3643 -0.9284
vn 0.9883 0.1522 -0.0058
vn -0.0016 -0.5274 -0.8496
vn 0.8974 -0.0639 -0.4365
vn -0.0015 -0.5274 -0.8496
vn -0.9893 -0.1452 0.0103
vn -0.9836 -0.1640 0.0751
vn -0.1521 -0.6265 -0.7644
vn -0.9893 -0.1452 0.0102
vn -0.8980 0.0054 0.4399
vn -0.9836 -0.1639 0.0751
vn 0.9796 0.1738 0.1013
vn -0.2753 0.2426 0.9302
vn 0.0251 -0.3390 -0.9405
vn 0.9796 0.1737 0.1013
vn 0.0732 -0.3642 -0.9284
vn -0.9866 -0.1606 0.0302
vn 0.0250 -0.3390 -0.9404
vn -0.9894 -0.1452 0.0103
vn -0.2754 0.2425 0.9302
vn -0.0672 0.3728 0.9255
vn -0.2753 0.2425 0.9302
vn -0.6588 0.0728 0.7488
vn -0.8344 -0.5187 -0.1864
vn 0.0251 -0.3390 -0.9404
vn -0.9967 -0.0357 0.0731
vn -0.9865 -0.1607 0.0302
vn -0.6588 0.0727 0.7488
vn -0.8860 0.2473 0.3922
vn -0.9215 0.2803 0.2690
vn -0.9422 0.2868 0.1732
vn -0.9914 0.0080 -0.1305
vn -0.9584 0.2761 -0.0724
vn -0.2753 0.2425 0.9303
vn 0.0037 0.2065 -0.9784
vn -0.1520 -0.6266 -0.7644
vn -0.8348 -0.1422 -0.5319
vn -0.7403 -0.0646 0.6691
vn -0.0005 0.4481 0.8940
vn 0.0000 0.0015 1.0000
vn -0.0016 -0.5275 -0.8496
vn -0.0005 0.4482 0.8939
vn 0.6724 0.5945 0.4411
vn 0.0037 0.2064 -0.9785
vn -0.0005 0.4482 0.8940
vn -0.6662 0.5985 0.4449
vn -0.8972 -0.0656 -0.4368
vn -0.0119 0.4054 -0.9141
vn -0.9914 -0.0231 0.1289
vn -0.0000 -0.1432 0.9897
vn 0.0000 -0.0331 0.9995
vn 0.0000 -0.1431 0.9897
vn -0.0024 0.0440 -0.9990
vn -0.0024 0.0439 -0.9990
vn -0.8348 -0.1422 -0.5318
vn 0.0000 -0.0568 0.9984
vn -0.9998 0.0170 -0.0040
vn -0.9914 -0.0231 0.1288
vn -0.9999 0.0134 -0.0039
vn -0.8207 0.5710 -0.0202
vn -0.9422 0.2868 0.1731
vn -0.8544 0.4031 0.3279
vn -0.7937 0.4008 -0.4576
vn -0.9589 0.1396 -0.2472
vn -0.6742 -0.1718 -0.7183
vn -0.9681 -0.0907 -0.2336
vn -0.8123 -0.5287 -0.2463
vn -0.9440 -0.3173 -0.0903
vn -0.9030 -0.4251 -0.0621
vn -0.8544 0.4031 0.3278
vn -0.7407 0.1436 0.6563
vn -0.7407 0.1437 0.6563
vn -0.6769 -0.4133 0.6091
vn -0.6320 -0.6395 0.4377
vn -0.8344 -0.5187 -0.1865
vn -0.7932 -0.3040 0.5277
vn -0.9440 -0.3174 -0.0903
vn -0.8138 0.5341 -0.2293
vn -0.9345 0.2782 0.2221
vn -0.0016 0.4273 -0.9041
vn -0.9345 0.2782 0.2220
vn -0.8707 -0.1395 0.4716
vn -0.6768 -0.4133 0.6091
vn -0.0027 -0.0800 0.9968
vn -0.0006 -0.6912 0.7227
vn -0.6935 -0.7062 0.1428
vn -0.0024 -0.9785 0.2064
vn -0.0013 -0.7294 -0.6841
vn -0.6528 -0.4681 -0.5956
vn -0.0013 -0.7294 -0.6840
vn -0.6713 -0.5567 -0.4894
vn -0.5016 -0.4916 -0.7119
vn -0.0031 -0.5838 -0.8119
vn -0.5016 -0.4916 -0.7118
vn -0.8123 -0.5286 -0.2463
vn -0.0016 0.4274 -0.9041
vn -0.0011 -0.1889 -0.9820
vn -0.9333 -0.3512 -0.0752
vn -0.0012 -0.7294 -0.6841
vn -0.0033 -0.3815 -0.9244
vn -0.6742 -0.1717 -0.7183
vn -0.0012 -0.1889 -0.9820
vn -0.0091 -0.4454 -0.8953
vn -0.0033 -0.9881 -0.1535
vn -0.6588 0.0728 0.7487
vn -0.8343 -0.5188 -0.1864
vn -0.9589 0.1395 -0.2472
vn -0.9440 -0.3174 -0.0902
vn -0.9914 0.0080 -0.1306
vn -0.9440 -0.3173 -0.0902
vn 0.0000 -0.0727 -0.9974
vn -0.9914 0.0075 -0.1306
vn 0.0000 -0.0726 -0.9974
vn -0.9999 0.0003 -0.0142
vn -0.0095 -0.0048 -0.9999
vn -0.0063 -0.0132 0.9999
vn -0.9911 -0.1271 0.0392
vn -0.0047 0.0305 -0.9995
vn -0.0034 -0.3037 -0.9528
vn -0.9703 0.0806 -0.2282
vn -0.0078 -0.0353 -0.9993
vn -0.9493 0.0312 0.3127
vn -0.0057 0.2193 0.9757
vn -0.0033 0.0983 0.9952
vn -0.0014 0.2966 0.9550
vn -0.0016 -0.1905 -0.9817
vn 0.9906 -0.1304 0.0403
vn -0.0091 0.0275 0.9996
vn -0.9493 0.0313 0.3127
vn -0.0081 0.0638 0.9979
vn -0.9487 -0.0101 -0.3160
vn -0.0095 -0.0315 -0.9995
vn -0.9991 0.0419 -0.0061
vn -0.0057 0.2193 0.9756
vn -0.0082 0.0638 0.9979
vn 0.0012 -1.0000 0.0006
vn -0.9902 0.0550 -0.1283
vn 0.0013 -0.7405 -0.6721
vn -0.9902 0.0551 -0.1283
vn 0.0012 -1.0000 0.0007
vn -0.9931 -0.1176 0.0015
vn 0.0040 0.7632 -0.6461
vn 0.0013 -0.7405 -0.6720
vn -0.9930 0.0652 0.0984
vn 0.0013 -0.9967 0.0815
vn 0.0056 -0.3607 0.9327
vn 0.0015 0.9180 0.3967
vn 0.0041 0.7632 -0.6461
vn 0.0014 0.9842 0.1772
vn -0.9930 0.0651 0.0984
vn 0.0015 0.9180 0.3966
vn -0.0016 -0.1904 -0.9817
vn -0.9487 -0.0101 -0.3159
vn 0.9453 -0.0104 -0.3260
vn -0.0091 0.0276 0.9996
vn -0.9999 0.0004 -0.0142
vn 0.9999 0.0011 -0.0111
vn 0.9912 0.0078 -0.1320
vn 0.9975 0.0675 -0.0205
vn -0.0000 0.5784 -0.8157
vn -0.0027 0.4539 -0.8910
vn 0.9912 0.0079 -0.1320
vn 0.9975 0.0674 -0.0205
vn -0.0036 -0.1662 0.9861
vn 0.9968 -0.0739 0.0293
vn 0.9960 -0.0701 0.0555
vn 0.9968 -0.0738 0.0293
vn 0.9960 -0.0702 0.0556
vn -0.0019 -0.0388 -0.9992
vn 0.7909 -0.3046 0.5307
vn -0.0033 -0.9882 -0.1534
vn 0.7909 -0.3045 0.5307
vn 0.9994 -0.0217 0.0263
vn 0.9994 -0.0216 0.0263
vn 0.9997 -0.0156 -0.0172
vn -0.9880 0.1544 -0.0043
vn -0.0453 0.5739 0.8177
vn 0.0762 0.3725 0.9249
vn -0.9756 0.1601 -0.1505
vn -0.9756 0.1601 -0.1504
vn -0.0578 -0.3659 -0.9288
vn -0.0030 -0.5289 -0.8487
vn -0.0578 -0.3660 -0.9288
vn 0.1535 -0.6255 -0.7650
vn 0.1535 -0.6254 -0.7650
vn 0.8346 -0.1434 -0.5319
vn 0.9891 -0.1475 0.0028
vn -0.0030 -0.5290 -0.8486
vn 0.9838 -0.1683 0.0624
vn 0.9890 -0.1476 0.0029
vn 0.8951 0.0042 0.4459
vn 0.8346 -0.1433 -0.5319
vn 0.7351 -0.0655 0.6748
vn -0.0453 0.5739 0.8176
vn 0.9838 -0.1683 0.0623
vn 0.8951 0.0043 0.4459
vn -0.9801 0.1721 0.0987
vn 0.2915 0.2387 0.9263
vn -0.9801 0.1721 0.0988
vn -0.0146 -0.3417 -0.9397
vn -0.9880 0.1545 -0.0043
vn -0.9801 0.1722 0.0987
vn 0.9866 -0.1584 0.0386
vn 0.9866 -0.1583 0.0386
vn 0.2916 0.2387 0.9263
vn 0.2916 0.2388 0.9263
vn 0.6618 0.0757 0.7459
vn 0.8341 -0.5176 -0.1906
vn 0.6617 0.0757 0.7459
vn -0.0146 -0.3418 -0.9397
vn 0.8341 -0.5177 -0.1907
vn 0.9960 -0.0329 0.0828
vn 0.8341 -0.5177 -0.1906
vn 0.9960 -0.0330 0.0828
vn 0.9960 -0.0329 0.0829
vn 0.8844 0.2491 0.3946
vn 0.9166 0.2883 0.2769
vn 0.9419 0.2876 0.1736
vn 0.9907 0.0104 -0.1354
vn 0.9590 0.2743 -0.0712
vn 0.9866 -0.1583 0.0387
vn 0.7350 -0.0655 0.6748
vn 0.0000 0.0014 1.0000
vn 0.9907 -0.0246 0.1337
vn 0.9999 0.0134 -0.0039
vn 0.9997 -0.0155 -0.0172
vn 0.8236 0.5668 -0.0201
vn 0.8578 0.3991 0.3239
vn 0.8845 0.2491 0.3946
vn 0.7439 0.1428 0.6529
vn 0.6784 -0.4116 0.6085
vn 0.6290 -0.6409 0.4400
vn 0.9445 -0.3141 -0.0968
vn 0.9053 -0.4197 -0.0654
vn 0.9682 -0.0905 -0.2333
vn 0.8150 -0.5251 -0.2452
vn 0.6755 -0.1717 -0.7171
vn 0.7963 0.3982 -0.4553
vn 0.9594 0.1390 -0.2454
vn 0.7963 0.3981 -0.4554
vn 0.8236 0.5669 -0.0201
vn 0.8099 0.5391 -0.2311
vn 0.9343 0.2790 0.2219
vn 0.8701 -0.1413 0.4723
vn 0.6921 -0.7076 0.1428
vn 0.6920 -0.7076 0.1428
vn 0.6498 -0.4689 -0.5982
vn 0.6690 -0.5602 -0.4885
vn 0.4958 -0.4933 -0.7148
vn 0.8149 -0.5251 -0.2452
vn 0.4958 -0.4933 -0.7147
vn 0.7963 0.3982 -0.4554
vn 0.9326 -0.3534 -0.0730
vn 0.9326 -0.3534 -0.0729
vn 0.9444 -0.3141 -0.0968
vn 0.8149 -0.5252 -0.2451
vn -0.0031 -0.2696 -0.9630
vn 0.9999 0.0011 -0.0110
vn -0.0063 -0.0133 0.9999
vn 0.9690 0.0804 -0.2337
vn 0.9462 0.0318 0.3219
vn -0.0081 0.0637 0.9979
vn 0.9453 -0.0105 -0.3260
vn 0.9992 0.0387 -0.0054
vn 0.9906 -0.1305 0.0403
vn 0.9690 0.0805 -0.2337
vn 0.9462 0.0317 0.3220
vn -0.0095 -0.0314 -0.9995
vn 0.9903 0.0546 -0.1279
vn 0.0013 -0.7406 -0.6720
vn 0.9931 -0.1174 0.0015
vn 0.0041 0.7632 -0.6462
vn 0.0014 -0.7406 -0.6720
vn 0.9931 0.0650 0.0981
vn -0.0014 0.2965 0.9550
vn 0.9931 0.0650 0.0980
vn -0.0017 -0.1905 -0.9817
vn 0.9903 0.0546 -0.1278
vn 0.9931 0.0649 0.0981
vn 0.9999 0.0012 -0.0110
vn -0.5551 0.0430 0.8307
vn 0.7075 0.0497 0.7050
vn 0.7098 0.0663 0.7013
vn -0.0000 -0.5515 0.8341
vn -0.9857 -0.0695 -0.1535
vn 0.7139 0.3146 0.6256
vn -0.7147 0.4018 0.5724
vn -0.7109 0.1439 0.6884
vn 0.7171 0.5581 0.4174
vn -0.7177 0.6203 0.3165
vn 0.7125 0.6910 0.1218
vn -0.7125 0.7008 0.0347
vn 0.7091 0.7051 0.0013
vn -0.7091 0.7030 0.0546
vn -0.8020 0.5674 0.1867
vn 0.8020 0.5809 0.1393
vn 0.6516 0.6470 -0.3960
vn -0.9964 -0.0850 0.0030
vn -0.9958 -0.0906 -0.0157
vn -0.0027 -0.9989 -0.0474
vn -0.0028 -0.9181 -0.3963
vn 0.9955 -0.0932 -0.0162
vn -0.0062 -0.3022 -0.9532
vn -0.9890 -0.0556 -0.1373
vn 0.0000 -0.4137 -0.9104
vn 0.9852 -0.0712 -0.1561
vn -0.0000 -0.5516 0.8341
vn -0.9913 -0.0773 -0.1063
vn -0.0040 -0.6997 -0.7144
vn -0.9954 -0.0830 -0.0484
vn -0.0028 -0.9181 -0.3964
vn -0.7827 -0.6219 0.0245
vn -0.5525 0.1218 -0.8246
vn -0.6806 0.3343 -0.6520
vn -0.5525 0.1218 -0.8245
vn -0.8642 0.4291 -0.2627
vn 0.6450 -0.7312 0.2222
vn -0.7828 -0.6218 0.0244
vn -0.9967 -0.0799 0.0143
vn 0.9955 -0.0944 0.0035
vn 0.5526 0.1979 -0.8096
vn 0.7994 0.3030 -0.5187
vn -0.6806 0.3344 -0.6519
vn 0.9977 -0.0664 0.0163
vn -0.0027 -0.9989 -0.0473
vn -0.7827 -0.6219 0.0244
vn 0.9951 -0.0856 -0.0503
vn -0.0040 -0.6996 -0.7145
vn 0.9905 -0.0802 -0.1114
vn 0.9879 -0.0585 -0.1437
vn 0.8020 0.5809 0.1392
vn -0.9345 0.2781 0.2220
vn 0.6450 -0.7311 0.2222
vn 0.8020 0.5809 0.1391
vn 0.6516 0.6470 -0.3961
vn -0.8137 0.5341 -0.2293
vn 0.7994 0.3030 -0.5188
vn -0.6806 0.3343 -0.6519
vn -0.0000 -0.9219 0.3874
vn -0.0000 -0.4138 -0.9104
vn -0.9857 -0.0694 -0.1535
vn 0.7074 0.0497 0.7050
vn -1.0000 0.0000 0.0000
usemtl TEX_w22sc03
s 1
f 1/1/1 2/2/2 3/3/3
f 4/4/4 2/2/2 1/1/5
f 5/5/6 4/6/4 6/7/7
f 6/8/8 1/1/5 7/9/9
f 8/10/10 3/11/11 9/12/12
f 1/13/5 3/11/3 8/10/10
f 10/14/13 1/13/5 8/10/10
f 7/15/9 1/13/5 10/14/13
f 11/16/14 9/17/15 12/18/16
f 8/19/17 9/17/12 11/16/14
f 13/20/18 8/19/10 11/16/14
f 10/21/13 8/19/17 13/20/18
f 14/22/19 12/23/20 15/24/21
f 11/25/22 12/23/20 14/22/19
f 16/26/23 11/25/14 14/22/24
f 13/27/18 11/25/22 16/26/23
f 17/28/25 2/29/2 4/6/4
f 4/6/4 18/30/26 17/28/25
f 19/31/27 17/28/25 18/30/26
f 18/30/26 20/32/28 19/31/27
f 18/30/26 4/6/4 21/33/29
f 21/33/29 22/34/30 18/30/26
f 20/32/31 18/30/32 22/34/30
f 22/34/30 23/35/33 20/32/28
f 24/36/34 25/37/35 26/38/36
f 25/37/35 24/36/34 27/39/37
f 28/40/38 27/39/37 24/36/39
f 27/39/37 29/41/40 25/37/41
f 29/41/40 27/39/37 30/42/42
f 31/43/43 30/42/42 27/39/37
f 30/42/44 32/44/45 29/41/40
f 32/44/45 30/42/44 33/45/46
f 34/46/47 33/45/46 30/42/44
f 33/45/46 26/38/36 32/44/48
f 26/38/36 33/45/46 24/36/34
f 35/47/49 24/36/39 33/45/50
f 26/38/36 36/48/51 37/49/52
f 36/48/51 26/38/36 25/37/35
f 25/37/35 38/50/53 36/48/54
f 38/50/53 25/37/35 29/41/55
f 29/41/40 39/51/56 38/50/57
f 39/51/56 29/41/40 32/44/45
f 32/44/58 37/49/59 39/51/56
f 37/49/59 32/44/58 26/38/60
f 37/49/61 36/48/54 40/52/62
f 36/48/51 41/53/63 40/52/62
f 41/53/63 36/48/51 38/50/53
f 38/50/64 42/54/65 41/53/63
f 42/54/65 38/50/64 39/51/66
f 42/54/65 39/51/66 40/52/67
f 40/52/67 43/55/68 42/54/65
f 44/56/69 42/54/65 43/55/68
f 43/55/68 45/57/70 44/56/69
f 46/58/71 44/56/69 45/57/70
f 45/57/70 47/59/72 46/58/71
f 39/51/66 37/49/73 40/52/67
f 31/43/43 27/39/37 28/40/38
f 28/40/38 48/60/74 31/43/43
f 34/46/75 31/43/43 48/60/74
f 48/60/74 49/61/76 34/46/75
f 35/47/49 34/46/75 49/61/76
f 49/61/76 50/62/77 35/47/49
f 51/63/78 35/47/49 50/62/77
f 50/62/77 52/64/79 51/63/78
f 30/42/80 31/43/43 34/46/75
f 33/45/46 34/46/75 35/47/49
f 28/40/38 24/36/39 35/47/49
f 35/47/49 51/63/81 28/40/82
f 48/60/83 28/40/82 51/63/81
f 51/63/84 53/65/85 48/60/74
f 54/66/86 48/60/74 53/65/85
f 49/61/76 48/67/74 55/68/87
f 56/69/88 50/62/77 49/61/76
f 50/62/77 56/69/88 57/70/89
f 58/71/90 57/70/91 56/69/88
f 49/61/76 59/72/92 56/69/88
f 59/72/93 49/61/94 55/68/87
f 52/64/79 50/62/77 57/70/91
f 60/73/95 58/71/90 61/74/96
f 61/74/96 20/75/28 60/73/95
f 56/69/97 61/74/96 58/71/90
f 61/74/96 56/69/97 59/72/93
f 19/76/27 61/74/98 59/72/92
f 61/74/96 19/76/27 20/75/28
f 62/77/99 45/78/100 63/79/101
f 45/78/70 62/77/99 47/80/72
f 64/81/102 47/80/72 62/77/99
f 47/80/72 64/81/102 65/82/103
f 66/83/104 65/82/103 64/81/102
f 65/82/103 66/83/104 67/84/105
f 68/85/106 67/84/105 66/83/104
f 67/84/105 68/85/106 69/86/107
f 70/87/108 69/86/107 68/85/106
f 63/79/109 43/88/68 71/89/110
f 43/88/68 63/79/101 45/78/70
f 71/89/111 40/90/67 72/91/112
f 40/90/67 71/89/110 43/88/68
f 73/92/113 72/91/112 41/93/114
f 72/91/112 73/92/113 14/94/115
f 16/95/23 14/94/115 73/92/113
f 41/96/63 69/86/116 70/87/108
f 74/97/117 62/77/99 75/98/118
f 62/77/99 74/97/117 64/81/102
f 76/99/119 64/81/102 74/97/117
f 75/98/118 62/77/99 63/79/109
f 75/98/120 71/89/111 77/100/121
f 71/89/111 75/98/120 63/79/109
f 77/100/121 72/91/122 15/101/123
f 72/91/122 77/100/121 71/89/110
f 15/101/123 72/91/122 14/94/115
f 78/102/124 79/103/125 80/104/126
f 79/103/125 78/102/124 73/105/113
f 81/106/127 80/104/126 79/103/125
f 79/103/125 82/107/128 81/106/129
f 83/108/130 84/109/131 85/110/132
f 84/109/133 83/108/130 68/85/134
f 84/109/133 68/85/106 66/83/104
f 66/83/104 64/81/102 76/99/135
f 86/111/136 66/83/104 76/99/135
f 73/105/113 41/96/114 87/112/137
f 87/112/137 79/103/125 73/105/113
f 87/112/137 82/107/128 79/103/125
f 83/108/130 82/107/128 87/112/137
f 87/112/137 70/87/108 83/108/130
f 85/110/132 81/106/138 82/107/128
f 82/107/128 83/108/130 85/110/132
f 88/113/139 66/83/140 86/111/141
f 89/114/142 85/110/132 84/109/131
f 84/109/131 88/113/139 89/114/142
f 83/108/130 70/87/108 68/85/134
f 84/109/131 66/83/104 88/113/139
f 16/95/143 73/92/113 78/115/124
f 40/90/144 41/93/145 72/91/112
f 65/116/146 46/58/71 47/59/72
f 67/117/105 46/58/71 65/116/146
f 69/118/147 46/58/148 67/117/105
f 87/112/137 41/96/114 70/87/108
f 41/53/63 46/58/148 69/118/149
f 42/54/65 46/58/71 41/53/63
f 44/56/69 46/58/71 42/54/65
f 90/119/150 4/6/4 5/5/6
f 4/4/4 1/1/151 6/8/7
f 21/33/29 4/6/4 90/119/152
f 91/120/153 23/121/33 92/122/154
f 20/123/28 23/121/33 91/120/153
f 91/120/153 93/124/155 20/123/28
f 20/123/28 93/124/155 60/125/95
f 94/126/156 95/127/157 96/128/158
f 97/129/159 95/127/157 94/126/156
f 95/127/157 97/129/159 98/130/160
f 99/131/161 98/130/160 97/129/159
f 94/126/156 100/132/162 97/129/159
f 101/133/163 100/132/162 94/126/156
f 94/126/156 102/134/164 101/133/163
f 103/135/165 94/126/156 96/128/158
f 96/128/158 104/136/166 103/135/165
f 105/137/167 99/138/168 106/139/169
f 107/140/170 99/138/161 105/137/167
f 99/138/161 107/140/170 98/141/160
f 108/142/171 98/141/160 107/140/170
f 109/143/172 94/126/156 103/135/165
f 94/126/156 109/143/172 102/134/164
f 100/132/173 99/131/161 97/129/159
f 99/131/161 100/132/173 106/144/174
f 110/145/175 111/146/176 112/147/177
f 111/146/178 110/145/179 113/148/180
f 111/146/176 114/149/181 112/147/182
f 115/150/183 116/151/184 117/152/185
f 116/151/184 115/150/183 110/145/175
f 113/148/180 110/145/175 115/150/183
f 115/150/183 117/152/185 118/153/186
f 111/146/178 113/148/180 109/154/172
f 114/149/187 111/146/178 119/155/188
f 102/156/164 115/150/189 118/153/190
f 113/148/180 115/150/189 109/154/172
f 111/146/178 103/157/191 119/155/188
f 103/157/191 111/146/178 109/154/172
f 115/150/189 102/156/164 109/154/172
f 92/158/154 107/159/192 91/160/153
f 107/159/192 92/158/154 108/161/171
f 120/162/193 108/161/171 92/158/154
f 105/163/194 91/160/195 107/159/170
f 91/160/153 105/163/167 93/164/155
f 121/165/196 93/164/155 105/163/167
f 2/2/2 122/166/197 3/3/11
f 122/166/197 2/2/2 123/167/198
f 123/168/198 5/5/199 6/7/200
f 5/5/199 123/168/198 90/119/150
f 122/166/201 6/8/8 7/9/9
f 6/8/8 122/166/201 123/167/202
f 3/11/203 124/169/204 9/12/15
f 124/169/204 3/11/203 122/170/201
f 122/170/201 10/14/13 124/169/204
f 10/14/13 122/170/201 7/15/9
f 9/17/12 125/171/205 12/18/20
f 125/171/205 9/17/12 124/172/204
f 124/172/206 13/20/18 125/171/207
f 13/20/18 124/172/206 10/21/208
f 12/23/20 126/173/209 15/24/21
f 126/173/209 12/23/20 125/174/207
f 125/174/205 16/26/210 126/173/211
f 16/26/210 125/174/205 13/27/18
f 17/28/25 123/168/198 2/29/2
f 123/168/198 17/28/25 127/175/212
f 19/31/27 127/175/212 17/28/25
f 127/175/213 21/33/29 123/168/202
f 21/33/29 127/175/212 22/34/30
f 128/176/214 22/34/30 127/175/212
f 22/34/30 128/176/214 23/35/33
f 127/175/212 19/31/27 128/176/214
f 129/177/215 130/178/216 131/179/217
f 132/180/218 130/178/216 129/177/215
f 130/178/216 132/180/218 53/65/85
f 54/66/86 53/65/85 132/180/219
f 133/181/220 132/180/218 129/177/215
f 134/182/221 132/180/218 133/181/222
f 132/180/218 134/182/221 54/66/86
f 135/183/223 54/66/86 134/182/221
f 54/66/86 135/183/224 48/60/74
f 136/184/225 48/60/74 135/183/224
f 137/185/226 134/182/227 133/181/222
f 138/186/228 134/182/227 137/185/229
f 134/182/227 138/186/228 135/183/223
f 139/187/230 135/183/223 138/186/228
f 135/183/223 139/187/230 136/184/231
f 140/188/232 136/184/231 139/187/230
f 131/179/217 138/186/228 137/185/229
f 130/178/233 138/186/234 131/179/217
f 138/186/234 130/178/233 139/187/235
f 53/65/85 139/187/235 130/178/233
f 141/189/236 131/179/217 142/190/237
f 129/177/215 131/179/217 141/189/238
f 143/191/239 129/177/240 141/189/241
f 133/181/222 129/177/215 143/191/239
f 144/192/242 133/181/222 143/191/239
f 137/185/229 133/181/220 144/192/243
f 142/190/244 137/185/229 144/192/243
f 131/179/217 137/185/229 142/190/245
f 141/189/238 142/190/245 145/193/246
f 146/194/247 141/189/238 145/193/248
f 143/191/249 141/189/238 146/194/250
f 147/195/251 143/191/239 146/194/252
f 144/192/243 143/191/239 147/195/253
f 147/195/254 145/193/248 144/192/242
f 145/193/248 147/195/254 148/196/255
f 149/197/256 148/196/255 147/195/254
f 148/196/255 149/197/256 150/198/257
f 151/199/258 150/198/257 149/197/256
f 150/198/257 151/199/258 152/200/259
f 142/190/245 144/192/260 145/193/248
f 51/63/84 139/187/235 53/65/85
f 139/187/235 51/63/84 140/188/261
f 55/68/87 48/67/74 136/184/225
f 136/184/225 59/72/93 55/68/87
f 140/188/261 51/63/84 52/64/262
f 52/64/79 57/70/91 140/188/232
f 153/201/263 140/188/232 57/70/91
f 57/70/91 58/71/90 153/201/263
f 154/202/264 153/201/263 58/71/90
f 58/71/90 60/73/95 154/202/264
f 128/203/265 154/202/264 60/73/95
f 153/201/263 136/184/225 140/188/232
f 136/184/225 153/201/263 59/72/93
f 154/202/264 59/72/93 153/201/263
f 59/72/93 154/202/264 19/76/27
f 128/203/265 19/76/27 154/202/264
f 150/204/257 155/205/266 156/206/267
f 148/207/268 156/206/267 157/208/269
f 145/209/248 157/208/269 158/210/270
f 146/211/252 158/210/270 159/212/271
f 158/210/270 146/211/252 145/209/248
f 160/213/272 146/214/247 161/215/273
f 162/216/274 163/217/275 164/218/276
f 165/219/277 166/220/278 164/218/276
f 164/218/276 76/99/135 165/219/277
f 152/221/259 165/219/279 155/205/280
f 155/205/266 167/222/281 168/223/282
f 156/206/267 155/205/266 168/223/282
f 168/223/282 157/208/269 156/206/267
f 157/208/269 168/223/282 169/224/283
f 158/210/270 169/224/283 15/101/123
f 126/225/211 158/210/270 15/101/123
f 158/210/270 126/225/211 159/212/271
f 16/95/23 159/212/271 126/225/211
f 170/226/284 78/102/124 80/104/126
f 159/227/271 78/102/124 170/226/285
f 170/226/285 80/104/126 81/106/127
f 171/228/286 170/226/285 81/106/127
f 81/106/127 85/110/132 171/228/286
f 172/229/287 171/228/286 85/110/132
f 85/110/132 173/230/288 172/229/287
f 163/217/289 173/230/290 164/218/276
f 173/230/288 163/217/289 172/229/287
f 161/215/273 172/229/287 163/217/289
f 164/218/276 86/111/141 76/99/135
f 86/111/141 164/218/276 88/113/139
f 165/219/277 76/99/135 167/222/281
f 165/219/291 167/222/281 155/205/266
f 159/227/271 174/231/292 146/214/252
f 174/231/292 159/227/271 170/226/285
f 171/228/286 174/231/293 170/226/285
f 174/231/293 171/228/286 172/229/287
f 173/230/288 85/110/132 89/114/142
f 174/231/292 172/229/287 161/215/273
f 160/213/272 161/215/273 163/217/289
f 164/218/276 173/230/290 88/113/139
f 173/230/290 89/114/142 88/113/139
f 157/208/269 169/224/283 158/210/270
f 159/212/271 16/95/23 78/115/124
f 148/207/268 157/208/269 145/209/248
f 150/204/257 156/206/267 148/207/268
f 152/221/259 155/205/266 150/204/257
f 166/220/278 165/219/277 152/221/259
f 151/199/258 166/232/278 152/200/259
f 166/232/278 151/199/258 162/233/274
f 162/216/274 164/218/276 166/220/278
f 160/213/294 163/217/295 162/216/274
f 151/199/258 160/234/272 162/233/274
f 160/234/272 151/199/258 146/194/252
f 146/214/247 174/231/293 161/215/273
f 151/199/258 147/195/251 146/194/252
f 147/195/251 151/199/258 149/197/256
f 123/168/198 21/33/296 90/119/152
f 23/121/33 121/235/297 92/122/154
f 128/236/265 121/235/297 23/121/33
f 121/235/297 128/236/265 93/124/298
f 60/125/95 93/124/298 128/236/265
f 95/127/157 104/136/166 96/128/158
f 175/237/299 104/136/166 95/127/157
f 95/127/157 98/130/160 175/237/299
f 100/132/173 104/136/166 175/237/299
f 101/133/163 104/136/166 100/132/162
f 104/136/166 101/133/163 102/134/164
f 176/238/300 105/137/167 106/139/301
f 120/239/302 105/137/167 176/238/300
f 176/238/300 98/141/160 120/239/302
f 177/240/303 103/135/165 104/136/166
f 177/240/303 104/136/304 102/134/164
f 176/241/300 175/237/299 98/130/160
f 175/237/305 176/241/306 100/132/173
f 106/144/174 100/132/173 176/241/306
f 120/239/302 98/141/160 108/142/307
f 178/242/308 110/145/179 112/147/309
f 179/243/310 110/145/179 178/242/308
f 178/242/308 177/244/303 179/243/310
f 114/149/311 178/242/308 112/147/312
f 117/152/185 116/151/184 180/245/313
f 180/245/313 118/153/186 117/152/185
f 180/245/313 110/145/179 179/243/310
f 110/145/179 180/245/313 116/151/184
f 178/242/308 114/149/181 119/155/188
f 180/245/313 102/156/314 118/153/186
f 180/245/315 179/243/310 177/244/303
f 103/157/316 178/242/317 119/155/188
f 102/156/164 180/245/318 177/244/303
f 177/244/303 178/242/308 103/157/316
f 121/165/297 120/162/302 92/158/154
f 120/162/302 121/165/319 105/163/167
f 181/246/320 182/247/321 183/248/322
f 182/247/321 181/246/320 184/249/323
f 185/250/324 184/249/323 181/246/320
f 186/251/325 188/252/326 187/253/327
f 187/253/327 183/248/322 186/251/325
f 189/254/328 190/255/329 188/252/326
f 188/252/326 186/251/325 189/254/328
f 191/256/330 192/257/331 190/255/329
f 190/255/329 189/254/328 191/256/330
f 193/258/332 194/259/333 192/257/331
f 192/257/331 191/256/330 193/258/332
f 195/260/334 196/261/335 197/262/336
f 194/259/333 196/263/335 195/264/334
f 195/264/334 198/265/337 194/259/333
f 199/266/338 194/259/333 198/265/337
f 198/265/337 200/267/339 199/266/338
f 201/268/340 199/266/338 200/267/339
f 200/267/339 202/269/341 201/268/340
f 203/270/342 185/250/324 204/271/343
f 185/250/324 203/270/342 205/272/344
f 206/273/345 205/272/344 203/270/342
f 205/272/344 206/273/345 184/249/346
f 182/274/321 184/249/346 206/273/345
f 207/275/347 208/276/348 203/270/342
f 208/276/348 207/275/347 209/277/349
f 190/255/329 209/277/349 207/275/347
f 209/277/349 190/255/329 192/257/331
f 204/271/343 207/275/347 203/270/342
f 209/277/349 201/268/350 208/276/348
f 201/268/340 209/277/349 199/266/338
f 192/257/331 199/266/338 209/277/349
f 199/266/338 192/257/331 194/259/333
f 210/278/351 200/267/339 198/265/337
f 75/279/120 211/280/352 212/281/353
f 211/280/354 75/279/118 213/282/355
f 214/283/356 210/278/357 215/284/358
f 210/278/357 214/283/356 216/285/359
f 187/253/327 204/271/343 185/250/324
f 204/271/343 187/253/327 188/252/326
f 188/252/326 207/275/347 204/271/343
f 207/275/347 188/252/326 190/255/329
f 75/279/118 195/286/334 213/282/355
f 217/287/360 218/288/361 212/289/362
f 218/288/361 217/287/360 168/290/282
f 197/262/336 168/290/282 217/287/360
f 211/291/354 217/287/360 212/289/362
f 214/283/356 169/292/283 219/293/363
f 219/293/363 216/285/359 214/283/356
f 219/293/363 169/292/283 168/294/282
f 202/269/341 200/267/364 216/285/359
f 216/285/359 193/295/332 202/269/341
f 216/285/359 200/267/364 210/278/365
f 220/296/366 201/268/340 202/269/341
f 201/268/340 220/296/366 208/276/367
f 221/297/368 208/276/367 220/296/366
f 208/276/367 221/297/368 203/270/342
f 222/298/369 203/270/342 221/297/368
f 203/270/342 222/298/369 206/273/345
f 183/299/322 206/273/345 222/298/369
f 216/285/359 196/300/370 193/295/332
f 191/301/330 202/269/341 193/295/332
f 202/269/341 191/301/330 220/296/366
f 189/302/328 220/296/366 191/301/330
f 220/296/366 189/302/328 221/297/368
f 186/303/325 221/297/368 189/302/328
f 221/297/368 186/303/325 222/298/369
f 183/299/322 222/298/369 186/303/325
f 77/304/121 215/284/358 75/305/371
f 215/284/358 77/304/121 214/283/372
f 215/284/358 195/264/334 75/305/118
f 215/284/358 210/278/365 198/265/337
f 195/264/334 215/284/358 198/265/337
f 213/306/355 195/260/334 197/262/336
f 196/261/373 168/290/282 197/262/374
f 193/258/332 196/263/335 194/259/333
f 219/293/363 196/300/370 216/285/359
f 196/300/373 219/293/363 168/294/282
f 74/307/375 75/279/120 212/281/362
f 218/288/376 168/290/282 167/308/281
f 212/289/377 218/288/361 76/309/135
f 74/307/375 212/281/377 76/310/119
f 218/288/361 167/308/281 76/310/135
f 197/262/336 217/287/360 211/291/354
f 211/291/354 213/311/355 197/262/336
f 223/312/378 15/313/123 169/292/283
f 169/292/283 214/283/372 223/312/378
f 77/304/121 15/313/123 223/312/378
f 77/304/121 223/312/378 214/283/372
f 205/272/379 184/249/346 185/250/380
f 187/253/327 185/250/324 181/246/320
f 181/246/320 183/248/322 187/253/327
f 182/274/381 206/273/345 183/299/322
f 224/314/382 225/315/382 226/316/382
f 227/317/382 228/318/382 226/316/382
f 226/316/382 229/319/382 227/317/382
f 230/320/382 231/321/382 232/322/382
f 224/314/382 226/316/382 228/318/382
f 227/317/382 231/321/382 230/320/382
f 231/321/382 227/317/382 229/319/382
f 233/323/382 234/324/382 235/325/382
f 236/326/382 237/327/382 235/325/382
f 235/325/382 238/328/382 236/326/382
f 239/329/382 240/330/382 241/331/382
f 233/323/382 235/325/382 237/327/382
f 236/326/382 240/330/382 239/329/382
f 240/330/382 236/326/382 238/328/382
f 242/332/382 243/333/382 244/334/382
f 245/335/382 246/336/382 244/334/382
f 244/334/382 247/337/382 245/335/382
f 248/338/382 249/339/382 250/340/382
f 242/332/382 244/334/382 246/336/382
f 245/335/382 249/339/382 248/338/382
f 249/339/382 245/335/382 247/337/382
f 251/341/382 252/342/382 253/343/382
f 254/344/382 255/345/382 253/343/382
f 253/343/382 256/346/382 254/344/382
f 257/347/382 258/348/382 259/349/382
f 251/341/382 253/343/382 255/345/382
f 254/344/382 258/348/382 257/347/382
f 258/348/382 254/344/382 256/346/382
f 260/350/382 261/351/382 262/352/382
f 263/353/382 264/354/382 262/352/382
f 262/352/382 265/355/382 263/353/382
f 266/356/382 267/357/382 268/358/382
f 260/350/382 262/352/382 264/354/382
f 263/353/382 267/357/382 266/356/382
f 267/357/382 263/353/382 265/355/382
f 269/359/382 270/360/382 271/361/382
f 272/362/382 273/363/382 271/361/382
f 271/361/382 274/364/382 272/362/382
f 275/365/382 276/366/382 277/367/382
f 269/359/382 271/361/382 273/363/382
f 272/362/382 276/366/382 275/365/382
f 276/366/382 272/362/382 274/364/382
