# Blender v2.79 (sub 0) OBJ File: ''
# www.blender.org
mtllib w2dbk06.mtl
o w2dbk06
v -0.001279 0.270100 -0.000748
v -0.011279 0.262400 -0.016648
v 0.008721 0.262400 -0.016648
v -0.001279 0.691000 -0.032747
v 0.013621 0.782100 -0.043047
v -0.001279 0.782100 -0.034547
v 0.015121 0.691000 -0.042347
v 0.013621 0.782100 -0.060247
v 0.015121 0.691000 -0.061247
v -0.001279 0.782100 -0.069047
v -0.001279 0.691000 -0.070747
v -0.016279 0.782100 -0.060247
v -0.017779 0.691000 -0.061247
v -0.016279 0.782100 -0.043047
v -0.017779 0.691000 -0.042347
v -0.001279 0.797600 -0.008747
v 0.040821 0.797600 -0.051647
v -0.001279 0.797600 -0.094847
v -0.043479 0.797600 -0.051647
v -0.001279 0.830800 -0.017447
v 0.032221 0.830800 -0.051647
v -0.001079 0.830800 -0.085947
v -0.034679 0.830800 -0.051647
v -0.001279 0.582600 0.007252
v 0.045921 0.631800 -0.024348
v -0.001279 0.631800 0.003053
v 0.049721 0.582600 -0.022148
v -0.001279 0.519000 -0.005547
v 0.038621 0.519000 -0.028548
v -0.001279 0.481900 -0.034148
v 0.013121 0.481900 -0.050948
v 0.045921 0.631800 -0.079047
v 0.049721 0.582600 -0.081048
v 0.038621 0.519000 -0.074648
v -0.001279 0.631800 -0.106347
v -0.001279 0.582600 -0.110548
v -0.001279 0.519000 -0.097748
v -0.052379 0.582600 -0.081048
v -0.041279 0.519000 -0.074648
v -0.048779 0.631800 -0.079047
v -0.048779 0.631800 -0.024347
v -0.052379 0.582600 -0.022148
v -0.041279 0.519000 -0.028547
v -0.015779 0.481900 -0.050948
v -0.001279 0.481900 -0.067648
v -0.001279 0.293500 -0.034148
v -0.015779 0.287600 -0.050948
v 0.013121 0.287600 -0.050948
v -0.001279 0.280100 -0.067648
v -0.001279 0.200700 -0.139948
v -0.001279 0.154600 -0.082148
v 0.002821 0.225400 0.019552
v -0.005479 0.225400 0.019552
v -0.001279 0.001900 0.006552
v -0.052979 0.645700 -0.051248
v -0.083779 0.586200 -0.051847
v -0.029879 0.645800 -0.004647
v -0.039879 0.585700 0.015653
v 0.030621 0.646300 -0.007048
v 0.041521 0.584100 0.018352
v 0.050721 0.646300 -0.054448
v 0.083321 0.584000 -0.051848
v 0.031721 0.646500 -0.101248
v 0.043221 0.583700 -0.125948
v -0.024179 0.646300 -0.102147
v -0.045779 0.584100 -0.129447
v -0.000479 1.088200 -0.078447
v -0.000479 0.985200 -0.092947
v -0.037379 0.985200 -0.071547
v -0.027379 1.088200 -0.062947
v -0.027379 1.088200 -0.031847
v -0.037379 0.985200 -0.028847
v -0.072979 0.863000 -0.062747
v -0.036579 0.875200 -0.005747
v -0.000479 0.985200 -0.007447
v -0.000479 1.088200 -0.016347
v -0.000479 1.343000 -0.128047
v -0.000479 1.173500 -0.078447
v -0.027379 1.173500 -0.062947
v -0.057379 1.343000 -0.090147
v -0.057379 1.343000 -0.024847
v -0.079679 1.407900 -0.060747
v -0.072679 1.406300 -0.102147
v -0.027379 1.173500 -0.031847
v -0.000479 1.173500 -0.016347
v -0.000479 1.343000 0.007853
v -0.000479 1.373700 -0.074147
v -0.000479 1.385400 -0.150247
v -0.039979 1.395200 -0.133247
v -0.036679 0.875200 -0.119347
v -0.000479 0.875200 0.007653
v 0.035721 0.875200 -0.005747
v -0.045679 1.388400 0.005953
v -0.071079 1.392700 -0.017347
v -0.109179 1.437400 -0.031947
v -0.109579 1.436500 -0.083247
v -0.082179 1.440400 -0.146047
v -0.000479 1.418800 -0.199847
v -0.000479 1.404900 0.030653
v 0.044821 1.388400 0.005953
v -0.002079 0.890100 -0.066047
v -0.000679 0.823700 0.027053
v 0.026521 1.088200 -0.062947
v 0.036521 0.985200 -0.071547
v 0.026521 1.088200 -0.031847
v 0.036521 0.985200 -0.028847
v 0.056521 1.343000 -0.090147
v 0.026521 1.173500 -0.062947
v 0.039221 1.395200 -0.133247
v 0.056521 1.343000 -0.024847
v 0.026521 1.173500 -0.031847
v 0.078921 1.407900 -0.060747
v 0.071821 1.406300 -0.102147
v 0.070121 1.392700 -0.017347
v -0.000479 0.877600 -0.136347
v 0.035721 0.875200 -0.119347
v 0.072021 0.863000 -0.062647
v 0.108421 1.437400 -0.031947
v 0.108721 1.436500 -0.083247
v 0.081221 1.440400 -0.146047
v -0.098279 0.828200 -0.014047
v -0.107979 0.817100 -0.111547
v 0.105821 0.817100 -0.111347
v -0.000179 0.830100 -0.183447
v 0.098721 0.817100 -0.013447
v 0.033721 1.134100 -0.071347
v 0.033721 1.179300 -0.071347
v 0.033721 1.179300 -0.021847
v 0.033721 1.134100 -0.021847
v -0.034579 1.134100 -0.071347
v -0.034579 1.179300 -0.071347
v -0.000479 1.179300 -0.087647
v -0.000479 1.134100 -0.087647
v -0.000479 1.179300 -0.005547
v -0.000479 1.084100 -0.087647
v -0.034579 1.084100 -0.021847
v -0.034579 1.084100 -0.071347
v -0.000479 1.084100 -0.005547
v 0.033721 1.084100 -0.071347
v 0.033721 1.084100 -0.021847
v -0.000479 1.134100 -0.005547
v -0.034579 1.179300 -0.021847
v -0.034579 1.134100 -0.021847
v 0.035321 0.886200 -0.050747
v 0.039521 0.835400 -0.050747
v -0.000479 0.835400 -0.092447
v -0.000479 0.886200 -0.088047
v -0.040279 0.835400 -0.050747
v -0.036079 0.886200 -0.050747
v -0.000479 0.835400 -0.009147
v -0.000479 0.886200 -0.013447
v -0.000479 0.809900 -0.050747
v 0.018621 1.422100 -0.042147
v 0.043721 1.408800 -0.042147
v 0.031121 1.408800 -0.063847
v 0.031121 1.408800 -0.020247
v 0.005921 1.408800 -0.063847
v -0.006579 1.408800 -0.042147
v 0.005921 1.408800 -0.020247
v 0.043721 1.382300 -0.042147
v 0.031121 1.382300 -0.063847
v 0.005921 1.382300 -0.063847
v -0.006579 1.382300 -0.042147
v 0.005921 1.382300 -0.020247
v 0.031121 1.382300 -0.020247
v 0.011221 1.437700 -0.085147
v 0.045421 1.415100 -0.085147
v 0.028321 1.415100 -0.114647
v 0.028321 1.415100 -0.055447
v -0.005779 1.415100 -0.114647
v -0.022779 1.415100 -0.085147
v -0.005779 1.415100 -0.055447
v 0.045421 1.369900 -0.085147
v 0.028321 1.385700 -0.114647
v -0.005779 1.369900 -0.114647
v -0.022779 1.369900 -0.085147
v -0.005779 1.369900 -0.055447
v 0.028321 1.369900 -0.055447
v -0.023779 1.425700 -0.053047
v 0.004721 1.409100 -0.053047
v -0.009579 1.409100 -0.077747
v -0.009579 1.409100 -0.028247
v -0.038179 1.409100 -0.077747
v -0.052379 1.409100 -0.053047
v -0.038179 1.409100 -0.028247
v 0.004721 1.376000 -0.053047
v -0.009579 1.376000 -0.077747
v -0.038179 1.376000 -0.077747
v -0.052379 1.376000 -0.053047
v -0.038179 1.376000 -0.028247
v -0.009579 1.376000 -0.028247
v 0.159721 1.131600 -0.190547
v 0.257921 1.132100 -0.221647
v 0.160921 1.371500 -0.191547
v 0.160921 0.892600 -0.191547
v 0.024021 1.185700 -0.085247
v 0.061521 1.131300 -0.136047
v 0.061521 1.300200 -0.136047
v 0.024021 1.131900 -0.085247
v 0.257921 1.386800 -0.221647
v 0.024021 1.077300 -0.085247
v 0.061521 0.963800 -0.136047
v 0.257921 0.877400 -0.221647
v 0.056721 1.131600 -0.255447
v 0.057321 1.371500 -0.256947
v 0.121821 1.132100 -0.335447
v 0.057321 0.892600 -0.256947
v 0.001121 1.185700 -0.093047
v 0.004721 1.300200 -0.156247
v 0.004721 1.131300 -0.156047
v 0.001121 1.131900 -0.093047
v 0.121821 1.386800 -0.335447
v 0.001121 1.077300 -0.093047
v 0.004721 0.963800 -0.156247
v 0.121821 0.877400 -0.335447
v -0.096679 1.131600 -0.240247
v -0.097379 1.371500 -0.241847
v -0.102779 1.132100 -0.343047
v -0.097379 0.892600 -0.241847
v -0.027779 1.185700 -0.082947
v -0.067979 1.300200 -0.131847
v -0.067979 1.131300 -0.131847
v -0.027779 1.131900 -0.082947
v -0.102779 1.386800 -0.343047
v -0.027779 1.077300 -0.082947
v -0.067979 0.963800 -0.131847
v -0.102779 0.877400 -0.343047
v -0.295779 1.132100 -0.142747
v -0.198179 1.131600 -0.116947
v -0.199579 1.371500 -0.117647
v -0.199579 0.892600 -0.117647
v -0.295779 0.877400 -0.142747
v -0.092779 1.131300 -0.094347
v -0.033579 1.185700 -0.075547
v -0.092779 1.300200 -0.094347
v -0.033579 1.131900 -0.075547
v -0.033579 1.077300 -0.075547
v -0.295779 1.386800 -0.142747
v -0.092779 0.963800 -0.094347
v -0.323179 1.132100 -0.050447
v -0.220479 1.371500 -0.072447
v -0.104879 1.131300 -0.089147
v -0.323179 1.386800 -0.050447
v -0.104879 1.300200 -0.089147
v -0.052079 1.201900 -0.072947
v -0.104879 0.963800 -0.089147
v -0.099879 0.945500 -0.021247
v -0.218879 0.877400 -0.021247
v -0.052079 1.062100 -0.021247
v -0.220479 0.892600 -0.072447
v -0.052079 1.061000 -0.072947
v -0.035679 1.084100 -0.071347
v -0.035679 1.084100 -0.021847
v -0.099879 1.318700 -0.021247
v -0.052079 1.201900 -0.021247
v -0.218879 1.386800 -0.021247
v -0.218879 1.132100 -0.021247
v -0.052079 1.132100 -0.021247
v -0.357179 1.386800 -0.021247
v -0.357179 1.132100 -0.021247
v -0.323179 0.877400 -0.050447
v -0.357179 0.877400 -0.021247
v -0.052079 1.132100 -0.072947
v -0.035679 1.179900 -0.071347
v -0.035679 1.132100 -0.071347
v -0.035679 1.179900 -0.021847
v -0.035679 1.134900 -0.021847
v -0.318779 0.909000 -0.015247
v -0.281679 0.991000 -0.015247
v -0.300779 1.003200 -0.015247
v -0.367079 0.945900 -0.015247
v -0.274279 0.890200 -0.015247
v -0.241579 0.856200 -0.015247
v -0.222479 0.864900 -0.015247
v -0.259079 0.863500 -0.015247
v -0.393879 0.986200 -0.015247
v -0.376279 0.970800 -0.015247
v -0.391579 1.021300 -0.015247
v -0.303579 1.022900 -0.015247
v -0.216779 0.881200 -0.015247
v -0.219879 0.903500 -0.015247
v -0.225779 0.956800 -0.015247
v -0.251279 0.996200 -0.015247
v -0.228579 0.924400 -0.015247
v -0.374079 1.080200 -0.015247
v -0.397379 1.054300 -0.015247
v -0.340279 1.084100 -0.015247
v -0.288279 0.881800 -0.015247
v -0.308179 0.893000 -0.015247
v -0.328179 0.881800 -0.015247
v -0.328179 0.858200 -0.015247
v -0.308179 0.846800 -0.015247
v -0.288279 0.858200 -0.015247
v -0.331679 1.381900 -0.015247
v -0.305979 1.367300 -0.015247
v -0.280179 1.381900 -0.015247
v -0.280179 1.412700 -0.015247
v -0.305979 1.427300 -0.015247
v -0.331679 1.412700 -0.015247
v -0.340979 1.127900 -0.015247
v -0.362479 1.140100 -0.015247
v -0.384079 1.127900 -0.015247
v -0.384079 1.102100 -0.015247
v -0.362479 1.089900 -0.015247
v -0.340979 1.102100 -0.015247
v -0.155279 1.375800 -0.015247
v -0.195679 1.280400 -0.015247
v -0.173479 1.266900 -0.015247
v -0.098779 1.334800 -0.015247
v -0.207079 1.396200 -0.015247
v -0.245479 1.434600 -0.015247
v -0.267179 1.424000 -0.015247
v -0.225179 1.426600 -0.015247
v -0.066679 1.289000 -0.015247
v -0.087479 1.306200 -0.015247
v -0.068479 1.248500 -0.015247
v -0.169579 1.244300 -0.015247
v -0.273479 1.405100 -0.015247
v -0.269179 1.379400 -0.015247
v -0.261079 1.318300 -0.015247
v -0.230479 1.273700 -0.015247
v -0.258779 1.355500 -0.015247
v -0.087079 1.180200 -0.015247
v -0.060979 1.210700 -0.015247
v -0.125779 1.174800 -0.015247
v 0.197221 1.131600 -0.116947
v 0.295021 1.132100 -0.142747
v 0.198721 1.371500 -0.117647
v 0.198721 0.892600 -0.117647
v 0.032621 1.185700 -0.075547
v 0.091821 1.131300 -0.094347
v 0.092021 1.300200 -0.094347
v 0.032621 1.131900 -0.075547
v 0.295021 1.386800 -0.142747
v 0.032621 1.077300 -0.075547
v 0.092021 0.963800 -0.094347
v 0.295021 0.877400 -0.142748
v 0.119321 1.131600 -0.226347
v 0.206521 1.132100 -0.281347
v 0.120321 1.371500 -0.227647
v 0.120321 0.892600 -0.227647
v 0.014721 1.185700 -0.090247
v 0.038121 1.131300 -0.148847
v 0.038121 1.300200 -0.149047
v 0.014721 1.131900 -0.090247
v 0.206521 1.386800 -0.281347
v 0.014721 1.077300 -0.090247
v 0.038121 0.963800 -0.149047
v 0.206521 0.877400 -0.281347
v -0.026579 1.131600 -0.261647
v -0.026679 1.371500 -0.263447
v 0.002521 1.132100 -0.360547
v -0.026679 0.892600 -0.263447
v -0.015279 1.185700 -0.090447
v -0.036379 1.300200 -0.149947
v -0.036379 1.131300 -0.149947
v -0.015279 1.131900 -0.090447
v 0.002521 1.386800 -0.360547
v -0.015279 1.077300 -0.090447
v -0.036379 0.963800 -0.149947
v 0.002521 0.877400 -0.360547
v -0.166379 1.131600 -0.191847
v -0.167679 1.371500 -0.193047
v -0.214579 1.132100 -0.283047
v -0.167679 0.892600 -0.193047
v -0.038779 1.185700 -0.077147
v -0.095479 1.300200 -0.119547
v -0.095479 1.131300 -0.119547
v -0.038779 1.131900 -0.077147
v -0.214579 1.386800 -0.283047
v -0.038779 1.077300 -0.077147
v -0.095479 0.963800 -0.119547
v -0.214579 0.877400 -0.283047
v 0.104021 1.131300 -0.089147
v 0.219721 1.371500 -0.072447
v 0.322321 1.132100 -0.050447
v 0.219721 0.892600 -0.072448
v 0.051221 1.201900 -0.072947
v 0.104021 1.300200 -0.089147
v 0.051221 1.132100 -0.072947
v 0.322321 1.386800 -0.050447
v 0.099021 0.945500 -0.021247
v 0.104021 0.963800 -0.089147
v 0.218121 0.877400 -0.021247
v 0.051221 1.062100 -0.021247
v 0.051221 1.061000 -0.072947
v 0.051221 1.201900 -0.021247
v 0.099021 1.318700 -0.021247
v 0.034821 1.179900 -0.021847
v 0.218121 1.386800 -0.021247
v 0.218121 1.132100 -0.021247
v 0.356221 1.132100 -0.021247
v 0.356221 1.386800 -0.021247
v 0.051221 1.132100 -0.021247
v 0.322321 0.877400 -0.050447
v 0.356221 0.877400 -0.021248
v 0.034821 1.084100 -0.071347
v 0.034821 1.084100 -0.021847
v 0.034821 1.179900 -0.071347
v 0.034821 1.134900 -0.021847
v 0.034821 1.132100 -0.071347
v 0.333621 1.115200 -0.015247
v 0.356421 1.102300 -0.015247
v 0.379221 1.115200 -0.015247
v 0.379221 1.142400 -0.015247
v 0.356421 1.155400 -0.015247
v 0.333621 1.142400 -0.015247
v 0.355621 0.902300 -0.015247
v 0.373321 0.892300 -0.015247
v 0.391121 0.902300 -0.015247
v 0.391121 0.923500 -0.015247
v 0.373321 0.933500 -0.015247
v 0.355621 0.923500 -0.015247
v 0.353121 0.917600 -0.015247
v 0.306721 1.001500 -0.015247
v 0.292521 0.984000 -0.015247
v 0.387521 0.967600 -0.015247
v 0.275321 0.845700 -0.015247
v 0.296221 0.843400 -0.015247
v 0.316521 0.885900 -0.015247
v 0.264821 0.859400 -0.015247
v 0.388421 0.994100 -0.015247
v 0.400421 1.014300 -0.015247
v 0.387321 1.046900 -0.015247
v 0.303321 1.021200 -0.015247
v 0.260721 0.881600 -0.015247
v 0.249821 0.934000 -0.015247
v 0.310421 0.855700 -0.015247
v 0.262521 0.904100 -0.015247
v 0.382621 1.080100 -0.015247
v 0.352321 1.097600 -0.015247
v 0.319021 1.090700 -0.015247
v 0.261821 0.979400 -0.015247
v 0.298421 1.169800 -0.015247
v 0.316221 1.159800 -0.015247
v 0.334021 1.169800 -0.015247
v 0.334021 1.191200 -0.015247
v 0.316221 1.201200 -0.015247
v 0.298421 1.191200 -0.015247
vt 0.609400 0.550800
vt 0.578100 0.546900
vt 0.617200 0.566400
vt 0.554700 0.585900
vt 0.992200 0.617200
vt 0.992200 0.585900
vt 0.554700 0.617200
vt 0.992200 0.652300
vt 0.554700 0.652300
vt 0.992200 0.679700
vt 0.554700 0.679700
vt 0.992200 0.652300
vt 0.554700 0.652300
vt 0.992200 0.617200
vt 0.554700 0.617200
vt 0.585900 0.679700
vt 0.609400 0.664100
vt 0.609400 0.648400
vt 0.585900 0.632800
vt 0.609400 0.617200
vt 0.585900 0.585900
vt 0.609400 0.601600
vt 0.609400 0.617200
vt 0.585900 0.632800
vt 0.609400 0.648400
vt 0.554700 0.679700
vt 0.554700 0.632800
vt 0.554700 0.585900
vt 0.554700 0.632800
vt 0.460900 0.566400
vt 0.460900 0.519500
vt 0.414100 0.543000
vt 0.507800 0.543000
vt 0.679700 0.847700
vt 0.773400 0.777300
vt 0.679700 0.777300
vt 0.789100 0.847700
vt 0.695300 0.945300
vt 0.796900 0.945300
vt 0.718800 0.996100
vt 0.828100 0.996100
vt 0.882800 0.777300
vt 0.898400 0.847700
vt 0.890600 0.945300
vt 0.976600 0.777300
vt 0.976600 0.847700
vt 0.960900 0.945300
vt 0.898400 0.847700
vt 0.890600 0.945300
vt 0.882800 0.777300
vt 0.773400 0.777300
vt 0.789100 0.847700
vt 0.796900 0.945300
vt 0.828100 0.996100
vt 0.929700 0.996100
vt 0.992200 0.679700
vt 0.554700 0.632800
vt 0.554700 0.679700
vt 0.992200 0.632800
vt 0.992200 0.632800
vt 0.554700 0.585900
vt 0.992200 0.585900
vt 0.554700 0.632800
vt 0.601600 0.406300
vt 0.562500 0.453100
vt 0.554700 0.418000
vt 0.562500 0.453100
vt 0.640600 0.437500
vt 0.640600 0.578100
vt 0.796900 0.562500
vt 0.734400 0.433600
vt 0.554700 0.500000
vt 0.640600 0.437500
vt 0.734400 0.433600
vt 0.984400 0.527300
vt 0.632800 0.769500
vt 0.632800 0.687500
vt 0.789100 0.730500
vt 0.804700 0.687500
vt 1.000000 0.734400
vt 0.804700 0.769500
vt 0.632800 0.687500
vt 0.789100 0.730500
vt 0.804700 0.687500
vt 1.000000 0.734400
vt 0.632800 0.769500
vt 0.789100 0.730500
vt 1.000000 0.734400
vt 0.804700 0.769500
vt 0.632800 0.769500
vt 0.632800 0.687500
vt 0.789100 0.730500
vt 0.804700 0.687500
vt 1.000000 0.734400
vt 0.804700 0.769500
vt 0.632800 0.687500
vt 0.789100 0.730500
vt 1.000000 0.734400
vt 0.804700 0.687500
vt 0.632800 0.769500
vt 0.789100 0.730500
vt 1.000000 0.734400
vt 0.804700 0.769500
vt 0.718800 0.714800
vt 0.718800 0.742200
vt 0.773400 0.730500
vt 0.718800 0.714800
vt 0.773400 0.730500
vt 0.718800 0.742200
vt 0.773400 0.730500
vt 0.773400 0.730500
vt 0.718800 0.714800
vt 0.718800 0.742200
vt 0.773400 0.730500
vt 0.773400 0.730500
vt 0.742200 0.441400
vt 0.742200 0.449200
vt 0.921900 0.500000
vt 0.679700 0.437500
vt 0.679700 0.449200
vt 0.398400 0.738300
vt 0.328100 0.804700
vt 0.414100 0.804700
vt 0.453100 0.738300
vt 0.523400 0.738300
vt 0.500000 0.804700
vt 0.367200 0.957000
vt 0.519500 0.949200
vt 0.597700 0.804700
vt 0.585900 0.738300
vt 0.398400 0.707000
vt 0.210900 0.878900
vt 0.156300 0.878900
vt 0.257800 0.707000
vt 0.101600 0.703100
vt 0.179700 0.632800
vt 0.289100 0.632800
vt 0.085900 0.878900
vt 0.015600 0.878900
vt 0.015600 0.703100
vt 0.539100 0.550800
vt 0.296900 0.546900
vt 0.296900 0.597700
vt 0.296900 0.515600
vt 0.296900 0.597700
vt 0.226600 0.945300
vt 0.617200 0.933600
vt 0.523400 0.945300
vt 0.398400 0.644500
vt 0.453100 0.679700
vt 0.054700 0.652300
vt 0.078100 0.644500
vt 0.296900 0.515600
vt 0.125000 0.605500
vt 0.242200 0.601600
vt 0.367200 0.605500
vt 0.531300 0.640600
vt 0.007800 0.640600
vt 0.296900 0.523400
vt 0.296900 0.585900
vt 0.539100 0.558600
vt 0.250000 0.554700
vt 0.539100 0.558600
vt 0.296900 0.515600
vt 0.296900 0.597700
vt 0.304700 0.515600
vt 0.304700 0.558600
vt 0.304700 0.597700
vt 0.523400 0.945300
vt 0.609400 0.996100
vt 0.453100 0.738300
vt 0.414100 0.804700
vt 0.523400 0.738300
vt 0.500000 0.804700
vt 0.257800 0.707000
vt 0.156300 0.878900
vt 0.398400 0.644500
vt 0.101600 0.703100
vt 0.085900 0.878900
vt 0.179700 0.632800
vt 0.289100 0.632800
vt 0.054700 0.652300
vt 0.078100 0.644500
vt 0.296900 0.566400
vt 0.296900 0.519500
vt 0.296900 0.597700
vt 0.296900 0.515600
vt 0.296900 0.515600
vt 0.195300 0.906300
vt 0.226600 0.945300
vt 0.367200 0.957000
vt 0.296900 0.597700
vt 0.125000 0.605500
vt 0.242200 0.601600
vt 0.367200 0.605500
vt 0.296900 0.597700
vt 0.296900 0.554700
vt 0.296900 0.515600
vt 0.296900 0.597700
vt 0.453100 1.000000
vt 0.242200 0.996100
vt 0.242200 0.996100
vt 0.093800 0.949200
vt 0.453100 1.000000
vt 0.859400 0.003900
vt 0.859400 0.062500
vt 0.882800 0.062500
vt 0.882800 0.003900
vt 0.460900 0.328100
vt 0.460900 0.468800
vt 0.531300 0.468800
vt 0.531300 0.328100
vt 0.460900 0.468800
vt 0.460900 0.328100
vt 0.820300 0.113300
vt 0.867200 0.074200
vt 0.992200 0.113300
vt 0.945300 0.074200
vt 0.867200 0.074200
vt 0.820300 0.113300
vt 0.945300 0.074200
vt 0.867200 0.074200
vt 0.992200 0.113300
vt 0.867200 0.074200
vt 0.945300 0.074200
vt 0.992200 0.003900
vt 0.882800 0.062500
vt 0.882800 0.003900
vt 0.992200 0.062500
vt 0.992200 0.062500
vt 0.882800 0.062500
vt 0.882800 0.062500
vt 0.859400 0.062500
vt 0.460900 0.468800
vt 0.531300 0.468800
vt 0.460900 0.468800
vt 0.945300 0.074200
vt 0.859400 0.062500
vt 0.859400 0.003900
vt 0.859400 0.062500
vt 0.007800 0.996100
vt 0.125000 0.996100
vt 0.125000 0.964800
vt 0.007800 0.964800
vt 0.125000 0.996100
vt 0.007800 0.996100
vt 0.125000 0.964800
vt 0.007800 0.964800
vt 0.890600 0.382800
vt 0.890600 0.324200
vt 0.789100 0.382800
vt 0.992200 0.390600
vt 0.890600 0.449200
vt 0.890600 0.386700
vt 0.976600 0.394500
vt 0.945300 0.347700
vt 0.929700 0.429700
vt 0.851600 0.343800
vt 0.804700 0.378900
vt 0.835900 0.425800
vt 0.125000 0.996100
vt 0.007800 0.996100
vt 0.007800 0.964800
vt 0.125000 0.964800
vt 0.007800 0.996100
vt 0.125000 0.996100
vt 0.007800 0.964800
vt 0.125000 0.964800
vt 0.007800 0.996100
vt 0.125000 0.996100
vt 0.007800 0.964800
vt 0.125000 0.964800
vt 0.890600 0.390600
vt 0.992200 0.371100
vt 0.914100 0.339800
vt 0.953100 0.425800
vt 0.828100 0.355500
vt 0.796900 0.402300
vt 0.867200 0.437500
vt 0.125000 0.964800
vt 0.007800 0.964800
vt 0.007800 0.996100
vt 0.125000 0.996100
vt 0.007800 0.964800
vt 0.125000 0.964800
vt 0.007800 0.996100
vt 0.125000 0.996100
vt 0.007800 0.964800
vt 0.125000 0.964800
vt 0.007800 0.996100
vt 0.125000 0.996100
vt 0.898400 0.382800
vt 0.867200 0.335900
vt 0.812500 0.375000
vt 0.953100 0.339800
vt 0.835900 0.425800
vt 0.929700 0.433600
vt 0.984400 0.394500
vt 0.125000 0.996100
vt 0.007800 0.996100
vt 0.007800 0.964800
vt 0.125000 0.964800
vt 0.007800 0.996100
vt 0.125000 0.996100
vt 0.007800 0.964800
vt 0.125000 0.964800
vt 0.007800 0.996100
vt 0.125000 0.996100
vt 0.007800 0.964800
vt 0.125000 0.964800
vt 0.007800 0.429700
vt 0.007800 0.316400
vt 0.296900 0.418000
vt 0.296900 0.418000
vt 0.093800 0.589800
vt 0.007800 0.539100
vt 0.210900 0.539100
vt 0.007800 0.589800
vt 0.312500 0.316400
vt 0.093800 0.589800
vt 0.210900 0.539100
vt 0.312500 0.316400
vt 0.007800 0.429700
vt 0.296900 0.418000
vt 0.007800 0.316400
vt 0.296900 0.418000
vt 0.093800 0.589800
vt 0.210900 0.539100
vt 0.007800 0.539100
vt 0.007800 0.589800
vt 0.312500 0.316400
vt 0.093800 0.589800
vt 0.210900 0.539100
vt 0.312500 0.316400
vt 0.007800 0.429700
vt 0.296900 0.418000
vt 0.007800 0.316400
vt 0.296900 0.418000
vt 0.093800 0.589800
vt 0.210900 0.539100
vt 0.007800 0.539100
vt 0.007800 0.589800
vt 0.312500 0.316400
vt 0.093800 0.589800
vt 0.210900 0.539100
vt 0.312500 0.316400
vt 0.007800 0.316400
vt 0.007800 0.429700
vt 0.296900 0.418000
vt 0.296900 0.418000
vt 0.312500 0.316400
vt 0.007800 0.539100
vt 0.093800 0.589800
vt 0.210900 0.539100
vt 0.007800 0.589800
vt 0.093800 0.589800
vt 0.312500 0.316400
vt 0.210900 0.539100
vt 0.007800 0.316400
vt 0.296900 0.418000
vt 0.007800 0.539100
vt 0.312500 0.316400
vt 0.210900 0.539100
vt 0.093800 0.589800
vt 0.445300 0.363300
vt 0.328100 0.371100
vt 0.328100 0.433600
vt 0.328100 0.335900
vt 0.445300 0.433600
vt 0.429700 0.335900
vt 0.429700 0.316400
vt 0.328100 0.316400
vt 0.429700 0.335900
vt 0.328100 0.371100
vt 0.328100 0.335900
vt 0.445300 0.363300
vt 0.328100 0.433600
vt 0.445300 0.433600
vt 0.445300 0.500000
vt 0.328100 0.308600
vt 0.609400 0.242200
vt 0.328100 0.003900
vt 0.789100 0.082000
vt 0.789100 0.003900
vt 0.789100 0.082000
vt 0.609400 0.242200
vt 0.328100 0.308600
vt 0.007800 0.308600
vt 0.007800 0.003900
vt 0.328100 0.496100
vt 0.445300 0.496100
vt 0.445300 0.343800
vt 0.445300 0.343800
vt 0.328100 0.343800
vt 0.328100 0.343800
vt 0.445300 0.500000
vt 0.328100 0.500000
vt 0.328100 0.500000
vt 0.007800 0.308600
vt 0.007800 0.589800
vt 0.085900 0.597700
vt 0.007800 0.597700
vt 0.328100 0.316400
vt 0.429700 0.316400
vt 0.820300 0.003900
vt 0.820300 0.062500
vt 0.820300 0.062500
vt 0.093800 0.589800
vt 0.085900 0.597700
vt 0.210900 0.539100
vt 0.296900 0.418000
vt 0.312500 0.316400
vt 0.867200 0.804700
vt 0.867200 0.777300
vt 0.867200 0.800800
vt 0.867200 0.828100
vt 0.867200 0.777300
vt 0.867200 0.828100
vt 0.789100 0.187500
vt 0.851600 0.293000
vt 0.820300 0.300800
vt 0.656300 0.226600
vt 0.851600 0.160200
vt 0.937500 0.113300
vt 0.976600 0.125000
vt 0.890600 0.125000
vt 0.593800 0.289100
vt 0.625000 0.257800
vt 0.601600 0.324200
vt 0.812500 0.320300
vt 0.984400 0.148400
vt 0.976600 0.171900
vt 0.968800 0.257800
vt 0.921900 0.300800
vt 0.960900 0.207000
vt 0.664100 0.421900
vt 0.585900 0.375000
vt 0.742200 0.418000
vt 0.960900 0.261700
vt 0.929700 0.273400
vt 0.882800 0.261700
vt 0.882800 0.230500
vt 0.929700 0.222700
vt 0.960900 0.230500
vt 0.820300 0.183600
vt 0.867200 0.175800
vt 0.898400 0.183600
vt 0.898400 0.214800
vt 0.867200 0.226600
vt 0.820300 0.214800
vt 0.789100 0.347700
vt 0.726600 0.371100
vt 0.671900 0.347700
vt 0.671900 0.308600
vt 0.734400 0.289100
vt 0.789100 0.308600
vt 0.789100 0.187500
vt 0.851600 0.293000
vt 0.820300 0.300800
vt 0.656300 0.226600
vt 0.851600 0.160200
vt 0.937500 0.113300
vt 0.976600 0.125000
vt 0.890600 0.125000
vt 0.593800 0.289100
vt 0.625000 0.257800
vt 0.601600 0.324200
vt 0.812500 0.320300
vt 0.984400 0.148400
vt 0.976600 0.171900
vt 0.968800 0.257800
vt 0.921900 0.300800
vt 0.960900 0.207000
vt 0.664100 0.421900
vt 0.585900 0.375000
vt 0.742200 0.418000
vt 0.007800 0.429700
vt 0.007800 0.316400
vt 0.296900 0.418000
vt 0.296900 0.418000
vt 0.093800 0.589800
vt 0.007800 0.539100
vt 0.210900 0.539100
vt 0.007800 0.589800
vt 0.312500 0.316400
vt 0.093800 0.589800
vt 0.210900 0.539100
vt 0.312500 0.316400
vt 0.007800 0.429700
vt 0.007800 0.316400
vt 0.296900 0.418000
vt 0.296900 0.418000
vt 0.093800 0.589800
vt 0.007800 0.539100
vt 0.210900 0.539100
vt 0.007800 0.589800
vt 0.312500 0.316400
vt 0.093800 0.589800
vt 0.210900 0.539100
vt 0.312500 0.316400
vt 0.007800 0.429700
vt 0.296900 0.418000
vt 0.007800 0.316400
vt 0.296900 0.418000
vt 0.093800 0.589800
vt 0.210900 0.539100
vt 0.007800 0.539100
vt 0.007800 0.589800
vt 0.312500 0.316400
vt 0.093800 0.589800
vt 0.210900 0.539100
vt 0.312500 0.316400
vt 0.007800 0.429700
vt 0.296900 0.418000
vt 0.007800 0.316400
vt 0.296900 0.418000
vt 0.093800 0.589800
vt 0.210900 0.539100
vt 0.007800 0.539100
vt 0.007800 0.589800
vt 0.312500 0.316400
vt 0.093800 0.589800
vt 0.210900 0.539100
vt 0.312500 0.316400
vt 0.007800 0.539100
vt 0.296900 0.418000
vt 0.007800 0.316400
vt 0.296900 0.418000
vt 0.093800 0.589800
vt 0.210900 0.539100
vt 0.007800 0.589800
vt 0.312500 0.316400
vt 0.328100 0.371100
vt 0.445300 0.363300
vt 0.328100 0.433600
vt 0.445300 0.433600
vt 0.328100 0.335900
vt 0.429700 0.335900
vt 0.328100 0.335900
vt 0.328100 0.371100
vt 0.429700 0.335900
vt 0.328100 0.316400
vt 0.445300 0.363300
vt 0.328100 0.433600
vt 0.445300 0.500000
vt 0.445300 0.433600
vt 0.328100 0.003900
vt 0.609400 0.242200
vt 0.328100 0.308600
vt 0.007800 0.003900
vt 0.007800 0.308600
vt 0.789100 0.082000
vt 0.789100 0.082000
vt 0.789100 0.003900
vt 0.609400 0.242200
vt 0.328100 0.308600
vt 0.445300 0.343800
vt 0.445300 0.496100
vt 0.328100 0.496100
vt 0.328100 0.343800
vt 0.445300 0.343800
vt 0.328100 0.343800
vt 0.445300 0.500000
vt 0.328100 0.500000
vt 0.328100 0.500000
vt 0.007800 0.308600
vt 0.429700 0.316400
vt 0.328100 0.316400
vt 0.429700 0.316400
vt 0.820300 0.003900
vt 0.820300 0.062500
vt 0.085900 0.597700
vt 0.007800 0.597700
vt 0.085900 0.597700
vt 0.093800 0.589800
vt 0.210900 0.539100
vt 0.312500 0.316400
vt 0.820300 0.062500
vt 0.867200 0.804700
vt 0.867200 0.800800
vt 0.867200 0.777300
vt 0.867200 0.777300
vt 0.867200 0.828100
vt 0.867200 0.828100
vt 0.679700 0.304700
vt 0.742200 0.293000
vt 0.789100 0.304700
vt 0.789100 0.351600
vt 0.742200 0.367200
vt 0.679700 0.351600
vt 0.882800 0.230500
vt 0.929700 0.222700
vt 0.960900 0.230500
vt 0.960900 0.261700
vt 0.929700 0.273400
vt 0.882800 0.261700
vt 0.789100 0.187500
vt 0.820300 0.300800
vt 0.851600 0.293000
vt 0.656300 0.226600
vt 0.976600 0.125000
vt 0.937500 0.113300
vt 0.851600 0.160200
vt 0.984400 0.148400
vt 0.625000 0.257800
vt 0.593800 0.289100
vt 0.601600 0.324200
vt 0.812500 0.320300
vt 0.976600 0.171900
vt 0.968800 0.257800
vt 0.890600 0.125000
vt 0.960900 0.207000
vt 0.585900 0.375000
vt 0.664100 0.421900
vt 0.742200 0.418000
vt 0.921900 0.300800
vt 0.671900 0.304700
vt 0.742200 0.293000
vt 0.789100 0.304700
vt 0.789100 0.351600
vt 0.742200 0.367200
vt 0.671900 0.351600
usemtl w2dbk06_TEX_w2dbk06
s 1
f 1/1 2/2 3/3
f 4/4 5/5 6/6
f 5/5 4/4 7/7
f 7/7 8/8 5/5
f 8/8 7/7 9/9
f 9/9 10/10 8/8
f 10/10 9/9 11/11
f 11/11 12/12 10/10
f 12/12 11/11 13/13
f 13/13 14/14 12/12
f 14/14 13/13 15/15
f 15/15 6/6 14/14
f 6/6 15/15 4/4
f 16/16 6/17 5/18
f 5/18 17/19 16/16
f 5/18 8/20 17/19
f 8/20 18/21 17/19
f 18/21 8/20 10/22
f 18/21 10/22 12/23
f 12/23 19/24 18/21
f 12/23 14/25 19/24
f 14/25 16/16 19/24
f 16/16 14/25 6/17
f 20/26 16/16 17/19
f 17/19 21/27 20/26
f 17/19 18/21 22/28
f 22/28 18/21 19/24
f 19/24 23/29 22/28
f 19/24 20/26 23/29
f 20/26 19/24 16/16
f 20/30 22/31 23/32
f 22/31 20/30 21/33
f 24/34 25/35 26/36
f 25/35 24/34 27/37
f 28/38 27/37 24/34
f 27/37 28/38 29/39
f 30/40 29/39 28/38
f 29/39 30/40 31/41
f 27/37 32/42 25/35
f 32/42 27/37 33/43
f 29/39 33/43 27/37
f 33/43 29/39 34/44
f 31/41 34/44 29/39
f 33/43 35/45 32/42
f 35/45 33/43 36/46
f 34/44 36/46 33/43
f 36/46 34/44 37/47
f 36/46 38/48 35/45
f 38/48 36/46 39/49
f 37/47 39/49 36/46
f 40/50 35/45 38/48
f 38/48 41/51 40/50
f 41/51 38/48 42/52
f 42/52 24/34 41/51
f 41/51 24/34 26/36
f 39/49 42/52 38/48
f 42/52 39/49 43/53
f 44/54 43/53 39/49
f 43/53 28/38 42/52
f 28/38 43/53 30/40
f 44/54 30/40 43/53
f 42/52 28/38 24/34
f 45/55 34/44 31/41
f 37/47 34/44 45/55
f 45/55 39/49 37/47
f 45/55 44/54 39/49
f 46/56 31/57 30/58
f 30/58 47/59 46/56
f 31/57 46/56 48/60
f 48/60 45/61 31/57
f 45/61 48/60 49/62
f 49/62 44/63 45/61
f 44/63 49/62 47/59
f 47/59 30/58 44/63
f 17/19 22/28 21/27
f 1/64 48/65 46/66
f 46/66 47/67 1/64
f 1/64 3/68 48/65
f 3/68 50/69 48/65
f 50/69 3/68 51/70
f 52/71 51/70 3/68
f 49/72 48/65 50/69
f 50/69 47/67 49/72
f 47/67 50/69 2/73
f 51/70 2/73 50/69
f 2/73 51/70 53/74
f 54/75 53/74 51/70
f 1/64 47/67 2/73
f 15/76 13/77 55/78
f 55/78 13/77 40/79
f 40/79 56/80 55/78
f 41/81 15/76 55/78
f 4/82 15/76 57/83
f 26/84 4/82 57/83
f 57/83 15/76 41/81
f 41/81 58/85 57/83
f 7/86 4/82 59/87
f 59/87 4/82 26/84
f 26/84 60/88 59/87
f 25/89 7/86 59/87
f 9/90 7/91 61/92
f 61/92 7/91 25/93
f 25/93 62/94 61/92
f 32/95 9/90 61/92
f 11/96 9/90 63/97
f 63/97 9/90 32/95
f 32/95 64/98 63/97
f 35/99 11/96 63/97
f 13/100 11/96 65/101
f 65/101 11/96 35/99
f 35/99 66/102 65/101
f 40/103 13/100 65/101
f 32/104 35/105 64/106
f 35/99 63/97 64/98
f 35/105 40/107 66/108
f 40/103 65/101 66/102
f 40/107 41/109 56/110
f 41/81 55/78 56/80
f 26/84 57/83 58/85
f 58/111 41/109 26/112
f 26/112 25/113 60/114
f 25/89 59/87 60/88
f 25/113 32/104 62/115
f 32/95 61/92 62/94
f 52/116 53/117 54/118
f 3/119 53/117 52/116
f 53/117 3/119 2/120
f 51/70 52/71 54/75
f 67/121 68/122 69/123
f 69/123 70/124 67/121
f 69/123 71/125 70/124
f 71/125 69/123 72/126
f 73/127 72/126 69/123
f 72/126 73/127 74/128
f 72/126 75/129 76/130
f 77/131 78/132 79/133
f 79/133 80/134 77/131
f 80/134 79/133 81/135
f 81/135 82/136 80/134
f 83/137 80/134 82/136
f 79/133 84/138 81/135
f 84/138 85/139 86/140
f 87/141 88/142 89/143
f 87/141 83/144 82/145
f 83/144 87/141 89/143
f 90/146 69/123 68/122
f 69/123 90/146 73/127
f 91/147 92/148 75/129
f 89/149 88/150 77/131
f 93/151 94/152 81/135
f 94/152 82/136 81/135
f 87/141 82/145 94/153
f 83/137 89/149 80/134
f 82/136 95/154 94/152
f 83/137 96/155 82/136
f 89/149 83/137 97/156
f 88/150 98/157 89/149
f 89/149 77/131 80/134
f 86/140 93/151 81/135
f 81/135 84/138 86/140
f 99/158 93/151 86/140
f 93/159 100/160 87/161
f 87/161 94/153 93/159
f 99/162 100/160 93/159
f 101/163 90/164 73/165
f 73/165 74/166 101/163
f 91/167 101/163 74/166
f 92/168 101/163 91/167
f 72/126 76/130 71/125
f 74/169 75/129 72/126
f 75/129 74/169 91/147
f 102/170 91/147 74/169
f 103/171 104/172 67/121
f 104/172 68/122 67/121
f 105/173 104/172 103/171
f 106/174 104/172 105/173
f 76/130 75/129 106/174
f 106/174 105/173 76/130
f 77/131 107/175 108/176
f 107/175 77/131 109/177
f 88/150 109/177 77/131
f 108/176 78/132 77/131
f 110/178 111/179 108/176
f 107/175 110/178 108/176
f 110/178 107/175 112/180
f 113/181 112/180 107/175
f 86/140 85/139 111/179
f 111/179 110/178 86/140
f 100/182 86/140 110/178
f 110/178 114/183 100/182
f 88/184 87/141 109/185
f 112/186 113/187 87/141
f 87/141 114/188 112/186
f 68/122 115/189 90/146
f 115/189 68/122 116/190
f 104/172 116/190 68/122
f 116/190 104/172 117/191
f 106/174 117/191 104/172
f 117/191 106/174 92/148
f 75/129 92/148 106/174
f 112/180 114/183 110/178
f 109/177 113/181 107/175
f 109/192 87/141 113/187
f 114/183 118/193 112/180
f 112/180 119/194 113/181
f 113/181 109/177 120/195
f 109/177 98/157 88/150
f 100/182 99/158 86/140
f 87/161 100/160 114/196
f 115/197 90/164 101/163
f 117/198 116/199 101/163
f 101/163 92/168 117/198
f 74/169 121/200 73/127
f 73/127 122/201 90/146
f 117/191 123/202 116/190
f 115/189 124/203 90/146
f 117/191 125/204 92/148
f 116/199 115/197 101/163
f 124/203 115/189 116/190
f 91/147 102/170 92/148
f 126/205 127/206 128/207
f 129/208 126/205 128/207
f 130/209 131/210 132/211
f 133/212 127/213 126/214
f 127/213 133/212 132/211
f 130/209 132/211 133/212
f 132/215 131/216 134/217
f 134/217 128/218 132/215
f 127/219 132/215 128/218
f 135/220 136/221 137/222
f 136/221 135/220 138/223
f 139/224 138/223 135/220
f 138/223 139/224 140/225
f 141/226 142/227 143/228
f 142/227 141/226 134/229
f 129/208 134/229 141/226
f 134/229 129/208 128/207
f 138/230 143/228 136/231
f 143/228 138/230 141/226
f 140/232 141/226 138/230
f 141/226 140/232 129/208
f 140/232 139/233 129/208
f 139/233 126/205 129/208
f 126/214 139/234 135/235
f 137/236 130/209 133/212
f 131/216 142/237 134/217
f 133/212 126/214 135/235
f 135/235 137/236 133/212
f 142/227 131/238 130/239
f 143/228 142/227 130/239
f 130/239 137/240 143/228
f 143/228 137/240 136/231
f 144/241 145/242 146/243
f 147/244 144/241 146/243
f 146/243 148/245 147/244
f 149/246 147/244 148/245
f 148/245 150/247 149/246
f 151/248 149/246 150/247
f 150/247 145/242 151/248
f 151/248 145/242 144/241
f 152/249 146/250 145/251
f 146/250 152/249 148/252
f 152/249 150/253 148/252
f 150/253 152/249 145/251
f 153/254 154/255 155/256
f 154/255 153/254 156/257
f 153/254 155/256 157/258
f 153/254 157/258 158/259
f 153/254 158/259 159/260
f 153/254 159/260 156/257
f 154/261 160/262 161/263
f 155/264 154/261 161/263
f 161/263 162/265 155/264
f 157/266 155/264 162/265
f 162/265 163/267 157/266
f 158/268 157/266 163/267
f 163/267 164/269 158/268
f 159/270 158/268 164/269
f 164/269 165/271 159/270
f 156/272 159/270 165/271
f 165/271 160/262 156/272
f 156/272 160/262 154/261
f 166/273 167/274 168/275
f 167/274 166/273 169/276
f 166/273 168/275 170/277
f 166/273 170/277 171/278
f 166/273 171/278 172/279
f 166/273 172/279 169/276
f 167/280 173/281 174/282
f 168/283 167/280 174/282
f 174/282 175/284 168/283
f 170/285 168/283 175/284
f 175/284 176/286 170/285
f 171/287 170/285 176/286
f 176/286 177/288 171/287
f 172/289 171/287 177/288
f 177/288 178/290 172/289
f 169/291 172/289 178/290
f 178/290 173/281 169/291
f 169/291 173/281 167/280
f 179/292 180/293 181/294
f 180/293 179/292 182/295
f 179/292 181/294 183/296
f 179/292 183/296 184/297
f 179/292 184/297 185/298
f 179/292 185/298 182/295
f 180/299 186/300 187/301
f 181/302 180/299 187/301
f 187/301 188/303 181/302
f 183/304 181/302 188/303
f 188/303 189/305 183/304
f 184/306 183/304 189/305
f 189/305 190/307 184/306
f 185/308 184/306 190/307
f 190/307 191/309 185/308
f 182/310 185/308 191/309
f 191/309 186/300 182/310
f 182/310 186/300 180/299
f 192/311 193/312 194/313
f 193/312 192/311 195/314
f 196/315 197/316 198/317
f 197/316 196/315 199/318
f 200/319 194/313 193/312
f 197/316 199/318 201/320
f 201/320 202/321 197/316
f 197/316 202/321 195/314
f 195/314 192/311 197/316
f 194/313 197/316 192/311
f 193/312 195/314 203/322
f 194/313 198/317 197/316
f 204/323 205/324 206/325
f 206/325 207/326 204/323
f 208/327 209/328 210/329
f 210/329 211/330 208/327
f 212/331 206/325 205/324
f 210/329 213/332 211/330
f 213/332 210/329 214/333
f 210/329 207/326 214/333
f 207/326 210/329 204/323
f 205/324 204/323 210/329
f 206/325 215/334 207/326
f 205/324 210/329 209/328
f 216/335 217/336 218/337
f 218/337 219/338 216/335
f 220/339 221/340 222/341
f 222/341 223/342 220/339
f 224/343 218/337 217/336
f 222/341 225/344 223/342
f 225/344 222/341 226/345
f 222/341 219/338 226/345
f 219/338 222/341 216/335
f 217/336 216/335 222/341
f 218/337 227/346 219/338
f 217/336 222/341 221/340
f 228/347 229/348 230/349
f 229/348 228/347 231/350
f 232/351 231/350 228/347
f 233/352 234/353 235/354
f 234/353 233/352 236/355
f 237/356 236/355 233/352
f 228/347 230/349 238/357
f 239/358 237/356 233/352
f 231/350 239/358 233/352
f 233/352 235/354 230/349
f 229/348 231/350 233/352
f 229/348 233/352 230/349
f 240/359 241/360 242/361
f 241/360 240/359 243/362
f 242/361 244/363 245/364
f 244/363 242/361 241/360
f 246/365 247/366 248/367
f 247/366 246/365 249/368
f 250/369 246/365 248/367
f 249/368 246/365 251/370
f 251/370 252/371 249/368
f 253/372 249/368 252/371
f 245/373 254/374 255/375
f 254/374 245/373 244/376
f 244/376 256/377 254/374
f 256/377 244/376 241/378
f 241/378 243/379 256/377
f 248/380 247/381 257/382
f 247/381 249/383 257/382
f 258/384 255/385 257/382
f 255/385 254/386 257/382
f 257/382 254/386 256/387
f 256/387 259/388 257/382
f 260/389 257/382 259/388
f 260/390 240/391 261/392
f 240/391 260/390 243/393
f 260/390 261/392 262/394
f 260/390 259/395 243/393
f 261/396 248/367 262/397
f 248/367 261/396 250/369
f 243/379 259/398 256/377
f 260/389 248/380 257/382
f 248/380 260/389 262/399
f 263/400 242/361 245/364
f 245/364 264/401 263/400
f 265/402 263/400 264/401
f 266/403 245/373 255/375
f 245/373 266/403 264/404
f 267/405 255/385 258/384
f 258/384 253/406 267/405
f 267/405 266/407 255/385
f 251/408 263/400 252/409
f 263/400 251/408 242/361
f 246/410 242/361 251/408
f 250/411 242/361 246/410
f 261/412 240/359 250/411
f 249/383 258/384 257/382
f 258/384 249/383 253/406
f 265/402 252/409 263/400
f 265/413 266/414 267/415
f 267/415 253/416 265/413
f 266/414 265/413 264/417
f 265/413 253/416 252/418
f 240/359 242/361 250/411
f 268/419 269/420 270/421
f 270/421 271/422 268/419
f 272/423 273/424 274/425
f 273/424 272/423 275/426
f 270/421 276/427 277/428
f 276/427 270/421 278/429
f 277/428 271/422 270/421
f 270/421 279/430 278/429
f 272/423 280/431 281/432
f 281/432 268/419 272/423
f 282/433 269/420 268/419
f 269/420 282/433 283/434
f 274/425 280/431 272/423
f 281/432 284/435 268/419
f 284/435 282/433 268/419
f 279/430 285/436 286/437
f 285/436 279/430 287/438
f 279/430 286/437 278/429
f 288/439 289/440 290/441
f 291/442 292/443 293/444
f 291/442 293/444 288/439
f 291/442 288/439 290/441
f 294/445 295/446 296/447
f 297/448 298/449 299/450
f 297/448 299/450 294/445
f 297/448 294/445 296/447
f 300/451 301/452 302/453
f 303/454 304/455 305/456
f 303/454 305/456 300/451
f 303/454 300/451 302/453
f 306/457 307/458 308/459
f 308/459 309/460 306/457
f 310/461 311/462 312/463
f 311/462 310/461 313/464
f 308/459 314/465 315/466
f 314/465 308/459 316/467
f 315/466 309/460 308/459
f 308/459 317/468 316/467
f 310/461 318/469 319/470
f 319/470 306/457 310/461
f 320/471 307/458 306/457
f 307/458 320/471 321/472
f 312/463 318/469 310/461
f 319/470 322/473 306/457
f 322/473 320/471 306/457
f 317/468 323/474 324/475
f 323/474 317/468 325/476
f 317/468 324/475 316/467
f 326/477 327/478 328/479
f 327/478 326/477 329/480
f 330/481 331/482 332/483
f 331/482 330/481 333/484
f 334/485 328/479 327/478
f 331/482 333/484 335/486
f 335/486 336/487 331/482
f 331/482 336/487 329/480
f 329/480 326/477 331/482
f 328/479 331/482 326/477
f 327/478 329/480 337/488
f 328/479 332/483 331/482
f 338/489 339/490 340/491
f 339/490 338/489 341/492
f 342/493 343/494 344/495
f 343/494 342/493 345/496
f 346/497 340/491 339/490
f 343/494 345/496 347/498
f 347/498 348/499 343/494
f 343/494 348/499 341/492
f 341/492 338/489 343/494
f 340/491 343/494 338/489
f 339/490 341/492 349/500
f 340/491 344/495 343/494
f 350/501 351/502 352/503
f 352/503 353/504 350/501
f 354/505 355/506 356/507
f 356/507 357/508 354/505
f 358/509 352/503 351/502
f 356/507 359/510 357/508
f 359/510 356/507 360/511
f 356/507 353/504 360/511
f 353/504 356/507 350/501
f 351/502 350/501 356/507
f 352/503 361/512 353/504
f 351/502 356/507 355/506
f 362/513 363/514 364/515
f 364/515 365/516 362/513
f 366/517 367/518 368/519
f 368/519 369/520 366/517
f 370/521 364/515 363/514
f 368/519 371/522 369/520
f 371/522 368/519 372/523
f 368/519 365/516 372/523
f 365/516 368/519 362/513
f 363/514 362/513 368/519
f 364/515 373/524 365/516
f 363/514 368/519 367/518
f 374/525 375/526 376/527
f 376/527 377/528 374/525
f 378/529 379/530 374/525
f 374/525 380/531 378/529
f 381/532 376/527 375/526
f 382/533 383/534 384/535
f 383/534 377/536 384/535
f 385/537 383/534 382/533
f 386/538 383/534 385/537
f 387/539 388/540 378/541
f 378/541 389/542 387/539
f 379/543 378/541 388/540
f 390/544 379/543 388/540
f 381/545 375/546 390/544
f 391/547 382/548 384/549
f 384/549 392/550 391/547
f 393/551 391/547 392/550
f 385/552 382/548 391/547
f 387/553 394/554 391/547
f 388/555 387/553 391/547
f 390/556 388/555 391/547
f 395/557 376/558 392/559
f 392/559 396/560 395/557
f 381/561 393/562 392/559
f 392/559 376/558 381/561
f 384/535 395/563 396/564
f 393/565 381/545 390/544
f 396/566 392/550 384/549
f 390/556 391/547 393/551
f 397/567 386/538 385/537
f 385/537 398/568 397/567
f 399/569 389/542 378/541
f 400/570 394/554 387/553
f 387/553 389/571 400/570
f 399/572 378/529 380/531
f 380/531 401/573 399/572
f 397/574 380/531 386/575
f 380/531 397/574 401/573
f 374/525 386/575 380/531
f 386/575 374/525 383/576
f 374/525 377/528 383/576
f 376/527 395/577 377/528
f 394/554 385/552 391/547
f 398/578 385/552 394/554
f 394/554 400/570 398/578
f 401/579 400/580 389/581
f 389/581 399/582 401/579
f 398/583 400/580 401/579
f 401/579 397/584 398/583
f 375/546 379/543 390/544
f 375/526 374/525 379/530
f 377/536 395/563 384/535
f 402/585 403/586 404/587
f 405/588 406/589 407/590
f 405/588 407/590 402/585
f 405/588 402/585 404/587
f 408/591 409/592 410/593
f 411/594 412/595 413/596
f 411/594 413/596 408/591
f 411/594 408/591 410/593
f 414/597 415/598 416/599
f 415/598 414/597 417/600
f 418/601 419/602 420/603
f 420/603 421/604 418/601
f 422/605 423/606 415/598
f 415/598 417/600 422/605
f 424/607 425/608 415/598
f 415/598 423/606 424/607
f 420/603 426/609 421/604
f 426/609 420/603 414/597
f 416/599 427/610 414/597
f 428/611 420/603 419/602
f 429/612 426/609 414/597
f 427/610 429/612 414/597
f 430/613 431/614 425/608
f 425/608 424/607 430/613
f 432/615 425/608 431/614
f 433/616 427/610 416/599
f 434/617 435/618 436/619
f 437/620 438/621 439/622
f 437/620 439/622 434/617
f 437/620 434/617 436/619
