# Blender v2.79 (sub 0) OBJ File: ''
# www.blender.org
mtllib w2dbk10.mtl
o w2dbk10
v -0.022179 0.530800 0.140222
v -0.000479 0.646800 0.134822
v -0.030279 0.610500 0.097722
v -0.000479 0.544100 0.165121
v -0.041879 0.414700 0.187921
v -0.045179 0.691800 0.085722
v -0.000479 0.610200 0.006622
v -0.000479 0.579900 0.068421
v -0.000479 0.418500 0.225221
v -0.000479 0.318200 0.215921
v -0.000479 0.270200 0.126821
v -0.000479 0.351800 0.176021
v -0.029879 0.410400 0.156521
v -0.020979 0.149900 0.066321
v -0.020679 0.276400 0.109021
v -0.000479 0.281100 0.088121
v -0.027779 0.109900 0.060121
v -0.000479 0.141100 0.084921
v -0.000479 0.101300 0.087621
v -0.020979 0.066800 0.037921
v -0.000479 0.066000 0.038721
v -0.000479 0.003600 -0.007579
v -0.000479 0.076800 0.012421
v -0.000479 0.777400 0.166222
v -0.000479 0.513300 0.118121
v -0.000479 0.410000 0.129621
v -0.000479 0.122200 0.022721
v -0.000479 0.154300 0.054521
v -0.000479 0.417100 0.113421
v -0.020279 0.379100 0.130921
v -0.000479 0.362200 0.089321
v 0.029521 0.610500 0.097722
v 0.021221 0.530800 0.140221
v 0.041121 0.414700 0.187921
v 0.044221 0.691800 0.085722
v 0.028921 0.410400 0.156521
v 0.019821 0.276400 0.109021
v 0.020021 0.149900 0.066321
v 0.026821 0.109900 0.060121
v 0.020021 0.066800 0.037921
v 0.019521 0.379100 0.130921
v 0.190321 0.697200 -0.149279
v 0.190321 1.212200 -0.149278
v 0.341221 0.697200 -0.184079
v 0.059321 0.697200 -0.075378
v 0.341221 1.212200 -0.184078
v 0.017221 0.697200 -0.003978
v 0.017221 1.212200 -0.003978
v 0.059321 1.212200 -0.075378
v 0.048221 0.697200 -0.224878
v 0.048321 1.212200 -0.224878
v 0.130721 0.697200 -0.378978
v -0.003279 0.697200 -0.091778
v 0.130821 1.212200 -0.378978
v -0.000179 0.697200 -0.008978
v -0.000179 1.212200 -0.008978
v -0.003279 1.212200 -0.091778
v -0.131579 0.697200 -0.217678
v -0.131579 1.212200 -0.217678
v -0.169579 0.697200 -0.367978
v -0.057479 0.697200 -0.080978
v -0.169579 1.212200 -0.367978
v -0.014879 0.697200 -0.006978
v -0.014879 1.212200 -0.006978
v -0.057479 1.212200 -0.080978
v -0.231879 1.212200 -0.085078
v -0.231879 0.697200 -0.085078
v -0.386379 0.697200 -0.072978
v -0.386379 1.212200 -0.072978
v -0.022979 1.212200 0.001322
v -0.022979 0.697200 0.001322
v -0.084879 0.697200 -0.054078
v -0.084879 1.212200 -0.054078
v -0.246079 0.676800 0.020722
v -0.399879 0.945400 0.020722
v -0.405679 0.895500 0.020722
v -0.221279 0.676000 0.020722
v -0.255479 0.659400 0.020722
v -0.257079 0.637200 0.020722
v -0.179379 0.677200 0.020722
v -0.385279 0.993200 0.020722
v -0.111079 1.212900 0.020722
v -0.181879 1.212900 0.020722
v -0.385279 1.068200 0.020722
v -0.032479 1.212900 0.020722
v -0.033179 0.846900 0.020722
v -0.039079 1.243300 0.020722
v -0.086379 1.244300 0.020722
v -0.050779 1.274900 0.020722
v -0.071079 1.275700 0.020722
v -0.065479 1.303300 0.020722
v -0.359379 0.704400 0.020722
v -0.300779 0.680500 0.020722
v -0.421079 0.872400 0.020722
v -0.458579 0.811100 0.020722
v -0.418479 0.752400 0.020722
v -0.067679 0.680500 0.020722
v -0.035179 0.693800 0.020722
v -0.015779 0.718500 0.020722
v -0.287079 1.229600 0.020722
v -0.385279 1.212900 0.020722
v -0.355979 1.231400 0.020722
v -0.409079 1.147500 0.020722
v -0.408779 1.186400 0.020722
v -0.174379 1.222900 0.020722
v -0.210679 1.234400 0.020722
v -0.268179 1.235500 0.020722
v -0.174379 1.244300 0.020722
v -0.190279 1.248600 0.020722
v -0.166079 1.253500 0.020722
v -0.174179 1.277400 0.020722
v -0.393279 1.065200 0.020722
v -0.090179 0.703200 -0.020178
v -0.376879 0.703200 0.019622
v -0.376879 0.703200 -0.010178
v -0.040179 0.703200 0.019622
v -0.376879 1.212200 0.019622
v -0.090179 1.212200 -0.020178
v -0.376879 1.212200 -0.010178
v -0.040179 1.212200 0.019622
v -0.045679 0.703200 -0.007278
v -0.045679 1.212200 -0.007278
v 0.026221 0.699500 0.020722
v -0.027079 0.699500 0.020722
v -0.000479 0.699500 0.000722
v 0.026221 0.951900 0.020722
v -0.027079 0.951900 0.020722
v -0.027079 1.215200 0.020722
v -0.000479 0.951900 0.000722
v 0.026221 1.215200 0.020722
v -0.000479 1.215200 0.000722
v -0.000479 1.080900 0.083822
v 0.026121 1.080900 0.021022
v 0.026121 1.080900 0.072622
v -0.000479 1.080900 0.021022
v -0.026879 1.080900 0.021022
v -0.000479 1.137800 0.083822
v -0.026879 1.137800 0.021022
v -0.026879 1.137800 0.072622
v -0.000479 1.137800 0.021022
v -0.026879 1.080900 0.072622
v 0.026121 1.137800 0.072622
v 0.026121 1.137800 0.021022
v -0.000479 0.700800 0.069022
v -0.039079 0.683800 0.087022
v -0.000479 0.623300 0.017922
v -0.000479 0.764700 0.155122
v 0.038121 0.683800 0.087022
v -0.027379 0.745900 0.074522
v -0.000479 0.735600 0.040422
v -0.000479 0.774200 0.115122
v -0.000479 0.891400 0.041522
v -0.027379 1.081600 0.072422
v -0.000479 1.081600 0.045422
v -0.027379 0.892200 0.064522
v -0.000479 1.047700 0.105222
v -0.000479 0.893000 0.087122
v -0.000479 1.076100 0.130922
v -0.000479 1.133800 0.147622
v -0.014879 1.132700 0.129322
v -0.021079 1.085500 0.114122
v -0.000479 1.092400 0.104322
v -0.000479 1.081600 0.072422
v -0.000479 1.186100 0.102022
v -0.010279 1.176400 0.097622
v -0.000479 1.165800 0.091522
v -0.000479 1.192500 0.059522
v -0.010279 1.181900 0.051622
v -0.000479 1.171400 0.044622
v -0.000479 1.208600 0.050122
v -0.010279 1.203600 0.041022
v -0.000479 1.199400 0.032322
v -0.000479 1.283100 0.049822
v -0.010279 1.283000 0.040622
v -0.000479 1.283000 0.031222
v -0.000479 1.132700 0.117022
v -0.000479 1.283000 0.040622
v 0.026521 0.745900 0.074522
v 0.026521 1.081600 0.072422
v 0.026521 0.892200 0.064522
v 0.014021 1.132700 0.129322
v 0.020321 1.085500 0.114122
v 0.009321 1.176400 0.097622
v 0.009321 1.181900 0.051622
v 0.009321 1.203600 0.041022
v 0.009321 1.283000 0.040622
v 0.230921 0.697200 -0.085079
v 0.230921 1.212200 -0.085078
v 0.385421 0.697200 -0.072979
v 0.083921 0.697200 -0.054078
v 0.385421 1.212200 -0.072878
v 0.022221 0.697200 0.001322
v 0.022221 1.212200 0.001322
v 0.083921 1.212200 -0.054078
v 0.136421 0.697200 -0.211978
v 0.136421 1.212200 -0.211978
v 0.260921 0.697200 -0.297079
v 0.029821 0.697200 -0.087378
v 0.260921 1.212200 -0.297078
v 0.007921 0.697200 -0.007378
v 0.007921 1.212200 -0.007378
v 0.029821 1.212200 -0.087378
v -0.035979 0.697200 -0.235078
v -0.035979 1.212200 -0.235078
v -0.015679 0.697200 -0.395878
v -0.030479 0.697200 -0.085878
v -0.015679 1.212200 -0.395878
v -0.009079 0.697200 -0.008478
v -0.009079 1.212200 -0.008478
v -0.030479 1.212200 -0.085878
v -0.193879 1.212200 -0.149278
v -0.193879 0.697200 -0.149278
v -0.344979 0.697200 -0.184078
v -0.344979 1.212200 -0.184078
v -0.020779 1.212200 -0.003978
v -0.020779 0.697200 -0.003978
v -0.073479 0.697200 -0.069578
v -0.073479 1.212200 -0.069578
v 0.245321 1.238600 0.020922
v 0.398921 0.970200 0.020922
v 0.404721 1.020000 0.020922
v 0.220321 1.239600 0.020922
v 0.254721 1.256100 0.020922
v 0.256121 1.278300 0.020922
v 0.178421 1.238200 0.020922
v 0.384521 0.922200 0.020921
v 0.110121 0.702700 0.020922
v 0.181121 0.702700 0.020921
v 0.384521 0.847400 0.020921
v 0.031721 0.702700 0.020922
v 0.032221 1.068600 0.020922
v 0.038321 0.672100 0.020922
v 0.085621 0.671300 0.020922
v 0.050021 0.640700 0.020922
v 0.070321 0.639700 0.020921
v 0.064521 0.612100 0.020921
v 0.358621 1.211000 0.020922
v 0.299821 1.235000 0.020922
v 0.420121 1.043200 0.020922
v 0.457821 1.104300 0.020922
v 0.417621 1.163200 0.020922
v 0.066721 1.235000 0.020922
v 0.034221 1.221600 0.020922
v 0.015021 1.196900 0.020922
v 0.286121 0.686000 0.020921
v 0.384521 0.702700 0.020921
v 0.355121 0.684100 0.020921
v 0.408121 0.768000 0.020921
v 0.407821 0.729100 0.020921
v 0.173621 0.692500 0.020921
v 0.209721 0.681100 0.020921
v 0.267221 0.680000 0.020921
v 0.173621 0.671100 0.020921
v 0.189521 0.666800 0.020921
v 0.165121 0.661900 0.020921
v 0.173421 0.638200 0.020921
v 0.392321 0.850200 0.020921
v 0.089321 1.210000 -0.020178
v 0.375921 1.210000 0.019622
v 0.375921 1.210000 -0.010178
v 0.039321 1.210000 0.019622
v 0.375921 0.703300 0.019621
v 0.089321 0.703300 -0.020178
v 0.375921 0.703300 -0.010179
v 0.039321 0.703300 0.019622
v 0.044721 1.210000 -0.007278
v 0.044721 0.703300 -0.007278
v 0.039321 1.161600 0.019622
v 0.375921 1.161600 0.019622
vt 0.359400 0.894500
vt 0.179700 0.996100
vt 0.359400 0.996100
vt 0.179700 0.890600
vt 0.281300 0.753900
vt 0.531300 0.730500
vt 0.382800 0.691400
vt 0.382800 0.777300
vt 0.531300 0.777300
vt 0.179700 0.726600
vt 0.281300 0.656300
vt 0.164100 0.820300
vt 0.164100 0.996100
vt 0.078100 0.996100
vt 0.078100 0.601600
vt 0.078100 0.820300
vt 0.007800 0.820300
vt 0.765600 0.644500
vt 0.835900 0.699200
vt 0.757800 0.699200
vt 0.843800 0.648400
vt 0.734400 0.585900
vt 0.781300 0.585900
vt 0.085900 0.335900
vt 0.054700 0.222700
vt 0.117200 0.335900
vt 0.054700 0.335900
vt 0.531300 0.668000
vt 0.382800 0.613300
vt 0.179700 0.996100
vt 0.179700 0.898400
vt 0.007800 0.996100
vt 0.164100 0.601600
vt 0.679700 0.640600
vt 0.679700 0.699200
vt 0.679700 0.585900
vt 0.007800 0.601600
vt 0.546900 0.699200
vt 0.578100 0.636700
vt 0.601600 0.699200
vt 0.179700 0.789100
vt 0.359400 0.777300
vt 0.328100 0.707000
vt 0.257800 0.035200
vt 0.187500 0.007800
vt 0.187500 0.035200
vt 0.257800 0.007800
vt 0.281300 0.656300
vt 0.359400 0.695300
vt 0.359400 0.996100
vt 0.359400 0.894500
vt 0.281300 0.753900
vt 0.382800 0.691400
vt 0.531300 0.730500
vt 0.078100 0.996100
vt 0.078100 0.820300
vt 0.078100 0.601600
vt 0.765600 0.644500
vt 0.757800 0.699200
vt 0.734400 0.585900
vt 0.085900 0.335900
vt 0.578100 0.636700
vt 0.359400 0.777300
vt 0.328100 0.707000
vt 0.257800 0.035200
vt 0.187500 0.035200
vt 0.992200 0.918000
vt 0.546900 0.918000
vt 0.992200 0.996100
vt 0.992200 0.808600
vt 0.546900 0.996100
vt 0.992200 0.757800
vt 0.546900 0.757800
vt 0.546900 0.808600
vt 0.992200 0.918000
vt 0.546900 0.918000
vt 0.992200 0.996100
vt 0.992200 0.808600
vt 0.546900 0.996100
vt 0.992200 0.757800
vt 0.546900 0.757800
vt 0.546900 0.808600
vt 0.992200 0.918000
vt 0.546900 0.918000
vt 0.992200 0.996100
vt 0.992200 0.808600
vt 0.546900 0.996100
vt 0.992200 0.757800
vt 0.546900 0.757800
vt 0.546900 0.808600
vt 0.546900 0.918000
vt 0.992200 0.918000
vt 0.992200 0.996100
vt 0.546900 0.996100
vt 0.546900 0.757800
vt 0.992200 0.757800
vt 0.992200 0.808600
vt 0.546900 0.808600
vt 0.515600 0.043000
vt 0.179700 0.312500
vt 0.164100 0.265600
vt 0.562500 0.043000
vt 0.492200 0.027300
vt 0.500000 0.007800
vt 0.656300 0.043000
vt 0.210900 0.363300
vt 0.789100 0.582000
vt 0.640600 0.582000
vt 0.210900 0.433600
vt 0.953100 0.582000
vt 0.953100 0.207000
vt 0.937500 0.613300
vt 0.843800 0.613300
vt 0.914100 0.644500
vt 0.875000 0.644500
vt 0.882800 0.675800
vt 0.281300 0.070300
vt 0.406300 0.046900
vt 0.140600 0.246100
vt 0.070300 0.175800
vt 0.148400 0.117200
vt 0.882800 0.050800
vt 0.953100 0.066400
vt 0.992200 0.093800
vt 0.421900 0.597700
vt 0.218800 0.582000
vt 0.281300 0.597700
vt 0.171900 0.515600
vt 0.171900 0.550800
vt 0.656300 0.593800
vt 0.585900 0.605500
vt 0.460900 0.605500
vt 0.656300 0.613300
vt 0.625000 0.621100
vt 0.671900 0.625000
vt 0.656300 0.648400
vt 0.187500 0.433600
vt 0.859400 0.750000
vt 0.546900 0.707000
vt 0.546900 0.750000
vt 0.992200 0.707000
vt 0.546900 0.707000
vt 0.859400 0.750000
vt 0.546900 0.750000
vt 0.992200 0.707000
vt 0.812500 0.750000
vt 0.843800 0.707000
vt 0.960900 0.750000
vt 0.992200 0.996100
vt 0.546900 0.804700
vt 0.992200 0.804700
vt 0.546900 0.996100
vt 0.992200 0.750000
vt 0.992200 0.769500
vt 0.546900 0.757800
vt 0.992200 0.757800
vt 0.546900 0.769500
vt 0.992200 0.750000
vt 0.921900 0.707000
vt 0.968800 0.757800
vt 0.921900 0.757800
vt 0.945300 0.785200
vt 0.531300 0.785200
vt 0.375000 0.996100
vt 0.531300 0.996100
vt 0.375000 0.785200
vt 0.375000 0.996100
vt 0.671900 0.789100
vt 0.906300 0.757800
vt 0.906300 0.789100
vt 0.671900 0.757800
vt 0.906300 0.757800
vt 0.671900 0.757800
vt 0.906300 0.757800
vt 0.906300 0.789100
vt 0.921900 0.757800
vt 0.968800 0.757800
vt 0.945300 0.785200
vt 0.531300 0.996100
vt 0.906300 0.757800
vt 0.351600 0.003900
vt 0.171900 0.062500
vt 0.296900 0.062500
vt 0.171900 0.003900
vt 0.171900 0.062500
vt 0.351600 0.003900
vt 0.171900 0.062500
vt 0.296900 0.062500
vt 0.171900 0.003900
vt 0.007800 0.050800
vt 0.164100 0.101600
vt 0.164100 0.050800
vt 0.007800 0.003900
vt 0.007800 0.101600
vt 0.007800 0.050800
vt 0.164100 0.003900
vt 0.164100 0.050800
vt 0.007800 0.101600
vt 0.164100 0.101600
vt 0.171900 0.062500
vt 0.296900 0.062500
vt 0.296900 0.062500
vt 0.445300 0.832000
vt 0.476600 0.984400
vt 0.406300 0.984400
vt 0.406300 0.984400
vt 0.476600 0.984400
vt 0.007800 0.492200
vt 0.085900 0.617200
vt 0.007800 0.613300
vt 0.117200 0.546900
vt 0.171900 0.656300
vt 0.281300 0.644500
vt 0.007800 0.777300
vt 0.078100 0.996100
vt 0.007800 0.996100
vt 0.078100 0.777300
vt 0.164100 0.960900
vt 0.164100 0.777300
vt 0.117200 0.449200
vt 0.117200 0.414100
vt 0.054700 0.414100
vt 0.054700 0.449200
vt 0.117200 0.480500
vt 0.054700 0.480500
vt 0.007800 0.449200
vt 0.007800 0.480500
vt 0.117200 0.375000
vt 0.054700 0.375000
vt 0.007800 0.375000
vt 0.117200 0.339800
vt 0.054700 0.339800
vt 0.007800 0.339800
vt 0.101600 0.308600
vt 0.054700 0.308600
vt 0.007800 0.308600
vt 0.062500 0.191400
vt 0.054700 0.191400
vt 0.007800 0.191400
vt 0.007800 0.414100
vt 0.187500 0.062500
vt 0.281300 0.062500
vt 0.234400 0.031300
vt 0.281300 0.062500
vt 0.085900 0.617200
vt 0.117200 0.546900
vt 0.078100 0.996100
vt 0.078100 0.777300
vt 0.054700 0.414100
vt 0.054700 0.449200
vt 0.054700 0.480500
vt 0.054700 0.375000
vt 0.054700 0.339800
vt 0.054700 0.308600
vt 0.054700 0.191400
vt 0.187500 0.062500
vt 0.992200 0.918000
vt 0.546900 0.918000
vt 0.992200 0.996100
vt 0.992200 0.808600
vt 0.546900 0.996100
vt 0.992200 0.757800
vt 0.546900 0.757800
vt 0.546900 0.808600
vt 0.992200 0.918000
vt 0.546900 0.918000
vt 0.992200 0.996100
vt 0.992200 0.808600
vt 0.546900 0.996100
vt 0.992200 0.757800
vt 0.546900 0.757800
vt 0.546900 0.808600
vt 0.992200 0.918000
vt 0.546900 0.918000
vt 0.992200 0.996100
vt 0.992200 0.808600
vt 0.546900 0.996100
vt 0.992200 0.757800
vt 0.546900 0.757800
vt 0.546900 0.808600
vt 0.546900 0.918000
vt 0.992200 0.918000
vt 0.992200 0.996100
vt 0.546900 0.996100
vt 0.546900 0.757800
vt 0.992200 0.757800
vt 0.992200 0.808600
vt 0.546900 0.808600
vt 0.515600 0.043000
vt 0.179700 0.312500
vt 0.164100 0.265600
vt 0.562500 0.043000
vt 0.492200 0.027300
vt 0.500000 0.007800
vt 0.656300 0.043000
vt 0.210900 0.363300
vt 0.789100 0.582000
vt 0.640600 0.582000
vt 0.210900 0.433600
vt 0.953100 0.582000
vt 0.953100 0.207000
vt 0.937500 0.613300
vt 0.843800 0.613300
vt 0.914100 0.644500
vt 0.875000 0.644500
vt 0.882800 0.675800
vt 0.281300 0.070300
vt 0.406300 0.046900
vt 0.140600 0.246100
vt 0.070300 0.175800
vt 0.148400 0.117200
vt 0.882800 0.050800
vt 0.953100 0.066400
vt 0.992200 0.093800
vt 0.421900 0.597700
vt 0.218800 0.582000
vt 0.281300 0.597700
vt 0.171900 0.515600
vt 0.171900 0.550800
vt 0.656300 0.593800
vt 0.585900 0.605500
vt 0.460900 0.605500
vt 0.656300 0.613300
vt 0.625000 0.621100
vt 0.671900 0.625000
vt 0.656300 0.648400
vt 0.187500 0.433600
vt 0.859400 0.750000
vt 0.546900 0.707000
vt 0.546900 0.750000
vt 0.992200 0.707000
vt 0.546900 0.707000
vt 0.859400 0.750000
vt 0.546900 0.750000
vt 0.992200 0.707000
vt 0.812500 0.750000
vt 0.843800 0.707000
vt 0.960900 0.750000
vt 0.992200 0.996100
vt 0.546900 0.804700
vt 0.992200 0.804700
vt 0.546900 0.996100
vt 0.992200 0.750000
vt 0.992200 0.769500
vt 0.546900 0.757800
vt 0.992200 0.757800
vt 0.546900 0.769500
vt 0.992200 0.750000
vt 0.921900 0.707000
vt 0.992200 0.707000
vt 0.546900 0.707000
usemtl w2dbk10_TEX_w2dbk10
s 1
f 1/1 2/2 3/3
f 4/4 2/2 1/1
f 1/1 5/5 4/4
f 3/6 6/7 7/8
f 7/8 8/9 3/6
f 9/10 4/4 5/5
f 5/5 10/11 9/10
f 11/12 12/13 13/14
f 14/15 15/16 16/17
f 17/18 18/19 14/20
f 18/19 17/18 19/21
f 20/22 21/23 19/21
f 19/21 17/18 20/22
f 20/24 22/25 21/26
f 22/25 20/24 23/27
f 6/7 2/28 24/29
f 1/1 8/30 25/31
f 8/30 1/1 3/3
f 13/14 26/32 16/17
f 11/12 15/16 14/15
f 15/16 11/12 13/14
f 14/15 18/33 11/12
f 14/20 27/34 17/18
f 27/34 14/20 28/35
f 20/22 27/34 23/36
f 27/34 20/22 17/18
f 2/28 6/7 3/6
f 14/15 16/17 28/37
f 15/16 13/14 16/17
f 7/38 6/39 24/40
f 29/41 13/42 1/1
f 1/1 25/31 29/41
f 30/43 13/42 29/41
f 30/44 26/45 13/46
f 26/45 30/44 31/47
f 30/43 29/41 31/48
f 5/5 1/1 13/42
f 13/42 10/11 5/5
f 13/42 12/49 10/11
f 32/50 2/2 33/51
f 33/51 8/30 32/50
f 4/4 33/51 2/2
f 33/51 4/4 34/52
f 9/10 34/52 4/4
f 7/8 35/53 32/54
f 36/55 12/13 11/12
f 11/12 37/56 36/55
f 37/56 38/57 16/17
f 38/57 37/56 11/12
f 39/58 38/59 18/19
f 18/19 19/21 39/58
f 40/60 19/21 21/23
f 19/21 40/60 39/58
f 27/34 39/58 40/60
f 39/58 27/34 38/59
f 28/35 38/59 27/34
f 40/61 21/26 22/25
f 22/25 23/27 40/61
f 2/28 35/53 24/29
f 25/31 8/30 33/51
f 26/32 36/55 16/17
f 18/33 38/57 11/12
f 23/36 27/34 40/60
f 35/53 2/28 32/54
f 7/8 32/54 8/9
f 16/17 38/57 28/37
f 36/55 37/56 16/17
f 35/62 7/38 24/40
f 29/41 33/51 36/63
f 33/51 29/41 25/31
f 29/41 36/63 41/64
f 41/64 31/48 29/41
f 41/65 36/66 26/45
f 26/45 31/47 41/65
f 36/63 33/51 34/52
f 34/52 9/10 10/11
f 12/49 36/63 10/11
f 36/63 34/52 10/11
f 42/67 43/68 44/69
f 43/68 42/67 45/70
f 46/71 44/69 43/68
f 45/70 47/72 48/73
f 48/73 49/74 45/70
f 43/68 45/70 49/74
f 50/75 51/76 52/77
f 51/76 50/75 53/78
f 54/79 52/77 51/76
f 53/78 55/80 56/81
f 56/81 57/82 53/78
f 51/76 53/78 57/82
f 58/83 59/84 60/85
f 59/84 58/83 61/86
f 62/87 60/85 59/84
f 61/86 63/88 64/89
f 64/89 65/90 61/86
f 59/84 61/86 65/90
f 66/91 67/92 68/93
f 68/93 69/94 66/91
f 70/95 71/96 72/97
f 72/97 73/98 70/95
f 72/97 67/92 66/91
f 66/91 73/98 72/97
f 74/99 75/100 76/101
f 75/100 74/99 77/102
f 78/103 77/102 74/99
f 77/102 78/103 79/104
f 80/105 75/100 77/102
f 75/100 80/105 81/106
f 81/106 82/107 83/108
f 83/108 84/109 81/106
f 81/106 85/110 82/107
f 85/110 81/106 86/111
f 80/105 86/111 81/106
f 87/112 82/107 85/110
f 88/113 82/107 87/112
f 87/112 89/114 88/113
f 90/115 88/113 89/114
f 89/114 91/116 90/115
f 76/101 92/117 93/118
f 94/119 95/120 96/121
f 92/117 76/101 94/119
f 92/117 94/119 96/121
f 86/111 80/105 97/122
f 98/123 86/111 97/122
f 76/101 93/118 74/99
f 86/111 98/123 99/124
f 100/125 84/109 83/108
f 101/126 84/109 102/127
f 84/109 101/126 103/128
f 104/129 103/128 101/126
f 83/108 105/130 106/131
f 106/131 107/132 83/108
f 102/127 84/109 100/125
f 100/125 83/108 107/132
f 108/133 106/131 105/130
f 106/131 108/133 109/134
f 110/135 109/134 108/133
f 109/134 110/135 111/136
f 103/128 112/137 84/109
f 113/138 114/139 115/140
f 114/139 113/138 116/141
f 117/142 118/143 119/144
f 118/143 117/142 120/145
f 115/146 114/147 119/148
f 115/149 118/150 113/151
f 118/150 115/149 119/152
f 113/138 121/153 116/141
f 121/154 120/155 116/156
f 120/155 121/154 122/157
f 118/150 122/157 121/154
f 120/145 122/158 118/143
f 121/154 113/151 118/150
f 114/147 117/159 119/148
f 120/145 114/139 116/141
f 114/139 120/145 117/142
f 123/160 124/161 125/162
f 126/163 124/164 123/165
f 124/164 126/163 127/166
f 128/167 127/166 126/163
f 129/168 123/169 125/170
f 123/169 129/168 126/171
f 130/172 126/171 129/168
f 127/173 125/170 124/174
f 125/170 127/173 129/168
f 131/175 129/168 127/173
f 129/168 131/175 130/172
f 128/176 130/177 131/178
f 130/179 128/167 126/163
f 128/180 131/175 127/173
f 132/181 133/182 134/183
f 135/184 133/182 132/181
f 132/181 136/185 135/184
f 137/186 138/187 139/188
f 138/187 137/186 140/189
f 139/190 136/191 141/192
f 141/192 137/193 139/190
f 139/190 138/194 136/191
f 142/195 132/196 134/197
f 134/197 143/198 142/195
f 134/197 133/199 143/198
f 132/196 137/193 141/192
f 143/200 137/186 142/201
f 137/193 132/196 142/195
f 132/181 141/202 136/185
f 137/186 143/200 140/189
f 144/203 145/204 146/205
f 145/204 144/203 147/206
f 148/207 147/206 144/203
f 146/208 149/209 150/210
f 149/209 146/208 145/211
f 145/211 151/212 149/209
f 151/212 145/211 147/213
f 152/214 153/215 154/216
f 153/215 152/214 155/217
f 150/210 155/217 152/214
f 155/217 150/210 149/209
f 155/217 156/218 153/215
f 156/218 155/217 157/219
f 149/209 157/219 155/217
f 157/219 149/209 151/212
f 158/220 159/221 160/222
f 161/223 156/224 158/220
f 158/220 160/222 161/223
f 153/225 162/226 163/227
f 162/226 153/225 161/223
f 156/224 161/223 153/225
f 159/221 164/228 165/229
f 160/222 159/221 165/229
f 165/229 166/230 160/222
f 164/228 167/231 168/232
f 165/229 164/228 168/232
f 168/232 169/233 165/229
f 165/229 169/233 166/230
f 167/231 170/234 171/235
f 168/232 167/231 171/235
f 171/235 172/236 168/232
f 168/232 172/236 169/233
f 170/234 173/237 174/238
f 171/235 170/234 174/238
f 174/238 175/239 171/235
f 171/235 175/239 172/236
f 161/223 160/222 176/240
f 160/222 166/230 176/240
f 174/241 173/242 177/243
f 175/244 174/241 177/243
f 162/226 161/223 176/240
f 148/207 144/203 146/205
f 178/245 146/208 150/210
f 148/246 146/208 178/245
f 151/212 148/246 178/245
f 147/213 148/246 151/212
f 179/247 152/214 154/216
f 180/248 152/214 179/247
f 152/214 180/248 150/210
f 178/245 150/210 180/248
f 156/218 180/248 179/247
f 157/219 180/248 156/218
f 180/248 157/219 178/245
f 151/212 178/245 157/219
f 159/221 158/220 181/249
f 182/250 158/220 156/224
f 156/224 179/251 182/250
f 162/226 179/251 163/227
f 183/252 164/228 159/221
f 159/221 181/249 183/252
f 166/230 183/252 181/249
f 181/249 176/240 166/230
f 184/253 167/231 164/228
f 164/228 183/252 184/253
f 169/233 183/252 166/230
f 185/254 170/234 167/231
f 167/231 184/253 185/254
f 172/236 184/253 169/233
f 186/255 173/237 170/234
f 170/234 185/254 186/255
f 175/239 185/254 172/236
f 181/249 182/250 176/240
f 184/253 183/252 169/233
f 185/254 184/253 172/236
f 186/255 185/254 175/239
f 173/242 186/256 177/243
f 186/256 175/244 177/243
f 182/250 179/251 162/226
f 182/250 162/226 176/240
f 158/220 182/250 181/249
f 187/257 188/258 189/259
f 188/258 187/257 190/260
f 191/261 189/259 188/258
f 190/260 192/262 193/263
f 193/263 194/264 190/260
f 188/258 190/260 194/264
f 195/265 196/266 197/267
f 196/266 195/265 198/268
f 199/269 197/267 196/266
f 198/268 200/270 201/271
f 201/271 202/272 198/268
f 196/266 198/268 202/272
f 203/273 204/274 205/275
f 204/274 203/273 206/276
f 207/277 205/275 204/274
f 206/276 208/278 209/279
f 209/279 210/280 206/276
f 204/274 206/276 210/280
f 211/281 212/282 213/283
f 213/283 214/284 211/281
f 215/285 216/286 217/287
f 217/287 218/288 215/285
f 217/287 212/282 211/281
f 211/281 218/288 217/287
f 219/289 220/290 221/291
f 220/290 219/289 222/292
f 223/293 222/292 219/289
f 222/292 223/293 224/294
f 225/295 220/290 222/292
f 220/290 225/295 226/296
f 226/296 227/297 228/298
f 228/298 229/299 226/296
f 226/296 230/300 227/297
f 230/300 226/296 231/301
f 225/295 231/301 226/296
f 232/302 227/297 230/300
f 233/303 227/297 232/302
f 232/302 234/304 233/303
f 235/305 233/303 234/304
f 234/304 236/306 235/305
f 221/291 237/307 238/308
f 239/309 240/310 241/311
f 237/307 221/291 239/309
f 237/307 239/309 241/311
f 231/301 225/295 242/312
f 243/313 231/301 242/312
f 221/291 238/308 219/289
f 231/301 243/313 244/314
f 245/315 229/299 228/298
f 246/316 229/299 247/317
f 229/299 246/316 248/318
f 249/319 248/318 246/316
f 228/298 250/320 251/321
f 251/321 252/322 228/298
f 247/317 229/299 245/315
f 245/315 228/298 252/322
f 253/323 251/321 250/320
f 251/321 253/323 254/324
f 255/325 254/324 253/323
f 254/324 255/325 256/326
f 248/318 257/327 229/299
f 258/328 259/329 260/330
f 259/329 258/328 261/331
f 262/332 263/333 264/334
f 263/333 262/332 265/335
f 260/336 259/337 264/338
f 260/339 263/340 258/341
f 263/340 260/339 264/342
f 258/328 266/343 261/331
f 266/344 265/345 261/346
f 265/345 266/344 267/347
f 263/340 267/347 266/344
f 265/335 267/348 263/333
f 266/344 258/341 263/340
f 259/337 262/349 264/338
f 259/329 268/350 269/351
f 268/350 259/329 261/331
f 269/351 265/335 262/332
f 265/335 269/351 268/350
