# Blender v2.79 (sub 0) OBJ File: ''
# www.blender.org
mtllib w2dbkx2.mtl
o w2dbkx2
v -0.391879 0.721700 -0.023329
v -0.485779 0.767500 -0.031029
v -0.485779 0.721700 -0.026329
v -0.485779 0.676000 -0.031029
v -0.391879 0.645400 -0.031029
v -0.391879 0.797900 -0.031029
v -0.350279 0.775100 -0.031029
v -0.338079 0.721700 -0.031029
v -0.350279 0.668400 -0.031029
v -0.549479 0.721700 -0.031029
v 0.391021 0.797900 -0.031030
v 0.391021 0.721700 -0.023330
v 0.484921 0.767500 -0.031030
v 0.349521 0.775100 -0.031030
v 0.484921 0.721700 -0.026330
v 0.484921 0.676000 -0.031030
v 0.391021 0.645400 -0.031030
v 0.337121 0.721700 -0.031030
v 0.349521 0.668400 -0.031030
v 0.548521 0.721700 -0.031030
v 0.014821 0.443300 -0.008030
v -0.000479 0.457000 -0.025230
v 0.016721 0.457000 -0.008030
v -0.000479 0.443300 -0.023230
v -0.000479 0.457000 0.009170
v -0.000479 0.443300 0.007270
v -0.015679 0.443300 -0.008030
v -0.017679 0.457000 -0.008030
v 0.007221 0.428100 -0.008030
v -0.000479 0.428100 -0.015530
v -0.000479 0.428100 -0.000330
v 0.014821 0.412000 -0.008030
v -0.000479 0.412000 0.007270
v -0.007979 0.428100 -0.008030
v -0.015679 0.412000 -0.008030
v -0.000479 0.412000 -0.023230
v 0.007221 0.382300 -0.008030
v -0.000479 0.382300 -0.015530
v -0.000479 0.382300 -0.000330
v 0.014821 0.363300 -0.008030
v -0.000479 0.363300 0.007270
v -0.007979 0.382300 -0.008030
v -0.015679 0.363300 -0.008030
v -0.000479 0.363300 -0.023230
v 0.007221 0.317500 -0.008030
v -0.000479 0.317500 -0.015530
v -0.000479 0.317500 -0.000330
v -0.007979 0.317500 -0.008030
v 0.000321 0.012300 -0.008030
v -0.000479 0.012300 -0.007230
v -0.001079 0.012300 -0.008030
v -0.000479 0.012300 -0.008630
v -0.000479 0.010000 -0.008030
v -0.000479 0.470000 -0.043630
v 0.042821 0.495900 -0.008030
v 0.035121 0.470000 -0.008030
v -0.000479 0.495900 -0.051130
v -0.043579 0.495900 -0.008030
v -0.036079 0.470000 -0.008030
v -0.000479 0.495900 0.035270
v -0.000479 0.470000 0.027570
v 0.028121 0.561500 0.020570
v -0.000479 0.576700 0.046970
v 0.032021 0.523400 0.024470
v 0.054521 0.576700 -0.008030
v -0.000479 0.523400 0.060570
v -0.032979 0.523400 0.024470
v -0.000479 0.462300 0.033270
v -0.025179 0.485300 0.016770
v 0.068121 0.523400 -0.008030
v 0.040821 0.462300 -0.008030
v 0.024321 0.485300 0.016770
v 0.028121 0.561500 -0.036630
v 0.032021 0.523400 -0.040530
v -0.000479 0.576700 -0.062830
v -0.000479 0.523400 -0.076630
v -0.000479 0.462300 -0.049130
v 0.024321 0.485300 -0.032730
v -0.029079 0.561500 -0.036630
v -0.032979 0.523400 -0.040530
v -0.055279 0.576700 -0.008030
v -0.069079 0.523400 -0.008030
v -0.041579 0.462300 -0.008030
v -0.025179 0.485300 -0.032730
v -0.029079 0.561500 0.020570
v -0.000479 0.515800 -0.008030
v -0.000479 0.544700 -0.008030
v -0.000479 0.607300 -0.008030
v 0.025921 0.592000 -0.008030
v 0.012821 0.592000 -0.030830
v 0.012821 0.592000 0.014770
v -0.013579 0.592000 -0.030830
v -0.026879 0.592000 -0.008030
v -0.013579 0.592000 0.014770
v 0.012821 0.561500 -0.030830
v 0.025921 0.561500 -0.008030
v -0.000479 0.546200 -0.008030
v -0.013579 0.561500 -0.030830
v -0.026879 0.561500 -0.008030
v -0.013579 0.561500 0.014770
v 0.012821 0.561500 0.014770
v 0.025921 0.849000 0.007271
v -0.000479 0.599700 0.022470
v 0.025921 0.599700 0.007270
v 0.025921 0.849000 -0.023229
v -0.000479 0.849000 0.022471
v -0.026879 0.599700 0.007270
v 0.025921 0.599700 -0.023230
v -0.000479 0.849000 -0.038529
v -0.000479 0.599700 -0.038530
v -0.026879 0.849000 -0.023229
v -0.026879 0.599700 -0.023230
v -0.026879 0.849000 0.007271
v -0.000479 0.945100 -0.008029
v 0.037321 0.929500 -0.008029
v 0.026221 0.929500 -0.034629
v 0.026221 0.929500 0.018671
v -0.000479 0.929500 -0.045729
v -0.027079 0.929500 -0.034629
v -0.038179 0.929500 -0.008029
v -0.027079 0.929500 0.018671
v -0.000479 0.929500 0.029771
v 0.052921 0.891800 -0.008029
v 0.037321 0.891800 -0.045729
v -0.000479 0.891800 -0.061329
v -0.038179 0.891800 -0.045729
v -0.053779 0.891800 -0.008029
v -0.038179 0.891800 0.029771
v -0.000479 0.891800 0.045371
v 0.037321 0.891800 0.029771
v 0.037321 0.854000 -0.008029
v 0.026221 0.854000 -0.034629
v 0.026221 0.854000 0.018671
v -0.000479 0.854000 0.029771
v -0.000479 0.854000 -0.045729
v -0.027079 0.854000 -0.034629
v -0.000479 0.838400 -0.008029
v -0.038179 0.854000 -0.008029
v -0.027079 0.854000 0.018671
v 0.048121 0.816000 -0.103029
v 0.048121 0.649700 -0.103030
v 0.112521 0.649700 -0.136930
v 0.000421 0.816000 -0.043529
v 0.112521 0.816000 -0.136930
v 0.200021 0.649700 -0.168130
v 0.000421 0.649700 -0.043530
v 0.200021 0.816000 -0.168130
v -0.002679 0.816000 -0.125529
v 0.024021 0.649700 -0.195330
v -0.002679 0.649700 -0.125530
v -0.000779 0.816000 -0.045229
v 0.024021 0.816000 -0.195329
v 0.067921 0.649700 -0.276629
v -0.000779 0.649700 -0.045230
v 0.067921 0.816000 -0.276629
v -0.049179 0.816000 -0.120229
v -0.075279 0.649700 -0.188129
v -0.049179 0.649700 -0.120229
v -0.003879 0.816000 -0.042429
v -0.075279 0.816000 -0.188129
v -0.095979 0.649700 -0.278829
v -0.003879 0.649700 -0.042429
v -0.095979 0.816000 -0.278829
v -0.068279 0.816000 -0.079129
v -0.150779 0.649700 -0.105329
v -0.068279 0.649700 -0.079129
v -0.005779 0.816000 -0.041629
v -0.150779 0.816000 -0.105329
v -0.234279 0.649700 -0.121129
v -0.005779 0.649700 -0.041630
v -0.234279 0.816000 -0.121129
v 0.065721 0.816000 -0.081029
v 0.065721 0.649700 -0.081030
v 0.142921 0.649700 -0.091730
v 0.006121 0.816000 -0.043929
v 0.142921 0.816000 -0.091729
v 0.234721 0.649700 -0.088030
v 0.006121 0.649700 -0.043930
v 0.234721 0.816000 -0.088030
v 0.020821 0.816000 -0.122129
v 0.066121 0.649700 -0.181730
v 0.020821 0.649700 -0.122130
v 0.000321 0.816000 -0.044629
v 0.066121 0.816000 -0.181729
v 0.137621 0.649700 -0.239630
v 0.000321 0.649700 -0.044630
v 0.137621 0.816000 -0.239629
v -0.024579 0.816000 -0.129629
v -0.026079 0.649700 -0.207429
v -0.024579 0.649700 -0.129629
v -0.003179 0.816000 -0.043329
v -0.026079 0.816000 -0.207429
v -0.011579 0.649700 -0.294129
v -0.003179 0.649700 -0.043329
v -0.011579 0.816000 -0.294129
v -0.065479 0.816000 -0.097129
v -0.124379 0.649700 -0.153929
v -0.065479 0.649700 -0.097130
v -0.004979 0.816000 -0.042729
v -0.124379 0.816000 -0.153929
v -0.186579 0.649700 -0.217829
v -0.004979 0.649700 -0.042730
v -0.186579 0.816000 -0.217829
v -0.009379 0.807600 -0.032229
v -0.064379 0.862600 -0.032229
v -0.139479 0.732300 -0.017229
v -0.139479 0.882800 -0.032229
v -0.214879 0.862600 -0.032229
v -0.269879 0.807600 -0.032229
v -0.289979 0.732300 -0.032229
v -0.269879 0.657100 -0.032229
v -0.214879 0.602000 -0.032229
v -0.139479 0.581800 -0.032230
v -0.064379 0.602000 -0.032230
v -0.009379 0.657100 -0.032230
v -0.139479 0.732300 -0.032229
v -0.250279 0.796200 -0.024729
v -0.267479 0.732300 -0.024729
v -0.139479 0.732300 0.005471
v -0.203579 0.843100 -0.024729
v -0.139479 0.860300 -0.024729
v -0.075579 0.843100 -0.024729
v -0.028779 0.796200 -0.024729
v -0.011679 0.732300 -0.024729
v -0.028779 0.668400 -0.024730
v -0.075579 0.621500 -0.024730
v -0.139479 0.604500 -0.024729
v -0.203579 0.621500 -0.024729
v -0.250279 0.668400 -0.024729
v -0.392379 0.906000 -0.024729
v -0.425479 0.837600 -0.029229
v -0.384079 0.897100 -0.029229
v -0.401379 0.913700 -0.029229
v -0.364479 0.958100 -0.029229
v -0.355479 0.941500 -0.023129
v -0.345779 0.924200 -0.029229
v -0.297679 0.940700 -0.029229
v -0.305179 0.963200 -0.021729
v -0.252479 0.942900 -0.029229
v -0.252479 0.973100 -0.021729
v -0.202379 0.964800 -0.021729
v -0.215579 0.931700 -0.029229
v -0.189979 0.910600 -0.029229
v -0.156879 0.937300 -0.021729
v -0.137379 0.897800 -0.021729
v -0.182479 0.890300 -0.029229
v -0.173379 0.875300 -0.029229
v -0.159879 0.864000 -0.027729
v -0.139479 0.860300 -0.026129
v -0.119179 0.864000 -0.027729
v -0.105779 0.875300 -0.029229
v -0.096679 0.894800 -0.029229
v -0.096679 0.914300 -0.029229
v -0.110279 0.946800 -0.029229
v -0.189179 0.997900 -0.029229
v -0.134979 0.974600 -0.029229
v -0.252479 1.003200 -0.029229
v -0.312679 0.985900 -0.029229
v -0.177179 0.837600 -0.029229
v -0.139479 0.837600 -0.025529
v -0.101979 0.837600 -0.029229
v -0.365279 0.562300 -0.029229
v -0.341979 0.539800 -0.024729
v -0.339679 0.545700 -0.029229
v -0.312679 0.522500 -0.021729
v -0.310479 0.531500 -0.029229
v -0.269679 0.527000 -0.029229
v -0.269679 0.511800 -0.021729
v -0.229079 0.520900 -0.021729
v -0.234379 0.538200 -0.029229
v -0.189179 0.540900 -0.021729
v -0.213279 0.559300 -0.029229
v -0.223879 0.498400 -0.029229
v -0.201979 0.590900 -0.029229
v -0.169679 0.575900 -0.021729
v -0.193779 0.602900 -0.029229
v -0.180179 0.611200 -0.027729
v -0.150179 0.605900 -0.027729
v -0.138879 0.594600 -0.029229
v -0.165179 0.611200 -0.026129
v -0.138879 0.565300 -0.029229
v -0.137379 0.580400 -0.029229
v -0.155279 0.536000 -0.029229
v -0.178779 0.513400 -0.029229
v -0.269679 0.497600 -0.029229
v -0.314879 0.514200 -0.029229
v -0.344179 0.533700 -0.029229
v -0.199879 0.642100 -0.029229
v -0.162179 0.634500 -0.025529
v -0.121579 0.624800 -0.029229
v -0.056879 0.650400 -0.062229
v -0.034179 0.814300 -0.054729
v -0.034179 0.650400 -0.054729
v -0.056879 0.814300 -0.062229
v -0.251679 0.814300 -0.047229
v -0.251679 0.650400 -0.032229
v -0.251679 0.814300 -0.032229
v -0.251679 0.650400 -0.047229
v -0.011579 0.814300 -0.032229
v -0.011579 0.650400 -0.032230
v 0.138721 0.732300 -0.017230
v 0.063421 0.862600 -0.032229
v 0.008421 0.807600 -0.032229
v 0.008421 0.657100 -0.032230
v 0.138721 0.882800 -0.032230
v 0.213921 0.862600 -0.032230
v 0.269021 0.807600 -0.032230
v 0.289221 0.732300 -0.032230
v 0.269021 0.657100 -0.032230
v 0.213921 0.602000 -0.032230
v 0.138721 0.581800 -0.032230
v 0.063421 0.602000 -0.032230
v 0.138721 0.732300 -0.032230
v 0.138721 0.732300 0.005470
v 0.266721 0.732300 -0.024730
v 0.249521 0.796200 -0.024730
v 0.249521 0.668400 -0.024730
v 0.202621 0.843100 -0.024730
v 0.138721 0.860300 -0.024729
v 0.074821 0.843100 -0.024729
v 0.027921 0.796200 -0.024729
v 0.010921 0.732300 -0.024729
v 0.027921 0.668400 -0.024730
v 0.074821 0.621500 -0.024730
v 0.138721 0.604500 -0.024730
v 0.202621 0.621500 -0.024730
v 0.391521 0.906000 -0.024730
v 0.383221 0.897100 -0.029230
v 0.424621 0.837600 -0.029230
v 0.400621 0.913700 -0.029230
v 0.354621 0.941500 -0.023130
v 0.344821 0.924200 -0.029230
v 0.296721 0.940700 -0.029230
v 0.304221 0.963200 -0.021729
v 0.251521 0.942900 -0.029229
v 0.251521 0.973100 -0.021729
v 0.311721 0.985900 -0.029229
v 0.251521 1.003200 -0.029229
v 0.201521 0.964800 -0.021729
v 0.214621 0.931700 -0.029229
v 0.189221 0.910600 -0.029229
v 0.156021 0.937300 -0.021729
v 0.188421 0.997900 -0.029229
v 0.134221 0.974600 -0.029229
v 0.136421 0.897800 -0.021729
v 0.172621 0.875300 -0.029229
v 0.181521 0.890300 -0.029229
v 0.159021 0.864000 -0.027729
v 0.138721 0.860300 -0.026130
v 0.104821 0.875300 -0.029229
v 0.118421 0.864000 -0.027729
v 0.095721 0.914300 -0.029229
v 0.095721 0.894800 -0.029229
v 0.109321 0.946800 -0.029229
v 0.363721 0.958100 -0.029230
v 0.176421 0.837600 -0.029229
v 0.138721 0.837600 -0.025529
v 0.101021 0.837600 -0.029229
v 0.341021 0.539800 -0.024730
v 0.364521 0.562300 -0.029230
v 0.338921 0.545700 -0.029230
v 0.309521 0.531500 -0.029230
v 0.311721 0.522500 -0.021730
v 0.268921 0.527000 -0.029230
v 0.268921 0.511800 -0.021730
v 0.228221 0.520900 -0.021730
v 0.233521 0.538200 -0.029230
v 0.212421 0.559300 -0.029230
v 0.188421 0.540900 -0.021730
v 0.168721 0.575900 -0.021730
v 0.201221 0.590900 -0.029230
v 0.192921 0.602900 -0.029230
v 0.179321 0.611200 -0.027730
v 0.149221 0.605900 -0.027730
v 0.137921 0.594600 -0.029230
v 0.164321 0.611200 -0.026130
v 0.136421 0.580400 -0.029230
v 0.137921 0.565300 -0.029230
v 0.154521 0.536000 -0.029230
v 0.222921 0.498400 -0.029230
v 0.177821 0.513400 -0.029230
v 0.268921 0.497600 -0.029230
v 0.314021 0.514200 -0.029230
v 0.343421 0.533700 -0.029230
v 0.198921 0.642100 -0.029230
v 0.161221 0.634500 -0.025530
v 0.120621 0.624800 -0.029230
v 0.055921 0.650400 -0.062230
v 0.033421 0.814300 -0.054729
v 0.055921 0.814300 -0.062229
v 0.250721 0.650400 -0.047230
v 0.033421 0.650400 -0.054730
v 0.010721 0.814300 -0.032229
v 0.250721 0.650400 -0.032230
v 0.250721 0.814300 -0.047230
v 0.250721 0.814300 -0.032230
v 0.010721 0.650400 -0.032230
vt 0.968800 0.289100
vt 0.453100 0.703100
vt 0.968800 0.703100
vt 0.453100 0.703100
vt 0.015600 0.289100
vt 0.015600 0.289100
vt 0.281300 0.093800
vt 0.968800 0.000000
vt 0.281300 0.093800
vt 0.968800 0.992200
vt 0.015600 0.289100
vt 0.968800 0.289100
vt 0.453100 0.703100
vt 0.281300 0.093800
vt 0.968800 0.703100
vt 0.453100 0.703100
vt 0.015600 0.289100
vt 0.968800 0.000000
vt 0.281300 0.093800
vt 0.968800 0.992200
vt 0.898400 0.355500
vt 0.992200 0.324200
vt 0.898400 0.324200
vt 0.992200 0.355500
vt 0.992200 0.324200
vt 0.992200 0.355500
vt 0.898400 0.355500
vt 0.898400 0.324200
vt 0.898400 0.394500
vt 0.992200 0.394500
vt 0.992200 0.394500
vt 0.898400 0.429700
vt 0.992200 0.429700
vt 0.898400 0.394500
vt 0.898400 0.429700
vt 0.992200 0.429700
vt 0.898400 0.500000
vt 0.992200 0.500000
vt 0.992200 0.500000
vt 0.898400 0.546900
vt 0.992200 0.546900
vt 0.898400 0.500000
vt 0.898400 0.546900
vt 0.992200 0.546900
vt 0.898400 0.652300
vt 0.992200 0.652300
vt 0.992200 0.652300
vt 0.898400 0.652300
vt 0.898400 0.945300
vt 0.992200 0.945300
vt 0.898400 0.945300
vt 0.992200 0.945300
vt 0.992200 0.996100
vt 0.562500 0.496100
vt 0.500000 0.410200
vt 0.562500 0.410200
vt 0.500000 0.496100
vt 0.500000 0.410200
vt 0.562500 0.410200
vt 0.500000 0.496100
vt 0.562500 0.496100
vt 0.617200 0.496100
vt 0.617200 0.410200
vt 0.617200 0.496100
vt 0.617200 0.410200
vt 0.718800 0.546900
vt 0.500000 0.507800
vt 0.718800 0.621100
vt 0.500000 0.507800
vt 0.500000 0.621100
vt 0.718800 0.621100
vt 0.500000 0.750000
vt 0.718800 0.699200
vt 0.500000 0.621100
vt 0.500000 0.750000
vt 0.718800 0.699200
vt 0.718800 0.546900
vt 0.718800 0.621100
vt 0.500000 0.507800
vt 0.500000 0.621100
vt 0.500000 0.750000
vt 0.718800 0.699200
vt 0.718800 0.546900
vt 0.718800 0.621100
vt 0.500000 0.507800
vt 0.500000 0.621100
vt 0.500000 0.750000
vt 0.718800 0.699200
vt 0.718800 0.546900
vt 0.804700 0.660200
vt 0.882800 0.523400
vt 0.726600 0.523400
vt 0.882800 0.523400
vt 0.726600 0.523400
vt 0.882800 0.523400
vt 0.726600 0.523400
vt 0.804700 0.660200
vt 0.726600 0.523400
vt 0.726600 0.523400
vt 0.882800 0.523400
vt 0.882800 0.523400
vt 0.726600 0.523400
vt 0.882800 0.523400
vt 0.726600 0.523400
vt 0.882800 0.523400
vt 0.726600 0.523400
vt 0.882800 0.523400
vt 0.414100 0.656300
vt 0.328100 0.675800
vt 0.375000 0.675800
vt 0.375000 0.675800
vt 0.445300 0.675800
vt 0.492200 0.675800
vt 0.445300 0.675800
vt 0.375000 0.726600
vt 0.328100 0.726600
vt 0.414100 0.750000
vt 0.445300 0.726600
vt 0.492200 0.726600
vt 0.445300 0.726600
vt 0.375000 0.726600
vt 0.132800 0.656300
vt 0.007800 0.996100
vt 0.132800 0.996100
vt 0.203100 0.656300
vt 0.007800 0.656300
vt 0.132800 0.996100
vt 0.203100 0.996100
vt 0.312500 0.656300
vt 0.312500 0.996100
vt 0.203100 0.656300
vt 0.203100 0.996100
vt 0.132800 0.656300
vt 0.742200 0.750000
vt 0.859400 0.671900
vt 0.765600 0.671900
vt 0.882800 0.750000
vt 0.765600 0.671900
vt 0.859400 0.671900
vt 0.882800 0.750000
vt 0.859400 0.671900
vt 0.765600 0.671900
vt 0.742200 0.750000
vt 0.859400 0.671900
vt 0.765600 0.671900
vt 0.757800 0.324200
vt 0.882800 0.359400
vt 0.757800 0.359400
vt 0.757800 0.359400
vt 0.632800 0.359400
vt 0.757800 0.359400
vt 0.882800 0.359400
vt 0.757800 0.359400
vt 0.632800 0.359400
vt 0.882800 0.421900
vt 0.757800 0.421900
vt 0.632800 0.421900
vt 0.757800 0.421900
vt 0.882800 0.421900
vt 0.757800 0.421900
vt 0.632800 0.421900
vt 0.757800 0.421900
vt 0.882800 0.484400
vt 0.757800 0.484400
vt 0.757800 0.484400
vt 0.632800 0.484400
vt 0.632800 0.484400
vt 0.757800 0.484400
vt 0.757800 0.519500
vt 0.882800 0.484400
vt 0.757800 0.484400
vt 0.328100 0.839800
vt 0.773400 0.839800
vt 0.773400 0.918000
vt 0.328100 0.757800
vt 0.328100 0.918000
vt 0.773400 0.996100
vt 0.773400 0.757800
vt 0.328100 0.996100
vt 0.328100 0.839800
vt 0.773400 0.918000
vt 0.773400 0.839800
vt 0.328100 0.757800
vt 0.328100 0.918000
vt 0.773400 0.996100
vt 0.773400 0.757800
vt 0.328100 0.996100
vt 0.328100 0.839800
vt 0.773400 0.918000
vt 0.773400 0.839800
vt 0.328100 0.757800
vt 0.328100 0.918000
vt 0.773400 0.996100
vt 0.773400 0.757800
vt 0.328100 0.996100
vt 0.328100 0.839800
vt 0.773400 0.918000
vt 0.773400 0.839800
vt 0.328100 0.757800
vt 0.328100 0.918000
vt 0.773400 0.996100
vt 0.773400 0.757800
vt 0.328100 0.996100
vt 0.328100 0.839800
vt 0.773400 0.839800
vt 0.773400 0.918000
vt 0.328100 0.757800
vt 0.328100 0.918000
vt 0.773400 0.996100
vt 0.773400 0.757800
vt 0.328100 0.996100
vt 0.328100 0.839800
vt 0.773400 0.918000
vt 0.773400 0.839800
vt 0.328100 0.757800
vt 0.328100 0.918000
vt 0.773400 0.996100
vt 0.773400 0.757800
vt 0.328100 0.996100
vt 0.328100 0.839800
vt 0.773400 0.918000
vt 0.773400 0.839800
vt 0.328100 0.757800
vt 0.328100 0.918000
vt 0.773400 0.996100
vt 0.773400 0.757800
vt 0.328100 0.996100
vt 0.328100 0.839800
vt 0.773400 0.918000
vt 0.773400 0.839800
vt 0.328100 0.757800
vt 0.328100 0.918000
vt 0.773400 0.996100
vt 0.773400 0.757800
vt 0.328100 0.996100
vt 0.617200 0.324200
vt 0.617200 0.402300
vt 0.007800 0.363300
vt 0.617200 0.324200
vt 0.617200 0.402300
vt 0.617200 0.324200
vt 0.617200 0.402300
vt 0.617200 0.324200
vt 0.617200 0.402300
vt 0.617200 0.324200
vt 0.617200 0.402300
vt 0.617200 0.324200
vt 0.453100 0.468800
vt 0.359400 0.421900
vt 0.234400 0.531300
vt 0.101600 0.636700
vt 0.234400 0.648400
vt 0.359400 0.636700
vt 0.234400 0.410200
vt 0.101600 0.421900
vt 0.015600 0.468800
vt 0.453100 0.589800
vt 0.484400 0.531300
vt 0.015600 0.593800
vt 0.617200 0.402300
vt 0.570300 0.078100
vt 0.609400 0.156300
vt 0.304700 0.156300
vt 0.453100 0.019500
vt 0.304700 0.003900
vt 0.156300 0.019500
vt 0.039100 0.078100
vt 0.000000 0.156300
vt 0.039100 0.234400
vt 0.156300 0.296900
vt 0.304700 0.316400
vt 0.453100 0.296900
vt 0.570300 0.234400
vt 0.773400 0.027300
vt 0.773400 0.003900
vt 0.828100 0.035200
vt 0.718800 0.019500
vt 0.687500 0.035200
vt 0.773400 0.046900
vt 0.859400 0.058600
vt 0.882800 0.082000
vt 0.773400 0.066400
vt 0.906300 0.105500
vt 0.773400 0.089800
vt 0.773400 0.121100
vt 0.906300 0.140600
vt 0.914100 0.195300
vt 0.773400 0.171900
vt 0.773400 0.246100
vt 0.921900 0.234400
vt 0.914100 0.265600
vt 0.890600 0.293000
vt 0.828100 0.312500
vt 0.742200 0.316400
vt 0.695300 0.304700
vt 0.648400 0.277300
vt 0.632800 0.246100
vt 0.632800 0.187500
vt 0.640600 0.101600
vt 0.632800 0.125000
vt 0.656300 0.078100
vt 0.671900 0.054700
vt 0.929700 0.054700
vt 0.992200 0.078100
vt 0.992200 0.003900
vt 0.867200 0.003900
vt 0.867200 0.043000
vt 0.929700 0.054700
vt 0.992200 0.003900
vt 0.992200 0.078100
vt 0.773400 0.003900
vt 0.773400 0.046900
vt 0.828100 0.054700
vt 0.773400 0.066400
vt 0.835900 0.078100
vt 0.851600 0.101600
vt 0.773400 0.089800
vt 0.773400 0.121100
vt 0.867200 0.136700
vt 0.773400 0.168000
vt 0.898400 0.183600
vt 0.640600 0.101600
vt 0.921900 0.234400
vt 0.773400 0.238300
vt 0.914100 0.265600
vt 0.890600 0.293000
vt 0.742200 0.316400
vt 0.679700 0.304700
vt 0.828100 0.312500
vt 0.632800 0.246100
vt 0.648400 0.277300
vt 0.632800 0.187500
vt 0.632800 0.125000
vt 0.656300 0.078100
vt 0.671900 0.054700
vt 0.687500 0.035200
vt 0.992200 0.078100
vt 0.929700 0.054700
vt 0.992200 0.003900
vt 0.867200 0.003900
vt 0.867200 0.043000
vt 0.929700 0.054700
vt 0.992200 0.003900
vt 0.992200 0.078100
vt 0.773400 0.804700
vt 0.328100 0.773400
vt 0.773400 0.773400
vt 0.328100 0.804700
vt 0.882800 0.812500
vt 0.789100 0.914100
vt 0.789100 0.812500
vt 0.882800 0.914100
vt 0.882800 0.757800
vt 0.882800 0.789100
vt 0.789100 0.757800
vt 0.328100 0.757800
vt 0.773400 0.757800
vt 0.789100 0.996100
vt 0.882800 0.996100
vt 0.789100 0.757800
vt 0.882800 0.789100
vt 0.773400 0.996100
vt 0.328100 0.996100
vt 0.882800 0.996100
vt 0.789100 0.996100
vt 0.882800 0.757800
vt 0.007800 0.363300
vt 0.617200 0.402300
vt 0.617200 0.324200
vt 0.617200 0.402300
vt 0.617200 0.324200
vt 0.617200 0.402300
vt 0.617200 0.324200
vt 0.617200 0.402300
vt 0.617200 0.324200
vt 0.617200 0.402300
vt 0.617200 0.324200
vt 0.617200 0.402300
vt 0.617200 0.324200
vt 0.359400 0.421900
vt 0.453100 0.468800
vt 0.234400 0.531300
vt 0.234400 0.648400
vt 0.101600 0.636700
vt 0.015600 0.593800
vt 0.234400 0.410200
vt 0.484400 0.531300
vt 0.453100 0.589800
vt 0.359400 0.636700
vt 0.101600 0.421900
vt 0.015600 0.468800
vt 0.304700 0.156300
vt 0.609400 0.156300
vt 0.570300 0.078100
vt 0.570300 0.234400
vt 0.453100 0.019500
vt 0.304700 0.003900
vt 0.156300 0.019500
vt 0.039100 0.078100
vt 0.000000 0.156300
vt 0.039100 0.234400
vt 0.156300 0.296900
vt 0.304700 0.316400
vt 0.453100 0.296900
vt 0.773400 0.027300
vt 0.828100 0.035200
vt 0.773400 0.003900
vt 0.718800 0.019500
vt 0.773400 0.046900
vt 0.859400 0.058600
vt 0.882800 0.082000
vt 0.773400 0.066400
vt 0.906300 0.105500
vt 0.773400 0.089800
vt 0.671900 0.054700
vt 0.656300 0.078100
vt 0.773400 0.121100
vt 0.906300 0.140600
vt 0.914100 0.195300
vt 0.773400 0.171900
vt 0.640600 0.101600
vt 0.632800 0.125000
vt 0.773400 0.246100
vt 0.914100 0.265600
vt 0.921900 0.234400
vt 0.890600 0.293000
vt 0.828100 0.312500
vt 0.695300 0.304700
vt 0.742200 0.316400
vt 0.632800 0.246100
vt 0.648400 0.277300
vt 0.632800 0.187500
vt 0.687500 0.035200
vt 0.992200 0.003900
vt 0.992200 0.078100
vt 0.929700 0.054700
vt 0.867200 0.003900
vt 0.867200 0.043000
vt 0.929700 0.054700
vt 0.992200 0.003900
vt 0.992200 0.078100
vt 0.773400 0.046900
vt 0.773400 0.003900
vt 0.828100 0.054700
vt 0.835900 0.078100
vt 0.773400 0.066400
vt 0.851600 0.101600
vt 0.773400 0.089800
vt 0.773400 0.121100
vt 0.867200 0.136700
vt 0.898400 0.183600
vt 0.773400 0.168000
vt 0.773400 0.238300
vt 0.921900 0.234400
vt 0.914100 0.265600
vt 0.890600 0.293000
vt 0.742200 0.316400
vt 0.679700 0.304700
vt 0.828100 0.312500
vt 0.648400 0.277300
vt 0.632800 0.246100
vt 0.632800 0.187500
vt 0.640600 0.101600
vt 0.632800 0.125000
vt 0.656300 0.078100
vt 0.671900 0.054700
vt 0.687500 0.035200
vt 0.929700 0.054700
vt 0.992200 0.078100
vt 0.992200 0.003900
vt 0.867200 0.003900
vt 0.867200 0.043000
vt 0.929700 0.054700
vt 0.992200 0.003900
vt 0.992200 0.078100
vt 0.773400 0.804700
vt 0.328100 0.773400
vt 0.328100 0.804700
vt 0.773400 0.996100
vt 0.773400 0.773400
vt 0.328100 0.757800
vt 0.789100 0.914100
vt 0.882800 0.914100
vt 0.882800 0.812500
vt 0.789100 0.812500
vt 0.882800 0.757800
vt 0.789100 0.757800
vt 0.882800 0.789100
vt 0.773400 0.757800
vt 0.789100 0.757800
vt 0.882800 0.789100
vt 0.882800 0.996100
vt 0.789100 0.996100
vt 0.328100 0.996100
vt 0.789100 0.996100
vt 0.882800 0.996100
vt 0.882800 0.757800
usemtl w2dbkx2_TEX_w2dbkx2_1
s 1
f 1/1 2/2 3/3
f 3/3 4/4 1/1
f 5/5 1/1 4/4
f 1/1 6/6 2/2
f 7/7 1/1 8/8
f 1/1 7/7 6/6
f 1/1 9/9 8/8
f 9/9 1/1 5/5
f 3/3 2/2 10/10
f 10/10 4/4 3/3
f 11/11 12/12 13/13
f 12/12 11/11 14/14
f 15/15 13/13 12/12
f 16/16 15/15 12/12
f 12/12 17/17 16/16
f 18/18 12/12 14/14
f 12/12 18/18 19/19
f 20/20 13/13 15/15
f 20/20 15/15 16/16
f 17/17 12/12 19/19
usemtl w2dbkx2_TEX_w2dbkx2
f 21/21 22/22 23/23
f 22/22 21/21 24/24
f 25/25 21/21 23/23
f 21/21 25/25 26/26
f 27/27 25/25 28/28
f 25/25 27/27 26/26
f 22/22 27/27 28/28
f 27/27 22/22 24/24
f 29/29 30/30 21/21
f 21/21 31/31 29/29
f 32/32 29/29 31/31
f 31/31 33/33 32/32
f 24/24 21/21 30/30
f 30/30 27/27 24/24
f 31/31 21/21 26/26
f 26/26 27/27 31/31
f 34/34 31/31 27/27
f 27/27 30/30 34/34
f 35/35 34/34 30/30
f 30/30 36/36 35/35
f 37/37 38/38 32/32
f 32/32 39/39 37/37
f 40/40 37/37 39/39
f 39/39 41/41 40/40
f 36/36 32/32 38/38
f 38/38 35/35 36/36
f 39/39 32/32 33/33
f 33/33 35/35 39/39
f 42/42 39/39 35/35
f 35/35 38/38 42/42
f 43/43 42/42 38/38
f 38/38 44/44 43/43
f 45/45 46/46 40/40
f 40/40 47/47 45/45
f 44/44 40/40 46/46
f 46/46 43/43 44/44
f 47/47 40/40 41/41
f 41/41 43/43 47/47
f 48/48 47/47 43/43
f 43/43 46/46 48/48
f 32/32 30/30 29/29
f 30/30 32/32 36/36
f 35/35 31/31 34/34
f 31/31 35/35 33/33
f 40/40 38/38 37/37
f 38/38 40/40 44/44
f 43/43 39/39 42/42
f 39/39 43/43 41/41
f 49/49 46/46 45/45
f 45/45 47/47 49/49
f 50/50 49/49 47/47
f 47/47 48/48 50/50
f 51/51 50/50 48/48
f 48/48 52/52 51/51
f 53/53 51/51 52/52
f 52/52 49/49 53/53
f 46/46 49/49 52/52
f 52/52 48/48 46/46
f 50/50 53/53 49/49
f 51/51 53/53 50/50
f 54/54 55/55 56/56
f 55/55 54/54 57/57
f 58/58 57/57 54/54
f 58/58 54/54 59/59
f 59/59 60/60 58/58
f 60/60 59/59 61/61
f 61/61 56/56 60/60
f 55/55 60/60 56/56
f 56/56 25/62 23/63
f 23/63 22/64 56/56
f 54/54 56/56 22/64
f 22/64 28/65 54/54
f 59/59 54/54 28/65
f 28/65 25/62 59/59
f 61/61 59/59 25/62
f 25/62 56/56 61/61
f 62/66 63/67 64/68
f 64/68 65/69 62/66
f 66/70 64/68 63/67
f 63/67 67/71 66/70
f 68/72 66/70 67/71
f 67/71 69/73 68/72
f 64/68 70/74 65/69
f 70/74 64/68 71/75
f 72/76 71/75 64/68
f 73/77 65/69 74/78
f 74/78 75/79 73/77
f 74/78 65/69 70/74
f 74/78 76/80 75/79
f 76/80 74/78 77/81
f 78/82 77/81 74/78
f 79/83 75/79 80/84
f 80/84 81/85 79/83
f 80/84 75/79 76/80
f 80/84 82/86 81/85
f 82/86 80/84 83/87
f 84/88 83/87 80/84
f 85/89 81/85 67/71
f 67/71 63/67 85/89
f 67/71 81/85 82/86
f 86/90 84/91 77/92
f 77/92 78/93 86/90
f 71/94 86/90 78/93
f 85/95 63/96 87/97
f 87/97 81/98 85/95
f 65/99 73/100 87/97
f 71/94 72/101 86/90
f 86/90 72/101 68/102
f 68/102 69/103 86/90
f 83/104 86/90 69/103
f 86/90 83/104 84/91
f 79/105 87/97 75/106
f 87/97 79/105 81/98
f 73/100 75/106 87/97
f 62/107 87/97 63/96
f 87/97 62/107 65/99
f 68/72 64/68 66/70
f 64/68 68/72 72/76
f 83/87 67/71 82/86
f 67/71 83/87 69/73
f 77/81 80/84 76/80
f 80/84 77/81 84/88
f 71/75 74/78 70/74
f 74/78 71/75 78/82
f 88/108 89/109 90/110
f 89/109 88/108 91/111
f 88/108 90/110 92/112
f 88/108 92/112 93/113
f 88/108 93/113 94/114
f 88/108 94/114 91/111
f 95/115 89/109 96/116
f 96/116 97/117 95/115
f 98/118 95/115 97/117
f 90/110 89/109 95/115
f 95/115 98/118 90/110
f 92/112 90/110 98/118
f 98/118 99/119 92/112
f 93/113 92/112 99/119
f 99/119 100/120 93/113
f 94/114 93/113 100/120
f 100/120 101/121 94/114
f 91/111 94/114 101/121
f 101/121 96/116 91/111
f 91/111 96/116 89/109
f 97/117 99/119 98/118
f 99/119 97/117 100/120
f 97/117 101/121 100/120
f 101/121 97/117 96/116
f 102/122 103/123 104/124
f 104/124 105/125 102/122
f 103/123 102/122 106/126
f 106/126 107/127 103/123
f 105/125 104/124 108/128
f 108/128 109/129 105/125
f 109/129 108/128 110/130
f 110/130 111/131 109/129
f 111/131 110/130 112/132
f 112/132 113/133 111/131
f 113/133 112/132 107/127
f 107/127 106/126 113/133
f 109/134 102/135 105/136
f 102/135 109/134 106/137
f 111/138 106/137 109/134
f 106/137 111/138 113/139
f 110/140 108/141 104/142
f 103/143 110/140 104/142
f 110/140 103/143 112/144
f 103/143 107/145 112/144
f 114/146 115/147 116/148
f 115/147 114/146 117/149
f 114/146 116/148 118/150
f 114/146 118/150 119/151
f 114/146 119/151 120/152
f 114/146 120/152 121/153
f 114/146 121/153 122/154
f 114/146 122/154 117/149
f 116/148 123/155 124/156
f 115/147 123/155 116/148
f 118/150 124/156 125/157
f 116/148 124/156 118/150
f 118/150 125/157 126/158
f 119/151 118/150 126/158
f 126/158 127/159 119/151
f 120/152 119/151 127/159
f 127/159 121/153 120/152
f 121/153 127/159 128/160
f 122/154 128/160 129/161
f 121/153 128/160 122/154
f 122/154 129/161 130/162
f 117/149 122/154 130/162
f 130/162 123/155 117/149
f 117/149 123/155 115/147
f 123/155 131/163 132/164
f 131/163 123/155 133/165
f 130/162 133/165 123/155
f 133/165 130/162 134/166
f 129/161 134/166 130/162
f 124/156 123/155 132/164
f 132/164 135/167 124/156
f 125/157 124/156 135/167
f 135/167 126/158 125/157
f 136/168 126/158 135/167
f 135/167 137/169 136/168
f 138/170 136/168 137/169
f 127/159 136/168 138/170
f 126/158 136/168 127/159
f 139/171 127/159 138/170
f 138/170 137/169 139/171
f 134/166 139/171 137/169
f 128/160 127/159 139/171
f 139/171 134/166 128/160
f 128/160 134/166 129/161
f 137/169 132/164 131/163
f 132/164 137/169 135/167
f 137/169 133/165 134/166
f 133/165 137/169 131/163
f 140/172 141/173 142/174
f 141/173 140/172 143/175
f 142/174 144/176 140/172
f 144/176 142/174 145/177
f 141/173 143/175 146/178
f 144/176 145/177 147/179
f 148/180 149/181 150/182
f 150/182 151/183 148/180
f 149/181 148/180 152/184
f 152/184 153/185 149/181
f 150/182 154/186 151/183
f 152/184 155/187 153/185
f 156/188 157/189 158/190
f 158/190 159/191 156/188
f 157/189 156/188 160/192
f 160/192 161/193 157/189
f 158/190 162/194 159/191
f 160/192 163/195 161/193
f 164/196 165/197 166/198
f 166/198 167/199 164/196
f 165/197 164/196 168/200
f 168/200 169/201 165/197
f 166/198 170/202 167/199
f 168/200 171/203 169/201
f 172/204 173/205 174/206
f 173/205 172/204 175/207
f 174/206 176/208 172/204
f 176/208 174/206 177/209
f 173/205 175/207 178/210
f 176/208 177/209 179/211
f 180/212 181/213 182/214
f 182/214 183/215 180/212
f 181/213 180/212 184/216
f 184/216 185/217 181/213
f 182/214 186/218 183/215
f 184/216 187/219 185/217
f 188/220 189/221 190/222
f 190/222 191/223 188/220
f 189/221 188/220 192/224
f 192/224 193/225 189/221
f 190/222 194/226 191/223
f 192/224 195/227 193/225
f 196/228 197/229 198/230
f 198/230 199/231 196/228
f 197/229 196/228 200/232
f 200/232 201/233 197/229
f 198/230 202/234 199/231
f 200/232 203/235 201/233
f 204/236 205/237 206/238
f 205/237 207/239 206/238
f 207/239 208/240 206/238
f 208/240 209/241 206/238
f 209/241 210/242 206/238
f 210/242 211/243 206/238
f 211/243 212/244 206/238
f 212/244 213/245 206/238
f 213/245 214/246 206/238
f 214/246 215/247 206/238
f 209/248 208/249 216/250
f 216/250 214/251 213/252
f 213/252 212/253 216/250
f 216/250 208/249 207/254
f 207/254 205/255 216/250
f 204/256 216/250 205/255
f 216/250 211/257 210/258
f 211/257 216/250 212/253
f 210/258 209/248 216/250
f 216/250 215/259 214/251
f 215/259 216/250 204/256
f 204/236 206/238 215/260
f 217/261 218/262 219/263
f 219/263 220/264 217/261
f 221/265 220/264 219/263
f 219/263 222/266 221/265
f 223/267 222/266 219/263
f 219/263 224/268 223/267
f 225/269 224/268 219/263
f 219/263 226/270 225/269
f 227/271 226/270 219/263
f 219/263 228/272 227/271
f 229/273 228/272 219/263
f 219/263 218/262 229/273
f 230/274 231/275 232/276
f 231/275 230/274 233/277
f 234/278 233/277 230/274
f 235/279 232/276 236/280
f 236/280 237/281 235/279
f 238/282 235/279 237/281
f 237/281 239/283 238/282
f 240/284 238/282 239/283
f 239/283 241/285 240/284
f 235/279 230/274 232/276
f 241/285 239/283 242/286
f 242/286 243/287 241/285
f 244/288 241/285 243/287
f 243/287 245/289 244/288
f 245/289 246/290 247/291
f 247/291 248/292 245/289
f 249/293 245/289 248/292
f 243/287 246/290 245/289
f 245/289 250/294 251/295
f 251/295 252/296 245/289
f 245/289 249/293 250/294
f 245/289 252/296 253/297
f 254/298 245/289 253/297
f 245/289 254/298 244/288
f 244/288 255/299 241/285
f 255/299 244/288 256/300
f 254/298 256/300 244/288
f 241/285 257/301 240/284
f 257/301 241/285 255/299
f 240/284 258/302 238/282
f 258/302 240/284 257/301
f 234/278 230/274 235/279
f 235/279 238/282 234/278
f 258/302 234/278 238/282
f 248/303 247/304 259/305
f 259/305 260/306 248/303
f 249/307 248/303 260/306
f 260/306 250/308 249/307
f 250/308 260/306 261/309
f 261/309 251/310 250/308
f 262/311 263/312 264/313
f 265/314 266/315 263/312
f 266/315 265/314 267/316
f 268/317 267/316 265/314
f 263/312 266/315 264/313
f 269/318 267/316 268/317
f 267/316 269/318 270/319
f 271/320 272/321 269/318
f 269/318 273/322 271/320
f 269/318 272/321 270/319
f 274/323 275/324 276/325
f 275/324 277/326 276/325
f 275/324 272/321 271/320
f 272/321 275/324 274/323
f 278/327 275/324 279/328
f 277/326 275/324 280/329
f 275/324 278/327 280/329
f 275/324 281/330 282/331
f 281/330 275/324 283/332
f 271/320 283/332 275/324
f 271/320 273/322 284/333
f 268/317 285/334 269/318
f 285/334 268/317 286/335
f 265/314 286/335 268/317
f 286/335 265/314 287/336
f 263/312 287/336 265/314
f 287/336 263/312 262/311
f 269/318 285/334 273/322
f 275/324 282/331 279/328
f 276/337 277/338 288/339
f 289/340 277/338 280/341
f 277/338 289/340 288/339
f 278/342 289/340 280/341
f 289/340 278/342 290/343
f 278/342 279/344 290/343
f 283/332 271/320 284/333
f 291/345 292/346 293/347
f 292/346 291/345 294/348
f 295/349 296/350 297/351
f 296/350 295/349 298/352
f 292/353 294/354 299/355
f 293/347 299/356 300/357
f 299/356 293/347 292/346
f 296/358 298/359 300/360
f 291/361 300/360 298/359
f 294/348 298/362 295/363
f 298/362 294/348 291/345
f 295/364 297/365 294/354
f 299/355 294/354 297/365
f 293/366 300/360 291/361
f 301/367 302/368 303/369
f 303/369 304/370 301/367
f 305/371 302/368 301/367
f 306/372 305/371 301/367
f 307/373 306/372 301/367
f 308/374 307/373 301/367
f 309/375 308/374 301/367
f 310/376 309/375 301/367
f 311/377 310/376 301/367
f 312/378 311/377 301/367
f 304/379 312/378 301/367
f 306/380 307/381 313/382
f 313/382 311/383 312/384
f 312/384 304/385 313/382
f 305/386 306/380 313/382
f 308/387 309/388 313/382
f 313/382 307/381 308/387
f 310/389 313/382 309/388
f 311/383 313/382 310/389
f 302/390 305/386 313/382
f 313/382 303/391 302/390
f 303/391 313/382 304/385
f 314/392 315/393 316/394
f 315/393 314/392 317/395
f 314/392 316/394 318/396
f 314/392 318/396 319/397
f 314/392 319/397 320/398
f 314/392 320/398 321/399
f 314/392 321/399 322/400
f 314/392 322/400 323/401
f 314/392 323/401 324/402
f 314/392 324/402 325/403
f 314/392 325/403 326/404
f 314/392 326/404 317/395
f 327/405 328/406 329/407
f 329/407 330/408 327/405
f 331/409 328/406 327/405
f 328/406 331/409 332/410
f 333/411 332/410 331/409
f 334/412 335/413 333/411
f 335/413 334/412 336/414
f 337/415 336/414 334/412
f 336/414 337/415 338/416
f 335/413 339/417 340/418
f 339/417 335/413 336/414
f 339/417 341/419 340/418
f 341/419 339/417 342/420
f 343/421 342/420 339/417
f 342/420 343/421 344/422
f 345/423 346/424 347/425
f 347/425 341/419 345/423
f 342/420 345/423 341/419
f 348/426 346/424 345/423
f 345/423 349/427 348/426
f 345/423 350/428 351/429
f 351/429 349/427 345/423
f 352/430 353/431 345/423
f 345/423 354/432 352/430
f 354/432 345/423 342/420
f 342/420 344/422 354/432
f 339/417 338/416 343/421
f 338/416 339/417 336/414
f 327/405 355/433 331/409
f 355/433 327/405 330/408
f 350/428 345/423 353/431
f 356/434 346/435 348/436
f 348/436 357/437 356/434
f 357/437 348/436 349/438
f 357/437 351/439 358/440
f 351/439 357/437 349/438
f 358/440 351/439 350/441
f 331/409 334/412 333/411
f 355/433 334/412 331/409
f 334/412 355/433 337/415
f 359/442 360/443 361/444
f 362/445 359/442 361/444
f 359/442 362/445 363/446
f 364/447 363/446 362/445
f 363/446 364/447 365/448
f 366/449 365/448 364/447
f 366/449 364/447 367/450
f 367/450 368/451 366/449
f 369/452 366/449 368/451
f 368/451 370/453 369/452
f 370/453 371/454 372/455
f 373/456 370/453 372/455
f 368/451 371/454 370/453
f 370/453 374/457 375/458
f 370/453 373/456 376/459
f 374/457 370/453 376/459
f 377/460 378/461 370/453
f 370/453 375/458 377/460
f 370/453 379/462 369/452
f 379/462 370/453 378/461
f 380/463 369/452 381/464
f 369/452 380/463 366/449
f 382/465 366/449 380/463
f 366/449 382/465 365/448
f 383/466 365/448 382/465
f 365/448 383/466 363/446
f 384/467 363/446 383/466
f 363/446 384/467 359/442
f 360/443 359/442 384/467
f 373/468 372/469 385/470
f 386/471 373/468 385/470
f 373/468 386/471 376/472
f 374/473 376/472 386/471
f 374/473 386/471 387/474
f 387/474 375/475 374/473
f 369/452 379/462 381/464
f 388/476 389/477 390/478
f 390/478 391/479 388/476
f 389/477 388/476 392/480
f 392/480 393/481 389/477
f 394/482 391/483 395/484
f 395/484 396/485 394/482
f 389/486 393/487 390/488
f 392/480 397/489 393/481
f 397/490 388/491 391/492
f 391/492 394/493 397/490
f 390/478 395/494 391/479
f 390/488 393/487 396/495
f 396/495 395/496 390/488
f 392/497 388/491 397/490
