# Blender v2.79 (sub 0) OBJ File: ''
# www.blender.org
mtllib w2dbk05.mtl
o w2dbk05
v -0.000479 0.635300 0.050134
v 0.018621 0.427500 0.028534
v 0.018621 0.635600 0.028535
v -0.000479 0.427500 0.051034
v -0.019579 0.427500 0.028534
v -0.000479 0.627200 0.007235
v -0.000479 0.427500 0.008234
v 0.018621 0.203700 0.028534
v -0.000179 0.227800 0.007534
v -0.019579 0.635300 0.028535
v -0.019879 0.203700 0.028534
v -0.000479 0.892500 0.028535
v -0.000479 0.892500 0.001035
v -0.027679 0.892500 0.028535
v -0.000479 0.892500 0.056335
v 0.026721 0.892500 0.028535
v -0.004179 0.023400 0.011334
v -0.000479 0.023400 0.006034
v -0.000479 0.023400 0.015734
v 0.003621 0.023400 0.011334
v -0.000179 0.227800 0.051634
v 0.016121 0.655000 0.028535
v -0.000479 0.655000 0.044734
v -0.016679 0.655000 0.028535
v -0.024579 0.620600 -0.018965
v 0.021121 0.626500 -0.031166
v -0.000479 0.423100 -0.039566
v 0.021121 0.425600 -0.021166
v 0.023621 0.432800 -0.009566
v -0.024579 0.432800 -0.009566
v -0.022079 0.425600 -0.021166
v -0.000479 0.655000 0.012635
v -0.027979 0.670600 0.012635
v -0.000479 0.670600 -0.002065
v -0.027979 0.670600 0.044435
v -0.000479 0.670600 0.059435
v 0.027021 0.670600 0.012635
v 0.027021 0.670600 0.044434
v -0.027979 0.701900 0.012635
v -0.000479 0.701900 -0.002065
v -0.027979 0.701900 0.044435
v -0.000479 0.701900 0.059435
v 0.027021 0.701900 0.044434
v 0.027021 0.701900 0.012635
v -0.000479 0.716500 0.019135
v -0.008879 0.716500 0.028535
v -0.000479 0.716500 0.038235
v 0.008321 0.716500 0.028535
v -0.008879 0.754400 0.028535
v -0.000479 0.754400 0.019135
v -0.000479 0.754400 0.038235
v 0.008321 0.754400 0.028535
v -0.024879 0.185300 0.010034
v -0.000179 0.185300 0.003534
v -0.031379 0.155300 -0.041766
v -0.024879 0.185300 0.045734
v -0.024879 0.155300 0.082934
v -0.000179 0.185300 0.064434
v -0.000179 0.155300 0.104434
v -0.024879 0.115000 0.051334
v -0.000179 0.115000 0.069434
v -0.000179 0.052200 0.035134
v 0.023921 0.185300 0.010734
v 0.029221 0.155300 -0.040266
v -0.000479 0.154400 -0.038066
v 0.023921 0.185300 0.045434
v -0.036679 0.151900 -0.109966
v 0.023921 0.155300 0.081934
v -0.024879 0.155000 -0.142766
v 0.003621 0.151500 -0.159566
v -0.024879 0.147200 -0.143366
v -0.036679 0.132500 -0.110266
v -0.031379 0.115300 -0.042066
v 0.003621 0.158400 -0.158066
v 0.031121 0.147200 -0.142066
v 0.031121 0.155000 -0.141166
v 0.038621 0.151900 -0.108366
v 0.038621 0.132500 -0.108966
v 0.029221 0.115300 -0.040866
v 0.023921 0.115000 0.050734
v -0.000179 0.052200 0.005734
v -0.013279 0.052200 0.017234
v -0.000479 0.115300 -0.045866
v 0.012621 0.052200 0.017234
v 0.001721 0.149000 -0.112066
v 0.001721 0.132500 -0.113966
v -0.027679 0.782200 0.028535
v -0.000479 0.782200 0.001035
v -0.000479 0.782200 0.056335
v 0.026721 0.782200 0.028535
v -0.000479 0.942800 0.055735
v -0.004179 0.942800 0.059735
v -0.000479 0.942800 0.063835
v 0.003621 0.942800 0.059735
v -0.000479 0.885600 0.026035
v 0.010421 0.885600 0.036935
v -0.011379 0.885600 0.036935
v -0.000479 0.885600 0.048235
v 0.023621 0.620600 -0.018966
v 0.023621 0.526500 -0.048366
v 0.021121 0.526500 -0.061466
v -0.022079 0.626500 -0.031166
v -0.022079 0.526500 -0.061466
v -0.024579 0.526500 -0.048366
v -0.000479 0.632500 -0.050266
v -0.000479 0.526500 -0.080566
v -0.119779 1.129300 -0.009165
v -0.042179 1.129300 -0.014165
v -0.042179 1.341000 -0.014165
v -0.119779 0.917500 -0.009165
v -0.042179 0.917500 -0.014165
v -0.155179 1.341000 -0.126665
v -0.305979 1.129300 -0.136165
v -0.305979 1.341000 -0.136165
v -0.155179 1.129300 -0.126665
v -0.077679 1.341000 -0.092865
v -0.077679 1.129300 -0.092865
v -0.029179 1.341000 -0.038466
v -0.029179 1.129300 -0.038465
v -0.305979 0.917500 -0.136165
v -0.155179 0.917500 -0.126665
v -0.077679 0.917500 -0.092865
v -0.029179 0.917500 -0.038465
v -0.068279 1.129300 -0.348465
v -0.039979 1.341000 -0.209965
v -0.068279 1.341000 -0.348465
v -0.039979 1.129300 -0.209965
v -0.023379 1.341000 -0.125966
v -0.023379 1.129300 -0.125965
v -0.021679 1.341000 -0.051666
v -0.021679 1.129300 -0.051665
v -0.039979 0.917500 -0.209965
v -0.068279 0.917500 -0.348465
v -0.023379 0.917500 -0.125965
v -0.021679 0.917500 -0.051665
v 0.159321 1.129300 -0.320565
v 0.159321 1.341000 -0.320566
v 0.068221 1.341000 -0.196866
v 0.068221 1.129300 -0.196865
v 0.028421 1.341000 -0.131666
v 0.028421 1.129300 -0.131665
v 0.004221 1.341000 -0.057166
v 0.004221 1.129300 -0.057165
v 0.068221 0.917500 -0.196865
v 0.159321 0.917500 -0.320565
v 0.028421 0.917500 -0.131665
v 0.004221 0.917500 -0.057165
v 0.098721 1.346400 -0.055866
v 0.019221 1.346300 -0.043766
v 0.022621 1.347200 -0.000666
v 0.330121 1.208300 -0.000666
v 0.303121 1.346200 -0.040566
v 0.327221 1.347200 -0.000666
v 0.306421 1.207800 -0.040566
v 0.283321 1.177500 -0.040566
v 0.098721 1.130000 -0.060665
v 0.053121 1.174700 -0.043765
v 0.019221 1.209200 -0.043765
v 0.047221 1.130000 -0.000665
v 0.047221 1.174700 -0.000665
v 0.053121 1.130000 -0.043765
v 0.022621 1.209700 -0.000665
v 0.308321 1.177700 -0.000666
v 0.307821 1.130000 -0.000666
v 0.283121 1.130000 -0.040566
v 0.283321 1.082500 -0.040566
v 0.098721 0.913600 -0.055865
v 0.022621 0.913000 -0.000665
v 0.019221 0.913700 -0.043765
v 0.327221 0.913000 -0.000666
v 0.303121 0.913700 -0.040565
v 0.330121 1.051700 -0.000666
v 0.306421 1.052200 -0.040565
v 0.047221 1.085300 -0.000665
v 0.053121 1.085300 -0.043765
v 0.019221 1.050900 -0.043765
v 0.022621 1.050500 -0.000665
v 0.308321 1.082300 -0.000666
v 0.257521 1.233700 0.000434
v 0.279521 1.230300 0.005834
v 0.276421 1.195000 0.000434
v 0.293721 1.258400 0.005834
v 0.293421 1.203700 0.005834
v 0.276421 1.195000 0.011234
v 0.257521 1.233700 0.011234
v 0.191721 1.339700 0.008534
v 0.141121 1.413000 0.003834
v 0.190321 1.340800 0.003234
v 0.241121 1.426900 0.005834
v 0.252321 1.299100 0.011234
v 0.318321 1.398000 0.005834
v 0.261721 1.277300 0.000434
v 0.261721 1.277300 0.011234
v 0.333121 1.282800 0.005834
v 0.273721 1.290000 0.011234
v 0.273721 1.290000 0.000434
v 0.344521 1.328600 0.005834
v 0.266421 1.302500 0.011234
v 0.266421 1.302500 0.000434
v 0.252321 1.299100 0.000434
v -0.030479 1.131900 0.052935
v -0.030479 0.929100 0.052935
v -0.000479 0.929100 0.070835
v -0.028779 0.929100 0.010035
v -0.028779 1.131900 0.010035
v 0.027921 0.929100 0.010035
v 0.027921 1.131900 0.010035
v -0.000479 1.131900 0.070835
v 0.029521 1.131900 0.052935
v 0.029521 0.929100 0.052935
v -0.000479 1.325500 0.070834
v -0.030479 1.325500 0.052935
v -0.028779 1.325500 0.010035
v 0.027921 1.325500 0.010035
v 0.029521 1.325500 0.052935
v 0.000621 1.325500 0.034435
v -0.000479 0.929100 0.037535
v 0.018721 1.131900 -0.040265
v 0.018721 1.054100 -0.040265
v -0.019879 1.054100 -0.040265
v 0.017621 1.054100 -0.002065
v 0.017621 1.131900 -0.002065
v -0.018779 1.054100 -0.002065
v -0.018779 1.131900 -0.002065
v -0.019879 1.131900 -0.040265
v -0.019879 1.203900 -0.040265
v 0.018721 1.203900 -0.040265
v -0.018779 1.203900 -0.002065
v 0.017621 1.203900 -0.002065
v -0.000479 1.345600 -0.020566
v 0.017621 1.345600 -0.002066
v 0.018721 1.345600 -0.040266
v -0.019879 1.345600 -0.040266
v -0.000479 0.910300 -0.020565
v -0.018779 0.910300 -0.002065
v -0.019879 0.910300 -0.040265
v 0.017621 0.910300 -0.002065
v 0.018721 0.910300 -0.040265
v -0.018779 1.345600 -0.002066
v -0.038579 1.131900 0.062735
v -0.038579 1.066100 0.062735
v -0.000479 1.066100 0.084435
v -0.036579 1.066100 -0.053665
v -0.036579 1.131900 -0.053665
v 0.035621 1.066100 -0.053665
v 0.035621 1.131900 -0.053665
v -0.000479 1.131900 0.084435
v 0.037821 1.131900 0.062735
v 0.037821 1.066100 0.062735
v -0.000479 1.190800 0.084435
v -0.038579 1.190800 0.062735
v -0.036579 1.190800 -0.053665
v 0.035621 1.190800 -0.053665
v 0.037821 1.190800 0.062735
v -0.000479 1.190800 0.011635
v -0.000479 1.066100 0.011635
v -0.194079 1.341000 -0.023365
v -0.343479 1.341000 0.012435
v -0.343479 1.129300 0.012435
v -0.194079 1.129300 -0.023365
v -0.118479 1.341000 -0.034365
v -0.118479 1.129300 -0.034365
v -0.040479 1.341000 -0.027465
v -0.040479 1.129300 -0.027465
v -0.343479 0.917500 0.012435
v -0.194079 0.917500 -0.023365
v -0.118479 0.917500 -0.034365
v -0.040479 0.917500 -0.027465
v -0.132879 1.341000 -0.148465
v -0.281179 1.129300 -0.172765
v -0.281179 1.341000 -0.172765
v -0.132879 1.129300 -0.148465
v -0.065779 1.341000 -0.111766
v -0.065779 1.129300 -0.111765
v -0.025279 1.341000 -0.049365
v -0.025279 1.129300 -0.049365
v -0.281179 0.917500 -0.172765
v -0.132879 0.917500 -0.148465
v -0.065779 0.917500 -0.111765
v -0.025279 0.917500 -0.049365
v -0.012279 1.129300 -0.342465
v -0.012279 1.341000 -0.342465
v 0.015621 1.341000 -0.213266
v 0.015621 1.129300 -0.213265
v 0.008121 1.341000 -0.124166
v 0.008121 1.129300 -0.124165
v -0.009179 1.341000 -0.056465
v -0.009179 1.129300 -0.056465
v 0.015621 0.917500 -0.213265
v -0.012279 0.917500 -0.342465
v 0.008121 0.917500 -0.124165
v -0.009179 0.917500 -0.056465
v 0.247821 1.129300 -0.254065
v 0.247821 1.341000 -0.254066
v 0.122221 1.341000 -0.165666
v 0.122221 1.129300 -0.165666
v 0.063721 1.341000 -0.116566
v 0.063721 1.129300 -0.116565
v 0.017221 1.341000 -0.053466
v 0.017221 1.129300 -0.053465
v 0.122221 0.917500 -0.165665
v 0.247821 0.917500 -0.254065
v 0.063721 0.917500 -0.116565
v 0.017221 0.917500 -0.053465
v -0.023579 1.347200 -0.000666
v -0.019979 1.346300 -0.043766
v -0.099579 1.346400 -0.055865
v -0.327979 1.347200 -0.000665
v -0.303879 1.346300 -0.040565
v -0.330979 1.208300 -0.000665
v -0.284179 1.177500 -0.040565
v -0.307179 1.207800 -0.040565
v -0.099579 1.130000 -0.060665
v -0.053879 1.174700 -0.043765
v -0.047979 1.174700 -0.000665
v -0.047979 1.130000 -0.000665
v -0.019979 1.209200 -0.043765
v -0.053879 1.130000 -0.043765
v -0.053879 1.085300 -0.043765
v -0.309079 1.177700 -0.000665
v -0.308579 1.130000 -0.000665
v -0.283879 1.130000 -0.040565
v -0.023579 1.209700 -0.000665
v -0.023579 0.913000 -0.000665
v -0.099579 0.913600 -0.055865
v -0.019979 0.913700 -0.043765
v -0.303879 0.913700 -0.040565
v -0.327979 0.913000 -0.000665
v -0.330979 1.051700 -0.000665
v -0.307179 1.052200 -0.040565
v -0.284179 1.082500 -0.040565
v -0.047979 1.085300 -0.000665
v -0.019979 1.050900 -0.043765
v -0.309079 1.082300 -0.000665
v -0.023579 1.050500 -0.000665
v -0.258279 1.233700 0.000435
v -0.277379 1.195000 0.000435
v -0.280279 1.230300 0.005835
v -0.294579 1.258400 0.005835
v -0.262679 1.277300 0.000435
v -0.334079 1.282800 0.005835
v -0.274679 1.290000 0.000435
v -0.294179 1.203800 0.005835
v -0.277379 1.195000 0.011235
v -0.258279 1.233700 0.011235
v -0.192679 1.339700 0.008535
v -0.191279 1.340800 0.003235
v -0.141879 1.413000 0.003835
v -0.242079 1.426900 0.005835
v -0.253179 1.299100 0.011235
v -0.319079 1.398000 0.005835
v -0.267379 1.302500 0.011235
v -0.345279 1.328600 0.005835
v -0.262679 1.277300 0.011235
v -0.274679 1.290000 0.011235
v -0.267379 1.302500 0.000435
v -0.253179 1.299100 0.000435
v -0.119779 1.341000 -0.009165
vt 0.218800 0.925800
vt 0.992200 0.960900
vt 0.210900 0.960900
vt 0.992200 0.925800
vt 0.992200 0.960900
vt 0.234400 0.996100
vt 0.992200 0.996100
vt 0.210900 0.960900
vt 0.296900 0.996100
vt 0.210900 0.960900
vt 0.210900 0.960900
vt 0.453100 0.546900
vt 0.429700 0.511700
vt 0.484400 0.511700
vt 0.429700 0.511700
vt 0.484400 0.511700
vt 0.929700 0.859400
vt 0.929700 0.859400
vt 0.929700 0.859400
vt 0.929700 0.859400
vt 0.296900 0.925800
vt 0.210900 0.902300
vt 0.273400 0.855500
vt 0.210900 0.855500
vt 0.273400 0.855500
vt 0.289100 0.902300
vt 0.453100 0.918000
vt 0.289100 0.902300
vt 0.500000 0.867200
vt 0.296900 0.824200
vt 0.390600 0.824200
vt 0.390600 0.804700
vt 0.210900 0.804700
vt 0.210900 0.824200
vt 0.554700 0.722700
vt 0.500000 0.742200
vt 0.500000 0.707000
vt 0.554700 0.750000
vt 0.554700 0.750000
vt 0.500000 0.761700
vt 0.500000 0.796900
vt 0.554700 0.785200
vt 0.500000 0.742200
vt 0.500000 0.761700
vt 0.367200 0.742200
vt 0.367200 0.707000
vt 0.367200 0.761700
vt 0.367200 0.796900
vt 0.367200 0.761700
vt 0.367200 0.742200
vt 0.296900 0.707000
vt 0.296900 0.750000
vt 0.296900 0.796900
vt 0.296900 0.750000
vt 0.187500 0.996100
vt 0.015600 0.863300
vt 0.187500 0.863300
vt 0.015600 0.996100
vt 0.015600 0.996100
vt 0.187500 0.863300
vt 0.187500 0.996100
vt 0.015600 0.863300
vt 0.226600 0.668000
vt 0.218800 0.730500
vt 0.273400 0.695300
vt 0.351600 0.636700
vt 0.171900 0.707000
vt 0.156300 0.660200
vt 0.109400 0.625000
vt 0.117200 0.722700
vt 0.078100 0.671900
vt 0.023400 0.625000
vt 0.179700 0.582000
vt 0.132800 0.582000
vt 0.203100 0.507800
vt 0.226600 0.668000
vt 0.171900 0.707000
vt 0.351600 0.636700
vt 0.359400 0.668000
vt 0.156300 0.660200
vt 0.554700 0.632800
vt 0.109400 0.625000
vt 0.625000 0.632800
vt 0.640600 0.613300
vt 0.625000 0.617200
vt 0.554700 0.613300
vt 0.351600 0.597700
vt 0.632800 0.648400
vt 0.625000 0.617200
vt 0.625000 0.632800
vt 0.554700 0.632800
vt 0.554700 0.613300
vt 0.351600 0.597700
vt 0.179700 0.582000
vt 0.289100 0.507800
vt 0.250000 0.507800
vt 0.437500 0.585900
vt 0.250000 0.507800
vt 0.257800 0.468800
vt 0.234400 0.468800
vt 0.281300 0.468800
vt 0.257800 0.468800
vt 0.539100 0.660200
vt 0.554700 0.593800
vt 0.398400 0.589800
vt 0.523400 0.613300
vt 0.468800 0.578100
vt 0.398400 0.589800
vt 0.523400 0.613300
vt 0.015600 0.816400
vt 0.187500 0.816400
vt 0.187500 0.816400
vt 0.015600 0.816400
vt 0.195300 0.996100
vt 0.007800 0.804700
vt 0.195300 0.804700
vt 0.007800 0.996100
vt 0.007800 0.996100
vt 0.195300 0.804700
vt 0.195300 0.996100
vt 0.007800 0.804700
vt 0.906300 0.839800
vt 0.906300 0.835900
vt 0.906300 0.835900
vt 0.898400 0.839800
vt 0.007800 0.742200
vt 0.281300 0.796900
vt 0.281300 0.742200
vt 0.007800 0.796900
vt 0.007800 0.796900
vt 0.281300 0.742200
vt 0.007800 0.742200
vt 0.281300 0.796900
vt 0.382800 0.824200
vt 0.382800 0.804700
vt 0.296900 0.812500
vt 0.210900 0.824200
vt 0.210900 0.804700
vt 0.453100 0.918000
vt 0.601600 0.918000
vt 0.601600 0.867200
vt 0.742200 0.918000
vt 0.742200 0.867200
vt 0.500000 0.867200
vt 0.601600 0.867200
vt 0.601600 0.918000
vt 0.742200 0.867200
vt 0.742200 0.918000
vt 0.296900 0.832000
vt 0.507800 0.832000
vt 0.601600 0.832000
vt 0.210900 0.804700
vt 0.382800 0.804700
vt 0.742200 0.832000
vt 0.210900 0.824200
vt 0.382800 0.824200
vt 0.585900 0.503900
vt 0.484400 0.503900
vt 0.484400 0.375000
vt 0.585900 0.375000
vt 0.484400 0.375000
vt 0.687500 0.375000
vt 0.976600 0.503900
vt 0.976600 0.375000
vt 0.687500 0.503900
vt 0.585900 0.375000
vt 0.585900 0.503900
vt 0.484400 0.375000
vt 0.484400 0.503900
vt 0.976600 0.375000
vt 0.687500 0.375000
vt 0.585900 0.375000
vt 0.484400 0.375000
vt 0.976600 0.503900
vt 0.687500 0.375000
vt 0.976600 0.375000
vt 0.687500 0.503900
vt 0.585900 0.375000
vt 0.585900 0.503900
vt 0.484400 0.375000
vt 0.484400 0.503900
vt 0.687500 0.375000
vt 0.976600 0.375000
vt 0.585900 0.375000
vt 0.484400 0.375000
vt 0.976600 0.503900
vt 0.976600 0.375000
vt 0.687500 0.375000
vt 0.687500 0.503900
vt 0.585900 0.375000
vt 0.585900 0.503900
vt 0.484400 0.375000
vt 0.484400 0.503900
vt 0.687500 0.375000
vt 0.976600 0.375000
vt 0.585900 0.375000
vt 0.484400 0.375000
vt 0.765600 0.570300
vt 0.992200 0.570300
vt 0.765600 0.511700
vt 0.804700 0.511700
vt 0.992200 0.570300
vt 0.992200 0.511700
vt 0.808600 0.570300
vt 0.695300 0.511700
vt 0.625000 0.570300
vt 0.593800 0.351600
vt 0.992200 0.453100
vt 0.953100 0.472700
vt 0.593800 0.503900
vt 0.429700 0.351600
vt 0.500000 0.472700
vt 0.429700 0.453100
vt 0.882800 0.570300
vt 0.820300 0.511700
vt 0.882800 0.511700
vt 0.820300 0.570300
vt 0.500000 0.503900
vt 0.007800 0.222700
vt 0.007800 0.003900
vt 0.992200 0.003900
vt 0.992200 0.222700
vt 0.078100 0.265600
vt 0.914100 0.265600
vt 0.914100 0.343800
vt 0.914100 0.511700
vt 0.992200 0.570300
vt 0.992200 0.511700
vt 0.914100 0.570300
vt 0.992200 0.351600
vt 0.078100 0.343800
vt 0.812500 0.570300
vt 0.812500 0.511700
vt 0.718800 0.570300
vt 0.953100 0.503900
vt 0.953100 0.472700
vt 0.664100 0.570300
vt 0.796900 0.511700
vt 0.664100 0.511700
vt 0.796900 0.570300
vt 0.992200 0.570300
vt 0.992200 0.511700
vt 0.765600 0.570300
vt 0.765600 0.511700
vt 0.992200 0.570300
vt 0.695300 0.511700
vt 0.625000 0.570300
vt 0.804700 0.511700
vt 0.992200 0.511700
vt 0.992200 0.570300
vt 0.593800 0.351600
vt 0.992200 0.453100
vt 0.992200 0.351600
vt 0.429700 0.351600
vt 0.726600 0.507800
vt 0.726600 0.566400
vt 0.632800 0.570300
vt 0.632800 0.511700
vt 0.500000 0.472700
vt 0.007800 0.003900
vt 0.007800 0.222700
vt 0.992200 0.003900
vt 0.914100 0.265600
vt 0.078100 0.265600
vt 0.718800 0.511700
vt 0.625000 0.511700
vt 0.625000 0.570300
vt 0.808600 0.570300
vt 0.992200 0.222700
vt 0.664100 0.570300
vt 0.664100 0.511700
vt 0.796900 0.511700
vt 0.793000 0.570300
vt 0.429700 0.453100
vt 0.156300 0.535200
vt 0.093800 0.527300
vt 0.085900 0.570300
vt 0.085900 0.500000
vt 0.039100 0.546900
vt 0.085900 0.570300
vt 0.156300 0.535200
vt 0.312500 0.433600
vt 0.414100 0.386700
vt 0.312500 0.433600
vt 0.234400 0.351600
vt 0.187500 0.464800
vt 0.062500 0.359400
vt 0.148400 0.492200
vt 0.148400 0.492200
vt 0.015600 0.464800
vt 0.140600 0.468800
vt 0.140600 0.468800
vt 0.007800 0.421900
vt 0.164100 0.460900
vt 0.164100 0.460900
vt 0.187500 0.464800
vt 0.937500 0.820300
vt 0.937500 0.625000
vt 0.992200 0.625000
vt 0.875000 0.625000
vt 0.875000 0.820300
vt 0.890600 0.625000
vt 0.890600 0.820300
vt 0.992200 0.820300
vt 0.937500 0.820300
vt 0.937500 0.625000
vt 0.875000 0.625000
vt 0.992200 0.625000
vt 0.937500 0.625000
vt 0.875000 0.625000
vt 0.890600 0.625000
vt 0.937500 0.625000
vt 0.875000 0.625000
vt 0.875000 0.820300
vt 0.554700 0.511700
vt 0.609400 0.511700
vt 0.578100 0.570300
vt 0.609400 0.511700
vt 0.554700 0.511700
vt 0.554700 0.511700
vt 0.609400 0.511700
vt 0.453100 0.550800
vt 0.429700 0.511700
vt 0.484400 0.511700
vt 0.484400 0.511700
vt 0.484400 0.511700
vt 0.429700 0.511700
vt 0.429700 0.511700
vt 0.578100 0.785200
vt 0.578100 0.671900
vt 0.656300 0.671900
vt 0.656300 0.671900
vt 0.656300 0.785200
vt 0.578100 0.671900
vt 0.578100 0.785200
vt 0.656300 0.785200
vt 0.656300 0.671900
vt 0.578100 0.671900
vt 0.578100 0.671900
vt 0.656300 0.671900
vt 0.515600 0.570300
vt 0.500000 0.511700
vt 0.539100 0.511700
vt 0.500000 0.511700
vt 0.515600 0.570300
vt 0.539100 0.511700
vt 0.500000 0.511700
vt 0.500000 0.511700
vt 0.539100 0.511700
vt 0.539100 0.511700
vt 0.859400 0.656300
vt 0.671900 0.656300
vt 0.671900 0.625000
vt 0.671900 0.785200
vt 0.859400 0.785200
vt 0.671900 0.820300
vt 0.859400 0.820300
vt 0.859400 0.625000
vt 0.859400 0.656300
vt 0.671900 0.656300
vt 0.671900 0.785200
vt 0.671900 0.625000
vt 0.671900 0.656300
vt 0.671900 0.785200
vt 0.671900 0.820300
vt 0.671900 0.656300
vt 0.671900 0.785200
vt 0.859400 0.785200
vt 0.429700 0.511700
vt 0.484400 0.511700
vt 0.453100 0.570300
vt 0.429700 0.511700
vt 0.484400 0.511700
vt 0.484400 0.511700
vt 0.429700 0.511700
vt 0.453100 0.570300
vt 0.429700 0.511700
vt 0.484400 0.511700
vt 0.484400 0.511700
vt 0.484400 0.511700
vt 0.429700 0.511700
vt 0.429700 0.511700
vt 0.992200 0.617200
vt 0.687500 0.617200
vt 0.687500 0.578100
vt 0.992200 0.578100
vt 0.992200 0.617200
vt 0.687500 0.617200
vt 0.687500 0.578100
vt 0.992200 0.578100
vt 0.992200 0.578100
vt 0.687500 0.578100
vt 0.687500 0.617200
vt 0.992200 0.617200
vt 0.992200 0.578100
vt 0.687500 0.578100
vt 0.687500 0.617200
vt 0.992200 0.617200
vt 0.679700 0.371100
vt 0.984400 0.371100
vt 0.984400 0.503900
vt 0.679700 0.503900
vt 0.578100 0.371100
vt 0.578100 0.503900
vt 0.476600 0.371100
vt 0.476600 0.503900
vt 0.984400 0.371100
vt 0.679700 0.371100
vt 0.578100 0.371100
vt 0.476600 0.371100
vt 0.679700 0.371100
vt 0.984400 0.503900
vt 0.984400 0.371100
vt 0.679700 0.503900
vt 0.578100 0.371100
vt 0.578100 0.503900
vt 0.476600 0.371100
vt 0.476600 0.503900
vt 0.984400 0.371100
vt 0.679700 0.371100
vt 0.578100 0.371100
vt 0.476600 0.371100
vt 0.984400 0.503900
vt 0.984400 0.371100
vt 0.679700 0.371100
vt 0.679700 0.503900
vt 0.578100 0.371100
vt 0.578100 0.503900
vt 0.476600 0.371100
vt 0.476600 0.503900
vt 0.679700 0.371100
vt 0.984400 0.371100
vt 0.578100 0.371100
vt 0.476600 0.371100
vt 0.984400 0.503900
vt 0.984400 0.371100
vt 0.679700 0.371100
vt 0.679700 0.503900
vt 0.578100 0.371100
vt 0.578100 0.503900
vt 0.476600 0.371100
vt 0.476600 0.503900
vt 0.679700 0.371100
vt 0.984400 0.371100
vt 0.578100 0.371100
vt 0.476600 0.371100
vt 0.765600 0.511700
vt 0.992200 0.570300
vt 0.765600 0.570300
vt 0.695300 0.511700
vt 0.992200 0.570300
vt 0.804700 0.511700
vt 0.992200 0.511700
vt 0.625000 0.570300
vt 0.593800 0.351600
vt 0.953100 0.472700
vt 0.992200 0.453100
vt 0.593800 0.503900
vt 0.429700 0.351600
vt 0.500000 0.472700
vt 0.882800 0.570300
vt 0.882800 0.511700
vt 0.820300 0.511700
vt 0.992200 0.570300
vt 0.820300 0.570300
vt 0.726600 0.566400
vt 0.500000 0.503900
vt 0.500000 0.472700
vt 0.992200 0.003900
vt 0.007800 0.003900
vt 0.007800 0.222700
vt 0.914100 0.343800
vt 0.914100 0.265600
vt 0.078100 0.265600
vt 0.078100 0.343800
vt 0.992200 0.570300
vt 0.914100 0.511700
vt 0.992200 0.511700
vt 0.992200 0.351600
vt 0.808600 0.570300
vt 0.914100 0.570300
vt 0.812500 0.570300
vt 0.812500 0.511700
vt 0.953100 0.503900
vt 0.992200 0.222700
vt 0.664100 0.570300
vt 0.664100 0.511700
vt 0.796900 0.511700
vt 0.796900 0.570300
vt 0.992200 0.511700
vt 0.429700 0.453100
vt 0.765600 0.511700
vt 0.765600 0.570300
vt 0.992200 0.570300
vt 0.992200 0.570300
vt 0.992200 0.511700
vt 0.804700 0.511700
vt 0.808600 0.570300
vt 0.695300 0.511700
vt 0.625000 0.570300
vt 0.593800 0.351600
vt 0.953100 0.472700
vt 0.992200 0.453100
vt 0.429700 0.351600
vt 0.726600 0.507800
vt 0.632800 0.570300
vt 0.992200 0.003900
vt 0.007800 0.222700
vt 0.007800 0.003900
vt 0.078100 0.265600
vt 0.914100 0.265600
vt 0.625000 0.570300
vt 0.625000 0.511700
vt 0.718800 0.511700
vt 0.718800 0.570300
vt 0.992200 0.351600
vt 0.992200 0.222700
vt 0.796900 0.511700
vt 0.664100 0.511700
vt 0.664100 0.570300
vt 0.793000 0.570300
vt 0.429700 0.453100
vt 0.632800 0.511700
vt 0.156300 0.535200
vt 0.085900 0.570300
vt 0.093800 0.527300
vt 0.085900 0.500000
vt 0.148400 0.492200
vt 0.015600 0.464800
vt 0.140600 0.468800
vt 0.039100 0.546900
vt 0.085900 0.570300
vt 0.156300 0.535200
vt 0.312500 0.433600
vt 0.312500 0.433600
vt 0.414100 0.386700
vt 0.234400 0.351600
vt 0.187500 0.464800
vt 0.062500 0.359400
vt 0.164100 0.460900
vt 0.007800 0.421900
vt 0.148400 0.492200
vt 0.140600 0.468800
vt 0.164100 0.460900
vt 0.187500 0.464800
usemtl w2dbk05_TEX_w2dbk05
s 1
f 1/1 2/2 3/3
f 2/2 1/1 4/4
f 5/5 4/4 1/1
f 2/2 6/6 3/3
f 6/6 2/2 7/7
f 8/8 7/7 2/2
f 7/7 8/8 9/9
f 7/7 10/10 6/6
f 10/10 7/7 5/5
f 9/9 5/5 7/7
f 5/5 9/9 11/11
f 1/1 10/10 5/5
f 12/12 13/13 14/14
f 14/14 15/15 12/12
f 12/12 16/16 13/13
f 16/16 12/12 15/15
f 17/17 18/18 19/19
f 18/18 20/20 19/19
f 4/4 11/11 21/21
f 21/21 2/2 4/4
f 4/4 5/5 11/11
f 21/21 8/8 2/2
f 1/22 22/23 23/24
f 23/24 24/25 1/22
f 10/26 1/22 24/25
f 24/25 25/27 10/26
f 22/23 1/22 3/28
f 3/28 26/29 22/23
f 27/30 28/31 29/32
f 30/33 27/30 29/32
f 27/30 30/33 31/34
f 32/35 33/36 34/37
f 34/37 22/38 32/35
f 33/36 32/35 24/39
f 24/39 35/40 33/36
f 24/39 36/41 35/40
f 36/41 24/39 23/42
f 34/37 37/43 22/38
f 23/42 38/44 36/41
f 38/44 23/42 22/38
f 37/43 38/44 22/38
f 34/37 39/45 40/46
f 40/46 37/43 34/37
f 39/45 34/37 33/36
f 33/36 41/47 39/45
f 41/47 33/36 35/40
f 35/40 42/48 41/47
f 42/48 35/40 36/41
f 36/41 43/49 42/48
f 37/43 40/46 44/50
f 44/50 38/44 37/43
f 43/49 36/41 38/44
f 38/44 44/50 43/49
f 39/45 45/51 40/46
f 45/51 39/45 46/52
f 46/52 39/45 41/47
f 41/47 47/53 46/52
f 47/53 41/47 42/48
f 42/48 43/49 47/53
f 48/54 47/53 43/49
f 44/50 45/51 48/54
f 48/54 43/49 44/50
f 44/50 40/46 45/51
f 45/55 49/56 50/57
f 50/57 48/58 45/55
f 49/56 45/55 46/59
f 46/59 51/60 49/56
f 51/60 46/59 47/61
f 47/61 52/62 51/60
f 48/58 50/57 52/62
f 52/62 47/61 48/58
f 53/63 9/64 54/65
f 54/65 55/66 53/63
f 53/63 11/67 9/64
f 11/67 53/63 56/68
f 57/69 56/68 53/63
f 56/68 21/70 11/67
f 21/70 56/68 58/71
f 57/69 58/71 56/68
f 58/71 57/69 59/72
f 60/73 59/72 57/69
f 59/72 60/73 61/74
f 62/75 61/74 60/73
f 63/76 9/64 8/77
f 9/64 63/76 54/65
f 64/78 54/65 63/76
f 54/65 64/78 65/79
f 66/80 63/76 8/77
f 21/70 66/80 8/77
f 66/80 21/70 58/71
f 55/66 54/65 65/79
f 65/79 67/81 55/66
f 57/69 53/63 55/66
f 55/66 60/73 57/69
f 63/76 68/82 64/78
f 68/82 63/76 66/80
f 58/71 68/82 66/80
f 68/82 58/71 59/72
f 69/83 70/84 71/85
f 71/85 72/86 69/83
f 67/81 69/83 72/86
f 72/86 73/87 67/81
f 55/66 67/81 73/87
f 73/87 60/73 55/66
f 70/84 69/83 74/88
f 74/88 75/89 70/84
f 75/89 74/88 76/90
f 76/90 77/91 75/89
f 78/92 75/89 77/91
f 77/91 64/78 78/92
f 79/93 78/92 64/78
f 64/78 80/94 79/93
f 80/94 64/78 68/82
f 68/82 59/72 80/94
f 61/74 80/94 59/72
f 73/87 81/95 82/96
f 82/96 60/73 73/87
f 81/95 73/87 83/97
f 83/97 79/93 81/95
f 84/98 81/95 79/93
f 62/75 60/73 82/96
f 82/96 17/99 62/75
f 19/100 62/75 17/99
f 84/98 79/93 80/94
f 80/94 62/75 84/98
f 80/94 61/74 62/75
f 82/96 18/101 17/99
f 18/101 82/96 81/95
f 84/98 18/101 81/95
f 18/101 84/98 20/102
f 19/100 20/102 84/98
f 84/98 62/75 19/100
f 67/81 65/79 85/103
f 85/103 69/83 67/81
f 86/104 73/105 72/106
f 72/106 71/85 86/104
f 70/84 86/104 71/85
f 86/104 83/107 73/105
f 64/78 85/103 65/79
f 85/103 64/78 77/91
f 79/108 83/107 86/104
f 86/104 78/109 79/108
f 85/103 74/88 69/83
f 85/103 76/90 74/88
f 76/90 85/103 77/91
f 86/104 75/89 78/109
f 75/89 86/104 70/84
f 50/57 87/110 88/111
f 88/111 52/62 50/57
f 87/110 50/57 49/56
f 49/56 89/112 87/110
f 89/112 49/56 51/60
f 51/60 90/113 89/112
f 52/62 88/111 90/113
f 90/113 51/60 52/62
f 88/114 14/115 13/116
f 13/116 90/117 88/114
f 14/115 88/114 87/118
f 87/118 15/119 14/115
f 15/119 87/118 89/120
f 89/120 16/121 15/119
f 90/117 13/116 16/121
f 16/121 89/120 90/117
f 91/122 92/123 93/124
f 94/125 91/122 93/124
f 95/126 92/127 91/128
f 91/128 96/129 95/126
f 92/127 95/126 97/130
f 97/130 93/131 92/127
f 93/131 97/130 98/132
f 98/132 94/133 93/131
f 96/129 91/128 94/133
f 94/133 98/132 96/129
f 99/134 3/135 6/136
f 6/136 25/137 99/134
f 6/136 10/138 25/137
f 26/29 3/28 99/139
f 99/139 100/140 26/29
f 101/141 26/29 100/140
f 100/140 29/142 101/141
f 28/143 101/141 29/142
f 25/27 24/25 102/144
f 102/144 103/145 25/27
f 104/146 25/27 103/145
f 103/145 31/147 104/146
f 30/148 104/146 31/147
f 32/149 26/29 105/150
f 105/150 102/144 32/149
f 24/25 32/149 102/144
f 32/149 22/23 26/29
f 105/150 101/141 106/151
f 106/151 103/145 105/150
f 102/144 105/150 103/145
f 105/150 26/29 101/141
f 99/134 104/152 100/153
f 104/152 99/134 25/137
f 106/151 28/143 27/154
f 27/154 31/147 106/151
f 103/145 106/151 31/147
f 106/151 101/141 28/143
f 100/153 30/155 29/156
f 30/155 100/153 104/152
f 107/157 108/158 109/159
f 110/160 111/161 108/158
f 112/162 113/163 114/164
f 113/163 112/162 115/165
f 116/166 115/165 112/162
f 115/165 116/166 117/167
f 118/168 117/167 116/166
f 117/167 118/168 119/169
f 120/170 115/165 121/171
f 115/165 120/170 113/163
f 121/171 117/167 122/172
f 117/167 121/171 115/165
f 122/172 119/169 123/173
f 119/169 122/172 117/167
f 124/174 125/175 126/176
f 127/177 125/175 124/174
f 125/175 127/177 128/178
f 129/179 128/178 127/177
f 128/178 129/179 130/180
f 131/181 130/180 129/179
f 132/182 127/177 133/183
f 127/177 132/182 129/179
f 134/184 129/179 132/182
f 129/179 134/184 131/181
f 135/185 131/181 134/184
f 133/183 127/177 124/174
f 136/186 137/187 138/188
f 139/189 136/186 138/188
f 138/188 140/190 139/189
f 141/191 139/189 140/190
f 140/190 142/192 141/191
f 143/193 141/191 142/192
f 144/194 145/195 139/189
f 139/189 141/191 144/194
f 146/196 144/194 141/191
f 141/191 143/193 146/196
f 147/197 146/196 143/193
f 145/195 136/186 139/189
f 148/198 149/199 150/200
f 151/201 152/202 153/203
f 152/202 151/201 154/204
f 153/205 152/206 148/198
f 148/198 150/200 153/205
f 148/207 154/208 155/209
f 155/209 156/210 148/207
f 149/211 148/207 156/210
f 157/212 149/211 156/210
f 149/211 157/212 158/213
f 157/214 159/215 160/216
f 159/215 157/214 161/217
f 161/218 157/212 156/210
f 151/219 153/220 150/221
f 150/221 162/222 151/219
f 163/223 160/224 159/225
f 151/219 160/224 163/223
f 160/224 151/219 162/222
f 163/226 154/227 151/228
f 154/227 163/226 155/229
f 152/230 154/208 148/207
f 164/231 163/223 159/225
f 165/232 155/229 164/233
f 164/233 166/234 165/232
f 163/226 164/233 155/229
f 165/235 156/210 155/209
f 156/210 165/235 166/236
f 149/237 162/238 150/239
f 162/238 149/237 158/240
f 158/241 160/216 162/242
f 160/216 158/241 157/214
f 167/243 168/244 169/245
f 168/244 167/243 170/246
f 171/247 170/246 167/243
f 172/248 170/249 171/250
f 167/251 156/210 166/236
f 173/252 167/251 166/236
f 167/251 173/252 171/253
f 169/254 156/210 167/251
f 174/255 159/215 175/256
f 175/256 176/257 174/255
f 177/258 174/255 176/257
f 159/215 161/217 175/256
f 175/259 161/218 156/210
f 170/260 172/261 168/262
f 174/263 172/261 178/264
f 178/264 159/225 174/263
f 178/265 172/266 173/267
f 173/268 172/248 171/250
f 178/264 164/231 159/225
f 166/234 164/233 178/265
f 178/265 173/267 166/234
f 168/262 172/261 177/269
f 169/270 168/271 177/272
f 177/272 176/273 169/270
f 169/254 176/274 175/259
f 175/259 156/210 169/254
f 177/269 172/261 174/263
f 179/275 180/276 181/277
f 180/276 179/275 182/278
f 183/279 181/277 180/276
f 181/277 183/279 184/280
f 180/276 184/280 183/279
f 184/280 180/276 185/281
f 185/281 179/275 181/277
f 181/277 184/280 185/281
f 186/282 187/283 188/284
f 187/283 186/282 189/285
f 190/286 189/285 186/282
f 189/285 190/286 191/287
f 192/288 182/278 179/275
f 179/275 185/281 192/288
f 193/289 192/288 185/281
f 185/281 180/276 193/289
f 182/278 193/289 180/276
f 182/278 192/288 194/290
f 194/290 195/291 182/278
f 193/289 182/278 195/291
f 195/291 196/292 193/289
f 192/288 193/289 196/292
f 196/292 194/290 192/288
f 194/290 196/292 197/293
f 197/293 195/291 194/290
f 197/293 196/292 191/287
f 191/287 198/294 197/293
f 195/291 197/293 198/294
f 198/294 199/295 195/291
f 196/292 195/291 199/295
f 199/295 191/287 196/292
f 200/296 189/285 199/295
f 199/295 198/294 200/296
f 190/286 200/296 198/294
f 198/294 191/287 190/286
f 189/285 191/287 199/295
f 187/283 189/285 188/284
f 200/296 190/286 186/282
f 186/282 188/284 200/296
f 189/285 200/296 188/284
f 201/297 202/298 203/299
f 202/298 201/297 204/300
f 205/301 204/300 201/297
f 204/300 205/301 206/302
f 207/303 206/302 205/301
f 203/299 208/304 201/297
f 208/304 203/299 209/305
f 210/306 209/305 203/299
f 209/305 210/306 206/307
f 211/308 212/309 201/297
f 201/297 208/304 211/308
f 209/305 211/308 208/304
f 205/301 213/310 214/311
f 214/311 207/303 205/301
f 209/305 215/312 211/308
f 215/312 209/305 214/313
f 207/314 214/313 209/305
f 209/305 206/307 207/314
f 213/310 205/301 201/297
f 201/297 212/309 213/310
f 214/315 213/316 216/317
f 216/317 212/318 211/319
f 212/318 216/317 213/320
f 215/321 214/315 216/317
f 216/317 211/319 215/321
f 217/322 206/323 210/324
f 204/325 206/323 217/322
f 217/322 202/326 204/327
f 202/326 217/322 203/328
f 210/324 203/328 217/322
f 218/329 219/330 220/331
f 219/330 218/329 221/332
f 222/333 221/332 218/329
f 221/332 222/333 223/334
f 224/335 223/334 222/333
f 223/334 224/335 225/336
f 220/331 225/336 218/329
f 225/336 220/331 223/334
f 226/337 227/338 218/329
f 218/329 225/336 226/337
f 228/339 226/337 225/336
f 225/336 224/335 228/339
f 229/340 228/339 224/335
f 224/335 222/333 229/340
f 218/329 229/340 222/333
f 229/340 218/329 227/338
f 230/341 231/342 232/343
f 233/344 230/341 232/343
f 234/345 235/346 236/347
f 237/348 235/346 234/345
f 234/345 238/349 237/348
f 239/350 231/342 230/341
f 233/344 239/350 230/341
f 238/349 234/345 236/347
f 240/351 241/352 242/353
f 241/352 240/351 243/354
f 244/355 243/354 240/351
f 243/354 244/355 245/356
f 246/357 245/356 244/355
f 242/353 247/358 240/351
f 247/358 242/353 248/359
f 249/360 248/359 242/353
f 248/359 249/360 245/361
f 250/362 251/363 240/351
f 240/351 247/358 250/362
f 248/359 250/362 247/358
f 244/355 252/364 253/365
f 253/365 246/357 244/355
f 248/359 254/366 250/362
f 254/366 248/359 253/367
f 246/368 253/367 248/359
f 248/359 245/361 246/368
f 252/364 244/355 240/351
f 240/351 251/363 252/364
f 253/369 252/370 255/371
f 255/371 252/372 251/373
f 254/374 253/369 255/371
f 255/371 250/375 254/374
f 256/376 245/377 249/378
f 243/379 245/377 256/376
f 256/376 241/380 243/381
f 241/380 256/376 242/382
f 249/378 242/382 256/376
f 236/383 220/384 219/385
f 219/385 238/386 236/383
f 237/387 221/388 223/389
f 223/389 235/390 237/387
f 235/390 223/389 220/384
f 220/384 236/383 235/390
f 238/386 219/385 221/388
f 221/388 237/387 238/386
f 232/391 227/392 226/393
f 226/393 233/394 232/391
f 239/395 228/396 229/397
f 229/397 231/398 239/395
f 228/396 233/394 226/393
f 233/394 228/396 239/395
f 227/392 231/398 229/397
f 231/398 227/392 232/391
f 250/375 255/371 251/373
f 257/399 258/400 259/401
f 259/401 260/402 257/399
f 261/403 257/399 260/402
f 260/402 262/404 261/403
f 263/405 261/403 262/404
f 262/404 264/406 263/405
f 265/407 266/408 260/402
f 260/402 259/401 265/407
f 266/408 267/409 262/404
f 262/404 260/402 266/408
f 267/409 268/410 264/406
f 264/406 262/404 267/409
f 269/411 270/412 271/413
f 270/412 269/411 272/414
f 273/415 272/414 269/411
f 272/414 273/415 274/416
f 275/417 274/416 273/415
f 274/416 275/417 276/418
f 277/419 272/414 278/420
f 272/414 277/419 270/412
f 278/420 274/416 279/421
f 274/416 278/420 272/414
f 279/421 276/418 280/422
f 276/418 279/421 274/416
f 281/423 282/424 283/425
f 284/426 281/423 283/425
f 283/425 285/427 284/426
f 286/428 284/426 285/427
f 285/427 287/429 286/428
f 288/430 286/428 287/429
f 289/431 290/432 284/426
f 284/426 286/428 289/431
f 291/433 289/431 286/428
f 286/428 288/430 291/433
f 292/434 291/433 288/430
f 290/432 281/423 284/426
f 293/435 294/436 295/437
f 296/438 293/435 295/437
f 295/437 297/439 296/438
f 298/440 296/438 297/439
f 297/439 299/441 298/440
f 300/442 298/440 299/441
f 301/443 302/444 296/438
f 296/438 298/440 301/443
f 303/445 301/443 298/440
f 298/440 300/442 303/445
f 304/446 303/445 300/442
f 302/444 293/435 296/438
f 305/447 306/448 307/449
f 307/449 308/450 305/447
f 309/451 310/452 308/453
f 309/454 308/450 307/449
f 307/455 311/456 312/457
f 311/456 307/455 313/458
f 306/459 313/458 307/455
f 313/458 306/459 314/460
f 314/461 315/462 316/463
f 315/462 314/461 317/464
f 316/463 318/465 314/461
f 318/465 316/463 319/466
f 313/458 314/460 318/467
f 318/467 319/468 313/458
f 305/469 308/470 310/471
f 316/472 315/473 320/474
f 320/474 321/475 316/472
f 315/473 310/471 320/474
f 312/476 320/477 310/478
f 307/455 312/457 309/479
f 309/451 312/480 310/452
f 311/481 322/482 321/483
f 321/483 320/477 311/481
f 312/476 311/481 320/477
f 313/458 322/484 311/456
f 323/485 305/469 310/471
f 306/486 305/487 323/488
f 323/488 317/489 306/486
f 315/473 323/485 310/471
f 315/462 317/464 323/490
f 306/459 317/491 314/460
f 324/492 325/493 326/494
f 327/495 328/496 329/497
f 329/497 330/498 327/495
f 325/493 328/499 327/500
f 328/499 325/493 324/492
f 313/458 325/501 331/502
f 331/502 322/484 313/458
f 325/501 330/503 331/502
f 313/458 326/504 325/501
f 326/504 313/458 319/468
f 332/505 319/466 316/463
f 319/466 332/505 333/506
f 324/507 329/508 328/509
f 334/510 329/508 332/511
f 316/472 334/510 332/511
f 330/512 329/513 334/514
f 334/514 331/515 330/512
f 325/501 327/516 330/503
f 316/472 321/475 334/510
f 331/515 334/514 321/483
f 321/483 322/482 331/515
f 335/517 329/508 324/507
f 335/518 324/519 326/520
f 326/520 333/521 335/518
f 333/522 326/504 319/468
f 332/511 329/508 335/517
f 332/505 335/523 333/506
f 336/524 337/525 338/526
f 338/526 339/527 336/524
f 340/528 336/524 339/527
f 339/527 341/529 340/528
f 342/530 340/528 341/529
f 343/531 338/526 337/525
f 337/525 344/532 343/531
f 338/526 343/531 344/532
f 345/533 338/526 344/532
f 344/532 337/525 345/533
f 336/524 345/533 337/525
f 346/534 347/535 348/536
f 348/536 349/537 346/534
f 350/538 346/534 349/537
f 349/537 351/539 350/538
f 352/540 350/538 351/539
f 351/539 353/541 352/540
f 345/533 354/542 338/526
f 354/542 345/533 340/528
f 339/527 338/526 354/542
f 354/542 355/543 339/527
f 341/529 339/527 355/543
f 345/533 336/524 340/528
f 354/542 340/528 342/530
f 355/543 354/542 342/530
f 342/530 356/544 355/543
f 352/540 355/543 356/544
f 356/544 357/545 352/540
f 350/538 352/540 357/545
f 342/530 341/529 353/541
f 353/541 351/539 342/530
f 356/544 342/530 351/539
f 351/539 349/537 356/544
f 357/545 356/544 349/537
f 349/537 347/535 357/545
f 346/534 357/545 347/535
f 355/543 353/541 341/529
f 352/540 353/541 355/543
f 347/535 349/537 348/536
f 346/534 350/538 357/545
