# Blender MTL File: 'None'
# Material Count: 10

newmtl w2dfnx2l_TEX_w2dfnx2
Ns 94.117647
Ka 1.000000 1.000000 1.000000
Kd 1.000000 1.000000 1.000000
Ks 0.000000 0.000000 0.000000
Ke 0.000000 0.000000 0.000000
Ni 1.500000
d 1.000000
illum 2
map_Kd minecraft:items/w2dfnx2
map_Ka minecraft:items/w2dfnx2

newmtl w2dfnx2l_TEX_w2dfnx2_001
Ns 94.117647
Ka 1.000000 1.000000 1.000000
Kd 1.000000 1.000000 1.000000
Ks 0.000000 0.000000 0.000000
Ke 0.000000 0.000000 0.000000
Ni 1.500000
d 1.000000
illum 2
map_Kd minecraft:items/w2dfnx2
map_Ka minecraft:items/w2dfnx2

newmtl w2dfnx2l_TEX_w2dfnx2_002
Ns 94.117647
Ka 1.000000 1.000000 1.000000
Kd 1.000000 1.000000 1.000000
Ks 0.000000 0.000000 0.000000
Ke 0.000000 0.000000 0.000000
Ni 1.500000
d 1.000000
illum 2
map_Kd minecraft:items/w2dfnx2
map_Ka minecraft:items/w2dfnx2

newmtl w2dfnx2l_TEX_w2dfnx2_003
Ns 94.117647
Ka 1.000000 1.000000 1.000000
Kd 1.000000 1.000000 1.000000
Ks 0.000000 0.000000 0.000000
Ke 0.000000 0.000000 0.000000
Ni 1.500000
d 1.000000
illum 2
map_Kd minecraft:items/w2dfnx2
map_Ka minecraft:items/w2dfnx2

newmtl w2dfnx2l_TEX_w2dfnx2_004
Ns 94.117647
Ka 1.000000 1.000000 1.000000
Kd 1.000000 1.000000 1.000000
Ks 0.000000 0.000000 0.000000
Ke 0.000000 0.000000 0.000000
Ni 1.500000
d 1.000000
illum 2
map_Kd minecraft:items/w2dfnx2
map_Ka minecraft:items/w2dfnx2

newmtl w2dfnx2l_TEX_w2dfnx2_1
Ns 94.117647
Ka 1.000000 1.000000 1.000000
Kd 1.000000 1.000000 1.000000
Ks 0.000000 0.000000 0.000000
Ke 0.000000 0.000000 0.000000
Ni 1.500000
d 1.000000
illum 2
map_Kd minecraft:items/w2dfnx2_1
map_Ka minecraft:items/w2dfnx2_1

newmtl w2dfnx2l_TEX_w2dfnx2_1_001
Ns 94.117647
Ka 1.000000 1.000000 1.000000
Kd 1.000000 1.000000 1.000000
Ks 0.000000 0.000000 0.000000
Ke 0.000000 0.000000 0.000000
Ni 1.500000
d 1.000000
illum 2
map_Kd minecraft:items/w2dfnx2_1
map_Ka minecraft:items/w2dfnx2_1

newmtl w2dfnx2l_TEX_w2dfnx2_1_002
Ns 94.117647
Ka 1.000000 1.000000 1.000000
Kd 1.000000 1.000000 1.000000
Ks 0.000000 0.000000 0.000000
Ke 0.000000 0.000000 0.000000
Ni 1.500000
d 1.000000
illum 2
map_Kd minecraft:items/w2dfnx2_1
map_Ka minecraft:items/w2dfnx2_1

newmtl w2dfnx2l_TEX_w2dfnx2_1_003
Ns 94.117647
Ka 1.000000 1.000000 1.000000
Kd 1.000000 1.000000 1.000000
Ks 0.000000 0.000000 0.000000
Ke 0.000000 0.000000 0.000000
Ni 1.500000
d 1.000000
illum 2
map_Kd minecraft:items/w2dfnx2_1
map_Ka minecraft:items/w2dfnx2_1

newmtl w2dfnx2l_TEX_w2dfnx2_1_004
Ns 94.117647
Ka 1.000000 1.000000 1.000000
Kd 1.000000 1.000000 1.000000
Ks 0.000000 0.000000 0.000000
Ke 0.000000 0.000000 0.000000
Ni 1.500000
d 1.000000
illum 2
map_Kd minecraft:items/w2dfnx2_1
map_Ka minecraft:items/w2dfnx2_1
