# Blender MTL File: 'None'
# Material Count: 5

newmtl w2dfn01l_TEX_w2dfn01l
Ns 94.117647
Ka 1.000000 1.000000 1.000000
Kd 1.000000 1.000000 1.000000
Ks 0.000000 0.000000 0.000000
Ke 0.000000 0.000000 0.000000
Ni 1.500000
d 1.000000
illum 2
map_Kd minecraft:items/w2dfn01l
map_Ka minecraft:items/w2dfn01l

newmtl w2dfn01l_TEX_w2dfn01l_001
Ns 94.117647
Ka 1.000000 1.000000 1.000000
Kd 1.000000 1.000000 1.000000
Ks 0.000000 0.000000 0.000000
Ke 0.000000 0.000000 0.000000
Ni 1.500000
d 1.000000
illum 2
map_Kd minecraft:items/w2dfn01l
map_Ka minecraft:items/w2dfn01l

newmtl w2dfn01l_TEX_w2dfn01l_002
Ns 94.117647
Ka 1.000000 1.000000 1.000000
Kd 1.000000 1.000000 1.000000
Ks 0.000000 0.000000 0.000000
Ke 0.000000 0.000000 0.000000
Ni 1.500000
d 1.000000
illum 2
map_Kd minecraft:items/w2dfn01l
map_Ka minecraft:items/w2dfn01l

newmtl w2dfn01l_TEX_w2dfn01l_003
Ns 94.117647
Ka 1.000000 1.000000 1.000000
Kd 1.000000 1.000000 1.000000
Ks 0.000000 0.000000 0.000000
Ke 0.000000 0.000000 0.000000
Ni 1.500000
d 1.000000
illum 2
map_Kd minecraft:items/w2dfn01l
map_Ka minecraft:items/w2dfn01l

newmtl w2dfn01l_TEX_w2dfn01l_004
Ns 94.117647
Ka 1.000000 1.000000 1.000000
Kd 1.000000 1.000000 1.000000
Ks 0.000000 0.000000 0.000000
Ke 0.000000 0.000000 0.000000
Ni 1.500000
d 1.000000
illum 2
map_Kd minecraft:items/w2dfn01l
map_Ka minecraft:items/w2dfn01l
