# Blender v2.79 (sub 0) OBJ File: ''
# www.blender.org
mtllib w2dfnx1l.mtl
o MDL_w2dfnx1l_bld01_003
v -0.002000 -0.021000 0.023600
v -0.002000 0.110100 0.062800
v -0.000200 0.137700 0.042100
v -0.002000 0.103700 0.108000
v -0.002000 0.140300 0.091200
v -0.000200 0.002700 -0.031400
v -0.000200 0.188800 0.100100
v -0.000200 0.158400 0.061900
v 0.001900 0.346700 0.319700
v -0.000200 0.382000 0.288100
v -0.000200 0.458400 0.394000
v -0.000200 0.338900 0.278700
v -0.000200 0.226700 0.178600
v 0.001900 0.103700 0.108000
v 0.001900 -0.021000 0.023600
v 0.001900 0.110100 0.062800
v 0.001900 0.140300 0.091200
v 0.001900 0.147100 0.211700
v -0.002000 0.147100 0.211700
v -0.002000 0.346700 0.319700
v 0.000000 0.017600 0.290100
v 0.000000 0.525000 0.909200
v 0.000000 0.242500 0.160200
vt 1.000000 1.000000
vt 0.531300 0.000000
vt 0.000000 1.000000
vt 0.671900 0.996100
vt 0.578100 0.730500
vt 0.468800 0.710900
vt 0.718800 0.718800
vt 0.601600 0.687500
vt 0.421900 0.996100
vt 0.554700 0.605500
vt 0.500000 0.675800
vt 0.953100 0.207000
vt 0.796900 0.183600
vt 0.976600 0.003900
vt 0.820300 0.273400
vt 0.734400 0.492200
vt 0.718800 0.718800
vt 0.671900 0.996100
vt 0.578100 0.730500
vt 0.601600 0.687500
vt 0.992200 0.585900
vt 0.945300 0.734400
vt 0.992200 0.734400
vt 0.945300 0.585900
vt 0.992200 0.207000
vt 0.953100 0.207000
vt 0.992200 0.996100
vt 0.945300 0.996100
vt 0.945300 0.585900
vn -1.0000 0.0000 0.0000
vn -0.9570 -0.1684 0.2361
vn -0.8172 0.5421 -0.1960
vn -0.0011 0.7411 0.6714
vn -0.7954 -0.4616 0.3928
vn -0.7954 -0.4615 0.3929
vn -0.9246 -0.0296 -0.3798
vn -0.0011 0.7412 0.6713
vn -0.0025 0.4782 -0.8783
vn 0.9769 0.2126 0.0193
vn -0.0005 -0.7834 -0.6215
vn 0.8195 -0.2848 0.4973
vn -0.0038 0.5153 -0.8570
vn -0.0002 -0.5273 0.8497
vn -0.9689 0.1144 -0.2192
vn -0.0173 0.7362 -0.6765
vn -0.9689 0.1145 -0.2192
vn 0.8195 -0.2849 0.4973
vn 0.9021 -0.3224 0.2869
vn 0.8454 -0.3054 0.4382
vn 0.9167 0.3996 -0.0003
vn 0.8258 0.1656 -0.5391
vn 0.8258 0.1657 -0.5392
vn 0.7344 -0.5535 0.3927
vn -0.7366 -0.4455 0.5088
vn -0.7366 -0.4456 0.5088
vn 0.8195 -0.2849 0.4972
vn -0.8492 -0.2727 0.4521
vn -0.7954 -0.4615 0.3928
vn 0.9021 -0.3224 0.2870
vn 0.8454 -0.3055 0.4382
vn -0.9570 -0.1684 0.2362
vn -0.8493 -0.2727 0.4521
vn -0.0003 -0.5273 0.8497
vn -0.0002 -0.5274 0.8496
vn -0.9689 0.1144 -0.2193
vn 0.9770 0.2126 0.0193
usemtl w2dfnx1l_TEX_w2dfnx1_1_003
s 1
f 21/1/1 22/2/1 23/3/1
usemtl w2dfnx1l_TEX_w2dfnx1_003
f 1/4/2 2/5/3 3/6/4
f 2/5/3 1/4/2 4/7/5
f 4/7/6 5/8/7 2/5/3
f 1/4/2 3/6/8 6/9/9
f 7/10/10 8/11/11 5/8/7
f 9/12/12 10/13/13 11/14/14
f 10/13/13 9/12/12 12/15/15
f 13/16/16 12/15/17 9/12/18
f 14/17/19 15/18/20 16/19/21
f 14/17/19 16/19/21 17/20/22
f 15/18/20 6/9/9 3/6/4
f 15/18/20 3/6/4 16/19/21
f 7/10/10 17/20/23 8/11/11
f 18/21/24 4/22/6 14/23/19
f 4/22/5 18/21/24 19/24/25
f 9/25/18 19/24/25 18/21/24
f 19/24/26 9/25/27 20/26/28
f 4/22/29 15/27/20 14/23/30
f 15/27/31 4/22/5 1/28/32
f 16/19/21 3/6/4 2/5/3
f 2/5/3 17/20/22 16/19/21
f 17/20/23 2/5/3 5/8/7
f 5/8/7 8/11/11 17/20/23
f 19/24/25 12/15/17 13/16/16
f 13/16/16 4/7/5 19/24/25
f 19/24/25 20/26/33 12/15/17
f 9/25/27 11/14/34 20/26/33
f 20/26/33 11/14/35 10/13/13
f 20/26/33 10/13/13 12/15/36
f 13/16/16 9/12/18 18/29/24
f 18/29/24 7/10/37 13/16/16
f 7/10/10 5/8/7 4/7/5
f 14/17/30 17/20/22 7/10/37
f 13/16/16 7/10/37 4/7/5
f 18/29/24 14/17/30 7/10/37
o MDL_w2dfnx1l_bld01_001
v -0.002000 -0.031200 0.004600
v -0.002000 0.044000 0.118900
v -0.000200 0.078400 0.120700
v -0.002000 0.010000 0.149400
v -0.002000 0.048800 0.160000
v -0.000200 0.022200 -0.022300
v -0.000200 0.080300 0.198000
v -0.000200 0.081500 0.149200
v 0.001900 0.060100 0.467800
v -0.000200 0.107400 0.466200
v -0.000200 0.097900 0.596400
v -0.000200 0.080500 0.431300
v -0.000200 0.058900 0.282500
v 0.001900 0.010000 0.149400
v 0.001900 -0.031200 0.004600
v 0.001900 0.044000 0.118900
v 0.001900 0.048800 0.160000
v 0.001900 -0.023400 0.256700
v -0.002000 -0.023400 0.256700
v -0.002000 0.060100 0.467800
v 0.000000 -0.173000 0.233600
v 0.000000 -0.182300 1.033900
v 0.000000 0.082800 0.278600
vt 0.671900 0.996100
vt 0.578100 0.730500
vt 0.468800 0.710900
vt 0.718800 0.718800
vt 0.601600 0.687500
vt 0.421900 0.996100
vt 0.554700 0.605500
vt 0.500000 0.675800
vt 0.953100 0.207000
vt 0.796900 0.183600
vt 0.976600 0.003900
vt 0.820300 0.273400
vt 0.734400 0.492200
vt 0.718800 0.718800
vt 0.671900 0.996100
vt 0.578100 0.730500
vt 0.601600 0.687500
vt 0.992200 0.585900
vt 0.945300 0.734400
vt 0.992200 0.734400
vt 0.945300 0.585900
vt 0.992200 0.207000
vt 0.953100 0.207000
vt 0.992200 0.996100
vt 0.945300 0.996100
vt 0.945300 0.585900
vt 1.000000 1.000000
vt 0.531300 0.000000
vt 0.000000 1.000000
vn -0.9570 -0.2808 0.0725
vn -0.8167 0.5417 0.1991
vn -0.0010 0.1388 0.9903
vn -0.7954 -0.6061 0.0041
vn -0.9247 0.2217 -0.3095
vn -0.8167 0.5416 0.1992
vn -0.0010 0.1387 0.9903
vn -0.0025 0.9307 -0.3658
vn 0.9770 0.1506 0.1512
vn -0.0007 -0.2004 -0.9797
vn 0.8195 -0.5378 0.1979
vn -0.0038 0.9460 -0.3243
vn -0.0003 -0.9500 0.3121
vn -0.9690 0.2284 -0.0942
vn -0.0173 0.9988 -0.0450
vn 0.9021 -0.4314 0.0125
vn 0.8454 -0.5157 0.1391
vn 0.9163 0.3070 0.2572
vn 0.8259 0.4737 -0.3057
vn 0.9770 0.1506 0.1511
vn 0.7344 -0.6765 -0.0550
vn 0.9021 -0.4314 0.0124
vn 0.7344 -0.6764 -0.0550
vn -0.7366 -0.6684 0.1034
vn -0.7366 -0.6683 0.1035
vn -0.8493 -0.4995 0.1711
vn -0.8492 -0.4995 0.1711
vn -0.0003 -0.9501 0.3121
vn -0.8492 -0.4995 0.1710
vn -0.8493 -0.4995 0.1710
vn -0.0003 -0.9501 0.3120
vn -0.0038 0.9459 -0.3243
vn 0.9770 0.1505 0.1511
vn -1.0000 0.0000 0.0000
usemtl w2dfnx1l_TEX_w2dfnx1_001
s 1
f 24/30/38 25/31/39 26/32/40
f 25/31/39 24/30/38 27/33/41
f 27/33/41 28/34/42 25/31/43
f 24/30/38 26/32/44 29/35/45
f 30/36/46 31/37/47 28/34/42
f 32/38/48 33/39/49 34/40/50
f 33/39/49 32/38/48 35/41/51
f 36/42/52 35/41/51 32/38/48
f 37/43/53 38/44/54 39/45/55
f 37/43/53 39/45/55 40/46/56
f 38/44/54 29/35/45 26/32/40
f 38/44/54 26/32/40 39/45/55
f 30/36/57 40/46/56 31/37/47
f 41/47/58 27/48/41 37/49/59
f 27/48/41 41/47/60 42/50/61
f 32/51/48 42/50/61 41/47/60
f 42/50/62 32/51/48 43/52/63
f 27/48/41 38/53/54 37/49/53
f 38/53/54 27/48/41 24/54/38
f 39/45/55 26/32/40 25/31/39
f 25/31/39 40/46/56 39/45/55
f 40/46/56 25/31/43 28/34/42
f 28/34/42 31/37/47 40/46/56
f 42/50/61 35/41/51 36/42/52
f 36/42/52 27/33/41 42/50/61
f 42/50/61 43/52/64 35/41/51
f 32/51/48 34/40/65 43/52/66
f 43/52/67 34/40/68 33/39/69
f 43/52/63 33/39/69 35/41/51
f 36/42/52 32/38/48 41/55/60
f 41/55/60 30/36/57 36/42/52
f 30/36/70 28/34/42 27/33/41
f 37/43/53 40/46/56 30/36/46
f 36/42/52 30/36/57 27/33/41
f 41/55/60 37/43/53 30/36/57
usemtl w2dfnx1l_TEX_w2dfnx1_1_001
f 44/56/71 45/57/71 46/58/71
o MDL_w2dfnx1l_bld01_002
v -0.002000 0.019600 0.024800
v -0.002000 0.081000 -0.097500
v -0.000200 0.065300 -0.128300
v -0.002000 0.124400 -0.083400
v -0.002000 0.114200 -0.122300
v -0.000200 -0.030500 -0.008100
v -0.000200 0.131300 -0.168500
v -0.000200 0.088500 -0.145200
v 0.001900 0.375000 -0.285900
v -0.000200 0.350100 -0.326200
v -0.000200 0.467600 -0.383000
v -0.000200 0.333300 -0.285400
v -0.000200 0.215200 -0.192200
v 0.001900 0.124400 -0.083400
v 0.001900 0.019600 0.024800
v 0.001900 0.081000 -0.097500
v 0.001900 0.114200 -0.122300
v 0.001900 0.234000 -0.108100
v -0.002000 0.234000 -0.108100
v -0.002000 0.375000 -0.285900
v 0.000000 0.288800 0.033000
v 0.000000 0.986600 -0.359100
v 0.000000 0.199900 -0.211000
vt 1.000000 1.000000
vt 0.531300 0.000000
vt 0.000000 1.000000
vt 0.671900 0.996100
vt 0.578100 0.730500
vt 0.468800 0.710900
vt 0.718800 0.718800
vt 0.601600 0.687500
vt 0.421900 0.996100
vt 0.554700 0.605500
vt 0.500000 0.675800
vt 0.953100 0.207000
vt 0.796900 0.183600
vt 0.976600 0.003900
vt 0.820300 0.273400
vt 0.734400 0.492200
vt 0.718800 0.718800
vt 0.671900 0.996100
vt 0.578100 0.730500
vt 0.601600 0.687500
vt 0.992200 0.585900
vt 0.945300 0.734400
vt 0.992200 0.734400
vt 0.945300 0.585900
vt 0.992200 0.207000
vt 0.953100 0.207000
vt 0.992200 0.996100
vt 0.945300 0.996100
vt 0.945300 0.585900
vn -1.0000 0.0000 0.0000
vn -0.9570 0.2034 0.2069
vn -0.8169 -0.0991 -0.5682
vn -0.0010 0.7886 -0.6149
vn -0.7954 0.3067 0.5228
vn -0.9246 -0.3792 -0.0368
vn -0.0025 -0.7820 -0.6232
vn 0.9769 0.0561 -0.2062
vn -0.0005 -0.7481 0.6636
vn 0.8195 0.4402 0.3669
vn -0.0038 -0.7541 -0.6567
vn -0.0002 0.7451 0.6670
vn -0.9690 -0.1960 -0.1508
vn -0.0173 -0.5385 -0.8425
vn -0.9689 -0.1960 -0.1508
vn 0.9021 0.2267 0.3673
vn 0.8454 0.3786 0.3768
vn 0.9165 0.0689 -0.3941
vn 0.8258 -0.5022 -0.2567
vn 0.8454 0.3786 0.3769
vn 0.8258 -0.5021 -0.2568
vn 0.7344 0.2905 0.6133
vn -0.7954 0.3068 0.5227
vn 0.7344 0.2906 0.6133
vn -0.7366 0.4237 0.5271
vn -0.8493 0.3979 0.3471
vn 0.9021 0.2266 0.3673
vn -0.7954 0.3067 0.5227
vn -0.8493 0.3978 0.3471
vn -0.0003 0.7450 0.6670
vn -0.0002 0.7450 0.6671
vn -0.0038 -0.7540 -0.6568
vn -0.0038 -0.7541 -0.6568
vn 0.9769 0.0560 -0.2062
vn 0.8258 -0.5022 -0.2568
usemtl w2dfnx1l_TEX_w2dfnx1_1_002
s 1
f 67/59/72 68/60/72 69/61/72
usemtl w2dfnx1l_TEX_w2dfnx1_002
f 47/62/73 48/63/74 49/64/75
f 48/63/74 47/62/73 50/65/76
f 50/65/76 51/66/77 48/63/74
f 47/62/73 49/64/75 52/67/78
f 53/68/79 54/69/80 51/66/77
f 55/70/81 56/71/82 57/72/83
f 56/71/82 55/70/81 58/73/84
f 59/74/85 58/73/86 55/70/81
f 60/75/87 61/76/88 62/77/89
f 60/75/87 62/77/89 63/78/90
f 61/76/91 52/67/78 49/64/75
f 61/76/91 49/64/75 62/77/89
f 53/68/79 63/78/92 54/69/80
f 64/79/93 50/80/94 60/81/87
f 50/80/76 64/79/95 65/82/96
f 55/83/81 65/82/96 64/79/95
f 65/82/96 55/83/81 66/84/97
f 50/80/76 61/85/91 60/81/98
f 61/85/88 50/80/99 47/86/73
f 62/77/89 49/64/75 48/63/74
f 48/63/74 63/78/90 62/77/89
f 63/78/92 48/63/74 51/66/77
f 51/66/77 54/69/80 63/78/92
f 65/82/96 58/73/86 59/74/85
f 59/74/85 50/65/76 65/82/96
f 65/82/96 66/84/100 58/73/86
f 55/83/81 57/72/101 66/84/100
f 66/84/100 57/72/102 56/71/103
f 66/84/100 56/71/104 58/73/86
f 59/74/85 55/70/81 64/87/95
f 64/87/95 53/68/105 59/74/85
f 53/68/79 51/66/77 50/65/76
f 60/75/98 63/78/106 53/68/79
f 59/74/85 53/68/105 50/65/76
f 64/87/95 60/75/98 53/68/105
o MDL_w2dfnx1l_bod00.001
v -0.013000 0.129100 0.025900
v -0.013000 0.170000 0.030000
v -0.013000 0.210000 0.000000
v -0.013000 0.185900 -0.089800
v -0.013000 0.102800 -0.071900
v -0.013000 0.128700 -0.026900
v -0.013000 0.136300 -0.095900
v -0.013000 0.102000 -0.072700
v -0.013000 0.125900 -0.106100
v -0.013000 0.120000 -0.155800
v -0.013000 0.185900 0.090000
v -0.013000 0.102800 0.072000
v -0.013000 0.136300 0.095900
v -0.013000 0.128700 0.027000
v -0.013000 0.057000 0.098800
v -0.013000 0.074100 0.136300
v -0.013000 0.120000 0.155900
v -0.013000 0.170000 -0.030000
v -0.013000 0.129100 -0.025900
v -0.013000 0.166300 -0.043900
v -0.013000 0.074100 -0.136100
v -0.013000 0.057000 -0.098600
v -0.013000 0.102000 0.072800
v -0.013000 0.125900 0.106300
v -0.013000 0.166300 0.044100
v -0.011900 0.058000 -0.093100
v -0.011900 0.063100 -0.131900
v -0.011900 0.035900 -0.170800
v -0.010900 -0.033300 -0.149400
v -0.010900 -0.026400 -0.073000
v -0.010900 0.016700 -0.091300
v -0.010900 -0.044100 -0.105500
v -0.009800 -0.081200 -0.096700
v -0.010000 -0.045200 -0.037000
v -0.010000 -0.017200 -0.069200
v -0.009800 -0.072700 -0.056700
v -0.011900 0.006100 -0.133900
v -0.011900 0.008600 -0.094800
v -0.010900 0.005600 -0.126700
v -0.010000 -0.040500 -0.093800
v -0.011900 0.058000 0.093100
v -0.011900 0.035900 0.170900
v -0.011900 0.063100 0.131900
v -0.011900 0.008600 0.094800
v -0.010900 0.016700 0.091300
v -0.010900 -0.033300 0.149400
v -0.010900 -0.026400 0.073000
v -0.010900 0.005600 0.126700
v -0.010000 -0.017200 0.069400
v -0.009800 -0.081200 0.096900
v -0.010000 -0.045200 0.037200
v -0.010000 -0.040500 0.093900
v -0.011900 0.006100 0.133900
v -0.010900 -0.044100 0.105600
v -0.009800 -0.072700 0.056700
v -0.013900 0.030000 0.110000
v -0.013900 0.107800 0.077800
v -0.030000 0.030000 0.000000
v -0.013900 0.140000 0.000000
v -0.013900 0.107800 -0.077700
v -0.013900 0.030000 -0.109800
v -0.013900 -0.047700 -0.077700
v -0.013900 -0.080000 -0.000000
v -0.013900 -0.047700 0.077800
v 0.013000 0.129100 0.025900
v 0.013000 0.210000 0.000000
v 0.013000 0.170000 0.030000
v 0.013000 0.129100 -0.025900
v 0.013000 0.128700 -0.026900
v 0.013000 0.185900 -0.089800
v 0.013000 0.102800 -0.071900
v 0.013000 0.166300 -0.043900
v 0.013000 0.102000 -0.072700
v 0.013000 0.120000 -0.155800
v 0.013000 0.125900 -0.106100
v 0.013000 0.057000 -0.098600
v 0.013000 0.102800 0.072000
v 0.013000 0.185900 0.090000
v 0.013000 0.136300 0.095900
v 0.013000 0.057000 0.098800
v 0.013000 0.120000 0.155900
v 0.013000 0.074100 0.136300
v 0.013000 0.170000 -0.030000
v 0.013000 0.136300 -0.095900
v 0.013000 0.074100 -0.136100
v 0.013000 0.102000 0.072800
v 0.013000 0.125900 0.106300
v 0.013000 0.128700 0.027000
v 0.013000 0.166300 0.044100
v 0.012000 0.058000 -0.093100
v 0.012000 0.035900 -0.170800
v 0.012000 0.063100 -0.131900
v 0.012000 0.008600 -0.094800
v 0.010900 0.016700 -0.091300
v 0.010900 -0.033300 -0.149400
v 0.010900 -0.026400 -0.073000
v 0.010900 0.005600 -0.126700
v 0.010000 -0.017200 -0.069200
v 0.010000 -0.081200 -0.096700
v 0.010000 -0.045200 -0.037000
v 0.010000 -0.040500 -0.093800
v 0.012000 0.006100 -0.133900
v 0.010900 -0.044100 -0.105500
v 0.010000 -0.072700 -0.056700
v 0.012000 0.058000 0.093100
v 0.012000 0.063100 0.131900
v 0.012000 0.035900 0.170900
v 0.010900 -0.033300 0.149400
v 0.010900 -0.026400 0.073000
v 0.010900 0.016700 0.091300
v 0.010900 -0.044100 0.105600
v 0.010000 -0.081200 0.096900
v 0.010000 -0.045200 0.037200
v 0.010000 -0.017200 0.069400
v 0.010000 -0.072700 0.056700
v 0.012000 0.006100 0.133900
v 0.012000 0.008600 0.094800
v 0.010900 0.005600 0.126700
v 0.010000 -0.040500 0.093900
v 0.014100 0.107800 0.077800
v 0.030000 0.030000 0.000000
v 0.014100 0.030000 0.110000
v 0.014100 0.140000 0.000000
v 0.014100 0.107800 -0.077700
v 0.014100 0.030000 -0.109800
v 0.014100 -0.047700 -0.077700
v 0.014100 -0.080000 -0.000000
v 0.014100 -0.047700 0.077800
v -0.003300 -0.105000 -0.000000
v 0.009500 0.000300 0.011300
v -0.003300 0.000300 0.000000
v 0.009500 -0.105000 0.011300
v 0.009500 0.000300 -0.011300
v 0.009500 -0.105000 -0.011300
vt 0.398400 0.996100
vt 0.398400 0.886700
vt 0.203100 0.785200
vt 0.203100 0.785200
vt 0.007800 0.996100
vt 0.398400 0.996100
vt 0.007800 0.882800
vt 0.398400 0.996100
vt 0.398400 0.886700
vt 0.203100 0.785200
vt 0.203100 0.785200
vt 0.398400 0.996100
vt 0.398400 0.886700
vt 0.007800 0.996100
vt 0.398400 0.996100
vt 0.398400 0.886700
vt 0.203100 0.785200
vt 0.007800 0.882800
vt 0.007800 0.996100
vt 0.398400 0.886700
vt 0.007800 0.882800
vt 0.007800 0.996100
vt 0.007800 0.996100
vt 0.007800 0.882800
vt 0.007800 0.882800
vt 0.398400 0.996100
vt 0.398400 0.886700
vt 0.203100 0.785200
vt 0.203100 0.785200
vt 0.007800 0.996100
vt 0.398400 0.996100
vt 0.007800 0.882800
vt 0.203100 0.785200
vt 0.007800 0.996100
vt 0.398400 0.996100
vt 0.007800 0.882800
vt 0.007800 0.882800
vt 0.007800 0.996100
vt 0.398400 0.886700
vt 0.398400 0.886700
vt 0.007800 0.996100
vt 0.203100 0.785200
vt 0.007800 0.882800
vt 0.398400 0.996100
vt 0.007800 0.996100
vt 0.398400 0.996100
vt 0.203100 0.785200
vt 0.007800 0.882800
vt 0.007800 0.996100
vt 0.398400 0.996100
vt 0.203100 0.785200
vt 0.007800 0.882800
vt 0.398400 0.886700
vt 0.398400 0.886700
vt 0.398400 0.886700
vt 0.093800 0.269500
vt 0.250000 0.066400
vt 0.632800 0.269500
vt 0.632800 0.003900
vt 0.632800 0.535200
vt 0.250000 0.460900
vt 0.093800 0.269500
vt 0.250000 0.066400
vt 0.632800 0.003900
vt 0.632800 0.535200
vt 0.250000 0.460900
vt 0.398400 0.996100
vt 0.203100 0.785200
vt 0.398400 0.886700
vt 0.007800 0.996100
vt 0.398400 0.996100
vt 0.007800 0.996100
vt 0.203100 0.785200
vt 0.398400 0.886700
vt 0.398400 0.996100
vt 0.203100 0.785200
vt 0.398400 0.886700
vt 0.007800 0.996100
vt 0.398400 0.996100
vt 0.203100 0.785200
vt 0.398400 0.886700
vt 0.398400 0.996100
vt 0.203100 0.785200
vt 0.398400 0.886700
vt 0.007800 0.882800
vt 0.007800 0.882800
vt 0.007800 0.882800
vt 0.007800 0.996100
vt 0.007800 0.882800
vt 0.007800 0.996100
vt 0.007800 0.882800
vt 0.398400 0.996100
vt 0.203100 0.785200
vt 0.398400 0.886700
vt 0.007800 0.996100
vt 0.398400 0.996100
vt 0.007800 0.996100
vt 0.203100 0.785200
vt 0.398400 0.886700
vt 0.398400 0.996100
vt 0.007800 0.996100
vt 0.203100 0.785200
vt 0.398400 0.886700
vt 0.007800 0.882800
vt 0.007800 0.882800
vt 0.007800 0.882800
vt 0.007800 0.996100
vt 0.007800 0.882800
vt 0.203100 0.785200
vt 0.203100 0.785200
vt 0.398400 0.996100
vt 0.007800 0.996100
vt 0.398400 0.886700
vt 0.203100 0.785200
vt 0.398400 0.996100
vt 0.007800 0.996100
vt 0.398400 0.886700
vt 0.398400 0.886700
vt 0.398400 0.996100
vt 0.007800 0.882800
vt 0.007800 0.882800
vt 0.250000 0.066400
vt 0.093800 0.269500
vt 0.632800 0.269500
vt 0.632800 0.003900
vt 0.250000 0.460900
vt 0.632800 0.535200
vt 0.093800 0.269500
vt 0.250000 0.066400
vt 0.632800 0.003900
vt 0.250000 0.460900
vt 0.632800 0.535200
vt 0.109400 0.773400
vt 0.203100 0.453100
vt 0.109400 0.453100
vt 0.203100 0.773400
vt 0.007800 0.453100
vt 0.007800 0.773400
vt 0.226600 0.773400
vt 0.375000 0.773400
vt 0.304700 0.699200
vn -1.0000 -0.0000 0.0000
vn -1.0000 -0.0054 0.0017
vn -1.0000 -0.0054 -0.0001
vn -1.0000 -0.0037 0.0014
vn -1.0000 -0.0086 0.0018
vn -1.0000 -0.0053 0.0050
vn -1.0000 -0.0038 -0.0015
vn -1.0000 -0.0054 0.0001
vn -1.0000 -0.0054 -0.0016
vn -1.0000 -0.0053 -0.0050
vn -1.0000 -0.0086 -0.0018
vn -0.9895 -0.0001 0.1448
vn -0.9895 0.1024 0.1024
vn -1.0000 -0.0000 -0.0001
vn -0.9895 0.1448 -0.0001
vn -0.9895 0.1448 -0.0000
vn -0.9894 0.1024 -0.1025
vn -0.9894 0.1023 -0.1026
vn -0.9894 -0.0000 -0.1451
vn -0.9894 -0.1024 -0.1026
vn -0.9894 -0.1024 -0.1027
vn -0.9895 -0.1448 -0.0000
vn -0.9895 -0.1448 -0.0001
vn -0.9894 -0.1024 0.1025
vn -0.9895 -0.0000 0.1448
vn 1.0000 0.0000 0.0000
vn 0.9897 0.1011 0.1011
vn 0.9897 -0.0000 0.1431
vn 1.0000 0.0000 -0.0001
vn 0.9897 0.1431 -0.0000
vn 0.9897 0.1011 -0.1013
vn 0.9897 0.1431 -0.0001
vn 0.9897 -0.0000 -0.1433
vn 0.9897 -0.1012 -0.1014
vn 0.9897 -0.1431 -0.0001
vn 0.9897 -0.1012 0.1012
vn 0.9897 -0.1431 -0.0000
vn -0.8463 -0.4262 0.3195
vn -0.2110 -0.0000 0.9775
vn -0.9355 -0.0000 -0.3532
vn 0.7308 -0.5461 0.4095
vn 0.7308 -0.5461 0.4094
vn 0.8724 -0.0000 -0.4887
vn -0.1767 -0.5461 -0.8189
vn -0.1768 -0.5461 -0.8188
vn 0.8724 -0.0000 -0.4888
vn -0.8463 -0.4263 0.3195
usemtl w2dfnx1l_TEX_w2dfnx1
s 1
f 70/88/107 71/89/107 72/90/107
f 73/91/107 74/92/107 75/93/107
f 74/92/107 73/91/107 76/94/107
f 77/95/107 78/96/107 79/97/107
f 80/98/107 81/99/107 82/100/107
f 81/99/107 80/98/107 83/101/107
f 84/102/107 85/103/107 86/104/107
f 72/90/107 87/105/107 88/106/107
f 70/88/107 72/90/107 88/106/107
f 75/93/107 89/107/107 73/91/107
f 79/97/107 90/108/107 91/109/107
f 77/95/107 79/97/107 91/109/107
f 92/110/107 86/104/107 93/111/107
f 86/104/107 92/110/107 84/102/107
f 80/98/107 94/112/107 83/101/107
f 95/113/107 96/114/107 97/115/107
f 98/116/107 99/117/107 100/118/107
f 99/117/107 98/116/107 101/119/107
f 102/120/108 103/121/109 104/122/110
f 103/121/109 102/120/108 105/123/111
f 97/115/107 106/124/107 107/125/107
f 95/113/107 97/115/107 107/125/107
f 100/118/107 108/126/107 98/116/107
f 104/122/110 109/127/112 102/120/108
f 110/128/107 111/129/107 112/130/107
f 111/129/107 110/128/107 113/131/107
f 114/132/107 116/133/107 115/134/107
f 115/134/107 117/135/107 114/132/107
f 118/136/113 120/137/114 119/138/115
f 119/138/115 121/139/116 118/136/113
f 111/129/107 113/131/107 122/140/107
f 115/134/107 116/133/107 123/141/107
f 119/138/115 120/137/114 124/142/117
f 125/143/118 126/144/119 127/145/120
f 126/144/119 128/146/121 127/145/120
f 128/147/122 129/148/123 127/145/120
f 129/148/124 130/149/125 127/145/120
f 130/149/125 131/150/126 127/145/120
f 131/150/127 132/151/128 127/145/120
f 132/152/129 133/153/130 127/145/120
f 133/153/130 125/143/131 127/145/120
f 134/154/132 135/155/132 136/156/132
f 135/155/132 134/154/132 137/157/132
f 138/158/132 140/159/132 139/160/132
f 139/160/132 141/161/132 138/158/132
f 142/162/132 143/163/132 144/164/132
f 143/163/132 142/162/132 145/165/132
f 146/166/132 147/167/132 148/168/132
f 149/169/132 150/170/132 151/171/132
f 135/155/132 137/157/132 152/172/132
f 139/160/132 140/159/132 153/173/132
f 143/163/132 145/165/132 154/174/132
f 150/170/132 155/175/132 156/176/132
f 155/175/132 150/170/132 149/169/132
f 147/167/132 146/166/132 157/177/132
f 147/167/132 157/177/132 158/178/132
f 159/179/132 160/180/132 161/181/132
f 160/180/132 159/179/132 162/182/132
f 163/183/132 165/184/132 164/185/132
f 164/185/132 166/186/132 163/183/132
f 167/187/132 169/188/132 168/189/132
f 168/189/132 170/190/132 167/187/132
f 160/180/132 162/182/132 171/191/132
f 164/185/132 165/184/132 172/192/132
f 168/189/132 169/188/132 173/193/132
f 174/194/132 175/195/132 176/196/132
f 177/197/132 178/198/132 179/199/132
f 178/198/132 177/197/132 180/200/132
f 181/201/132 182/202/132 183/203/132
f 182/202/132 181/201/132 184/204/132
f 176/196/132 185/205/132 186/206/132
f 174/194/132 176/196/132 186/206/132
f 179/199/132 187/207/132 177/197/132
f 183/203/132 188/208/132 181/201/132
f 189/209/133 191/210/134 190/211/135
f 190/211/135 192/212/136 189/209/133
f 193/213/137 192/214/138 190/211/135
f 190/211/135 194/215/139 193/213/137
f 195/216/140 194/215/139 190/211/135
f 190/211/135 196/217/141 195/216/140
f 197/218/142 196/219/143 190/211/135
f 190/211/135 191/210/134 197/218/142
f 198/220/144 199/221/145 200/222/146
f 199/221/145 198/220/144 201/223/147
f 201/223/148 202/224/149 199/221/145
f 202/224/149 201/223/148 203/225/150
f 203/225/151 200/222/146 202/224/152
f 200/222/146 203/225/151 198/220/153
f 203/226/151 201/227/148 198/228/153
o MDL_w2dfnx1l_bld01_004
v -0.006000 -0.001300 0.031000
v -0.000900 0.124900 -0.021400
v 0.005200 0.133200 -0.054400
v -0.006100 0.148700 0.017300
v -0.001700 0.166300 -0.018700
v 0.003400 -0.017800 -0.025800
v 0.002600 0.209400 -0.042200
v 0.004500 0.161700 -0.052300
v -0.007400 0.470800 0.027000
v -0.003600 0.478000 -0.019700
v -0.009400 0.604200 0.013400
v -0.005600 0.438700 0.000200
v -0.003000 0.288500 -0.005800
v -0.002200 0.148700 0.017800
v -0.002100 -0.001300 0.031500
v 0.003000 0.125000 -0.020900
v 0.002200 0.166300 -0.018200
v -0.010100 0.247900 0.069900
v -0.014000 0.247900 0.069400
v -0.011300 0.470700 0.026500
v -0.029500 0.197400 0.211300
v -0.059000 0.982100 0.366500
v 0.000200 0.289100 -0.029800
vt 1.000000 1.000000
vt 0.000000 1.000000
vt 0.531300 0.000000
vt 0.671900 0.996100
vt 0.578100 0.730500
vt 0.468800 0.710900
vt 0.718800 0.718800
vt 0.601600 0.687500
vt 0.421900 0.996100
vt 0.554700 0.605500
vt 0.500000 0.675800
vt 0.953100 0.207000
vt 0.796900 0.183600
vt 0.976600 0.003900
vt 0.820300 0.273400
vt 0.734400 0.492200
vt 0.718800 0.718800
vt 0.671900 0.996100
vt 0.578100 0.730500
vt 0.601600 0.687500
vt 0.992200 0.585900
vt 0.945300 0.734400
vt 0.992200 0.734400
vt 0.945300 0.585900
vt 0.992200 0.207000
vt 0.953100 0.207000
vt 0.992200 0.996100
vt 0.945300 0.996100
vt 0.945300 0.585900
vn 0.9919 0.0122 0.1268
vn -0.9865 0.0064 0.1638
vn -0.7522 0.2832 -0.5950
vn -0.0324 0.9985 0.0447
vn -0.8637 -0.1177 0.4900
vn -0.8796 -0.2740 -0.3890
vn -0.0324 0.9985 0.0446
vn 0.1261 -0.1860 -0.9744
vn 0.9818 0.1897 0.0042
vn -0.0029 -0.9999 0.0155
vn 0.7391 0.1049 0.6654
vn 0.1253 -0.1434 -0.9817
vn -0.1292 0.1302 0.9830
vn -0.9291 -0.0635 -0.3643
vn 0.1083 0.1446 -0.9836
vn -0.9292 -0.0636 -0.3642
vn 0.8412 -0.0569 0.5377
vn 0.7699 0.0517 0.6361
vn 0.9372 0.3213 -0.1356
vn 0.8870 -0.2046 -0.4140
vn 0.7699 0.0518 0.6361
vn 0.1261 -0.1861 -0.9744
vn 0.9818 0.1898 0.0042
vn 0.6462 -0.1707 0.7438
vn -0.8172 -0.0314 0.5754
vn -0.9105 0.0640 0.4085
vn 0.8412 -0.0569 0.5376
vn -0.9105 0.0641 0.4085
vn 0.7391 0.1050 0.6654
vn -0.1293 0.1302 0.9830
vn 0.1253 -0.1435 -0.9817
vn -0.9291 -0.0635 -0.3642
vn 0.9818 0.1898 0.0041
vn 0.9818 0.1897 0.0041
usemtl w2dfnx1l_TEX_w2dfnx1_1_004
s 1
f 224/229/154 226/230/154 225/231/154
usemtl w2dfnx1l_TEX_w2dfnx1_004
f 204/232/155 205/233/156 206/234/157
f 205/233/156 204/232/155 207/235/158
f 207/235/158 208/236/159 205/233/156
f 204/232/155 206/234/160 209/237/161
f 210/238/162 211/239/163 208/236/159
f 212/240/164 213/241/165 214/242/166
f 213/241/165 212/240/164 215/243/167
f 216/244/168 215/243/169 212/240/164
f 217/245/170 218/246/171 219/247/172
f 217/245/170 219/247/172 220/248/173
f 218/246/174 209/237/175 206/234/160
f 218/246/171 206/234/157 219/247/172
f 210/238/176 220/248/173 211/239/163
f 221/249/177 207/250/158 217/251/170
f 207/250/158 221/249/177 222/252/178
f 212/253/164 222/252/178 221/249/177
f 222/252/178 212/253/164 223/254/179
f 207/250/158 218/255/174 217/251/180
f 218/255/171 207/250/158 204/256/155
f 219/247/172 206/234/157 205/233/156
f 205/233/156 220/248/173 219/247/172
f 220/248/173 205/233/156 208/236/159
f 208/236/159 211/239/163 220/248/173
f 222/252/178 215/243/169 216/244/168
f 216/244/168 207/235/158 222/252/178
f 222/252/178 223/254/181 215/243/169
f 212/253/182 214/242/183 223/254/181
f 223/254/181 214/242/183 213/241/184
f 223/254/179 213/241/165 215/243/185
f 216/244/168 212/240/164 221/257/177
f 221/257/177 210/238/162 216/244/168
f 210/238/186 208/236/159 207/235/158
f 217/245/180 220/248/173 210/238/187
f 216/244/168 210/238/162 207/235/158
f 221/257/177 217/245/170 210/238/162
o MDL_w2dfnx1l_bld01.005
v -0.002000 0.030900 0.006400
v -0.002000 -0.000700 -0.126700
v -0.000200 -0.032400 -0.140300
v -0.002000 0.041700 -0.143800
v -0.002000 0.008800 -0.167100
v -0.000200 -0.028500 0.013400
v -0.000200 -0.007700 -0.213500
v -0.000200 -0.025600 -0.168100
v 0.001900 0.103500 -0.460100
v -0.000200 0.058500 -0.474900
v -0.000200 0.112000 -0.593900
v -0.000200 0.071900 -0.432800
v -0.000200 0.041300 -0.285600
v 0.001900 0.041700 -0.143800
v 0.001900 0.030900 0.006400
v 0.001900 -0.000700 -0.126700
v 0.001900 0.008800 -0.167100
v 0.001900 0.109800 -0.233200
v -0.002000 0.109800 -0.233200
v -0.002000 0.103500 -0.460100
v 0.000000 0.242500 -0.160300
v 0.000000 0.524900 -0.909200
v 0.000000 0.017500 -0.290100
vt 0.671900 0.996100
vt 0.578100 0.730500
vt 0.468800 0.710900
vt 0.718800 0.718800
vt 0.601600 0.687500
vt 0.421900 0.996100
vt 0.554700 0.605500
vt 0.500000 0.675800
vt 0.953100 0.207000
vt 0.796900 0.183600
vt 0.976600 0.003900
vt 0.820300 0.273400
vt 0.734400 0.492200
vt 0.718800 0.718800
vt 0.671900 0.996100
vt 0.578100 0.730500
vt 0.601600 0.687500
vt 0.992200 0.585900
vt 0.945300 0.734400
vt 0.992200 0.734400
vt 0.945300 0.585900
vt 0.992200 0.207000
vt 0.953100 0.207000
vt 0.992200 0.996100
vt 0.945300 0.996100
vt 0.945300 0.585900
vt 1.000000 1.000000
vt 0.531300 0.000000
vt 0.000000 1.000000
vn -0.9570 0.2887 0.0279
vn -0.8174 -0.4405 -0.3713
vn -0.0010 0.2122 -0.9772
vn -0.7954 0.5709 0.2034
vn -0.9246 -0.3140 0.2156
vn -0.0010 0.2123 -0.9772
vn -0.0025 -0.9997 0.0253
vn 0.9769 -0.0898 -0.1939
vn -0.0005 -0.1459 0.9893
vn 0.8195 0.5731 -0.0020
vn -0.0038 -0.9998 -0.0182
vn -0.0002 0.9995 0.0320
vn -0.9689 -0.2472 0.0105
vn -0.0174 -0.9540 -0.2992
vn -0.9689 -0.2471 0.0104
vn 0.8195 0.5730 -0.0020
vn 0.9021 0.4097 0.1358
vn 0.8454 0.5321 0.0456
vn 0.9168 -0.1997 -0.3458
vn 0.8258 -0.5496 0.1262
vn 0.8454 0.5321 0.0457
vn 0.7344 0.6168 0.2831
vn -0.7954 0.5709 0.2035
vn 0.7345 0.6168 0.2831
vn -0.7366 0.6634 0.1314
vn -0.8493 0.5279 0.0101
vn 0.9021 0.4097 0.1359
vn -0.0003 0.9995 0.0319
vn -0.8493 0.5279 0.0102
vn -0.0002 0.9995 0.0319
vn -0.0038 -0.9998 -0.0183
vn 0.9769 -0.0897 -0.1939
vn -0.7954 0.5710 0.2034
vn 0.9021 0.4096 0.1358
vn -1.0000 0.0000 0.0000
usemtl w2dfnx1l_TEX_w2dfnx1
s 1
f 227/258/188 228/259/189 229/260/190
f 228/259/189 227/258/188 230/261/191
f 230/261/191 231/262/192 228/259/189
f 227/258/188 229/260/193 232/263/194
f 233/264/195 234/265/196 231/262/192
f 235/266/197 236/267/198 237/268/199
f 236/267/198 235/266/197 238/269/200
f 239/270/201 238/269/202 235/266/203
f 240/271/204 241/272/205 242/273/206
f 240/271/204 242/273/206 243/274/207
f 241/272/208 232/263/194 229/260/190
f 241/272/208 229/260/190 242/273/206
f 233/264/195 243/274/207 234/265/196
f 244/275/209 230/276/210 240/277/204
f 230/276/210 244/275/211 245/278/212
f 235/279/203 245/278/212 244/275/211
f 245/278/212 235/279/203 246/280/213
f 230/276/210 241/281/205 240/277/214
f 241/281/208 230/276/191 227/282/188
f 242/273/206 229/260/190 228/259/189
f 228/259/189 243/274/207 242/273/206
f 243/274/207 228/259/189 231/262/192
f 231/262/192 234/265/196 243/274/207
f 245/278/212 238/269/202 239/270/201
f 239/270/201 230/261/210 245/278/212
f 245/278/212 246/280/213 238/269/202
f 235/279/197 237/268/215 246/280/216
f 246/280/213 237/268/217 236/267/198
f 246/280/213 236/267/218 238/269/200
f 239/270/201 235/266/203 244/283/211
f 244/283/211 233/264/219 239/270/201
f 233/264/195 231/262/192 230/261/220
f 240/271/204 243/274/207 233/264/195
f 239/270/201 233/264/219 230/261/210
f 244/283/211 240/271/221 233/264/219
usemtl w2dfnx1l_TEX_w2dfnx1_1
f 247/284/222 248/285/222 249/286/222
