# Blender v2.79 (sub 0) OBJ File: ''
# www.blender.org
mtllib w2dgn02.mtl
o MDL_w2dgn02l_bod00
v 0.021100 -0.105300 -0.122800
v -0.020900 -0.045500 -0.117300
v 0.021100 -0.045500 -0.117300
v -0.020900 -0.105300 -0.122800
v 0.021100 -0.149800 -0.109800
v -0.020900 -0.149800 -0.109800
v 0.021100 -0.061700 -0.055900
v -0.020900 -0.037300 -0.046300
v -0.020900 -0.061700 -0.055900
v 0.021100 -0.037300 -0.046300
v 0.021100 -0.095800 -0.051900
v -0.020900 -0.095800 -0.051900
v 0.021100 -0.122300 -0.038300
v -0.020900 -0.122300 -0.038300
v -0.020900 -0.138600 -0.075300
v -0.020900 -0.005600 -0.097500
v -0.020900 0.009400 -0.092300
v -0.021400 -0.016400 -0.032200
v -0.021400 0.022200 -0.075000
v -0.021400 -0.003000 -0.028100
v 0.021100 -0.138600 -0.075300
v 0.021100 -0.005600 -0.097500
v -0.020900 0.032500 -0.090600
v 0.021100 0.023000 -0.098300
v -0.020900 0.023000 -0.098300
v 0.021100 0.032500 -0.090600
v 0.021100 0.022200 -0.075000
v 0.021100 -0.034400 -0.030200
v -0.020900 -0.039100 -0.033800
v 0.021100 -0.039100 -0.033800
v -0.020900 -0.034400 -0.030200
v 0.021100 -0.016400 -0.032200
v 0.021100 0.009400 -0.092300
v 0.021100 -0.027700 -0.025300
v -0.020900 -0.027700 -0.025300
v -0.021400 -0.032500 -0.015000
v 0.021100 -0.032500 -0.015000
v -0.021400 -0.033400 -0.000900
v 0.021100 -0.033400 -0.000900
v -0.021400 -0.025000 0.016100
v 0.021100 -0.025000 0.016100
v -0.021400 -0.008900 0.023000
v 0.021100 -0.008900 0.023000
v -0.021400 0.003700 0.014400
v 0.021100 0.003700 0.014400
v 0.021100 0.009400 -0.002300
v 0.021100 0.061300 -0.028600
v -0.021400 0.069200 0.001900
v 0.021100 0.069200 0.001900
v -0.021400 0.061300 -0.028600
v 0.021100 0.042200 -0.056700
v -0.021400 0.042200 -0.056700
v -0.021400 0.009400 -0.002300
v 0.021100 0.006600 -0.016700
v -0.021400 0.006600 -0.016700
v 0.021100 -0.003000 -0.028100
v -0.021400 0.042000 0.033400
v -0.021400 -0.014700 0.033600
v 0.021100 0.042000 0.033400
v 0.021100 -0.014700 0.033600
v 0.021100 -0.019400 0.040800
v -0.021400 -0.019400 0.040800
v -0.021400 -0.019400 0.193700
v -0.021400 0.042000 0.193700
v 0.021100 -0.019400 0.193700
v 0.021100 -0.019400 0.346700
v -0.021400 -0.019400 0.346700
v 0.021100 0.103600 0.033400
v -0.021400 0.103600 0.033400
v 0.021100 0.103600 0.193700
v -0.021400 0.103600 0.016600
v 0.021100 0.103600 0.346700
v -0.021400 0.103600 0.193700
v -0.021400 0.103600 0.346700
v -0.021400 0.080900 0.013100
v -0.021400 0.042000 0.346700
v 0.021100 0.042000 0.346700
v 0.021100 0.042000 0.193700
v 0.021100 0.080900 0.013100
v 0.021100 0.103600 0.016600
v -0.021400 -0.031700 0.020600
v 0.021100 -0.031700 0.020600
v -0.021400 -0.040300 0.001200
v 0.021100 -0.040300 0.001200
v -0.021400 -0.039500 -0.016600
v 0.021100 -0.039500 -0.016600
v 0.009400 -0.002700 -0.018600
v -0.009200 0.000000 -0.010200
v -0.009200 -0.002700 -0.018600
v 0.009400 -0.010600 -0.023600
v 0.009400 0.000000 -0.010200
v -0.009200 -0.010600 -0.023600
v 0.009400 -0.021300 -0.023300
v -0.009200 -0.021300 -0.023300
v -0.009200 0.011300 -0.010800
v -0.009200 0.006100 -0.024400
v -0.009200 -0.009700 -0.034500
v -0.009200 -0.027500 -0.033100
v 0.009400 -0.027500 -0.033100
v 0.009400 -0.009700 -0.034500
v 0.009400 0.006100 -0.024400
v 0.009400 0.011300 -0.010800
v -0.009200 -0.035900 -0.009500
v 0.009400 -0.035900 -0.009500
vt 0.351600 0.843800
vt 0.453100 0.812500
vt 0.351600 0.812500
vt 0.453100 0.843800
vt 0.351600 0.890600
vt 0.453100 0.890600
vt 0.507800 0.929700
vt 0.468800 0.992200
vt 0.507800 0.992200
vt 0.468800 0.929700
vt 0.585900 0.929700
vt 0.539100 0.992200
vt 0.585900 0.992200
vt 0.625000 0.929700
vt 0.539100 0.929700
vt 0.625000 0.992200
vt 0.992200 0.835900
vt 0.789100 0.968800
vt 0.984400 0.984400
vt 0.859400 0.687500
vt 0.984400 0.679700
vt 0.718800 0.656300
vt 0.648400 0.585900
vt 0.468800 0.734400
vt 0.585900 0.875000
vt 0.406300 0.695300
vt 0.593800 0.500000
vt 0.375000 0.617200
vt 0.546900 0.468800
vt 0.546900 0.914100
vt 0.593800 0.992200
vt 0.593800 0.914100
vt 0.546900 0.992200
vt 0.593800 0.914100
vt 0.593800 0.992200
vt 0.789100 0.968800
vt 0.992200 0.835900
vt 0.984400 0.984400
vt 0.859400 0.687500
vt 0.718800 0.656300
vt 0.984400 0.679700
vt 0.585900 0.875000
vt 0.468800 0.734400
vt 0.648400 0.585900
vt 0.859400 0.570300
vt 0.992200 0.617200
vt 0.859400 0.617200
vt 0.992200 0.570300
vt 0.859400 0.460900
vt 0.992200 0.460900
vt 0.765600 0.515600
vt 0.679700 0.531300
vt 0.765600 0.531300
vt 0.656300 0.515600
vt 0.375000 0.617200
vt 0.593800 0.500000
vt 0.406300 0.695300
vt 0.359400 0.695300
vt 0.335900 0.648400
vt 0.765600 0.578100
vt 0.335900 0.648400
vt 0.359400 0.695300
vt 0.656300 0.515600
vt 0.632800 0.484400
vt 0.679700 0.531300
vt 0.500000 0.937500
vt 0.476600 0.992200
vt 0.476600 0.937500
vt 0.500000 0.992200
vt 0.523400 0.937500
vt 0.523400 0.992200
vt 0.570300 0.937500
vt 0.570300 0.992200
vt 0.632800 0.937500
vt 0.632800 0.992200
vt 0.656300 0.937500
vt 0.656300 0.992200
vt 0.601600 0.937500
vt 0.601600 0.992200
vt 0.546900 0.992200
vt 0.632800 0.484400
vt 0.453100 0.750000
vt 0.351600 0.765600
vt 0.453100 0.765600
vt 0.351600 0.750000
vt 0.453100 0.734400
vt 0.351600 0.734400
vt 0.351600 0.789100
vt 0.453100 0.789100
vt 0.828100 0.007800
vt 0.757800 0.179700
vt 0.757800 0.007800
vt 0.828100 0.179700
vt 0.898400 0.007800
vt 0.898400 0.179700
vt 0.992200 0.007800
vt 0.992200 0.179700
vt 0.546900 0.937500
vt 0.523400 0.992200
vt 0.523400 0.937500
vt 0.500000 0.992200
vt 0.500000 0.937500
vt 0.062500 0.781300
vt 0.054700 0.843800
vt 0.171900 0.992200
vt 0.296900 0.867200
vt 1 0.992200
vt 1 0.875000
vt 0.984400 0.945300
vt 0.078100 0.726600
vt 0.304700 0.734400
vt 0.304700 0.648400
vt 0.078100 0.648400
vt 0.328100 0.507800
vt 0.546900 0.468800
vt 0.328100 0.507800
vt 0.078100 0.726600
vt 0.304700 0.648400
vt 0.304700 0.734400
vt 0.062500 0.781300
vt 0.078100 0.648400
vt 0.296900 0.867200
vt 0.171900 0.992200
vt 0.992200 0.179700
vt 0.992200 0.445300
vt 0.953100 0.179700
vt 0.953100 0.179700
vt 0.390600 0.179700
vt 0.390600 0.445300
vt 0.992200 0.445300
vt 0.992200 0.179700
vt 0.054700 0.843800
vt 0.539100 0.007800
vt 0.007800 0.179700
vt 0.007800 0.007800
vt 0.539100 0.179700
vt 0.242200 0.007800
vt 0.242200 0.179700
vt 0.414100 0.007800
vt 0.414100 0.179700
vt 0.289100 0.007800
vt 0.609400 0.179700
vt 0.218800 0.007800
vt 0.289100 0.179700
vt 0.218800 0.179700
vt 0.429700 0.929700
vt 0.429700 0.992200
vt 0.343800 0.906300
vt 0.218800 0.445300
vt 0.218800 0.179700
vt 0.390600 0.179700
vt 0.195300 0.445300
vt 0.023400 0.195300
vt 0.195300 0.195300
vt 0.023400 0.445300
vt 0.195300 0.195300
vt 0.023400 0.195300
vt 0.390600 0.179700
vt 0.218800 0.445300
vt 0.390600 0.445300
vt 0.218800 0.179700
vt 0.218800 0.179700
vt 0.390600 0.179700
vt 0.992200 0.179700
vt 0.687500 0.007800
vt 0.609400 0.007800
vt 0.687500 0.179700
vt 0.015600 0.875000
vt 0.343800 0.906300
vt 1 0.875000
vt 1 0.992200
vt 0.984400 0.945300
vt 0.476600 0.937500
vt 0.492200 0.992200
vt 0.492200 0.937500
vt 0.476600 0.992200
vt 0.992200 0.234400
vt 0.882800 0.179700
vt 0.882800 0.234400
vt 0.945300 0.179700
vt 0.945300 0.179700
vt 0.882800 0.234400
vt 0.882800 0.179700
vt 0.992200 0.234400
vt 0.531300 0.992200
vt 0.531300 0.937500
vt 0.812500 0.179700
vt 0.812500 0.234400
vt 0.812500 0.234400
vt 0.812500 0.179700
vt 0.585900 0.992200
vt 0.585900 0.937500
vt 0.859400 0.179700
vt 0.859400 0.234400
vt 0.859400 0.234400
vt 0.859400 0.179700
vt 0.632800 0.992200
vt 0.632800 0.937500
vt 0.992200 0.179700
vt 0.992200 0.234400
vt 0.992200 0.234400
vt 0.992200 0.179700
vt 0.671900 0.992200
vt 0.671900 0.937500
vt 0.992200 0.179700
vt 0.015600 0.875000
vt 0.429700 0.929700
vt 0.429700 0.992200
vt 0.039100 0.460900
vt 0.015600 0.539100
vt 0.039100 0.539100
vt 0.078100 0.460900
vt 0.015600 0.460900
vt 0.078100 0.539100
vt 0.132800 0.460900
vt 0.132800 0.539100
vt 0.148400 0.593800
vt 0.187500 0.460900
vt 0.148400 0.460900
vt 0.109400 0.593800
vt 0.187500 0.593800
vt 0.109400 0.460900
vt 0.062500 0.585900
vt 0.054700 0.460900
vt 0.109400 0.593800
vt 0.054700 0.460900
vt 0.109400 0.460900
vt 0.148400 0.593800
vt 0.062500 0.585900
vt 0.148400 0.460900
vt 0.187500 0.593800
vt 0.187500 0.460900
vt 0.195300 0.593800
vt 0.226600 0.460900
vt 0.195300 0.460900
vt 0.226600 0.593800
vt 0.187500 0.539100
vt 0.187500 0.460900
vt 0.007800 0.570300
vt 0.007800 0.570300
vn 0.8045 -0.0196 -0.5936
vn -0.7124 0.1491 -0.6857
vn 0.5605 0.2748 -0.7812
vn -0.7127 -0.1115 -0.6926
vn 0.4124 -0.6234 -0.6643
vn -0.4124 -0.9000 -0.1411
vn 0.8077 -0.1243 0.5764
vn -0.8447 -0.4652 0.2647
vn -0.7166 -0.0318 0.6968
vn 0.9542 -0.2588 0.1504
vn 0.7121 0.1637 0.6827
vn -0.8041 0.2070 0.5573
vn 0.3424 -0.3141 0.8855
vn -0.5891 -0.2701 0.7616
vn -0.7075 -0.6560 0.2630
vn -0.7077 0.2870 -0.6455
vn -0.8670 0.0385 -0.4969
vn -0.9395 0.0273 0.3416
vn -0.8621 0.5020 0.0685
vn -0.7200 -0.3240 0.6136
vn 0.7075 -0.6644 0.2407
vn 0.7077 0.2594 -0.6571
vn -0.6501 0.6815 -0.3360
vn 0.6078 0.2601 -0.7503
vn -0.3575 -0.0635 -0.9318
vn 0.3956 0.9094 0.1286
vn 0.9035 0.3947 -0.1671
vn 0.8957 -0.3856 0.2215
vn -0.3546 -0.7821 0.5124
vn 0.3546 -0.9175 0.1804
vn -0.8466 -0.5317 0.0213
vn 0.8078 0.0739 0.5848
vn 0.8177 -0.0981 -0.5672
vn 0.5695 0.6646 0.4836
vn -0.7233 0.4719 0.5042
vn -0.7129 0.6705 0.2055
vn 0.7126 0.6893 0.1306
vn -0.7178 0.6921 -0.0755
vn 0.7178 0.6678 -0.1968
vn -0.7267 0.5298 -0.4373
vn 0.7267 0.4080 -0.5526
vn -0.7466 0.0557 -0.6630
vn 0.8314 -0.1525 -0.5344
vn -0.4662 -0.7040 -0.5357
vn 0.7255 -0.5478 -0.4167
vn 0.8086 -0.5811 -0.0920
vn 0.7117 0.6556 -0.2524
vn -0.7192 0.6299 -0.2934
vn 0.7192 0.5636 -0.4064
vn -0.7117 0.6221 -0.3262
vn 0.7092 0.5506 -0.4402
vn -0.7092 0.5147 -0.4817
vn -0.8086 -0.5882 0.0119
vn 0.7172 -0.6522 0.2453
vn -0.7172 -0.6004 0.3536
vn 0.7200 -0.4374 0.5387
vn -1.0000 0.0000 0.0000
vn -0.8667 -0.4945 -0.0648
vn 1.0000 0.0000 0.0000
vn 0.7934 -0.5428 0.2756
vn 0.7202 -0.6422 -0.2625
vn -0.7202 -0.6812 -0.1312
vn -0.7071 -0.7071 -0.0000
vn 0.5547 -0.8320 0.0000
vn 0.6667 -0.6667 0.3333
vn -0.4083 -0.4082 0.8165
vn 0.5547 0.8321 0.0000
vn -0.5547 0.8320 0.0000
vn 0.8000 0.6000 0.0000
vn -0.5501 0.6339 -0.5437
vn 0.3333 0.6667 0.6667
vn -0.7071 0.7071 0.0000
vn -0.8165 0.4082 0.4083
vn -0.5708 0.4382 -0.6944
vn -0.7071 -0.0000 0.7071
vn 0.7071 -0.0000 0.7071
vn 0.5708 0.2844 -0.7703
vn 0.7965 0.4590 -0.3936
vn -0.7169 -0.5088 0.4765
vn 0.7169 -0.5821 0.3836
vn -0.7155 -0.6743 0.1826
vn 0.7155 -0.6946 0.0753
vn -0.7130 -0.6904 -0.1221
vn 0.7110 -0.6806 -0.1771
vn 0.7261 -0.5903 0.3526
vn -0.3010 -0.5411 0.7853
vn -0.7261 -0.4893 0.4831
vn 0.7209 -0.2503 0.6463
vn 0.7838 -0.3523 0.5113
vn -0.7209 -0.1151 0.6834
vn 0.4719 0.3374 0.8146
vn -0.8488 0.2022 0.4885
vn -0.8944 0.0237 0.4466
vn 0.4472 0.0474 0.8932
vn -0.4472 0.6144 0.6500
vn 0.7071 0.4857 0.5139
usemtl TEX_w2dgn02
s 1
f 1/1/1 2/2/2 3/3/3
f 2/2/2 1/1/1 4/4/4
f 5/5/5 4/4/4 1/1/1
f 4/4/4 5/5/5 6/6/6
f 7/7/7 8/8/8 9/9/9
f 8/8/8 7/7/7 10/10/10
f 11/11/11 9/12/9 12/13/12
f 12/13/12 13/14/13 11/11/11
f 11/11/11 7/15/7 9/12/9
f 12/13/12 14/16/14 13/14/13
f 15/17/15 4/18/4 6/19/6
f 4/18/4 15/17/15 12/20/12
f 14/21/14 12/20/12 15/17/15
f 9/22/9 8/23/8 16/24/16
f 16/24/16 2/25/2 9/22/9
f 17/26/17 16/24/16 8/23/8
f 8/23/8 18/27/18 17/26/17
f 19/28/19 17/26/17 18/27/18
f 18/27/18 20/29/20 19/28/19
f 12/20/12 2/25/2 4/18/4
f 2/25/2 12/20/12 9/22/9
f 21/30/21 6/31/6 5/32/5
f 6/31/6 21/30/21 15/33/15
f 13/34/13 15/33/15 21/30/21
f 15/33/15 13/34/13 14/35/14
f 1/36/1 21/37/21 5/38/5
f 11/39/11 21/37/21 1/36/1
f 1/36/1 7/40/7 11/39/11
f 11/39/11 13/41/13 21/37/21
f 7/40/7 1/36/1 3/42/3
f 3/42/3 22/43/22 7/40/7
f 7/40/7 22/43/22 10/44/10
f 23/45/23 24/46/24 25/47/25
f 24/46/24 23/45/23 26/48/26
f 19/49/19 26/48/26 23/45/23
f 26/48/26 19/49/19 27/50/27
f 28/51/28 29/52/29 30/53/30
f 29/52/29 28/51/28 31/54/31
f 27/55/27 32/56/32 33/57/33
f 33/57/33 24/58/24 27/55/27
f 26/59/26 27/55/27 24/58/24
f 33/57/33 32/56/32 10/44/10
f 30/53/30 8/23/8 10/60/10
f 8/23/8 30/53/30 29/52/29
f 23/61/23 17/26/17 19/28/19
f 17/26/17 23/61/23 25/62/25
f 28/63/28 32/56/32 34/64/34
f 28/63/28 30/65/30 10/44/10
f 35/66/35 32/67/32 18/68/18
f 32/67/32 35/66/35 34/69/34
f 36/70/36 34/69/34 35/66/35
f 34/69/34 36/70/36 37/71/37
f 38/72/38 37/71/37 36/70/36
f 37/71/37 38/72/38 39/73/39
f 40/74/40 39/73/39 38/72/38
f 39/73/39 40/74/40 41/75/41
f 42/76/42 41/75/41 40/74/40
f 41/75/41 42/76/42 43/77/43
f 44/78/44 43/77/43 42/76/42
f 43/77/43 44/78/44 45/79/45
f 46/80/46 45/79/45 44/78/44
f 31/54/31 8/23/8 29/52/29
f 31/54/31 35/81/35 18/27/18
f 17/82/17 22/83/22 16/84/16
f 22/83/22 17/82/17 33/85/33
f 25/86/25 33/85/33 17/82/17
f 33/85/33 25/86/25 24/87/24
f 3/88/3 16/84/16 22/83/22
f 16/84/16 3/88/3 2/89/2
f 47/90/47 48/91/48 49/92/49
f 48/91/48 47/90/47 50/93/50
f 51/94/51 50/93/50 47/90/47
f 50/93/50 51/94/51 52/95/52
f 27/96/27 52/95/52 51/94/51
f 52/95/52 27/96/27 19/97/19
f 46/80/46 44/78/44 53/98/53
f 53/98/53 54/99/54 46/80/46
f 54/99/54 53/98/53 55/100/55
f 55/100/55 56/101/56 54/99/54
f 56/101/56 55/100/55 20/102/20
f 20/102/20 32/67/32 56/101/56
f 20/102/20 18/68/18 32/67/32
f 53/103/53 44/104/44 57/105/57
f 57/105/57 48/106/48 53/103/53
f 57/107/57 42/108/42 58/109/58
f 55/110/55 53/103/53 50/111/50
f 50/111/50 52/112/52 55/110/55
f 50/111/50 53/103/53 48/106/48
f 55/110/55 52/112/52 20/113/20
f 19/28/19 20/29/20 52/114/52
f 56/115/56 27/55/27 51/116/51
f 27/55/27 56/115/56 32/56/32
f 54/117/54 51/118/51 47/119/47
f 47/119/47 46/120/46 54/117/54
f 54/117/54 56/121/56 51/118/51
f 46/120/46 47/119/47 49/122/49
f 49/122/49 59/123/59 46/120/46
f 60/124/60 59/125/59 61/126/61
f 62/127/62 63/128/63 64/129/57
f 64/129/57 57/130/57 62/127/62
f 58/131/58 62/127/62 57/130/57
f 45/132/45 46/120/46 59/123/59
f 65/133/64 62/134/62 61/135/61
f 62/134/62 65/133/64 63/136/63
f 66/137/65 63/136/63 65/133/64
f 63/136/63 66/137/65 67/138/66
f 68/139/67 69/140/68 70/141/69
f 69/140/68 68/139/67 71/142/70
f 72/143/71 73/144/72 74/145/73
f 73/144/72 72/143/71 70/141/69
f 71/146/70 57/105/57 69/147/68
f 75/148/74 57/105/57 71/146/70
f 57/105/57 75/148/74 48/106/48
f 76/149/75 63/128/63 67/150/66
f 63/128/63 76/149/75 64/129/57
f 74/145/73 64/129/57 76/149/75
f 64/129/57 74/145/73 73/151/72
f 77/152/76 67/153/66 66/154/65
f 67/153/66 77/152/76 76/155/75
f 72/156/71 76/155/75 77/152/76
f 76/155/75 72/156/71 74/157/73
f 70/158/69 77/159/76 78/160/59
f 77/159/76 70/158/69 72/161/71
f 66/162/65 78/160/59 77/159/76
f 78/160/59 66/162/65 65/163/64
f 59/125/59 78/160/59 61/126/61
f 70/158/69 78/160/59 59/125/59
f 59/125/59 68/164/67 70/158/69
f 79/165/77 71/142/70 80/166/78
f 71/142/70 79/165/77 75/167/74
f 49/92/49 75/167/74 79/165/77
f 75/167/74 49/92/49 48/91/48
f 57/105/57 44/104/44 42/168/42
f 59/123/59 49/122/49 79/169/77
f 43/170/43 59/171/59 60/172/60
f 61/173/61 58/174/58 60/175/60
f 58/174/58 61/173/61 62/176/62
f 58/177/58 40/178/40 81/179/79
f 40/178/40 58/177/58 42/180/42
f 43/181/43 82/182/80 41/183/41
f 82/182/80 43/181/43 60/184/60
f 60/175/60 81/185/79 82/186/80
f 81/185/79 60/175/60 58/174/58
f 81/179/79 38/187/38 83/188/81
f 38/187/38 81/179/79 40/178/40
f 41/183/41 84/189/82 39/190/39
f 84/189/82 41/183/41 82/182/80
f 82/186/80 83/191/81 84/192/82
f 83/191/81 82/186/80 81/185/79
f 83/188/81 36/193/36 85/194/83
f 36/193/36 83/188/81 38/187/38
f 39/190/39 86/195/84 37/196/37
f 86/195/84 39/190/39 84/189/82
f 84/192/82 85/197/83 86/198/84
f 85/197/83 84/192/82 83/191/81
f 8/23/8 31/54/31 18/27/18
f 32/56/32 28/63/28 10/44/10
f 85/194/83 35/199/35 31/200/31
f 35/199/35 85/194/83 36/193/36
f 37/196/37 28/201/28 34/202/34
f 28/201/28 37/196/37 86/195/84
f 86/198/84 31/203/31 28/204/28
f 31/203/31 86/198/84 85/197/83
f 57/130/57 64/129/57 73/151/72
f 73/151/72 69/205/68 57/130/57
f 78/160/59 65/163/64 61/126/61
f 43/206/43 45/132/45 59/123/59
f 80/207/78 59/123/59 79/169/77
f 59/123/59 80/207/78 68/208/67
f 87/209/85 88/210/86 89/211/87
f 89/211/87 90/212/88 87/209/85
f 87/209/85 91/213/89 88/210/86
f 90/212/88 89/211/87 92/214/90
f 92/214/90 93/215/91 90/212/88
f 92/214/90 94/216/92 93/215/91
f 89/217/87 95/218/93 96/219/57
f 96/219/57 92/220/90 89/217/87
f 89/217/87 88/221/86 95/218/93
f 92/220/90 96/219/57 97/222/57
f 97/222/57 94/223/92 92/220/90
f 97/222/57 98/224/57 94/223/92
f 90/225/88 99/226/59 100/227/59
f 100/227/59 87/228/85 90/225/88
f 90/225/88 93/229/91 99/226/59
f 87/228/85 100/227/59 101/230/59
f 101/230/59 91/231/89 87/228/85
f 101/230/59 102/232/94 91/231/89
f 88/233/86 102/234/94 95/235/93
f 102/234/94 88/233/86 91/236/89
f 93/215/91 94/216/92 103/237/95
f 103/237/95 104/238/96 93/215/91
f 94/223/92 98/224/57 103/239/95
f 99/226/59 93/229/91 104/240/96
f 69/140/68 73/144/72 70/141/69
f 68/139/67 80/166/78 71/142/70
f 22/43/22 33/57/33 10/44/10
o MDL_w2dgn02l_bod01_001
v 0.000000 -0.017200 0.225600
v 0.000000 -0.032800 0.695900
v 0.000000 -0.185000 0.321900
v 0.000000 -0.171600 0.232800
v 0.000000 -0.234700 0.193100
v 0.000000 -0.140900 0.159100
v 0.000000 -0.420000 0.584400
v 0.000000 -0.182800 0.139100
v 0.000000 -0.285600 0.117200
v 0.000000 -0.737200 0.372800
v 0.000000 -0.205300 0.101300
v 0.000000 -0.205300 0.052500
v 0.000000 -0.283100 0.009700
v 0.000000 -0.206200 -0.043700
v 0.000000 -0.167500 0.013700
v 0.000000 -1.050000 0.003700
v 0.000000 -1.047500 -0.113800
v 0.000000 -0.061600 0.136300
v 0.000000 -0.015000 0.056600
v 0.000000 0.119400 0.560600
v 0.000000 0.121600 0.276600
v 0.000000 0.222800 0.269400
v 0.000000 0.163100 0.190000
v 0.000000 0.206200 0.104700
v 0.000000 0.230300 0.200900
v 0.000000 0.138800 0.158700
v 0.000000 0.097500 0.063400
v 0.000000 0.156900 0.020600
v 0.000000 0.097500 0.232200
v 0.021300 0.104400 0.347200
v 0.021300 -0.020000 0.347200
v -0.020600 -0.020000 0.347200
v -0.020600 0.104400 0.347200
v 0.003400 0.104400 0.347200
v -0.003400 0.104400 0.347200
v -0.003400 0.104400 0.016600
v 0.003400 0.104400 0.016600
v 0.003400 -0.020000 0.347200
v 0.003400 -0.020000 0.061300
v -0.003400 -0.020000 0.061300
v -0.003400 -0.020000 0.347200
v -0.003400 0.081200 0.012500
v 0.003400 0.081200 0.012500
v -0.003400 0.069700 0.001200
v 0.003400 0.069700 0.001200
v -0.003400 0.061900 -0.029100
v 0.003400 0.061900 -0.029100
v -0.003400 0.042800 -0.056900
v 0.003400 0.042800 -0.056900
v -0.003400 0.022800 -0.075000
v 0.003400 0.022800 -0.075000
v -0.021900 0.038400 0.141200
v -0.021900 0.045600 0.141200
v -0.021900 0.045600 0.347200
v -0.021900 0.038400 0.347200
v -0.022500 0.000900 0.034100
v -0.022500 0.079700 0.034100
v -0.022500 0.079700 0.141600
v -0.022500 0.000900 0.141600
v 0.021300 0.045600 0.347200
v 0.021300 0.045600 0.141200
v 0.021300 0.038400 0.141200
v 0.021300 0.038400 0.347200
v 0.021300 0.079700 0.141600
v 0.021300 0.079700 0.034100
v 0.021300 0.000900 0.034100
v 0.021300 0.000900 0.141600
v 0.021300 0.092500 0.004700
v 0.021300 0.034700 -0.099700
v 0.021300 -0.048100 -0.040900
v 0.021300 0.026600 0.052200
v -0.022200 0.092500 0.004700
v -0.021900 0.026600 0.052200
v -0.021900 -0.048100 -0.040900
v -0.021900 0.034700 -0.099700
vt 0.992200 0.492200
vt 0.953100 0.019500
vt 0.601600 0.371100
vt 0.992200 0.507800
vt 0.601600 0.628900
vt 0.617200 0.554700
vt 0.390600 0.535200
vt 0.648400 0.406300
vt 0.554700 1.000000
vt 0.390600 0.406300
vt 0.648400 0.535200
vt 0.390600 0.535200
vt 0.648400 0.406300
vt 0.554700 1.000000
vt 0.390600 0.406300
vt 0.210900 0.406300
vt 0.125000 0.523400
vt 0.007800 0.394500
vt 0.117200 0.339800
vt 0.390600 0.984400
vt 0.156300 0.984400
vt 0.851600 0.371100
vt 0.992200 0.242200
vt 1 0.230500
vt 0.539100 0.230500
vt 0.539100 0.003900
vt 0.429700 0.140600
vt 0.187500 0.023400
vt 0.375000 0.011700
vt 0.343800 0.183600
vt 1 0.183600
vt 1 0.261700
vt 0.976600 0.140600
vt 1 0.023400
vt 0.531300 0.261700
vt 0.078100 0.261700
vt 0.789100 0.812500
vt 0.671900 0.968800
vt 0.789100 0.968800
vt 0.671900 0.812500
vt 0.375000 0.082000
vt 0.390600 0.066400
vt 0.375000 0.066400
vt 0.390600 0.082000
vt 0.359400 0.089800
vt 0.320300 0.066400
vt 0.320300 0.089800
vt 0.359400 0.066400
vt 0.414100 0.082000
vt 0.414100 0.066400
vt 0.429700 0.082000
vt 0.429700 0.066400
vt 0.453100 0.082000
vt 0.453100 0.066400
vt 0.468800 0.082000
vt 0.468800 0.066400
vt 0.492200 0.082000
vt 0.492200 0.066400
vt 0.320300 0.089800
vt 0.359400 0.066400
vt 0.320300 0.066400
vt 0.359400 0.089800
vt 0.820300 0.386700
vt 0.523400 0.269500
vt 0.820300 0.269500
vt 0.523400 0.386700
vt 0.320300 0.066400
vt 0.359400 0.089800
vt 0.359400 0.066400
vt 0.320300 0.089800
vt 0.523400 0.269500
vt 0.820300 0.386700
vt 0.820300 0.269500
vt 0.523400 0.386700
vt 0.164100 0.265600
vt 0.507800 0.398400
vt 0.507800 0.265600
vt 0.195300 0.378900
vt 0.164100 0.265600
vt 0.507800 0.398400
vt 0.195300 0.378900
vt 0.507800 0.265600
vn 1.0000 0.0000 0.0000
vn 0.0000 -0.0000 1.0000
vn 0.0000 1.0000 0.0000
vn 0.0000 0.7662 -0.6426
vn 0.0000 -1.0000 -0.0000
vn 0.0000 0.3641 -0.9313
vn 0.0000 0.5470 -0.8371
vn 0.0000 0.8165 -0.5773
vn 0.0000 0.9087 -0.4175
vn 0.0000 0.9330 -0.3598
vn -0.0000 0.8843 -0.4670
vn 0.0000 0.7779 -0.6284
vn -0.0000 0.7265 -0.6872
vn 0.0000 0.6710 -0.7414
vn -1.0000 0.0000 0.0000
vn -1.0000 -0.0021 0.0000
vn -1.0000 -0.0022 0.0003
vn -1.0000 -0.0029 0.0023
vn -1.0000 -0.0015 -0.0021
usemtl TEX_w2dgn02_1_001
s 1
f 105/241/97 106/242/97 107/243/97
f 105/244/97 107/245/97 108/246/97
f 108/246/97 109/247/97 110/248/97
f 109/247/97 108/246/97 111/249/97
f 109/247/97 112/250/97 110/248/97
f 109/251/97 113/252/97 112/253/97
f 113/252/97 109/251/97 114/254/97
f 115/255/97 112/253/97 113/252/97
f 113/252/97 116/256/97 115/255/97
f 117/257/97 116/256/97 113/252/97
f 117/257/97 118/258/97 119/259/97
f 119/259/97 116/256/97 117/257/97
f 113/252/97 120/260/97 121/261/97
f 121/261/97 117/257/97 113/252/97
f 105/244/97 110/248/97 122/262/97
f 122/262/97 123/263/97 105/244/97
f 124/264/97 125/265/97 126/266/97
f 126/266/97 125/265/97 127/267/97
f 127/267/97 128/268/97 129/269/97
f 129/269/97 126/266/97 127/267/97
f 128/268/97 127/267/97 130/270/97
f 130/271/97 131/272/97 132/273/97
f 132/273/97 128/274/97 130/271/97
f 130/270/97 133/275/97 131/276/97
f 110/248/97 105/244/97 108/246/97
f 134/277/98 136/278/98 135/279/98
f 136/278/98 134/277/98 137/280/98
f 138/281/99 140/282/100 139/283/99
f 140/282/100 138/281/99 141/284/100
f 142/285/101 144/286/101 143/287/101
f 144/286/101 142/285/101 145/288/101
f 140/282/100 147/289/102 146/290/103
f 147/289/102 140/282/100 141/284/100
f 146/290/103 149/291/104 148/292/105
f 149/291/104 146/290/103 147/289/102
f 148/292/105 151/293/106 150/294/107
f 151/293/106 148/292/105 149/291/104
f 150/294/107 153/295/108 152/296/109
f 153/295/108 150/294/107 151/293/106
f 152/296/109 155/297/110 154/298/110
f 155/297/110 152/296/109 153/295/108
f 156/299/111 158/300/111 157/301/111
f 158/300/111 156/299/111 159/302/111
f 160/303/111 162/304/111 161/305/111
f 162/304/111 160/303/111 163/306/111
f 164/307/97 166/308/97 165/309/97
f 166/308/97 164/307/97 167/310/97
f 168/311/97 170/312/97 169/313/97
f 170/312/97 168/311/97 171/314/97
f 172/315/97 174/316/97 173/317/97
f 174/316/97 172/315/97 175/318/97
f 176/319/112 178/320/113 177/321/114
f 178/320/113 176/319/112 179/322/115
o MDL_w2dgn02l_bod01
v 0.000000 -0.017200 0.225600
v 0.000000 -0.185000 0.321900
v 0.000000 -0.032800 0.695900
v 0.000000 -0.171600 0.232800
v 0.000000 -0.140900 0.159100
v 0.000000 -0.234700 0.193100
v 0.000000 -0.420000 0.584400
v 0.000000 -0.182800 0.139100
v 0.000000 -0.285600 0.117200
v 0.000000 -0.737200 0.372800
v 0.000000 -0.205300 0.101300
v 0.000000 -0.205300 0.052500
v 0.000000 -0.283100 0.009700
v 0.000000 -0.167500 0.013700
v 0.000000 -0.206200 -0.043700
v 0.000000 -1.047500 -0.113800
v 0.000000 -1.050000 0.003700
v 0.000000 -0.061600 0.136300
v 0.000000 -0.015000 0.056600
v 0.000000 0.119400 0.560600
v 0.000000 0.222800 0.269400
v 0.000000 0.121600 0.276600
v 0.000000 0.163100 0.190000
v 0.000000 0.230300 0.200900
v 0.000000 0.206200 0.104700
v 0.000000 0.138800 0.158700
v 0.000000 0.156900 0.020600
v 0.000000 0.097500 0.063400
v 0.000000 0.097500 0.232200
v 0.021300 0.104400 0.347200
v -0.020600 -0.020000 0.347200
v 0.021300 -0.020000 0.347200
v -0.020600 0.104400 0.347200
v 0.003400 0.104400 0.347200
v -0.003400 0.104400 0.016600
v -0.003400 0.104400 0.347200
v 0.003400 0.104400 0.016600
v 0.003400 -0.020000 0.347200
v -0.003400 -0.020000 0.061300
v 0.003400 -0.020000 0.061300
v -0.003400 -0.020000 0.347200
v 0.003400 0.081200 0.012500
v -0.003400 0.081200 0.012500
v 0.003400 0.069700 0.001200
v -0.003400 0.069700 0.001200
v 0.003400 0.061900 -0.029100
v -0.003400 0.061900 -0.029100
v 0.003400 0.042800 -0.056900
v -0.003400 0.042800 -0.056900
v 0.003400 0.022800 -0.075000
v -0.003400 0.022800 -0.075000
v -0.021900 0.038400 0.141200
v -0.021900 0.045600 0.347200
v -0.021900 0.045600 0.141200
v -0.021900 0.038400 0.347200
v -0.022500 0.000900 0.034100
v -0.022500 0.079700 0.141600
v -0.022500 0.079700 0.034100
v -0.022500 0.000900 0.141600
v 0.021300 0.045600 0.347200
v 0.021300 0.038400 0.141200
v 0.021300 0.045600 0.141200
v 0.021300 0.038400 0.347200
v 0.021300 0.079700 0.141600
v 0.021300 0.000900 0.034100
v 0.021300 0.079700 0.034100
v 0.021300 0.000900 0.141600
v 0.021300 0.092500 0.004700
v 0.021300 -0.048100 -0.040900
v 0.021300 0.034700 -0.099700
v 0.021300 0.026600 0.052200
v -0.022200 0.092500 0.004700
v -0.021900 -0.048100 -0.040900
v -0.021900 0.026600 0.052200
v -0.021900 0.034700 -0.099700
vt 0.992200 0
vt 0.601600 0
vt 0.953100 0.019500
vt 0.992200 0.507800
vt 0.617200 0.554700
vt 0.601600 0.628900
vt 0.648400 0.406300
vt 0.390600 0.535200
vt 0.554700 1.000000
vt 0.390600 0.406300
vt 0.648400 0.535200
vt 0.648400 0.406300
vt 0.390600 0.535200
vt 0.554700 1.000000
vt 0.390600 0.406300
vt 0.210900 0.406300
vt 0.125000 0.523400
vt 0.117200 0.339800
vt 0.007800 0.394500
vt 0.156300 0.984400
vt 0.390600 0.984400
vt 0.851600 0.371100
vt 0.992200 0.242200
vt 1 0.230500
vt 0.539100 0.003900
vt 0.539100 0.230500
vt 0.429700 0.140600
vt 0.375000 0
vt 0.187500 0.023400
vt 0.343800 0.183600
vt 1 0.183600
vt 0.976600 0.140600
vt 1 0.261700
vt 1 0.023400
vt 0.078100 0.261700
vt 0.531300 0.261700
vt 0.789100 0.812500
vt 0.671900 0.968800
vt 0.789100 0.968800
vt 0.671900 0.812500
vt 0.375000 0.082000
vt 0.390600 0.066400
vt 0.375000 0.066400
vt 0.390600 0.082000
vt 0.359400 0.089800
vt 0.320300 0.066400
vt 0.320300 0.089800
vt 0.359400 0.066400
vt 0.414100 0.082000
vt 0.414100 0.066400
vt 0.429700 0.082000
vt 0.429700 0.066400
vt 0.453100 0.082000
vt 0.453100 0.066400
vt 0.468800 0.082000
vt 0.468800 0.066400
vt 0.492200 0.082000
vt 0.492200 0.066400
vt 0.320300 0.089800
vt 0.359400 0.066400
vt 0.320300 0.066400
vt 0.359400 0.089800
vt 0.820300 0.386700
vt 0.523400 0.269500
vt 0.820300 0.269500
vt 0.523400 0.386700
vt 0.320300 0.066400
vt 0.359400 0.089800
vt 0.359400 0.066400
vt 0.320300 0.089800
vt 0.523400 0.269500
vt 0.820300 0.386700
vt 0.820300 0.269500
vt 0.523400 0.386700
vt 0.164100 0.265600
vt 0.507800 0.398400
vt 0.507800 0.265600
vt 0.195300 0.378900
vt 0.164100 0.265600
vt 0.507800 0.398400
vt 0.195300 0.378900
vt 0.507800 0.265600
vn -1.0000 0.0000 0.0000
vn 0.0000 -0.0000 1.0000
vn 0.0000 1.0000 0.0000
vn 0.0000 0.7662 -0.6426
vn 0.0000 -1.0000 -0.0000
vn 0.0000 0.3641 -0.9313
vn 0.0000 0.5470 -0.8371
vn 0.0000 0.8165 -0.5773
vn 0.0000 0.9087 -0.4175
vn 0.0000 0.9330 -0.3598
vn -0.0000 0.8843 -0.4670
vn 0.0000 0.7779 -0.6284
vn -0.0000 0.7265 -0.6872
vn 0.0000 0.6710 -0.7414
vn 1.0000 0.0000 0.0000
vn -1.0000 -0.0021 0.0000
vn -1.0000 -0.0022 0.0003
vn -1.0000 -0.0029 0.0023
vn -1.0000 -0.0015 -0.0021
usemtl TEX_w2dgn02_1
s 1
f 180/323/116 181/324/116 182/325/116
f 180/326/116 183/327/116 181/328/116
f 183/327/116 184/329/116 185/330/116
f 185/330/116 186/331/116 183/327/116
f 185/330/116 184/329/116 187/332/116
f 185/333/116 187/334/116 188/335/116
f 188/335/116 189/336/116 185/333/116
f 190/337/116 188/335/116 187/334/116
f 188/335/116 190/337/116 191/338/116
f 192/339/116 188/335/116 191/338/116
f 192/339/116 193/340/116 194/341/116
f 193/340/116 192/339/116 191/338/116
f 188/335/116 195/342/116 196/343/116
f 195/342/116 188/335/116 192/339/116
f 180/326/116 197/344/116 184/329/116
f 197/344/116 180/326/116 198/345/116
f 199/346/116 200/347/116 201/348/116
f 200/347/116 202/349/116 201/348/116
f 202/349/116 203/350/116 204/351/116
f 203/350/116 202/349/116 200/347/116
f 204/351/116 205/352/116 202/349/116
f 205/353/116 206/354/116 207/355/116
f 206/354/116 205/353/116 204/356/116
f 205/352/116 207/357/116 208/358/116
f 184/329/116 183/327/116 180/326/116
f 209/359/117 210/360/117 211/361/117
f 210/360/117 209/359/117 212/362/117
f 213/363/118 214/364/119 215/365/118
f 214/364/119 213/363/118 216/366/119
f 217/367/120 218/368/120 219/369/120
f 218/368/120 217/367/120 220/370/120
f 214/364/119 221/371/121 222/372/122
f 221/371/121 214/364/119 216/366/119
f 222/372/122 223/373/123 224/374/124
f 223/373/123 222/372/122 221/371/121
f 224/374/124 225/375/125 226/376/126
f 225/375/125 224/374/124 223/373/123
f 226/376/126 227/377/127 228/378/128
f 227/377/127 226/376/126 225/375/125
f 228/378/128 229/379/129 230/380/129
f 229/379/129 228/378/128 227/377/127
f 231/381/116 232/382/116 233/383/116
f 232/382/116 231/381/116 234/384/116
f 235/385/116 236/386/116 237/387/116
f 236/386/116 235/385/116 238/388/116
f 239/389/130 240/390/130 241/391/130
f 240/390/130 239/389/130 242/392/130
f 243/393/130 244/394/130 245/395/130
f 244/394/130 243/393/130 246/396/130
f 247/397/130 248/398/130 249/399/130
f 248/398/130 247/397/130 250/400/130
f 251/401/131 252/402/132 253/403/133
f 252/402/132 251/401/131 254/404/134
