# Blender MTL File: 'None'
# Material Count: 3

newmtl TEX_w2dgn00
Ns 92.156863
Ka 1.000000 1.000000 1.000000
Kd 1.000000 1.000000 1.000000
Ks 0.000000 0.000000 0.000000
Ke 0.000000 0.000000 0.000000
Ni 1.500000
d 1.000000
illum 2
map_Kd minecraft:items/w2dgn00
map_Ka minecraft:items/w2dgn00

newmtl TEX_w2dgn00_1
Ns 92.156863
Ka 1.000000 1.000000 1.000000
Kd 1.000000 1.000000 1.000000
Ks 0.000000 0.000000 0.000000
Ke 0.000000 0.000000 0.000000
Ni 1.500000
d 1.000000
illum 2
map_Kd minecraft:items/w2dgn00_1
map_Ka minecraft:items/w2dgn00_1

newmtl TEX_w2dgn00_1.001
Ns 92.156863
Ka 1.000000 1.000000 1.000000
Kd 1.000000 1.000000 1.000000
Ks 0.000000 0.000000 0.000000
Ke 0.000000 0.000000 0.000000
Ni 1.500000
d 1.000000
illum 2
map_Kd minecraft:items/w2dgn00_1
map_Ka minecraft:items/w2dgn00_1
