# Blender MTL File: 'None'
# Material Count: 1

newmtl TEX_w2dkn09l
Ns 29.411765
Ka 1.000000 1.000000 1.000000
Kd 1.000000 1.000000 1.000000
Ks 0.000000 0.000000 0.000000
Ke 0.000000 0.000000 0.000000
Ni 1.500000
d 1.000000
illum 2
map_Kd minecraft:items/w2dkn09l
map_Ka minecraft:items/w2dkn09l
