# Blender v2.79 (sub 0) OBJ File: ''
# www.blender.org
mtllib w2dkn07l.mtl
o MDL_w2dkn07l_bod00
v 0.018000 -0.000000 0.079200
v 0.012700 -0.045300 0.079200
v -0.004200 0.000000 0.053600
v 0.035900 -0.000000 0.109800
v 0.012700 0.045500 0.079200
v 0.029500 -0.035600 0.119700
v 0.018900 -0.067700 0.114200
v -0.018400 -0.057800 0.053400
v 0.002800 -0.068100 -0.034100
v -0.063900 -0.069400 0.083300
v -0.016200 -0.077300 0.091700
v 0.006900 -0.000000 -0.087700
v -0.000300 -0.022300 -0.126200
v 0.009700 -0.000000 -0.032500
v 0.002800 0.068300 -0.034100
v -0.018400 0.057800 0.053400
v 0.006700 -0.064500 0.083600
v 0.008100 -0.080300 0.125800
v -0.113800 0.000000 0.117000
v -0.134200 0.000000 -0.005800
v -0.104200 -0.037300 0.110200
v -0.089200 0.000000 0.165800
v -0.117000 -0.047000 -0.032000
v -0.062700 -0.080900 -0.037000
v -0.102200 -0.059100 -0.091900
v -0.080900 -0.041100 0.155000
v -0.060500 -0.074500 0.131200
v -0.042000 0.000000 0.197300
v -0.035200 -0.042200 0.186300
v -0.014700 -0.019500 0.220600
v -0.002500 -0.039400 0.203600
v 0.022500 -0.018800 0.225300
v 0.028100 -0.037700 0.212800
v -0.011100 -0.053600 -0.119800
v -0.020600 -0.075500 0.164500
v -0.013000 -0.059500 0.195800
v 0.059100 -0.018300 0.204800
v 0.075000 -0.027300 0.173300
v 0.075600 -0.010600 0.175500
v 0.027300 -0.000000 0.217300
v 0.064100 -0.000000 0.166400
v 0.018900 -0.057300 0.198000
v 0.023400 -0.071900 0.183300
v 0.043400 -0.056100 0.183400
v 0.059100 -0.065900 0.154400
v 0.061700 -0.048300 0.157500
v 0.025500 -0.041100 0.192200
v 0.055800 -0.039400 0.155300
v 0.050600 -0.057000 0.132500
v 0.038800 -0.078700 0.145300
v 0.065600 -0.019500 0.145600
v 0.041100 -0.000000 0.132700
v -0.007000 0.000000 0.210500
v 0.004800 -0.040500 0.196300
v 0.093900 -0.016700 0.190600
v 0.077300 -0.055000 0.170800
v -0.134500 -0.005800 -0.044700
v -0.135600 0.000000 -0.040900
v -0.102800 -0.026200 -0.128700
v -0.063900 -0.066400 -0.096200
v -0.119400 -0.033800 -0.121900
v -0.129200 -0.027300 -0.088300
v -0.015000 -0.020900 -0.123600
v -0.011900 0.000000 -0.087700
v -0.055200 -0.049200 -0.107500
v -0.023000 -0.040500 -0.119800
v -0.049200 0.000000 -0.058900
v -0.096200 0.000000 -0.129700
v 0.030500 0.037200 0.120600
v 0.065600 0.019700 0.145600
v 0.075600 0.010600 0.175500
v -0.000300 0.022300 -0.126200
v -0.011100 0.053600 -0.119800
v -0.016200 0.077300 0.091700
v 0.006700 0.064500 0.083600
v -0.063900 0.069500 0.083300
v -0.062700 0.081100 -0.037000
v -0.063900 0.066600 -0.096200
v 0.018800 0.067700 0.114100
v 0.010000 0.080500 0.127700
v -0.104200 0.037500 0.110200
v -0.117000 0.047200 -0.032000
v -0.102200 0.059100 -0.091900
v -0.080900 0.041300 0.155000
v -0.035200 0.042200 0.186300
v -0.014700 0.019700 0.220600
v -0.002500 0.039500 0.203600
v 0.022500 0.018800 0.225300
v -0.060500 0.074500 0.131200
v -0.020600 0.075600 0.164500
v 0.059100 0.018300 0.204800
v 0.028100 0.037700 0.212800
v 0.075000 0.027500 0.173300
v 0.055800 0.039500 0.155300
v 0.004800 0.040500 0.196300
v 0.025500 0.041100 0.192200
v 0.043400 0.056200 0.183400
v 0.023400 0.071900 0.183300
v 0.018900 0.057500 0.198000
v 0.061700 0.048400 0.157500
v 0.059100 0.066100 0.154400
v 0.038800 0.078700 0.145300
v 0.050600 0.057200 0.132500
v -0.013000 0.059700 0.195800
v 0.093900 0.016700 0.190600
v 0.077300 0.055000 0.170800
v -0.134500 0.005900 -0.044700
v -0.129200 0.027500 -0.088300
v -0.102800 0.026400 -0.128700
v -0.119400 0.033900 -0.121900
v -0.015000 0.021100 -0.123600
v -0.023000 0.040600 -0.119800
v -0.055200 0.049400 -0.107500
v -0.147800 -0.022800 -0.126200
v -0.147500 -0.018600 -0.091400
v -0.158400 0.000000 -0.128000
v -0.155000 0.000000 -0.092700
v -0.133100 -0.011600 -0.154500
v -0.114800 -0.018000 -0.151400
v -0.111900 0.000000 -0.159200
v -0.140600 0.000000 -0.155800
v -0.147800 0.023000 -0.126200
v -0.147500 0.018800 -0.091400
v -0.133100 0.011700 -0.154500
v -0.114800 0.018100 -0.151400
vt 0.992200 0.285200
vt 0.734400 0.300800
vt 0.992200 0.421900
vt 0.992200 0.214800
vt 0.734400 0.300800
vt 0.789100 0.214800
vt 0.609400 0.234400
vt 0.640600 0.421900
vt 0.609400 0.601600
vt 0.445300 0.418000
vt 0.539100 0.328100
vt 0.992200 0.691400
vt 0.867200 0.773400
vt 0.992200 0.601600
vt 0.609400 0.601600
vt 0.640600 0.421900
vt 0.632800 0.312500
vt 0.539100 0.238300
vt 0.007800 0.414100
vt 0.007800 0.515600
vt 0.203100 0.418000
vt 0.007800 0.312500
vt 0.250000 0.605500
vt 0.429700 0.609400
vt 0.289100 0.734400
vt 0.210900 0.320300
vt 0.414100 0.328100
vt 0.007800 0.179700
vt 0.234400 0.191400
vt 0.101600 0.113300
vt 0.187500 0.109400
vt 0.101600 0.078100
vt 0.171900 0.058600
vt 0.609400 0.761700
vt 0.421900 0.207000
vt 0.320300 0.140600
vt 0.101600 0.027300
vt 0.156300 0.003900
vt 0.062500 0.003900
vt 0.007800 0.062500
vt 0.015600 0.003900
vt 0.343800 0.105500
vt 0.421900 0.132800
vt 0.359400 0.070300
vt 0.617200 0.070300
vt 0.312500 0.039100
vt 0.289100 0.074200
vt 0.242200 0.003900
vt 0.789100 0.070300
vt 0.687500 0.136700
vt 0.546900 0.136700
vt 0.734400 0.058600
vt 0.890600 0.097700
vt 0.992200 0.171900
vt 0.992200 0.058600
vt 0.843800 0.027300
vt 0.945300 0.027300
vt 0.007800 0.117200
vt 0.250000 0.109400
vt 0.453100 0.964800
vt 0.453100 0.906300
vt 0.343800 0.929700
vt 0.453100 0.890600
vt 0.453100 0.843800
vt 0.250000 0.843800
vt 0.453100 0.800800
vt 0.453100 0.964800
vt 0.453100 0.906300
vt 0.343800 0.929700
vt 0.453100 0.890600
vt 0.453100 0.843800
vt 0.250000 0.843800
vt 0.453100 0.800800
vt 0.046900 0.648400
vt 0.007800 0.636700
vt 0.085900 0.851600
vt 0.007800 0.894500
vt 0.023400 0.847700
vt 0.429700 0.765600
vt 0.187500 0.800800
vt 0.132800 0.726600
vt 0.085900 0.964800
vt 0.031300 0.964800
vt 0.007800 0.937500
vt 0.031300 0.996100
vt 0.093800 0.996100
vt 0.085900 0.894500
vt 0.109400 0.937500
vt 0.367200 0.996100
vt 0.203100 0.875000
vt 0.789100 0.214800
vt 0.890600 0.097700
vt 0.945300 0.027300
vt 0.867200 0.773400
vt 0.609400 0.761700
vt 0.539100 0.328100
vt 0.632800 0.312500
vt 0.445300 0.418000
vt 0.429700 0.609400
vt 0.429700 0.765600
vt 0.609400 0.234400
vt 0.539100 0.238300
vt 0.203100 0.418000
vt 0.250000 0.605500
vt 0.289100 0.734400
vt 0.210900 0.320300
vt 0.234400 0.191400
vt 0.101600 0.113300
vt 0.187500 0.109400
vt 0.101600 0.078100
vt 0.414100 0.328100
vt 0.421900 0.207000
vt 0.101600 0.027300
vt 0.171900 0.058600
vt 0.062500 0.003900
vt 0.156300 0.003900
vt 0.242200 0.003900
vt 0.250000 0.109400
vt 0.289100 0.074200
vt 0.359400 0.070300
vt 0.421900 0.132800
vt 0.343800 0.105500
vt 0.312500 0.039100
vt 0.617200 0.070300
vt 0.546900 0.136700
vt 0.687500 0.136700
vt 0.789100 0.070300
vt 0.734400 0.058600
vt 0.320300 0.140600
vt 0.843800 0.027300
vt 0.453100 0.906300
vt 0.453100 0.964800
vt 0.343800 0.929700
vt 0.453100 0.843800
vt 0.453100 0.890600
vt 0.250000 0.843800
vt 0.453100 0.800800
vt 0.453100 0.906300
vt 0.453100 0.964800
vt 0.343800 0.929700
vt 0.453100 0.843800
vt 0.453100 0.890600
vt 0.250000 0.843800
vt 0.453100 0.800800
vt 0.046900 0.648400
vt 0.132800 0.726600
vt 0.007800 0.894500
vt 0.085900 0.851600
vt 0.023400 0.847700
vt 0.187500 0.800800
vt 0.031300 0.964800
vt 0.085900 0.964800
vt 0.007800 0.937500
vt 0.109400 0.937500
vt 0.085900 0.894500
vt 0.742200 0.949200
vt 0.757800 0.996100
vt 0.617200 0.980500
vt 0.625000 0.945300
vt 0.742200 0.894500
vt 0.625000 0.894500
vt 0.859400 0.929700
vt 0.906300 0.953100
vt 0.898400 0.894500
vt 0.859400 0.894500
vt 0.984400 0.894500
vt 0.976600 0.984400
vt 0.476600 0.925800
vt 0.468800 0.894500
vt 0.609400 0.804700
vt 0.757800 0.796900
vt 0.742200 0.839800
vt 0.625000 0.843800
vt 0.859400 0.859400
vt 0.906300 0.832000
vt 0.976600 0.800800
vt 0.476600 0.863300
vn 0.8129 -0.0002 -0.5825
vn 0.8245 -0.2285 -0.5177
vn 0.9606 -0.0002 -0.2778
vn 0.9330 -0.0086 -0.3598
vn 0.8209 0.2301 -0.5226
vn 0.8177 -0.1188 -0.5633
vn 0.6339 -0.5767 -0.5153
vn 0.6001 -0.7054 -0.3771
vn 0.8263 -0.5627 0.0220
vn -0.1656 -0.9854 -0.0406
vn 0.1189 -0.9626 -0.2436
vn 0.9494 -0.0001 -0.3141
vn 0.5574 0.3591 -0.7486
vn 0.9985 -0.0001 0.0547
vn 0.8267 0.5622 0.0220
vn 0.6006 0.7054 -0.3764
vn 0.6023 -0.6520 -0.4606
vn 0.1830 -0.9596 -0.2138
vn -0.9507 -0.0007 0.3100
vn -0.9952 -0.0010 0.0975
vn -0.7952 -0.5700 0.2069
vn -0.8063 -0.0007 0.5915
vn -0.7946 -0.6044 0.0572
vn -0.2054 -0.9772 -0.0537
vn -0.5277 -0.8275 -0.1918
vn -0.6200 -0.4945 0.6092
vn -0.4345 -0.8858 0.1628
vn -0.5750 0.0003 0.8181
vn -0.4761 -0.5375 0.6960
vn -0.3762 -0.1623 0.9122
vn -0.1173 -0.8420 0.5266
vn 0.0699 -0.0998 0.9925
vn 0.2356 -0.8524 0.4668
vn 0.1269 -0.6266 -0.7689
vn -0.2594 -0.9072 0.3312
vn -0.2627 -0.4561 0.8502
vn 0.5773 -0.0367 0.8157
vn 0.7527 -0.6513 -0.0965
vn 0.7570 0.6490 -0.0757
vn 0.4622 0.0000 0.8868
vn 0.9642 0.0015 -0.2651
vn 0.2424 -0.1975 0.9499
vn 0.2215 -0.8291 0.5134
vn 0.5706 -0.1569 0.8061
vn 0.7272 -0.6808 -0.0875
vn 0.8535 0.5203 -0.0283
vn 0.4700 0.5405 0.6978
vn 0.9576 -0.1534 -0.2437
vn 0.7761 -0.0952 -0.6233
vn 0.3578 -0.9162 -0.1807
vn 0.8245 0.0109 -0.5658
vn 0.8201 -0.0031 -0.5722
vn -0.2277 0.0014 0.9737
vn 0.0023 -0.4022 0.9155
vn 0.9856 0.1230 -0.1157
vn 0.9974 0.0719 -0.0016
vn -0.8770 -0.4338 0.2066
vn -0.9811 -0.0024 0.1936
vn 0.5067 -0.4084 -0.7592
vn -0.1186 -0.7277 -0.6756
vn -0.2521 -0.8686 -0.4266
vn -0.6528 -0.7535 0.0782
vn -0.4170 0.3143 -0.8528
vn -0.6290 0.0004 -0.7774
vn 0.0034 0.0608 -0.9981
vn -0.5137 0.1537 -0.8441
vn 0.1887 0.0004 -0.9820
vn 0.8546 -0.0008 -0.5193
vn 0.8154 0.1143 -0.5675
vn 0.8261 -0.0075 -0.5635
vn 0.7573 -0.6486 -0.0764
vn 0.5546 -0.3588 -0.7508
vn 0.1283 0.6264 -0.7689
vn 0.1205 0.9619 -0.2454
vn 0.6015 0.6533 -0.4597
vn -0.1638 0.9857 -0.0392
vn -0.2054 0.9772 -0.0542
vn -0.1194 0.7283 -0.6748
vn 0.6300 0.5790 -0.5175
vn 0.1854 0.9592 -0.2133
vn -0.7950 0.5701 0.2072
vn -0.7947 0.6044 0.0568
vn -0.5280 0.8273 -0.1917
vn -0.6196 0.4948 0.6093
vn -0.4767 0.5386 0.6948
vn -0.3764 0.1646 0.9117
vn -0.1147 0.8445 0.5231
vn 0.0703 0.1005 0.9924
vn -0.4333 0.8865 0.1623
vn -0.2579 0.9074 0.3319
vn 0.5766 0.0353 0.8163
vn 0.2360 0.8526 0.4663
vn 0.7526 0.6517 -0.0945
vn 0.9582 0.1532 -0.2415
vn 0.0042 0.4059 0.9139
vn 0.4707 -0.5398 0.6979
vn 0.5703 0.1577 0.8062
vn 0.2209 0.8308 0.5109
vn 0.2428 0.2007 0.9491
vn 0.8534 -0.5204 -0.0292
vn 0.7259 0.6823 -0.0867
vn 0.3554 0.9176 -0.1779
vn 0.7745 0.0938 -0.6256
vn -0.2628 0.4584 0.8490
vn 0.9862 -0.1249 -0.1090
vn 0.9971 -0.0759 0.0006
vn -0.8780 0.4314 0.2073
vn -0.6517 0.7544 0.0779
vn 0.5054 0.4087 -0.7600
vn -0.2524 0.8687 -0.4262
vn -0.4191 -0.3128 -0.8524
vn -0.5132 -0.1527 -0.8446
vn 0.0033 -0.0595 -0.9982
vn -0.6341 -0.7366 -0.2351
vn -0.7707 -0.6043 0.2020
vn -0.9912 -0.0018 -0.1322
vn -0.9628 -0.0022 0.2701
vn -0.2731 -0.6087 -0.7449
vn 0.3987 -0.6336 -0.6630
vn 0.2999 -0.0010 -0.9540
vn -0.6123 -0.0015 -0.7906
vn -0.6344 0.7360 -0.2363
vn -0.7720 0.6025 0.2025
vn -0.2727 0.6075 -0.7460
vn 0.3980 0.6329 -0.6641
usemtl TEX_w2dkn07
s 1
f 1/1/1 2/2/2 3/3/3
f 2/2/2 1/1/1 4/4/4
f 5/5/5 4/4/4 1/1/1
f 6/6/6 2/2/2 4/4/4
f 2/2/2 6/6/6 7/7/7
f 8/8/8 9/9/9 3/3/3
f 9/9/9 8/8/8 10/10/10
f 11/11/11 10/10/10 8/8/8
f 12/12/12 9/9/9 13/13/13
f 9/9/9 12/12/12 14/14/14
f 15/15/15 14/14/14 12/12/12
f 14/14/14 15/15/15 3/3/3
f 16/16/16 3/3/3 15/15/15
f 8/8/8 3/3/3 2/2/2
f 17/17/17 11/11/11 8/8/8
f 8/8/8 2/2/2 17/17/17
f 11/11/11 7/7/7 18/18/18
f 7/7/7 11/11/11 17/17/17
f 19/19/19 20/20/20 21/21/21
f 21/21/21 22/22/22 19/19/19
f 23/23/23 21/21/21 20/20/20
f 21/21/21 23/23/23 24/24/24
f 25/25/25 24/24/24 23/23/23
f 21/21/21 26/26/26 22/22/22
f 26/26/26 21/21/21 27/27/27
f 10/10/10 27/27/27 21/21/21
f 28/28/28 22/22/22 26/26/26
f 26/26/26 29/29/29 28/28/28
f 30/30/30 28/28/28 29/29/29
f 29/29/29 31/31/31 30/30/30
f 32/32/32 30/30/30 31/31/31
f 31/31/31 33/33/33 32/32/32
f 24/24/24 10/10/10 21/21/21
f 10/10/10 24/24/24 9/9/9
f 34/34/34 9/9/9 24/24/24
f 9/9/9 34/34/34 13/13/13
f 35/35/35 29/29/29 26/26/26
f 29/29/29 35/35/35 36/36/36
f 35/35/35 26/26/26 27/27/27
f 27/27/27 11/11/11 35/35/35
f 37/37/37 32/32/32 33/33/33
f 33/33/33 38/38/38 37/37/37
f 39/39/39 40/40/40 37/37/37
f 40/40/40 39/39/39 41/41/41
f 32/32/32 37/37/37 40/40/40
f 42/42/42 43/43/43 44/44/44
f 43/43/43 42/42/42 36/36/36
f 45/45/45 44/44/44 43/43/43
f 46/46/46 47/47/47 44/44/44
f 47/47/47 46/46/46 48/48/48
f 42/42/42 44/44/44 47/47/47
f 35/35/35 11/11/11 18/18/18
f 27/27/27 10/10/10 11/11/11
f 6/6/6 48/49/48 49/50/49
f 49/50/49 7/7/7 6/6/6
f 7/7/7 50/51/50 18/18/18
f 50/51/50 7/7/7 49/50/49
f 49/50/49 46/52/46 45/45/45
f 46/52/46 49/50/49 48/49/48
f 35/35/35 43/43/43 36/36/36
f 43/43/43 35/35/35 50/51/50
f 18/18/18 50/51/50 35/35/35
f 51/53/51 6/6/6 52/54/52
f 52/54/52 41/55/41 51/53/51
f 48/49/48 6/6/6 51/53/51
f 38/56/38 48/49/48 51/53/51
f 51/53/51 39/57/39 38/56/38
f 39/57/39 51/53/51 41/55/41
f 53/58/53 28/28/28 30/30/30
f 32/32/32 53/58/53 30/30/30
f 53/58/53 32/32/32 40/40/40
f 48/48/48 38/38/38 33/33/33
f 33/33/33 54/59/54 48/48/48
f 47/47/47 48/48/48 54/59/54
f 31/31/31 54/59/54 33/33/33
f 38/60/38 39/61/39 55/62/55
f 39/63/39 37/64/37 55/65/55
f 37/64/37 38/66/38 55/65/55
f 45/67/45 46/68/46 56/69/56
f 46/70/46 44/71/44 56/72/56
f 44/71/44 45/73/45 56/72/56
f 57/74/57 23/23/23 20/20/20
f 20/20/20 58/75/58 57/74/57
f 59/76/59 60/77/60 61/78/61
f 60/79/60 24/24/24 25/25/25
f 24/24/24 60/79/60 34/34/34
f 3/3/3 9/9/9 14/14/14
f 25/25/25 61/80/61 60/79/60
f 61/80/61 25/25/25 62/81/62
f 63/82/63 13/83/13 34/84/34
f 12/85/12 13/83/13 64/86/64
f 60/77/60 65/87/65 66/88/66
f 66/88/66 34/84/34 60/77/60
f 65/87/65 60/77/60 59/76/59
f 59/76/59 67/89/67 65/87/65
f 59/76/59 68/90/68 67/89/67
f 64/86/64 66/88/66 67/89/67
f 66/88/66 65/87/65 67/89/67
f 25/25/25 23/23/23 62/81/62
f 23/23/23 57/74/57 62/81/62
f 13/83/13 63/82/63 64/86/64
f 63/82/63 66/88/66 64/86/64
f 66/88/66 63/82/63 34/84/34
f 54/59/54 29/29/29 36/36/36
f 42/42/42 54/59/54 36/36/36
f 54/59/54 42/42/42 47/47/47
f 29/29/29 54/59/54 31/31/31
f 45/45/45 43/43/43 50/51/50
f 45/45/45 50/51/50 49/50/49
f 7/7/7 17/17/17 2/2/2
f 3/3/3 5/5/5 1/1/1
f 5/5/5 3/3/3 16/16/16
f 52/54/52 4/4/4 69/91/69
f 69/91/69 70/92/70 52/54/52
f 41/55/41 52/54/52 70/92/70
f 70/92/70 71/93/71 41/55/41
f 72/94/72 15/15/15 12/12/12
f 15/15/15 72/94/72 73/95/73
f 16/16/16 74/96/74 75/97/75
f 74/96/74 16/16/16 76/98/76
f 15/15/15 76/98/76 16/16/16
f 76/98/76 15/15/15 77/99/77
f 73/95/73 77/99/77 15/15/15
f 77/99/77 73/95/73 78/100/78
f 79/101/79 74/96/74 80/102/80
f 75/97/75 74/96/74 79/101/79
f 79/101/79 5/5/5 75/97/75
f 81/103/81 20/20/20 19/19/19
f 82/104/82 20/20/20 81/103/81
f 81/103/81 77/99/77 82/104/82
f 83/105/83 82/104/82 77/99/77
f 77/99/77 78/100/78 83/105/83
f 22/22/22 81/103/81 19/19/19
f 81/103/81 22/22/22 84/106/84
f 28/28/28 84/106/84 22/22/22
f 84/106/84 28/28/28 85/107/85
f 86/108/86 85/107/85 28/28/28
f 85/107/85 86/108/86 87/109/87
f 88/110/88 87/109/87 86/108/86
f 81/103/81 76/98/76 77/99/77
f 76/98/76 81/103/81 89/111/89
f 84/106/84 89/111/89 81/103/81
f 84/106/84 85/107/85 90/112/90
f 90/112/90 89/111/89 84/106/84
f 91/113/91 92/114/92 88/110/88
f 88/110/88 40/40/40 91/113/91
f 71/115/71 91/113/91 40/40/40
f 40/40/40 41/41/41 71/115/71
f 92/114/92 91/113/91 93/116/93
f 93/116/93 94/117/94 92/114/92
f 95/118/95 92/114/92 94/117/94
f 94/117/94 96/119/96 95/118/95
f 97/120/97 98/121/98 99/122/99
f 99/122/99 96/119/96 97/120/97
f 100/123/100 97/120/97 96/119/96
f 96/119/96 94/117/94 100/123/100
f 98/121/98 97/120/97 101/124/101
f 101/124/101 102/125/102 98/121/98
f 90/112/90 98/121/98 102/125/102
f 102/125/102 80/102/80 90/112/90
f 74/96/74 90/112/90 80/102/80
f 89/111/89 90/112/90 74/96/74
f 74/96/74 76/98/76 89/111/89
f 69/91/69 103/126/103 94/127/94
f 94/127/94 70/92/70 69/91/69
f 102/125/102 79/101/79 80/102/80
f 103/126/103 79/101/79 102/125/102
f 79/101/79 103/126/103 69/91/69
f 103/126/103 101/124/101 100/128/100
f 100/128/100 94/127/94 103/126/103
f 85/107/85 104/129/104 90/112/90
f 104/129/104 85/107/85 95/118/95
f 87/109/87 95/118/95 85/107/85
f 104/129/104 98/121/98 90/112/90
f 98/121/98 104/129/104 99/122/99
f 95/118/95 99/122/99 104/129/104
f 94/127/94 93/130/93 70/92/70
f 93/130/93 71/93/71 70/92/70
f 28/28/28 53/58/53 86/108/86
f 53/58/53 88/110/88 86/108/86
f 88/110/88 53/58/53 40/40/40
f 87/109/87 88/110/88 92/114/92
f 95/118/95 87/109/87 92/114/92
f 71/131/71 93/132/93 105/133/105
f 91/134/91 71/135/71 105/136/105
f 93/137/93 91/134/91 105/136/105
f 100/138/100 101/139/101 106/140/106
f 97/141/97 100/142/100 106/143/106
f 101/144/101 97/141/97 106/143/106
f 107/145/107 20/20/20 82/104/82
f 82/104/82 108/146/108 107/145/107
f 20/20/20 107/145/107 58/75/58
f 78/147/78 109/148/109 110/149/110
f 110/150/110 83/105/83 78/100/78
f 83/105/83 110/150/110 108/146/108
f 72/151/72 111/152/111 73/153/73
f 72/151/72 12/85/12 64/86/64
f 78/147/78 112/154/112 113/155/113
f 113/155/113 109/148/109 78/147/78
f 112/154/112 78/147/78 73/153/73
f 73/153/73 111/152/111 112/154/112
f 68/90/68 109/148/109 67/89/67
f 112/154/112 64/86/64 67/89/67
f 64/86/64 112/154/112 111/152/111
f 113/155/113 112/154/112 67/89/67
f 109/148/109 113/155/113 67/89/67
f 82/104/82 83/105/83 108/146/108
f 111/152/111 72/151/72 64/86/64
f 99/122/99 95/118/95 96/119/96
f 102/125/102 101/124/101 103/126/103
f 79/101/79 69/91/69 5/5/5
f 16/16/16 75/97/75 5/5/5
f 114/156/114 61/157/61 62/158/62
f 62/158/62 115/159/115 114/156/114
f 116/160/116 114/156/114 115/159/115
f 115/159/115 117/161/117 116/160/116
f 118/162/118 119/163/119 61/157/61
f 119/163/119 118/162/118 120/164/120
f 121/165/121 120/164/120 118/162/118
f 118/162/118 61/157/61 114/156/114
f 121/165/121 118/162/118 114/156/114
f 114/156/114 116/160/116 121/165/121
f 119/163/119 68/166/68 59/167/59
f 59/167/59 61/157/61 119/163/119
f 119/163/119 120/164/120 68/166/68
f 115/159/115 62/158/62 57/168/57
f 57/168/57 117/161/117 115/159/115
f 57/168/57 58/169/58 117/161/117
f 108/170/108 110/171/110 122/172/122
f 123/173/123 108/170/108 122/172/122
f 122/172/122 116/160/116 123/173/123
f 123/173/123 116/160/116 117/161/117
f 124/174/124 110/171/110 125/175/125
f 125/175/125 120/164/120 124/174/124
f 121/165/121 124/174/124 120/164/120
f 122/172/122 110/171/110 124/174/124
f 124/174/124 121/165/121 122/172/122
f 122/172/122 121/165/121 116/160/116
f 125/175/125 109/176/109 68/166/68
f 68/166/68 120/164/120 125/175/125
f 125/175/125 110/171/110 109/176/109
f 107/177/107 108/170/108 123/173/123
f 107/177/107 123/173/123 117/161/117
f 58/169/58 107/177/107 117/161/117
f 69/91/69 4/4/4 5/5/5
f 4/4/4 52/54/52 6/6/6
