# Blender v2.79 (sub 0) OBJ File: ''
# www.blender.org
mtllib w2dsw03l.mtl
o MDL_w2dsw03_bod00_001
v -0.008600 -0.265100 0.072300
v 0.008400 -0.313800 0.044200
v 0.008400 -0.265100 0.072300
v -0.008600 -0.313800 0.044200
v 0.008400 -0.313800 -0.012000
v -0.008600 -0.313800 -0.012000
v 0.008400 -0.265100 -0.040300
v -0.008600 -0.265100 -0.040300
v 0.008400 -0.216200 -0.012000
v -0.008600 -0.216200 -0.012000
v -0.008600 -0.216200 0.044200
v 0.008400 -0.216200 0.044200
v 0.008400 -0.265100 0.016100
v 0.000000 -0.192300 0.022000
v 0.000000 -0.109600 0.013600
v 0.000000 -0.045600 0.031900
v 0.008400 -0.102700 -0.012000
v -0.008600 -0.102700 -0.012000
v -0.008600 -0.030400 0.008400
v 0.008400 -0.030400 0.008400
v 0.000000 -0.002600 0.043600
v -0.008600 -0.248100 0.146600
v 0.008400 -0.248100 0.146600
v 0.000000 -0.243200 0.175000
v 0.008400 -0.085100 0.087700
v -0.008600 -0.085100 0.087700
v 0.000000 -0.164300 0.128300
v 0.008400 -0.168700 0.105000
v 0.000000 -0.078100 0.112700
v -0.008600 -0.168700 0.105000
v -0.043000 -0.265100 0.054400
v 0.043000 -0.298200 0.035200
v 0.043000 -0.265100 0.054400
v -0.043000 -0.298200 0.035200
v 0.043000 -0.298200 -0.003100
v -0.043000 -0.298200 -0.003100
v 0.043000 -0.265100 -0.022200
v -0.043000 -0.265100 -0.022200
v 0.043000 -0.231800 -0.003100
v -0.043000 -0.231800 -0.003100
v 0.043000 -0.231800 0.035200
v -0.043000 -0.231800 0.035200
v 0.043000 -0.292400 0.031900
v 0.043000 -0.292400 0.000200
v 0.043000 -0.265100 0.047700
v 0.043000 -0.265100 -0.015500
v 0.043000 -0.237600 0.000200
v 0.043000 -0.237600 0.031900
v 0.064500 -0.265100 0.016100
v -0.010900 -0.265100 0.016100
v -0.043000 -0.292400 0.031900
v -0.043000 -0.292400 0.000200
v -0.043000 -0.265100 0.047700
v -0.043000 -0.265100 -0.015500
v -0.043000 -0.237600 0.000200
v -0.043000 -0.237600 0.031900
v -0.064500 -0.265100 0.016100
vt 0.718800 0.082000
vt 0.421900 0.003900
vt 0.718800 0.003900
vt 0.421900 0.082000
vt 0.718800 0.003900
vt 0.718800 0.082000
vt 0.421900 0.003900
vt 0.718800 0.082000
vt 0.421900 0.082000
vt 0.718800 0.003900
vt 0.375000 0.082000
vt 0.375000 0.003900
vt 0.375000 0.082000
vt 0.375000 0.003900
vt 0.859400 0.058600
vt 0.976600 0.058600
vt 0.921900 0.003900
vt 0.921900 0.117200
vt 0.796900 0.003900
vt 0.742200 0.058600
vt 0.796900 0.117200
vt 0.585900 0.097700
vt 0.695300 0.132800
vt 0.757800 0.097700
vt 0.656300 0.281300
vt 0.757800 0.097700
vt 0.664100 0.097700
vt 0.679700 0.179700
vt 0.585900 0.296900
vt 0.585900 0.296900
vt 0.585900 0.187500
vt 0.585900 0.187500
vt 0.695300 0.742200
vt 0.664100 0.851600
vt 0.695300 0.851600
vt 0.664100 0.742200
vt 0.375000 0.007800
vt 0.375000 0.078100
vt 0.648400 0.043000
vt 0.281300 0.078100
vt 0.359400 0.078100
vt 0.320300 0.007800
vt 0.656300 0.043000
vt 0.718800 0.082000
vt 0.437500 0.082000
vt 0.437500 0.003900
vt 0.718800 0.003900
vt 0.718800 0.082000
vt 0.718800 0.003900
vt 0.437500 0.082000
vt 0.281300 0.003900
vt 0.281300 0.082000
vt 0.437500 0.003900
vt 0.718800 0.082000
vt 0.718800 0.082000
vt 0.718800 0.003900
vt 0.281300 0.082000
vt 0.281300 0.003900
vt 0.687500 0.500000
vt 0.882800 0.269500
vt 0.687500 0.269500
vt 0.882800 0.500000
vt 0.687500 0.269500
vt 0.687500 0.500000
vt 0.882800 0.269500
vt 0.882800 0.500000
vt 0.687500 0.269500
vt 0.687500 0.500000
vt 0.882800 0.269500
vt 0.882800 0.500000
vt 0.648400 0.636700
vt 0.695300 0.511700
vt 0.695300 0.636700
vt 0.648400 0.511700
vt 0.648400 0.511700
vt 0.695300 0.636700
vt 0.695300 0.511700
vt 0.648400 0.636700
vt 0.695300 0.636700
vt 0.648400 0.511700
vt 0.695300 0.511700
vt 0.648400 0.636700
vt 0.992200 0.199200
vt 0.921900 0.140600
vt 0.867200 0.199200
vt 0.804700 0.140600
vt 0.742200 0.199200
vt 0.804700 0.253900
vt 0.921900 0.253900
vt 0.695300 0.652300
vt 0.664100 0.652300
vt 0.718800 0.003900
vt 0.859400 0.058600
vt 0.921900 0.003900
vt 0.976600 0.058600
vt 0.796900 0.003900
vt 0.742200 0.058600
vt 0.796900 0.117200
vt 0.921900 0.117200
vt 0.585900 0.097700
vt 0.695300 0.636700
vt 0.695300 0.511700
vt 0.648400 0.636700
vt 0.648400 0.511700
vt 0.648400 0.511700
vt 0.695300 0.636700
vt 0.695300 0.511700
vt 0.648400 0.636700
vt 0.695300 0.636700
vt 0.648400 0.511700
vt 0.695300 0.511700
vt 0.648400 0.636700
vt 0.921900 0.140600
vt 0.992200 0.199200
vt 0.867200 0.199200
vt 0.804700 0.140600
vt 0.742200 0.199200
vt 0.804700 0.253900
vt 0.921900 0.253900
vn -0.5909 -0.1483 0.7930
vn 0.6031 -0.6029 0.5223
vn 0.6028 0.1497 0.7837
vn -0.5911 -0.7606 0.2684
vn 0.6027 -0.7542 -0.2606
vn 0.6030 -0.6029 0.5224
vn -0.5908 -0.6139 -0.5235
vn -0.5909 -0.6139 -0.5235
vn 0.6034 -0.1521 -0.7828
vn -0.5915 0.1478 -0.7926
vn 0.8836 0.2462 -0.3983
vn -0.8865 0.1702 -0.4302
vn -0.6693 0.4751 0.5712
vn 0.8010 0.4110 0.4353
vn 1.0000 0.0000 0.0000
vn 0.6030 -0.6029 0.5223
vn 0.0020 0.7620 0.6475
vn 0.0033 -0.0725 0.9974
vn 0.0007 -0.9819 -0.1895
vn 0.0033 -0.0726 0.9974
vn 0.6828 0.0905 -0.7250
vn -0.9376 0.0341 -0.3461
vn -0.5530 0.1769 -0.8142
vn 0.6828 0.0904 -0.7250
vn 0.7186 0.1229 -0.6845
vn -0.5530 0.1768 -0.8142
vn -0.9376 0.0340 -0.3462
vn 0.7186 0.1229 -0.6844
vn 0.0022 0.9976 0.0694
vn -0.8563 -0.5126 -0.0635
vn 0.7043 -0.5957 -0.3862
vn 0.0021 -0.7024 0.7118
vn 0.8093 -0.4046 -0.4258
vn -0.6916 -0.3944 -0.6051
vn 0.8093 -0.4047 -0.4257
vn -0.5529 0.1769 -0.8142
vn 0.0037 0.3850 0.9229
vn 0.8176 -0.1693 -0.5503
vn 0.0038 0.3706 0.9288
vn 0.0038 0.3707 0.9287
vn 0.0022 0.9976 0.0695
vn 0.8093 -0.4046 -0.4257
vn -0.8188 -0.2440 -0.5197
vn -0.7501 -0.1260 0.6492
vn 0.7498 -0.5007 0.4324
vn 0.7501 0.1243 0.6495
vn -0.7498 -0.6253 0.2162
vn 0.7500 -0.6250 -0.2165
vn -0.7500 -0.4999 -0.4331
vn 0.7497 -0.1255 -0.6497
vn -0.7497 0.1238 -0.6500
vn 0.7502 0.4989 -0.4339
vn -0.7502 0.6246 -0.2169
vn 0.7500 0.6249 0.2166
vn -0.7500 0.4998 0.4332
vn 0.9736 -0.1977 0.1139
vn 0.9737 -0.1973 -0.1140
vn 0.9737 -0.0004 0.2279
vn 0.9737 -0.0004 -0.2279
vn 0.9739 0.1962 -0.1140
vn 0.9738 0.1966 0.1140
vn 1.0000 -0.0014 -0.0001
vn 1.0000 -0.0015 -0.0001
vn -0.8865 0.1703 -0.4302
vn 0.6827 0.0905 -0.7250
vn 0.8836 0.2462 -0.3984
vn 0.0033 -0.0727 0.9973
vn -1.0000 -0.0001 0.0000
vn -0.5911 -0.7606 0.2683
vn -0.5909 -0.1484 0.7930
vn -0.5909 -0.6139 -0.5234
vn -1.0000 -0.0001 0.0001
vn -0.6693 0.4752 0.5711
vn 0.0020 0.7620 0.6476
vn -0.8187 -0.2440 -0.5197
vn -0.6916 -0.3944 -0.6052
vn 0.0023 0.9976 0.0695
vn -0.8187 -0.2441 -0.5197
vn -0.9736 -0.1977 0.1139
vn -0.9737 -0.1973 -0.1140
vn -0.9737 -0.0004 0.2278
vn -0.9737 -0.0004 -0.2279
vn -0.9739 0.1962 -0.1140
vn -0.9738 0.1966 0.1140
vn -0.9737 -0.0004 0.2279
vn -1.0000 -0.0014 -0.0001
vn -0.9737 -0.1973 -0.1139
vn -0.9737 -0.0004 -0.2280
vn -1.0000 -0.0015 -0.0001
vn -0.9738 0.1966 0.1139
usemtl TEX_w2dsw03_001
s 1
f 1/1/1 2/2/2 3/3/3
f 2/2/2 1/1/1 4/4/4
f 4/4/4 5/5/5 2/2/6
f 5/5/5 4/4/4 6/6/7
f 6/7/8 7/8/9 5/9/5
f 7/8/9 6/7/8 8/10/10
f 8/10/10 9/11/11 7/8/9
f 9/11/11 8/10/10 10/12/12
f 11/13/13 3/3/3 12/14/14
f 3/3/3 11/13/13 1/1/1
f 13/15/15 3/16/3 2/17/16
f 3/16/3 13/15/15 12/18/14
f 13/15/15 2/17/16 5/19/5
f 13/15/15 5/19/5 7/20/9
f 13/15/15 7/20/9 9/21/11
f 13/15/15 9/21/11 12/18/14
f 9/22/11 14/23/17 12/24/14
f 14/23/17 9/22/11 15/25/18
f 11/26/13 12/27/14 14/23/17
f 16/28/19 15/25/20 17/29/21
f 15/25/20 16/28/19 18/30/22
f 19/31/23 18/30/22 16/28/19
f 17/29/24 20/32/25 16/28/19
f 19/33/26 17/34/21 18/35/27
f 17/34/21 19/33/26 20/36/25
f 20/37/28 19/38/23 21/39/29
f 22/40/30 23/41/31 24/42/32
f 16/43/19 20/44/25 25/45/33
f 26/46/34 16/43/19 25/45/35
f 16/43/19 26/46/34 19/47/36
f 27/48/37 28/49/38 29/50/39
f 28/49/38 27/48/37 23/51/31
f 24/52/32 23/51/31 27/48/37
f 25/53/33 29/50/40 28/49/38
f 29/50/40 25/53/33 21/54/41
f 28/55/38 26/46/34 25/45/42
f 26/46/34 28/55/38 30/56/43
f 23/57/31 30/56/43 28/55/38
f 30/56/43 23/57/31 22/58/30
f 31/59/44 32/60/45 33/61/46
f 32/60/45 31/59/44 34/62/47
f 34/62/47 35/63/48 32/60/45
f 35/63/48 34/62/47 36/64/49
f 36/64/49 37/65/50 35/63/48
f 37/65/50 36/64/49 38/66/51
f 38/66/51 39/67/52 37/65/50
f 39/67/52 38/66/51 40/68/53
f 40/68/53 41/69/54 39/67/52
f 41/69/54 40/68/53 42/70/55
f 42/70/55 33/61/46 41/69/54
f 33/61/46 42/70/55 31/59/44
f 43/71/56 33/72/46 32/73/45
f 32/73/45 44/74/57 43/71/56
f 33/72/46 43/71/56 45/75/58
f 45/75/58 41/76/54 33/72/46
f 44/74/57 32/73/45 35/77/48
f 35/77/48 46/78/59 44/74/57
f 46/78/59 35/77/48 37/79/50
f 37/79/50 47/80/60 46/78/59
f 47/80/60 37/79/50 39/81/52
f 39/81/52 48/82/61 47/80/60
f 48/82/61 39/81/52 41/76/54
f 41/76/54 45/75/58 48/82/61
f 45/83/58 43/84/56 49/85/62
f 43/84/56 44/86/57 49/85/62
f 44/86/57 46/87/59 49/85/62
f 46/87/59 47/88/60 49/85/63
f 47/88/60 48/89/61 49/85/62
f 48/89/61 45/83/58 49/85/63
f 10/90/64 18/35/22 17/34/65
f 10/90/64 17/34/65 9/91/66
f 9/22/11 17/29/21 15/25/67
f 25/53/33 20/92/25 21/54/29
f 50/93/68 4/94/69 1/95/70
f 4/94/69 50/93/68 6/96/71
f 50/93/72 8/97/10 6/96/7
f 8/97/10 50/93/72 10/98/64
f 50/93/68 11/99/73 10/98/64
f 11/99/73 50/93/68 1/95/1
f 10/100/64 11/26/13 14/23/74
f 29/50/40 30/56/75 27/48/37
f 30/56/75 29/50/40 26/46/76
f 21/54/77 26/46/76 29/50/40
f 27/48/37 22/58/30 24/52/32
f 22/58/30 27/48/37 30/56/78
f 10/100/64 15/25/20 18/30/27
f 15/25/20 10/100/64 14/23/17
f 26/46/34 21/54/29 19/47/23
f 34/101/47 31/102/44 51/103/79
f 51/103/79 52/104/80 34/101/47
f 53/105/81 51/103/79 31/102/44
f 31/102/44 42/106/55 53/105/81
f 36/107/49 34/101/47 52/104/80
f 52/104/80 54/108/82 36/107/49
f 38/109/51 36/107/49 54/108/82
f 54/108/82 55/110/83 38/109/51
f 40/111/53 38/109/51 55/110/83
f 55/110/83 56/112/84 40/111/53
f 42/106/55 40/111/53 56/112/84
f 56/112/84 53/105/81 42/106/55
f 51/113/79 53/114/85 57/115/86
f 57/115/86 52/116/87 51/113/79
f 54/117/88 52/116/80 57/115/89
f 57/115/89 55/118/83 54/117/88
f 56/119/90 55/118/83 57/115/89
f 57/115/89 53/114/85 56/119/90
o MDL_w2dsw03_bld00_001
v 0.024100 -0.366700 0.071200
v 0.024100 -0.367000 0.000900
v 0.024100 -0.508800 0.071200
v 0.024100 -0.253300 0.039200
v 0.024100 -0.508800 0.014200
v 0.024100 -0.652800 0.071200
v 0.024100 -0.652800 -0.002900
v 0.024100 -0.265200 0.109300
v -0.024100 -0.253300 0.039200
v -0.024100 -0.265200 0.109300
v -0.024100 -0.508800 0.071200
v -0.024100 -0.366700 0.071200
v -0.024100 -0.652800 0.071200
v -0.024100 -0.652800 -0.002900
v -0.024100 -0.508800 0.014200
v -0.024100 -0.367000 0.000900
v 0.024100 -0.253300 -0.004700
v -0.024100 -0.303600 -0.033800
v -0.024100 -0.253300 -0.004700
v 0.024100 -0.303600 -0.033800
v 0.024100 -0.366600 0.116800
v -0.024100 -0.366600 0.116800
v 0.024100 -0.320800 0.135600
v -0.024100 -0.320800 0.135600
v 0.024100 -0.277800 0.190700
v 0.024100 -0.253600 0.180400
v -0.024100 -0.253600 0.180400
v -0.024100 -0.277800 0.190700
v 0.000000 -0.652800 0.128800
v -0.024100 -0.697700 0.071200
v 0.024100 -0.697700 0.071200
v 0.000000 -0.697700 0.118500
v -0.024100 -0.746700 0.071200
v 0.024100 -0.746700 0.071200
v 0.024100 -0.788500 -0.003300
v 0.024100 -0.719900 0.022000
v 0.024100 -0.707500 -0.025800
v -0.024100 -0.707500 -0.025800
v -0.024100 -0.788500 -0.003300
v -0.024100 -0.719900 0.022000
v 0.024100 -0.788300 -0.060800
v 0.000000 -0.841100 -0.107700
v -0.024100 -0.788300 -0.060800
v 0.000000 -0.819700 0.022300
v 0.000000 -0.746700 0.109800
v 0.000000 -0.789900 0.084600
v 0.011900 -0.749100 0.087600
v 0.011900 -0.359900 0.064500
v 0.011900 -0.359900 0.087600
v 0.011900 -0.749100 0.064500
v 0.011900 -0.795500 0.028100
v 0.011900 -0.700500 0.000700
v 0.011900 -0.700500 0.028100
v 0.011900 -0.795500 0.000700
v 0.000000 -0.629100 0.029800
v 0.000000 -0.651100 0.083200
v 0.011100 -0.575800 0.083200
v -0.011300 -0.575800 0.083200
v 0.000000 -0.575800 0.007900
v 0.000000 -0.522500 0.029800
v 0.000000 -0.500800 0.083200
v 0.000000 -0.522500 0.136500
v 0.000000 -0.575800 0.158500
v 0.000000 -0.629100 0.136500
v -0.012000 -0.749100 0.087600
v -0.012000 -0.359900 0.064500
v -0.012000 -0.359900 0.087600
v -0.012000 -0.749100 0.064500
v -0.012000 -0.795500 0.028100
v -0.012000 -0.700500 0.000700
v -0.012000 -0.700500 0.028100
v -0.012000 -0.795500 0.000700
v 0.000000 -0.497800 0.112000
v 0.000000 -0.457000 0.152800
v 0.011100 -0.428300 0.083100
v -0.011300 -0.428300 0.083100
v 0.000000 -0.497800 0.054300
v 0.000000 -0.457000 0.013500
v 0.000000 -0.399500 0.014000
v 0.000000 -0.358600 0.054300
v 0.000000 -0.358600 0.112000
v 0.000000 -0.399400 0.152800
v 0.000000 -0.753500 0.084900
v 0.000000 -0.744100 0.107400
v 0.011300 -0.721600 0.084900
v -0.011300 -0.721600 0.084900
v 0.000000 -0.744100 0.062300
v 0.000000 -0.721600 0.053100
v 0.000000 -0.699200 0.062400
v 0.000000 -0.689700 0.084900
v 0.000000 -0.699100 0.107400
v 0.000000 -0.721600 0.116800
v 0.000000 -0.805000 0.002400
v 0.000000 -0.790300 0.037900
v 0.011300 -0.754700 0.002400
v -0.011300 -0.754700 0.002400
v 0.000000 -0.790300 -0.033200
v 0.000000 -0.754700 -0.047900
v 0.000000 -0.719400 -0.033000
v 0.000000 -0.704500 0.002400
v 0.000000 -0.719200 0.037900
v 0.000000 -0.754700 0.052600
vt 0.437500 0.828100
vt 0.437500 0.617200
vt 0.203100 0.828100
vt 0.328100 0.992200
vt 0.250000 0.617200
vt 0.437500 0.406300
vt 0.195300 0.406300
vt 0.609400 0.414100
vt 0.460900 0.468800
vt 0.460900 0.414100
vt 0.609400 0.468800
vt 0.156300 0.687500
vt 0.007800 0.421900
vt 0.007800 0.687500
vt 0.156300 0.421900
vt 0.156300 0.421900
vt 0.007800 0.421900
vt 0.609400 0.753900
vt 0.460900 0.500000
vt 0.460900 0.753900
vt 0.609400 0.500000
vt 0.718800 0.761700
vt 0.882800 0.507800
vt 0.882800 0.761700
vt 0.718800 0.507800
vt 0.414100 0.187500
vt 0.562500 0.093800
vt 0.562500 0.187500
vt 0.414100 0.093800
vt 0.156300 0.714800
vt 0.007800 0.714800
vt 0.156300 0.605500
vt 0.007800 0.605500
vt 0.468800 0.765600
vt 0.468800 0.816400
vt 0.609400 0.816400
vt 0.609400 0.765600
vt 0.648400 0.898400
vt 0.562500 0.980500
vt 0.585900 0.828100
vt 0.156300 0.394500
vt 0.007800 0.527300
vt 0.007800 0.394500
vt 0.156300 0.527300
vt 0.007800 0.394500
vt 0.156300 0.394500
vt 0.828100 0.960900
vt 0.796900 0.992200
vt 0.093800 0.918000
vt 0.179700 0.992200
vt 0.718800 0.902300
vt 0.882800 0.902300
vt 0.000000 0.382800
vt 0.164100 0.382800
vt 0.078100 0.304700
vt 0.000000 0.382800
vt 0.164100 0.382800
vt 0.078100 0.304700
vt 0.585900 0.335900
vt 0.437500 0.335900
vt 0.625000 0.406300
vt 0.437500 0.406300
vt 0.609400 0.500000
vt 0.460900 0.500000
vt 0.460900 0.625000
vt 0.609400 0.625000
vt 0.437500 0.261700
vt 0.257800 0.207000
vt 0.273400 0.300800
vt 0.109400 0.320300
vt 0.007800 0.714800
vt 0.007800 0.574200
vt 0.156300 0.574200
vt 0.156300 0.714800
vt 0.007800 0.460900
vt 0.007800 0.597700
vt 0.156300 0.597700
vt 0.156300 0.460900
vt 0.000000 0.382800
vt 0.078100 0.304700
vt 0.164100 0.382800
vt 0.335900 0.164100
vt 0.054700 0.203100
vt 0.007800 0.121100
vt 0.054700 0.203100
vt 0.156300 0.425800
vt 0.007800 0.425800
vt 0.007800 0.644500
vt 0.156300 0.644500
vt 0.000000 0.382800
vt 0.164100 0.382800
vt 0.078100 0.304700
vt 0.500000 0.222700
vt 0.562500 0.261700
vt 0.992200 0.316400
vt 0.898400 0.996100
vt 0.992200 0.996100
vt 0.898400 0.316400
vt 0.898400 0.390600
vt 0.992200 0.585900
vt 0.898400 0.585900
vt 0.992200 0.390600
vt 0.101600 0.007800
vt 0.304700 0.113300
vt 0.015600 0.113300
vt 0.304700 0.113300
vt 0.015600 0.113300
vt 0.101600 0.007800
vt 0.015600 0.113300
vt 0.101600 0.007800
vt 0.015600 0.113300
vt 0.101600 0.007800
vt 0.203100 0.828100
vt 0.437500 0.617200
vt 0.437500 0.828100
vt 0.250000 0.617200
vt 0.195300 0.406300
vt 0.648400 0.898400
vt 0.328100 0.992200
vt 0.562500 0.980500
vt 0.093800 0.918000
vt 0.585900 0.828100
vt 0.828100 0.960900
vt 0.796900 0.992200
vt 0.179700 0.992200
vt 0.437500 0.335900
vt 0.437500 0.261700
vt 0.273400 0.300800
vt 0.257800 0.207000
vt 0.109400 0.320300
vt 0.992200 0.316400
vt 0.992200 0.996100
vt 0.898400 0.996100
vt 0.898400 0.316400
vt 0.898400 0.390600
vt 0.898400 0.585900
vt 0.992200 0.585900
vt 0.992200 0.390600
vt 0.101600 0.007800
vt 0.304700 0.113300
vt 0.015600 0.113300
vt 0.304700 0.113300
vt 0.015600 0.113300
vt 0.101600 0.007800
vt 0.015600 0.113300
vt 0.101600 0.007800
vt 0.015600 0.113300
vt 0.101600 0.007800
vt 0.101600 0.007800
vt 0.304700 0.113300
vt 0.015600 0.113300
vt 0.304700 0.113300
vt 0.015600 0.113300
vt 0.101600 0.007800
vt 0.015600 0.113300
vt 0.101600 0.007800
vt 0.015600 0.113300
vt 0.101600 0.007800
vt 0.101600 0.007800
vt 0.304700 0.113300
vt 0.015600 0.113300
vt 0.304700 0.113300
vt 0.015600 0.113300
vt 0.101600 0.007800
vt 0.015600 0.113300
vt 0.101600 0.007800
vt 0.015600 0.113300
vt 0.101600 0.007800
vn 0.8727 -0.4364 0.2192
vn 0.7071 -0.0000 0.7071
vn 0.8053 -0.1343 -0.5775
vn 0.9806 0.1933 0.0329
vn 0.7089 0.0337 -0.7045
vn 0.8500 0.1611 0.5016
vn 0.8025 0.1786 -0.5693
vn 0.7114 0.7016 0.0412
vn -0.9285 0.3661 0.0621
vn -0.7114 0.7018 -0.0367
vn -0.8727 -0.2182 0.4368
vn -0.7071 -0.0000 0.7071
vn 0.7071 -0.0002 0.7071
vn -0.9198 0.1743 0.3516
vn -0.8025 0.1247 -0.5835
vn -0.7089 -0.0162 -0.7052
vn -0.7089 -0.0163 -0.7052
vn -0.8053 -0.2121 -0.5536
vn 0.4472 0.4479 -0.7742
vn -0.6010 0.1567 -0.7838
vn -0.7071 0.3539 -0.6122
vn 0.6010 -0.1381 -0.7873
vn 0.8727 -0.4363 0.2191
vn 0.3645 -0.6413 0.6752
vn -0.3645 -0.8674 0.3388
vn -0.8727 -0.2182 0.4369
vn 0.8085 -0.3955 0.4357
vn -0.8086 -0.3129 0.4983
vn 0.6315 -0.0016 0.7754
vn 0.3792 0.8971 0.2268
vn -0.3792 0.6713 0.6368
vn -0.6316 -0.3742 0.6791
vn 0.8086 -0.3954 0.4357
vn -0.7114 0.7019 -0.0366
vn -0.6315 -0.3742 0.6791
vn 0.6316 -0.0016 0.7753
vn -0.8085 -0.3129 0.4984
vn 0.7114 0.7016 0.0411
vn 0.6315 -0.0017 0.7754
vn -0.6009 0.1567 -0.7838
vn -0.9198 0.1744 0.3515
vn 0.0000 0.7310 0.6824
vn -0.9107 -0.2340 0.3403
vn 0.8265 -0.2124 0.5213
vn -0.0000 -0.5743 0.8186
vn 0.8265 -0.2125 0.5213
vn -0.9107 -0.2341 0.3403
vn -0.8012 0.0625 0.5952
vn -0.8012 0.0624 0.5952
vn 0.9022 0.0704 0.4256
vn 0.9900 -0.0439 -0.1341
vn 0.8813 -0.0608 -0.4687
vn 0.4291 -0.6650 -0.6113
vn -0.4291 -0.0839 -0.8994
vn -0.8025 0.1248 -0.5835
vn 0.8025 0.1787 -0.5693
vn -0.8856 0.2993 -0.3551
vn -0.8812 -0.3503 -0.3174
vn 0.8812 -0.0608 -0.4687
vn -0.8812 -0.3503 -0.3173
vn -0.4291 -0.0839 -0.8993
vn 0.6974 0.6606 -0.2779
vn 0.0000 -0.4220 -0.9066
vn -0.8832 0.3077 -0.3538
vn -0.0000 -0.9817 0.1902
vn -0.8833 0.3077 -0.3538
vn 0.9900 -0.0440 -0.1341
vn 0.9022 0.0703 0.4256
vn -0.8011 0.0625 0.5952
vn 0.0001 0.3752 0.9269
vn -0.0000 -0.7750 0.6319
vn 0.0000 0.3753 0.9269
vn 1.0000 0.0000 0.0000
vn 0.0015 -0.7068 -0.7074
vn 1.0000 0.0001 0.0001
vn 0.0015 -1.0000 0.0004
vn -1.0000 0.0001 0.0000
vn 0.0015 0.0000 -1.0000
vn 0.0015 0.7088 -0.7054
vn -1.0000 0.0002 0.0000
vn 0.0014 1.0000 0.0004
vn 0.0015 0.7090 0.7052
vn 0.0011 -0.0000 1.0000
vn 0.0017 -0.7071 0.7071
vn -0.8053 -0.2121 -0.5537
vn -0.7089 -0.0162 -0.7051
vn -0.9285 0.3661 0.0622
vn -0.8086 -0.3128 0.4984
vn -0.8727 -0.2181 0.4368
vn -0.7071 0.3541 -0.6121
vn -0.8813 -0.3503 -0.3173
vn -0.8856 0.2993 -0.3550
vn -0.8012 0.0625 0.5951
vn 0.0000 -0.7751 0.6319
vn -1.0000 0.0000 0.0000
vn 0.0014 -0.9239 0.3826
vn 1.0000 -0.0001 -0.0003
vn 0.0016 -0.3832 0.9237
vn -1.0000 0.0000 -0.0003
vn 0.0015 -0.9239 -0.3827
vn 0.0015 -0.3782 -0.9257
vn 0.0013 0.3833 -0.9236
vn 0.0015 0.9222 -0.3868
vn 0.0014 0.9239 0.3826
vn 0.0014 0.3826 0.9239
vn -0.0000 -1.0000 0.0010
vn 1.0000 0.0003 -0.0006
vn 0.0000 -0.7071 0.7071
vn -1.0000 0.0003 -0.0004
vn -0.0000 -0.7047 -0.7095
vn 0.0000 0.0030 -1.0000
vn 0.0000 0.7047 -0.7095
vn 0.0000 1.0000 -0.0024
vn 0.0000 0.7071 0.7071
vn 0.0000 -0.0000 1.0000
vn 0.0000 -1.0000 0.0008
vn 1.0000 0.0004 0.0000
vn -0.0000 -0.7065 0.7077
vn -1.0000 0.0004 -0.0000
vn 0.0000 -0.7071 -0.7071
vn 0.0000 0.0046 -1.0000
vn -0.0000 0.7078 -0.7065
vn 0.0000 1.0000 -0.0034
vn 0.0000 0.0004 1.0000
vn -1.0000 0.0004 -0.0001
usemtl TEX_w2dsw03_001
s 1
f 58/120/91 60/121/92 59/122/93
f 59/122/93 61/123/94 58/120/91
f 62/124/95 59/122/93 60/121/92
f 60/121/92 63/125/96 62/124/95
f 62/124/95 63/125/96 64/126/97
f 65/127/98 66/128/99 67/129/100
f 66/128/99 65/127/98 61/130/94
f 60/131/92 69/132/101 68/133/102
f 68/133/102 63/134/96 60/131/103
f 60/131/92 58/135/91 69/132/101
f 68/133/102 70/136/104 63/134/96
f 62/137/95 71/138/105 72/139/106
f 71/138/105 62/137/95 64/140/97
f 59/141/93 72/142/107 73/143/108
f 72/142/107 59/141/93 62/144/95
f 74/145/109 75/146/110 76/147/111
f 75/146/110 74/145/109 77/148/112
f 58/135/113 78/149/114 79/150/115
f 58/135/113 79/150/115 69/132/116
f 78/149/114 80/151/117 81/152/118
f 78/149/114 81/152/118 79/150/115
f 82/153/119 83/154/120 84/155/121
f 82/153/119 84/155/121 85/156/122
f 80/157/123 58/120/91 61/123/94
f 61/123/94 65/158/98 80/157/123
f 78/159/114 58/120/91 80/157/123
f 83/160/120 67/161/124 84/162/121
f 67/161/124 83/160/120 65/163/98
f 85/164/125 80/151/123 82/165/126
f 80/151/123 85/164/125 81/152/127
f 82/166/119 65/158/128 83/167/120
f 65/158/98 82/166/129 80/157/123
f 61/123/94 59/122/93 77/168/112
f 77/168/112 74/169/109 61/123/94
f 77/170/112 73/143/108 75/171/130
f 73/143/108 77/170/112 59/141/93
f 63/172/96 70/173/131 86/174/132
f 87/175/133 88/176/134 89/177/135
f 63/125/96 89/178/135 88/179/134
f 88/179/134 64/126/97 63/125/96
f 89/178/135 63/125/96 86/180/132
f 86/180/132 70/181/131 89/178/135
f 88/182/136 87/183/137 90/184/138
f 90/184/139 91/185/140 88/182/134
f 91/186/140 92/187/141 93/188/142
f 88/179/134 91/186/140 93/188/142
f 93/188/142 64/126/97 88/179/136
f 93/188/142 94/189/143 64/126/97
f 95/190/144 71/191/145 64/192/146
f 95/190/144 64/192/146 94/193/143
f 96/194/147 97/195/148 93/196/149
f 96/194/147 93/196/149 92/197/141
f 97/195/150 95/190/151 94/193/143
f 97/195/150 94/193/143 93/196/149
f 98/198/152 99/199/153 100/200/154
f 101/201/155 98/202/152 92/187/141
f 99/203/153 98/202/152 101/201/155
f 101/201/155 100/204/154 99/203/153
f 98/205/152 100/206/156 96/207/147
f 98/205/152 96/207/147 92/208/157
f 91/209/158 90/210/159 102/211/160
f 103/212/161 91/186/140 102/213/162
f 91/186/140 103/212/161 92/187/141
f 101/201/155 92/187/141 103/212/161
f 104/214/163 105/215/163 106/216/163
f 105/215/163 104/214/163 107/217/163
f 108/218/163 109/219/163 110/220/163
f 109/219/163 108/218/163 111/221/163
f 112/222/164 114/223/165 113/224/166
f 113/224/166 115/225/167 112/222/164
f 116/226/168 112/222/164 115/225/167
f 114/223/165 112/222/164 116/226/168
f 117/227/169 114/223/165 116/226/168
f 116/226/168 115/225/170 117/227/169
f 118/228/171 117/227/169 115/225/170
f 114/223/165 117/227/169 118/228/171
f 119/229/172 114/223/165 118/228/171
f 118/228/171 115/225/170 119/229/172
f 120/230/173 119/229/172 115/225/170
f 114/223/165 119/229/172 120/230/173
f 121/231/174 114/223/165 120/230/173
f 120/230/173 115/225/167 121/231/174
f 113/224/166 121/231/174 115/225/167
f 114/223/165 121/231/174 113/224/166
f 73/232/108 68/233/102 69/234/101
f 68/233/102 73/232/175 72/235/176
f 72/235/176 70/181/131 68/233/102
f 70/181/131 72/235/176 71/236/145
f 69/234/101 81/237/118 66/238/177
f 81/237/118 67/239/100 66/238/177
f 73/232/108 69/234/101 66/238/177
f 66/238/177 75/240/130 73/232/108
f 79/241/115 81/237/178 69/234/179
f 67/239/100 85/242/125 84/243/121
f 85/242/125 67/239/100 81/237/118
f 76/244/180 75/240/130 66/238/177
f 89/178/135 70/181/131 87/245/137
f 90/246/138 97/247/181 96/248/147
f 97/247/181 90/246/138 87/245/137
f 97/247/181 71/236/145 95/249/144
f 71/236/145 97/247/181 87/245/137
f 70/181/131 71/236/145 87/245/137
f 101/201/155 96/248/182 100/204/154
f 96/248/147 101/201/155 103/212/161
f 103/212/161 102/213/162 90/246/183
f 103/212/184 90/246/183 96/248/147
f 122/250/185 124/251/185 123/252/185
f 123/252/185 125/253/185 122/250/185
f 126/254/185 128/255/185 127/256/185
f 127/256/185 129/257/185 126/254/185
f 130/258/186 132/259/187 131/260/188
f 131/260/188 133/261/189 130/258/186
f 134/262/190 130/258/186 133/261/189
f 132/259/187 130/258/186 134/262/190
f 135/263/191 132/259/187 134/262/190
f 134/262/190 133/261/189 135/263/191
f 136/264/192 135/263/191 133/261/189
f 132/259/187 135/263/191 136/264/192
f 137/265/193 132/259/187 136/264/192
f 136/264/192 133/261/189 137/265/193
f 138/266/194 137/265/193 133/261/189
f 132/259/187 137/265/193 138/266/194
f 139/267/195 132/259/187 138/266/194
f 138/266/194 133/261/189 139/267/195
f 131/260/188 139/267/195 133/261/189
f 132/259/187 139/267/195 131/260/188
f 140/268/196 142/269/197 141/270/198
f 141/270/198 143/271/199 140/268/196
f 144/272/200 140/268/196 143/271/199
f 142/269/197 140/268/196 144/272/200
f 145/273/201 142/269/197 144/272/200
f 144/272/200 143/271/199 145/273/201
f 146/274/202 145/273/201 143/271/199
f 142/269/197 145/273/201 146/274/202
f 147/275/203 142/269/197 146/274/202
f 146/274/202 143/271/199 147/275/203
f 148/276/204 147/275/203 143/271/199
f 142/269/197 147/275/203 148/276/204
f 149/277/205 142/269/197 148/276/204
f 148/276/204 143/271/199 149/277/205
f 141/270/198 149/277/205 143/271/199
f 142/269/197 149/277/205 141/270/198
f 150/278/206 152/279/207 151/280/208
f 151/280/208 153/281/209 150/278/206
f 154/282/210 150/278/206 153/281/209
f 152/279/207 150/278/206 154/282/210
f 155/283/211 152/279/207 154/282/210
f 154/282/210 153/281/209 155/283/211
f 156/284/212 155/283/211 153/281/209
f 152/279/207 155/283/211 156/284/212
f 157/285/213 152/279/207 156/284/212
f 156/284/212 153/281/209 157/285/213
f 158/286/204 157/285/213 153/281/209
f 152/279/207 157/285/213 158/286/204
f 159/287/214 152/279/207 158/286/204
f 158/286/204 153/281/215 159/287/214
f 151/280/208 159/287/214 153/281/215
f 152/279/207 159/287/214 151/280/208
