# Blender v2.79 (sub 0) OBJ File: ''
# www.blender.org
mtllib w2dsw07l.mtl
o MDL_w2dsw07_bod00_001
v -0.000100 -0.205200 -0.065100
v 0.004900 -0.217400 -0.043500
v -0.004800 -0.217400 -0.043500
v -0.000100 -0.243000 -0.082900
v -0.010100 -0.254200 -0.009500
v 0.009900 -0.314200 0.045800
v 0.009900 -0.305500 -0.018200
v 0.009900 -0.254200 -0.009500
v 0.009900 -0.372100 -0.038600
v 0.009900 -0.380200 0.042700
v 0.004000 -0.286100 0.130200
v -0.003800 -0.327700 0.121800
v 0.004000 -0.327700 0.121800
v -0.003800 -0.286100 0.129600
v 0.009900 -0.348000 0.081500
v -0.010100 -0.375800 0.073000
v 0.009900 -0.375800 0.073000
v -0.010100 -0.348000 0.081500
v -0.010100 -0.380200 0.042700
v 0.010200 -0.466400 0.023600
v -0.010400 -0.488600 0.020200
v 0.009900 -0.488600 0.019600
v -0.010100 -0.466400 0.024300
v -0.010100 -0.396100 0.038300
v 0.009900 -0.396100 0.038300
v 0.009900 -0.722100 -0.065700
v -0.010100 -0.722100 -0.065700
v -0.000100 -0.811100 -0.210100
v -0.000100 -0.233300 0.133600
v 0.009900 -0.219200 0.016800
v -0.000100 -0.208300 -0.022000
v 0.009900 -0.264600 0.051800
v 0.009900 -0.266700 0.072700
v -0.000100 -0.801400 -0.219200
v 0.009900 -0.708600 -0.098900
v -0.000100 -0.721700 -0.156400
v 0.009900 -0.662700 -0.106400
v 0.009900 -0.269900 0.098600
v 0.008300 -0.229600 0.111500
v -0.000100 -0.156700 0.124900
v -0.010100 -0.264600 0.051800
v -0.010100 -0.219200 0.016800
v -0.010100 -0.269900 0.098600
v -0.008200 -0.229200 0.111800
v 0.011800 -0.053300 0.042700
v -0.011300 -0.053300 0.042700
v -0.000100 -0.040500 0.009300
v -0.000100 -0.013600 0.029900
v -0.011700 -0.044600 0.092100
v 0.011200 -0.043600 0.091400
v -0.000100 -0.003900 0.105500
v -0.000100 -0.200200 0.092400
v -0.010100 -0.266700 0.072700
v 0.009900 -0.393600 0.004900
v 0.009900 -0.476400 -0.021700
v 0.009900 -0.457100 -0.017000
v 0.009900 -0.464200 -0.062900
v 0.009900 -0.418300 -0.019800
v -0.010100 -0.393600 0.004900
v -0.010100 -0.418300 -0.019800
v -0.010100 -0.457100 -0.017000
v -0.010100 -0.476400 -0.021700
v -0.010100 -0.498300 -0.047900
v 0.009900 -0.498300 -0.047900
v -0.010100 -0.536700 -0.037300
v 0.009900 -0.536700 -0.037300
v -0.010100 -0.549900 -0.001400
v 0.009900 -0.549900 -0.001400
v 0.009900 -0.634200 -0.032600
v -0.010100 -0.655500 -0.041700
v 0.009900 -0.655500 -0.041700
v -0.010100 -0.634200 -0.032600
v 0.009900 -0.638600 -0.079500
v -0.000100 -0.526700 -0.137300
v 0.009900 -0.611100 -0.137300
v -0.000100 -0.590800 -0.210700
v 0.009900 -0.538600 -0.091700
v -0.010100 -0.638300 -0.077300
v -0.010100 -0.662700 -0.106400
v -0.010100 -0.708600 -0.098900
v -0.000100 -0.650500 -0.160700
v -0.000100 -0.361700 -0.088900
v -0.010100 -0.305500 -0.018200
v -0.010100 -0.611100 -0.137300
v 0.009900 -0.552100 -0.050700
v 0.009900 -0.578600 -0.077900
v 0.009900 -0.617400 -0.071700
v -0.000100 -0.450800 -0.102900
v -0.010100 -0.464200 -0.062900
v -0.010100 -0.372100 -0.038600
v 0.009900 -0.573000 -0.009500
v -0.010100 -0.552100 -0.050700
v -0.010100 -0.573000 -0.009500
v -0.010100 -0.578600 -0.077900
v -0.010100 -0.617400 -0.071700
v -0.010100 -0.314200 0.045800
v -0.010100 -0.638600 -0.079500
v -0.010100 -0.538600 -0.091700
v -0.000100 -0.041400 0.115500
v -0.000100 -0.094200 0.110200
v 0.004300 -0.385200 0.019000
v 0.004300 -0.472700 -0.002900
v 0.004300 -0.477700 0.011500
v -0.004200 -0.385200 0.019000
v 0.004300 -0.386700 0.034000
v 0.004300 -0.549900 -0.028900
v 0.004300 -0.554900 -0.014800
v -0.004200 -0.472700 -0.002900
v 0.004300 -0.634200 -0.062900
v 0.004300 -0.639600 -0.048900
v -0.004200 -0.549900 -0.028900
v 0.004300 -0.715500 -0.102300
v 0.004300 -0.720800 -0.087900
v -0.004200 -0.634200 -0.062900
v -0.004200 -0.477700 0.011500
v -0.004200 -0.386700 0.034000
v -0.004200 -0.554900 -0.014800
v -0.004200 -0.639600 -0.048900
v -0.004200 -0.720800 -0.087900
v -0.004200 -0.715500 -0.102300
v -0.000100 -0.211100 0.068900
vt 0.171900 0.894500
vt 0.265600 0.871100
vt 0.265600 0.871100
vt 0.093800 0.835900
vt 0.437500 0.851600
vt 0.742200 0.785200
vt 0.429700 0.773400
vt 0.437500 0.851600
vt 0.421900 0.660200
vt 0.718800 0.679700
vt 0.906300 0.898400
vt 0.968800 0.839800
vt 0.906300 0.839800
vt 0.968800 0.898400
vt 0.898400 0.757800
vt 0.960900 0.703100
vt 0.882800 0.710900
vt 0.960900 0.757800
vt 0.781300 0.660200
vt 0.835900 0.574200
vt 0.992200 0.543000
vt 0.835900 0.543000
vt 0.992200 0.574200
vt 0.992200 0.312500
vt 0.835900 0.265600
vt 0.992200 0.265600
vt 0.835900 0.312500
vt 0.835900 0.324200
vt 0.992200 0.324200
vt 0.914100 0.191400
vt 0.156300 0.660200
vt 0.125000 0.660200
vt 0.156300 0.558600
vt 0.437500 0.898400
vt 0.343800 0.898400
vt 0.648400 0.847700
vt 0.734400 0.855500
vt 0.140600 0.003900
vt 0.484400 0.160200
vt 0.218800 0.003900
vt 0.359400 0.210900
vt 0.218800 0.140600
vt 0.328100 0.257800
vt 0.804700 0.878900
vt 0.078100 0.558600
vt 0.156300 0.660200
vt 0.156300 0.445300
vt 0.007800 0.660200
vt 0.664100 0.863300
vt 0.578100 0.898400
vt 0.007800 0.660200
vt 0.156300 0.558600
vt 0.156300 0.660200
vt 0.078100 0.558600
vt 0.437500 0.898400
vt 0.007800 0.929700
vt 0.750000 0.925800
vt 0.750000 0.906300
vt 0.007800 0.906300
vt 0.007800 0.953100
vt 0.007800 0.996100
vt 0.796900 0.996100
vt 0.796900 0.953100
vt 0.007800 0.953100
vt 0.796900 0.906300
vt 0.007800 0.906300
vt 0.796900 0.953100
vt 0.531300 0.996100
vt 0.593800 0.957000
vt 0.664100 0.996100
vt 0.593800 0.957000
vt 0.695300 0.945300
vt 0.992200 0.906300
vt 0.687500 0.906300
vt 0.992200 0.945300
vt 0.921900 0.953100
vt 0.804700 0.996100
vt 0.968800 0.996100
vt 0.734400 0.953100
vt 0.921900 0.953100
vt 0.734400 0.953100
vt 0.156300 0.660200
vt 0.156300 0.445300
vt 0.007800 0.660200
vt 0.703100 0.644500
vt 0.648400 0.644500
vt 0.609400 0.531300
vt 0.750000 0.554700
vt 0.718800 0.500000
vt 0.632800 0.570300
vt 0.390600 0.531300
vt 0.593800 0.601600
vt 0.992200 0.484400
vt 0.835900 0.550800
vt 0.992200 0.550800
vt 0.835900 0.484400
vt 0.992200 0.429700
vt 0.835900 0.429700
vt 0.992200 0.375000
vt 0.835900 0.375000
vt 0.992200 0.324200
vt 0.835900 0.324200
vt 0.992200 0.484400
vt 0.835900 0.484400
vt 0.992200 0.429700
vt 0.835900 0.429700
vt 0.992200 0.375000
vt 0.835900 0.375000
vt 0.992200 0.324200
vt 0.835900 0.324200
vt 0.835900 0.574200
vt 0.992200 0.543000
vt 0.835900 0.543000
vt 0.992200 0.574200
vt 0.382800 0.285200
vt 0.515600 0.300800
vt 0.492200 0.273400
vt 0.164100 0.421900
vt 0.234400 0.308600
vt 0.007800 0.328100
vt 0.320300 0.418000
vt 0.992200 0.484400
vt 0.835900 0.484400
vt 0.992200 0.429700
vt 0.835900 0.429700
vt 0.992200 0.375000
vt 0.835900 0.375000
vt 0.171900 0.242200
vt 0.195300 0.656300
vt 0.429700 0.773400
vt 0.234400 0.308600
vt 0.476600 0.406300
vt 0.390600 0.367200
vt 0.531300 0.453100
vt 0.484400 0.496100
vt 0.429700 0.320300
vt 0.218800 0.543000
vt 0.390600 0.531300
vt 0.421900 0.660200
vt 0.593800 0.601600
vt 0.625000 0.429700
vt 0.593800 0.378900
vt 0.992200 0.484400
vt 0.835900 0.543000
vt 0.992200 0.543000
vt 0.835900 0.484400
vt 0.992200 0.429700
vt 0.835900 0.429700
vt 0.992200 0.375000
vt 0.835900 0.375000
vt 0.992200 0.324200
vt 0.835900 0.324200
vt 0.835900 0.574200
vt 0.992200 0.574200
vt 0.648400 0.847700
vt 0.718800 0.679700
vt 0.742200 0.785200
vt 0.648400 0.644500
vt 0.359400 0.210900
vt 0.328100 0.257800
vt 0.804700 0.878900
vt 0.906300 0.839800
vt 0.906300 0.898400
vt 0.898400 0.757800
vt 0.734400 0.855500
vt 0.156300 0.660200
vt 0.882800 0.710900
vt 0.703100 0.644500
vt 0.750000 0.554700
vt 0.609400 0.531300
vt 0.718800 0.500000
vt 0.632800 0.570300
vt 0.382800 0.285200
vt 0.492200 0.273400
vt 0.515600 0.300800
vt 0.484400 0.160200
vt 0.429700 0.320300
vt 0.320300 0.418000
vt 0.390600 0.367200
vt 0.476600 0.406300
vt 0.484400 0.496100
vt 0.531300 0.453100
vt 0.593800 0.378900
vt 0.625000 0.429700
vt 0.890600 0.996100
vt 0.992200 0.996100
vt 0.992200 0.949200
vt 0.992200 0.949200
vt 0.156300 0.660200
vt 0.007800 0.660200
vt 0.156300 0.445300
vt 0.007800 0.660200
vt 0.156300 0.660200
vt 0.726600 0.195300
vt 0.820300 0.421900
vt 0.726600 0.421900
vt 0.687500 0.195300
vt 0.820300 0.195300
vt 0.820300 0.195300
vt 0.726600 0.195300
vt 0.687500 0.421900
vt 0.820300 0.421900
vt 0.726600 0.421900
vt 0.687500 0.195300
vt 0.820300 0.195300
vt 0.726600 0.195300
vt 0.687500 0.421900
vt 0.687500 0.195300
vt 0.726600 0.421900
vt 0.687500 0.421900
vt 0.726600 0.195300
vt 0.726600 0.195300
vt 0.687500 0.195300
vt 0.726600 0.421900
vt 0.687500 0.421900
vt 0.726600 0.195300
vt 0.687500 0.195300
vt 0.820300 0.421900
vt 0.820300 0.195300
vt 0.820300 0.195300
vt 0.820300 0.421900
vt 0.820300 0.195300
vt 0.687500 0.195300
vt 0.007800 0.660200
vt 0.156300 0.660200
vt 0.156300 0.445300
vt 0.007800 0.660200
vt 0.156300 0.660200
vn -0.0022 0.9905 0.1376
vn -0.8312 0.5510 -0.0745
vn 0.8302 0.5524 -0.0751
vn 0.8302 0.5524 -0.0750
vn -0.0019 0.2140 -0.9768
vn -0.9973 0.0215 -0.0699
vn 1.0000 -0.0000 0.0000
vn 0.9956 0.0172 -0.0925
vn 0.9982 0.0158 -0.0577
vn 0.9985 0.0151 -0.0529
vn 0.8893 -0.2709 0.3684
vn 0.5977 -0.0986 0.7956
vn -0.5532 -0.3648 0.7489
vn 0.5472 -0.5698 0.6131
vn -0.7470 -0.0649 0.6617
vn 0.8044 -0.3054 0.5095
vn -0.3602 -0.5671 0.7407
vn 0.3602 -0.8183 0.4480
vn -0.8054 -0.4278 0.4102
vn 0.5472 -0.5699 0.6130
vn -0.8893 -0.3995 0.2226
vn 0.3602 -0.8182 0.4480
vn 0.6754 0.1970 0.7107
vn -0.4055 -0.5601 0.7224
vn 0.4288 -0.8863 0.1752
vn -0.6515 0.5930 0.4732
vn -0.3841 -0.5880 0.7118
vn 0.8893 -0.2710 0.3684
vn -0.8893 -0.3994 0.2225
vn 0.3842 -0.8686 0.3129
vn 0.9233 -0.0168 0.3836
vn -0.7996 0.3566 0.4831
vn -0.0000 -0.9056 0.4241
vn -0.0339 0.0407 0.9986
vn 0.8203 0.2822 0.4974
vn -0.0031 0.9105 -0.4136
vn 0.9638 0.2645 -0.0345
vn 0.9857 0.1672 0.0185
vn -0.0000 0.1769 -0.9842
vn 0.9234 -0.0168 0.3836
vn 0.7661 0.5399 0.3486
vn 0.7130 0.1988 -0.6723
vn 0.8763 -0.1299 0.4640
vn 0.7130 0.1988 -0.6724
vn 0.9927 0.0753 0.0944
vn 0.5472 -0.5699 0.6131
vn 0.7930 0.2432 -0.5586
vn 0.5977 -0.0985 0.7956
vn -0.0427 0.6963 -0.7165
vn -0.9391 0.3210 0.1224
vn -0.9475 0.2327 0.2192
vn -0.9904 0.1262 -0.0572
vn -0.9259 0.1775 -0.3334
vn -0.7470 -0.0650 0.6617
vn -0.8312 0.5510 -0.0746
vn 0.8543 -0.4730 0.2157
vn -0.8542 -0.2409 0.4607
vn -0.0069 0.3272 -0.9449
vn -0.8543 -0.2409 0.4607
vn -0.0066 0.9106 -0.4133
vn 0.8543 -0.4729 0.2157
vn -0.0070 0.3272 -0.9449
vn 0.8543 -0.4730 0.2156
vn -0.9063 -0.4191 0.0540
vn 0.9832 -0.1824 0.0050
vn 0.9832 -0.1825 0.0050
vn -0.0065 0.9106 -0.4133
vn 0.0066 0.7188 0.6951
vn 0.0067 0.7188 0.6951
vn -0.9263 0.1749 -0.3338
vn -0.0428 0.6963 -0.7165
vn -0.0000 0.9940 0.1096
vn 0.9858 0.1671 0.0185
vn -0.9858 0.1671 0.0185
vn 0.0001 0.9940 0.1095
vn -0.9904 0.1262 -0.0573
vn 0.0001 0.9940 0.1096
vn 0.7361 -0.5917 0.3287
vn 0.8295 -0.5194 0.2050
vn 0.4288 -0.8862 0.1751
vn 0.7715 0.5192 0.3677
vn 0.9954 0.0286 -0.0919
vn 0.7359 -0.1382 0.6628
vn -0.7361 -0.6629 0.1369
vn -0.3842 -0.5880 0.7118
vn -0.7359 -0.3294 0.5916
vn 0.7359 -0.1381 0.6628
vn -0.7706 0.2877 0.5687
vn 0.6753 0.1970 0.7107
vn -0.8319 -0.5547 0.0156
vn 0.4288 -0.8862 0.1752
vn -0.7582 -0.3205 0.5678
vn 0.7582 -0.0595 0.6493
vn -0.7424 0.3640 0.5625
vn 0.7424 0.5305 0.4092
vn -0.6644 0.5137 0.5428
vn 0.6644 0.0920 0.7417
vn 0.6664 0.0443 0.7443
vn -0.4147 -0.6993 0.5823
vn 0.3926 -0.9192 0.0322
vn -0.6664 0.4813 0.5694
vn 0.8401 -0.5084 0.1892
vn 0.6664 0.0444 0.7443
vn 0.3925 -0.9192 0.0321
vn 0.0000 0.5040 -0.8637
vn 0.9965 -0.0045 -0.0838
vn -0.0000 -0.1000 -0.9950
vn 0.9981 0.0274 -0.0544
vn 0.0002 -0.9970 -0.0778
vn 0.3925 -0.9192 0.0322
vn -0.7666 -0.3982 0.5038
vn 0.8763 -0.1297 0.4640
vn -0.8737 0.2888 0.3914
vn 0.7661 0.5399 0.3487
vn -0.7996 0.3566 0.4832
vn -0.5681 -0.3397 -0.7496
vn 0.0000 0.1956 -0.9807
vn 0.9985 0.0151 -0.0528
vn -0.0019 0.2139 -0.9768
vn -0.9969 0.0144 -0.0771
vn -0.9965 -0.0045 -0.0839
vn 0.8472 -0.4923 0.1998
vn 0.7430 -0.0992 0.6619
vn 0.7424 0.5304 0.4094
vn 0.7582 -0.0594 0.6493
vn 0.7468 0.4967 0.4423
vn -0.0000 0.2861 -0.9582
vn -0.9954 0.0286 -0.0919
vn -0.9985 0.0151 -0.0529
vn -0.7359 -0.3293 0.5916
vn 0.6644 0.0919 0.7417
vn 0.4275 -0.9039 0.0166
vn -0.8472 -0.5295 -0.0438
vn -0.4275 -0.6641 0.6134
vn 0.8472 -0.4923 0.1996
vn -0.7430 -0.3157 0.5902
vn -0.7468 0.3073 0.5899
vn 0.7468 0.4966 0.4424
vn -0.6664 0.4814 0.5694
vn 0.6645 0.0920 0.7417
vn -0.8893 -0.3995 0.2225
vn -1.0000 -0.0000 0.0000
vn -0.9969 0.0144 -0.0770
vn -0.9391 0.3211 0.1223
vn -0.7666 -0.3982 0.5037
vn -0.9857 0.1672 0.0185
vn -0.8054 -0.4279 0.4102
vn -0.3842 -0.5880 0.7119
vn -0.6515 0.5930 0.4733
vn -0.8319 -0.5547 0.0157
vn -0.8319 -0.5546 0.0156
vn -0.7706 0.2876 0.5688
vn -0.6664 0.4813 0.5695
vn -0.9965 -0.0045 -0.0838
vn -0.9981 0.0274 -0.0543
vn -0.7582 -0.3206 0.5678
vn -0.7424 0.3639 0.5625
vn -0.9981 0.0274 -0.0544
vn -0.7666 -0.3981 0.5038
vn 0.0066 0.7188 0.6952
vn 0.0104 0.0794 0.9968
vn -0.9063 -0.4191 0.0539
vn 0.0105 0.0793 0.9968
vn -0.0071 -0.9898 -0.1423
vn -0.9064 -0.4191 0.0539
vn 0.0104 0.0793 0.9968
vn 0.8944 0.1086 -0.4338
vn 0.7074 -0.2087 0.6753
vn 0.7073 0.1897 -0.6809
vn -0.4472 0.2171 -0.8677
vn 0.4472 -0.2147 0.8683
vn 0.7072 -0.2521 0.6605
vn 0.7072 0.2387 -0.6655
vn -0.7074 0.2076 -0.6757
vn 0.7073 -0.2922 0.6438
vn 0.7073 0.2792 -0.6495
vn -0.7072 0.2516 -0.6607
vn 0.8944 -0.1936 0.4031
vn 0.4472 0.3901 -0.8049
vn -0.7073 0.2939 -0.6430
vn -0.7074 -0.1892 0.6810
vn -0.8944 -0.1074 0.4341
vn -0.7072 -0.2401 0.6650
vn -0.7073 -0.2782 0.6499
vn 0.7073 -0.2922 0.6437
vn -0.4472 -0.3872 0.8063
vn 0.8944 -0.1936 0.4032
vn -0.7074 0.2078 -0.6756
vn -0.4472 0.2172 -0.8676
vn -0.7073 0.2938 -0.6430
vn -0.8944 0.1951 -0.4024
vn 0.9858 0.1672 0.0185
vn -0.0000 0.9939 0.1104
vn 0.9638 0.2644 -0.0345
vn -0.9391 0.3211 0.1224
vn -0.0001 0.9939 0.1104
vn -0.0001 0.9939 0.1103
vn -0.9858 0.1672 0.0185
usemtl TEX_w2dsw07_001
s 1
f 1/1/1 3/2/2 2/3/3
f 2/3/4 4/4/5 1/1/1
f 3/2/2 1/1/1 4/4/5
f 4/4/5 5/5/6 3/2/2
f 6/6/7 7/7/8 8/8/9
f 7/7/8 6/6/7 9/9/10
f 10/10/11 9/9/10 6/6/7
f 11/11/12 12/12/13 13/13/14
f 12/12/13 11/11/12 14/14/15
f 15/15/16 16/16/17 17/17/18
f 16/16/17 15/15/16 18/18/19
f 13/13/20 18/18/19 15/15/16
f 18/18/19 13/13/20 12/12/13
f 19/19/21 17/17/22 16/16/17
f 17/17/22 19/19/21 10/10/11
f 20/20/23 21/21/24 22/22/25
f 21/21/24 20/20/23 23/23/26
f 24/24/27 10/25/28 19/26/29
f 10/25/11 24/24/27 25/27/30
f 26/28/31 27/29/32 28/30/33
f 15/15/16 10/10/11 6/6/7
f 10/10/11 15/15/16 17/17/18
f 14/31/15 11/32/12 29/33/34
f 2/3/4 8/8/9 4/4/5
f 8/8/9 2/3/4 30/34/35
f 31/35/36 30/34/35 2/3/4
f 32/36/37 8/8/9 30/34/35
f 4/4/5 8/8/9 7/7/8
f 6/6/7 32/36/37 33/37/38
f 32/36/37 6/6/7 8/8/9
f 34/38/39 26/39/40 28/40/33
f 26/39/31 34/38/39 35/41/41
f 36/42/42 35/41/41 34/38/39
f 37/43/43 35/41/41 36/42/44
f 38/44/45 15/15/16 6/6/7
f 15/15/16 38/44/45 13/13/46
f 11/11/12 13/13/46 38/44/45
f 6/6/7 33/37/38 38/44/45
f 39/45/47 29/33/34 11/46/48
f 29/33/34 39/45/47 40/47/49
f 11/46/48 38/48/45 39/45/47
f 30/34/35 41/49/50 32/36/37
f 41/49/50 30/34/35 42/50/51
f 43/51/52 39/52/47 38/53/45
f 39/52/47 43/51/52 44/54/53
f 14/31/54 44/54/53 43/51/52
f 44/54/53 14/31/54 29/33/34
f 31/35/36 2/3/4 3/2/55
f 3/2/2 42/55/51 31/35/36
f 30/56/35 45/57/56 46/58/57
f 42/59/51 30/56/35 46/58/57
f 30/60/35 31/61/36 47/62/58
f 47/62/58 45/63/56 30/60/35
f 42/64/51 47/65/58 31/66/36
f 47/65/58 42/64/51 46/67/59
f 48/68/60 45/69/61 47/70/62
f 47/70/58 46/71/59 48/68/60
f 45/72/63 49/73/64 46/74/59
f 49/73/64 45/72/63 50/75/65
f 50/76/66 48/77/67 51/78/68
f 48/77/60 50/76/66 45/79/61
f 49/80/64 48/77/60 46/81/59
f 48/77/60 49/80/64 51/78/69
f 44/54/70 40/47/71 39/52/47
f 40/47/71 44/54/70 29/33/34
f 38/48/45 33/82/38 52/83/72
f 33/82/73 53/84/74 52/83/75
f 43/51/76 38/53/45 52/83/77
f 10/10/11 25/85/30 54/86/78
f 54/86/78 9/9/10 10/10/11
f 55/87/79 20/88/23 22/89/80
f 20/88/23 55/87/79 56/90/81
f 57/91/82 56/90/81 55/87/79
f 56/90/81 57/91/82 58/92/83
f 9/9/10 58/92/83 57/91/82
f 58/92/83 9/9/10 54/86/78
f 59/93/84 25/94/30 24/95/85
f 25/94/30 59/93/84 54/96/78
f 60/97/86 54/96/78 59/93/84
f 54/96/78 60/97/86 58/98/87
f 61/99/88 58/98/87 60/97/86
f 58/98/87 61/99/88 56/100/81
f 23/101/26 56/100/81 61/99/88
f 56/100/81 23/101/26 20/102/89
f 62/103/90 22/22/91 21/21/24
f 22/22/91 62/103/90 55/104/79
f 63/105/92 55/104/79 62/103/90
f 55/104/79 63/105/92 64/106/93
f 65/107/94 64/106/93 63/105/92
f 64/106/93 65/107/94 66/108/95
f 67/109/96 66/108/95 65/107/94
f 66/108/95 67/109/96 68/110/97
f 69/111/98 70/112/99 71/113/100
f 70/112/99 69/111/98 72/114/101
f 73/115/102 69/116/103 71/117/104
f 74/118/105 75/119/106 76/120/107
f 75/119/106 74/118/105 77/121/108
f 78/122/109 71/113/110 70/112/99
f 71/113/110 78/122/109 73/123/102
f 79/124/111 73/123/102 78/122/109
f 73/123/102 79/124/111 37/125/112
f 80/126/113 37/125/112 79/124/111
f 37/125/112 80/126/113 35/127/41
f 27/29/32 35/127/41 80/126/113
f 35/127/114 27/29/115 26/28/40
f 81/128/116 75/119/106 37/43/43
f 37/43/43 36/42/44 81/128/116
f 82/129/117 7/7/8 9/9/118
f 7/7/8 82/129/117 4/4/119
f 83/130/120 4/4/119 82/129/117
f 76/120/107 75/119/106 81/128/116
f 81/128/116 84/131/121 76/120/107
f 77/121/108 85/132/122 86/133/123
f 85/132/122 77/121/108 66/134/124
f 64/135/125 66/134/124 77/121/108
f 86/133/123 75/119/106 77/121/108
f 75/119/106 86/133/123 87/136/126
f 74/118/105 88/137/127 57/91/82
f 57/91/82 77/121/108 74/118/105
f 82/129/117 57/91/82 88/137/127
f 88/137/127 89/138/128 82/129/117
f 90/139/129 82/129/117 89/138/128
f 89/138/128 60/140/130 90/139/129
f 82/129/117 9/9/10 57/91/82
f 77/121/108 57/91/82 64/135/125
f 85/132/122 68/141/131 91/142/132
f 68/141/131 85/132/122 66/134/124
f 92/143/133 91/144/132 93/145/134
f 91/144/132 92/143/133 85/146/135
f 94/147/136 85/146/135 92/143/133
f 85/146/135 94/147/136 86/148/123
f 95/149/137 86/148/123 94/147/136
f 86/148/123 95/149/137 87/150/138
f 72/151/139 87/150/138 95/149/137
f 87/150/138 72/151/139 69/152/98
f 68/153/140 93/145/134 91/144/132
f 93/145/134 68/153/140 67/154/96
f 73/115/102 75/119/106 87/136/126
f 75/119/106 73/115/102 37/43/43
f 87/136/126 69/116/103 73/115/102
f 57/91/82 55/87/79 64/135/125
f 41/155/50 5/5/6 83/130/120
f 5/5/6 41/155/50 42/55/51
f 90/139/129 19/156/141 96/157/142
f 19/156/141 90/139/129 59/158/84
f 4/4/5 83/130/143 5/5/6
f 83/130/120 96/157/142 41/155/144
f 96/157/142 83/130/120 90/139/129
f 82/129/117 90/139/129 83/130/120
f 80/159/113 36/42/44 34/38/39
f 36/42/44 80/159/113 81/128/116
f 79/160/145 81/128/116 80/159/113
f 43/161/76 12/162/13 14/163/54
f 12/162/13 43/161/76 18/164/19
f 96/157/142 18/164/19 43/161/76
f 53/165/146 96/157/142 43/161/52
f 96/157/142 53/165/146 41/155/144
f 3/2/2 5/5/6 42/55/51
f 43/51/52 52/83/72 53/166/146
f 18/164/147 96/157/142 19/156/141
f 16/167/17 18/164/147 19/156/141
f 24/168/148 19/156/141 59/158/84
f 23/169/149 62/170/150 21/171/24
f 62/170/151 23/169/26 61/172/152
f 97/173/142 70/174/99 72/175/153
f 74/118/105 76/120/107 84/131/121
f 27/176/32 80/159/113 34/38/39
f 34/38/39 28/40/33 27/176/32
f 97/173/142 84/131/154 79/160/145
f 84/131/154 97/173/142 95/177/137
f 72/175/153 95/177/137 97/173/142
f 98/178/155 94/179/136 92/180/133
f 94/179/136 98/178/155 84/131/154
f 74/118/105 84/131/154 98/178/155
f 88/137/127 74/118/105 89/138/128
f 89/138/128 74/118/105 98/178/155
f 98/178/155 63/181/156 89/138/128
f 98/178/155 65/182/157 63/181/156
f 65/182/157 98/178/158 92/180/133
f 92/180/133 93/183/134 67/184/96
f 84/131/121 81/128/116 79/160/159
f 94/179/136 84/131/154 95/177/137
f 92/180/133 67/184/96 65/182/157
f 89/138/128 63/181/156 62/170/151
f 89/138/128 62/170/151 61/172/152
f 90/139/129 60/140/130 59/158/84
f 89/138/128 61/172/152 60/140/130
f 51/185/160 99/186/161 50/187/66
f 49/188/162 99/186/163 51/185/160
f 50/189/66 99/190/163 100/191/164
f 49/192/165 50/189/66 100/191/164
f 99/190/166 49/193/162 100/191/164
f 101/194/167 103/195/168 102/196/169
f 102/196/169 104/197/170 101/194/167
f 101/194/167 105/198/171 103/195/168
f 102/196/169 107/199/172 106/200/173
f 106/200/173 108/201/174 102/196/169
f 102/196/169 103/195/168 107/199/172
f 106/200/173 110/202/175 109/203/176
f 109/203/176 111/204/177 106/200/173
f 106/200/173 107/199/172 110/202/175
f 109/203/176 113/205/178 112/206/179
f 112/206/179 114/207/180 109/203/176
f 109/203/176 110/202/175 113/205/178
f 105/208/171 115/209/181 103/210/168
f 115/209/181 105/208/171 116/211/182
f 103/210/168 117/212/183 107/213/172
f 117/212/183 103/210/168 115/209/181
f 107/213/172 118/214/184 110/215/185
f 118/214/184 107/213/172 117/212/183
f 110/215/185 119/216/186 113/217/187
f 119/216/186 110/215/185 118/214/184
f 116/211/182 108/218/188 115/209/181
f 108/218/188 116/211/182 104/219/189
f 115/209/181 111/220/177 117/212/183
f 111/220/177 115/209/181 108/218/188
f 117/212/183 114/221/190 118/214/184
f 114/221/190 117/212/183 111/220/177
f 118/214/184 120/222/191 119/216/186
f 120/222/191 118/214/184 114/221/190
f 102/196/169 108/201/174 104/197/170
f 106/200/173 111/204/177 108/201/174
f 109/203/176 114/207/180 111/204/177
f 112/206/179 120/223/191 114/207/180
f 33/224/192 32/225/37 121/226/193
f 32/227/194 41/228/195 121/226/196
f 53/166/74 33/224/73 121/226/197
f 41/228/50 53/84/198 121/226/193
o MDL_w2dsw07_bld02_001
v 0.003500 -0.511600 -0.011600
v 0.000100 -0.488200 0.002600
v 0.000100 -0.511600 0.016700
v 0.000100 -0.488200 -0.025500
v 0.000100 -0.511600 -0.039500
v 0.000100 -0.536500 -0.025500
v 0.000100 -0.536500 0.002600
v -0.003400 -0.511600 -0.011600
v 0.000100 -0.468500 -0.011600
v 0.000100 -0.488200 0.028400
v 0.000100 -0.536500 0.028400
v 0.000100 -0.558100 -0.011600
v 0.000100 -0.536500 -0.050600
v 0.000100 -0.488200 -0.050600
vt 0.781300 0.007800
vt 0.882800 0.097700
vt 0.984400 0.007800
vt 0.679700 0.097700
vt 0.578100 0.007800
vt 0.679700 0.097700
vt 0.882800 0.097700
vt 0.781300 0.007800
vt 0.546900 0.007800
vt 0.335900 0.007800
vt 0.507800 0.121100
vt 0.546900 0.007800
vt 0.335900 0.007800
vt 0.507800 0.121100
vt 0.546900 0.007800
vt 0.335900 0.007800
vt 0.507800 0.121100
vt 0.546900 0.007800
vt 0.335900 0.007800
vt 0.507800 0.121100
vt 0.546900 0.007800
vt 0.335900 0.007800
vt 0.507800 0.121100
vt 0.546900 0.007800
vt 0.335900 0.007800
vt 0.507800 0.121100
vn 1.0000 0.0029 -0.0006
vn 0.9702 0.2120 0.1170
vn 0.9721 0.0042 0.2345
vn 0.9700 0.2124 -0.1186
vn 0.9713 0.0043 -0.2376
vn 0.9725 -0.2003 -0.1190
vn 0.9713 0.0043 -0.2377
vn 0.9728 -0.1999 0.1174
vn -1.0000 0.0030 -0.0006
vn 0.9700 0.2123 -0.1186
vn 0.9713 0.0042 -0.2377
vn 0.9703 0.2119 0.1170
vn 0.9721 0.0042 0.2346
vn -1.0000 0.0029 -0.0006
vn 0.9728 -0.1998 0.1174
vn 0.9728 -0.1999 0.1173
vn 0.9700 0.2124 -0.1187
vn 1.0000 0.0000 0.0000
vn 1.0000 0.0029 -0.0005
usemtl TEX_w2dsw07_001
s 1
f 122/229/199 123/230/200 124/231/201
f 123/230/200 122/229/199 125/232/202
f 126/233/203 125/232/202 122/229/199
f 122/229/199 127/234/204 126/233/205
f 127/234/204 122/229/199 128/235/206
f 129/236/207 125/232/208 126/233/209
f 125/232/208 129/236/207 123/230/210
f 124/231/211 123/230/210 129/236/207
f 129/236/212 127/234/204 128/235/213
f 127/234/204 129/236/212 126/233/205
f 129/236/207 128/235/214 124/231/201
f 123/237/210 125/238/215 130/239/216
f 124/240/211 123/241/210 131/242/216
f 128/243/206 124/244/211 132/245/216
f 127/246/204 128/247/206 133/248/216
f 126/249/203 127/250/204 134/251/216
f 125/252/202 126/253/203 135/254/216
f 122/229/217 124/231/201 128/235/206
o MDL_w2dsw07_bld03_001
v 0.003500 -0.426100 0.012600
v 0.000100 -0.402700 0.026800
v 0.000100 -0.426100 0.040800
v 0.000100 -0.402700 -0.001400
v 0.000100 -0.426100 -0.015400
v 0.000100 -0.451000 -0.001400
v 0.000100 -0.451000 0.026800
v -0.003400 -0.426100 0.012600
v 0.000100 -0.383000 0.012600
v 0.000100 -0.402700 0.052600
v 0.000100 -0.451000 0.052600
v 0.000100 -0.472500 0.012600
v 0.000100 -0.451000 -0.026500
v 0.000100 -0.402700 -0.026500
vt 0.781300 0.007800
vt 0.882800 0.097700
vt 0.984400 0.007800
vt 0.679700 0.097700
vt 0.578100 0.007800
vt 0.679700 0.097700
vt 0.882800 0.097700
vt 0.781300 0.007800
vt 0.546900 0.007800
vt 0.335900 0.007800
vt 0.507800 0.121100
vt 0.546900 0.007800
vt 0.335900 0.007800
vt 0.507800 0.121100
vt 0.546900 0.007800
vt 0.335900 0.007800
vt 0.507800 0.121100
vt 0.546900 0.007800
vt 0.335900 0.007800
vt 0.507800 0.121100
vt 0.546900 0.007800
vt 0.507800 0.121100
vt 0.335900 0.007800
vt 0.546900 0.007800
vt 0.335900 0.007800
vt 0.507800 0.121100
vn 1.0000 0.0029 -0.0003
vn 0.9703 0.2117 0.1174
vn 0.9719 0.0042 0.2353
vn 0.9701 0.2121 -0.1182
vn 0.0024 0.0179 -0.9998
vn 0.0023 -0.8602 -0.5099
vn 0.9728 -0.1997 0.1178
vn -1.0000 0.0030 -0.0003
vn 0.0023 0.0179 -0.9998
vn 0.9702 0.2117 0.1175
vn 0.9719 0.0042 0.2354
vn 0.9701 0.2122 -0.1183
vn 1.0000 0.0000 0.0000
vn -1.0000 0.0000 0.0000
vn 0.0023 -0.8603 -0.5099
vn 0.9728 -0.1996 0.1178
usemtl TEX_w2dsw07_001
s 1
f 136/255/218 137/256/219 138/257/220
f 137/256/219 136/255/218 139/258/221
f 140/259/222 139/258/221 136/255/218
f 136/255/218 141/260/223 140/259/222
f 141/260/223 136/255/218 142/261/224
f 143/262/225 139/258/221 140/259/226
f 139/258/221 143/262/225 137/256/227
f 138/257/228 137/256/227 143/262/225
f 143/262/225 141/260/223 142/261/224
f 141/260/223 143/262/225 140/259/222
f 143/262/225 142/261/224 138/257/220
f 137/263/219 139/264/229 144/265/230
f 138/266/220 137/267/219 145/268/230
f 142/269/224 138/270/220 146/271/230
f 141/272/223 142/273/224 147/274/230
f 140/275/226 148/276/231 141/277/232
f 139/278/229 140/279/226 149/280/230
f 136/255/218 138/257/220 142/261/233
o MDL_w2dsw07_bld01_001
v 0.003500 -0.591800 -0.040900
v 0.000100 -0.568400 -0.026700
v 0.000100 -0.591800 -0.012600
v 0.000100 -0.568400 -0.054800
v 0.000100 -0.591800 -0.068900
v 0.000100 -0.616700 -0.054800
v 0.000100 -0.616700 -0.026700
v -0.003400 -0.591800 -0.040900
v 0.000100 -0.548700 -0.040900
v 0.000100 -0.568400 -0.000900
v 0.000100 -0.616700 -0.000900
v 0.000100 -0.638200 -0.040900
v 0.000100 -0.616700 -0.080000
v 0.000100 -0.568400 -0.080000
vt 0.781300 0.007800
vt 0.882800 0.097700
vt 0.984400 0.007800
vt 0.679700 0.097700
vt 0.578100 0.007800
vt 0.679700 0.097700
vt 0.882800 0.097700
vt 0.781300 0.007800
vt 0.546900 0.007800
vt 0.335900 0.007800
vt 0.507800 0.121100
vt 0.546900 0.007800
vt 0.335900 0.007800
vt 0.507800 0.121100
vt 0.546900 0.007800
vt 0.335900 0.007800
vt 0.507800 0.121100
vt 0.546900 0.007800
vt 0.507800 0.121100
vt 0.335900 0.007800
vt 0.546900 0.007800
vt 0.335900 0.007800
vt 0.507800 0.121100
vt 0.546900 0.007800
vt 0.335900 0.007800
vt 0.507800 0.121100
vn 1.0000 0.0029 -0.0004
vn 0.9702 0.2120 0.1170
vn 0.9721 0.0042 0.2345
vn 0.9700 0.2126 -0.1182
vn 0.9715 0.0043 -0.2369
vn 0.0023 -0.8608 -0.5090
vn 0.0023 -0.8624 0.5063
vn -1.0000 0.0030 -0.0004
vn 0.9703 0.2119 0.1170
vn 0.9721 0.0042 0.2346
vn 0.9715 0.0043 -0.2368
vn 0.0023 -0.8623 0.5063
vn 1.0000 0.0000 0.0000
vn 0.0023 -0.8608 -0.5089
vn -1.0000 0.0000 0.0000
usemtl TEX_w2dsw07_001
s 1
f 150/281/234 151/282/235 152/283/236
f 151/282/235 150/281/234 153/284/237
f 154/285/238 153/284/237 150/281/234
f 150/281/234 155/286/239 154/285/238
f 155/286/239 150/281/234 156/287/240
f 157/288/241 153/284/237 154/285/238
f 153/284/237 157/288/241 151/282/242
f 152/283/243 151/282/242 157/288/241
f 157/288/241 155/286/239 156/287/240
f 155/286/239 157/288/241 154/285/244
f 157/288/241 156/287/245 152/283/236
f 151/289/242 153/290/237 158/291/246
f 152/292/243 151/293/242 159/294/246
f 156/295/245 152/296/243 160/297/246
f 155/298/247 161/299/248 156/300/240
f 154/301/238 155/302/247 162/303/246
f 153/304/237 154/305/238 163/306/246
f 150/281/234 152/283/236 156/287/245
o MDL_w2dsw07_bld00_001
v 0.003500 -0.678200 -0.074800
v 0.000100 -0.654800 -0.060600
v 0.000100 -0.678200 -0.046500
v 0.000100 -0.654800 -0.088700
v 0.000100 -0.678200 -0.102800
v 0.000100 -0.703000 -0.088700
v 0.000100 -0.703000 -0.060600
v -0.003400 -0.678200 -0.074800
v 0.000100 -0.635100 -0.074800
v 0.000100 -0.654800 -0.034800
v 0.000100 -0.703000 -0.034800
v 0.000100 -0.724600 -0.074800
v 0.000100 -0.703000 -0.113900
v 0.000100 -0.654800 -0.113900
vt 0.781300 0.007800
vt 0.882800 0.097700
vt 0.984400 0.007800
vt 0.679700 0.097700
vt 0.578100 0.007800
vt 0.679700 0.097700
vt 0.882800 0.097700
vt 0.781300 0.007800
vt 0.546900 0.007800
vt 0.335900 0.007800
vt 0.507800 0.121100
vt 0.546900 0.007800
vt 0.335900 0.007800
vt 0.507800 0.121100
vt 0.546900 0.007800
vt 0.335900 0.007800
vt 0.507800 0.121100
vt 0.546900 0.007800
vt 0.335900 0.007800
vt 0.507800 0.121100
vt 0.546900 0.007800
vt 0.335900 0.007800
vt 0.507800 0.121100
vt 0.546900 0.007800
vt 0.335900 0.007800
vt 0.507800 0.121100
vn 1.0000 0.0027 -0.0004
vn 0.9702 0.2120 0.1170
vn 0.9721 0.0040 0.2345
vn 0.9700 0.2126 -0.1182
vn 0.9715 0.0040 -0.2369
vn 0.9723 -0.2013 -0.1186
vn 0.9726 -0.2006 0.1173
vn -1.0000 0.0028 -0.0004
vn 0.9715 0.0040 -0.2368
vn 0.9703 0.2119 0.1170
vn 0.9723 -0.2014 -0.1186
vn 0.9726 -0.2006 0.1174
vn 0.9726 -0.2007 0.1174
vn 0.9721 0.0040 0.2346
vn 1.0000 0.0000 0.0000
vn 0.9726 -0.2007 0.1173
vn 0.9723 -0.2013 -0.1185
usemtl TEX_w2dsw07_001
s 1
f 164/307/249 165/308/250 166/309/251
f 165/308/250 164/307/249 167/310/252
f 168/311/253 167/310/252 164/307/249
f 164/307/249 169/312/254 168/311/253
f 169/312/254 164/307/249 170/313/255
f 171/314/256 167/310/252 168/311/257
f 167/310/252 171/314/256 165/308/258
f 166/309/251 165/308/258 171/314/256
f 171/314/256 169/312/259 170/313/260
f 169/312/259 171/314/256 168/311/253
f 171/314/256 170/313/261 166/309/262
f 165/315/258 167/316/252 172/317/263
f 166/318/251 165/319/258 173/320/263
f 170/321/264 166/322/251 174/323/263
f 169/324/254 170/325/261 175/326/263
f 168/327/253 169/328/265 176/329/263
f 167/330/252 168/331/253 177/332/263
f 164/307/249 166/309/251 170/313/261
