# Blender v2.79 (sub 0) OBJ File: ''
# www.blender.org
mtllib w2dswb1l.mtl
o MDL_w2dswb1l_bod01
v -0.015000 -0.241600 0.010000
v 0.014800 -0.241600 0.010000
v 0.014800 -0.331600 0.010000
v -0.015000 -0.331600 0.010000
v 0.000000 -0.306600 0.120000
v -0.015000 -0.331600 0.065000
v 0.014800 -0.331600 0.065000
v -0.015000 -0.241600 0.095000
v 0.014800 -0.241600 0.095000
v 0.000000 -0.176600 0.150000
v 0.000000 -0.256600 0.120000
v 0.014800 -0.670400 -0.077200
v -0.015000 -0.716600 -0.115000
v -0.015000 -0.670400 -0.077200
v 0.014800 -0.716600 -0.115000
v 0.014800 -0.619900 -0.045500
v -0.015000 -0.619900 -0.045500
v 0.014800 -0.565900 -0.020300
v -0.015000 -0.565900 -0.020300
v 0.014800 -0.509100 -0.001900
v -0.015000 -0.509100 -0.001900
v 0.014800 -0.450700 0.009400
v -0.015000 -0.450700 0.009400
v 0.014800 -0.391200 0.013400
v -0.015000 -0.391200 0.013400
v 0.014800 -0.734900 0.005600
v 0.014800 -0.791600 -0.035000
v 0.014800 -0.673200 0.038100
v 0.014800 -0.607600 0.062000
v 0.014800 -0.539500 0.076900
v 0.014800 -0.469800 0.082300
v 0.014800 -0.400100 0.078400
v -0.015000 -0.734900 0.005600
v -0.015000 -0.791600 -0.035000
v -0.015000 -0.673200 0.038100
v -0.015000 -0.607600 0.062000
v -0.015000 -0.539500 0.076900
v -0.015000 -0.469800 0.082300
v -0.015000 -0.400100 0.078400
v 0.025200 -0.655700 -0.083000
v 0.014800 -0.667600 -0.092200
v 0.014800 -0.597000 -0.168300
v 0.004700 -0.655700 -0.083000
v 0.014800 -0.678000 -0.106700
v 0.040500 -0.658800 -0.091900
v 0.040500 -0.746200 0.020500
v 0.014800 -0.765200 0.005500
v 0.014800 -0.727300 0.035200
v 0.014800 -0.640100 -0.077000
v -0.010500 -0.658800 -0.091900
v -0.010500 -0.746200 0.020500
v 0.025200 -0.551200 -0.031400
v 0.014800 -0.564600 -0.038300
v 0.014800 -0.515500 -0.111200
v 0.004700 -0.551200 -0.031400
v 0.014800 -0.577600 -0.050600
v 0.040500 -0.556000 -0.039500
v 0.040500 -0.617300 0.081600
v 0.014800 -0.638800 0.070500
v 0.014800 -0.595900 0.092300
v 0.014800 -0.534600 -0.028600
v -0.010500 -0.556000 -0.039500
v -0.010500 -0.617300 0.081600
v 0.025200 -0.439600 -0.005900
v 0.014800 -0.454100 -0.009700
v 0.014800 -0.424500 -0.078400
v 0.004700 -0.439600 -0.005900
v 0.014800 -0.468400 -0.018100
v 0.040500 -0.444800 -0.012000
v 0.040500 -0.475200 0.103900
v 0.014800 -0.498800 0.097800
v 0.014800 -0.452100 0.110000
v 0.014800 -0.421600 -0.005900
v -0.010500 -0.444800 -0.012000
v -0.010500 -0.475200 0.103900
v 0.014800 -0.755100 0.006300
v 0.031400 -0.742600 0.015900
v 0.014800 -0.891600 0.206600
v -0.001600 -0.742600 0.015900
v 0.014800 -0.730400 0.025500
v 0.014800 -0.628800 0.069200
v 0.031600 -0.614600 0.076600
v 0.014800 -0.706500 0.256100
v -0.001600 -0.614600 0.076400
v 0.014800 -0.600700 0.083600
v 0.014800 -0.489100 0.094200
v 0.031600 -0.473800 0.098300
v 0.014800 -0.517000 0.263000
v -0.001600 -0.473800 0.098300
v 0.014800 -0.458700 0.102200
v -0.015000 -0.618800 -0.060300
v -0.015000 -0.558400 -0.138400
v -0.025200 -0.606000 -0.052300
v -0.004800 -0.606000 -0.052300
v -0.015000 -0.630700 -0.073600
v -0.015000 -0.703000 0.040300
v -0.040500 -0.682600 0.053400
v 0.010500 -0.682600 0.053400
v -0.040500 -0.610200 -0.060600
v -0.015000 -0.662400 0.066200
v -0.015000 -0.589900 -0.047700
v 0.010500 -0.610200 -0.060600
v -0.015000 -0.509000 -0.021900
v -0.015000 -0.470700 -0.091400
v -0.025200 -0.495100 -0.016400
v -0.004800 -0.495100 -0.016400
v -0.015000 -0.523200 -0.032700
v -0.015000 -0.570200 0.090200
v -0.040500 -0.547600 0.099100
v 0.010500 -0.547600 0.099100
v -0.040500 -0.500500 -0.023900
v -0.015000 -0.525400 0.107700
v -0.015000 -0.478400 -0.015200
v 0.010500 -0.500500 -0.023900
v -0.015000 -0.396500 -0.008400
v -0.015000 -0.376800 -0.068100
v -0.025200 -0.381600 -0.006400
v -0.004800 -0.381600 -0.006400
v -0.015000 -0.411600 -0.015000
v -0.015000 -0.427400 0.100200
v -0.040500 -0.403400 0.103400
v 0.010500 -0.403400 0.103400
v -0.040500 -0.387600 -0.011700
v -0.015000 -0.379800 0.106700
v -0.015000 -0.363800 -0.008400
v 0.010500 -0.387600 -0.011700
v -0.031600 -0.679600 0.048700
v -0.015000 -0.803500 0.242500
v -0.015000 -0.693000 0.040300
v -0.015000 -0.666600 0.057200
v 0.001400 -0.679600 0.048700
v -0.031600 -0.545700 0.093900
v -0.015000 -0.613000 0.267000
v -0.015000 -0.560500 0.088300
v -0.015000 -0.531200 0.099500
v 0.001600 -0.545700 0.093900
v -0.031600 -0.402700 0.097800
v -0.015000 -0.423800 0.251700
v -0.015000 -0.418400 0.095800
v -0.015000 -0.387300 0.100000
v 0.001600 -0.402700 0.097800
vt 0.507800 0.472700
vt 0.398400 0.472700
vt 0.398400 0.332000
vt 0.507800 0.332000
vt 0.695300 0.679700
vt 0.351600 0.636700
vt 0.351600 0.722700
vt 0.289100 0.457000
vt 0.289100 0.402300
vt 0.007800 0.402300
vt 0.007800 0.457000
vt 0.351600 0.730500
vt 0.007800 0.730500
vt 0.007800 0.996100
vt 0.546900 0.996100
vt 0.726600 0.976600
vt 0.789100 0.687500
vt 0.851600 0.976600
vt 0.007800 0.996100
vt 0.007800 0.730500
vt 0.351600 0.730500
vt 0.546900 0.996100
vt 0.695300 0.808600
vt 0.695300 0.953100
vt 0.851600 0.976600
vt 0.726600 0.976600
vt 0.398400 0.113300
vt 0.507800 0.003900
vt 0.507800 0.113300
vt 0.398400 0.003900
vt 0.398400 0.203100
vt 0.507800 0.089800
vt 0.507800 0.203100
vt 0.398400 0.089800
vt 0.398400 0.203100
vt 0.507800 0.089800
vt 0.507800 0.203100
vt 0.398400 0.089800
vt 0.398400 0.203100
vt 0.507800 0.089800
vt 0.507800 0.203100
vt 0.398400 0.089800
vt 0.398400 0.203100
vt 0.507800 0.089800
vt 0.507800 0.203100
vt 0.398400 0.089800
vt 0.398400 0.203100
vt 0.507800 0.089800
vt 0.507800 0.203100
vt 0.398400 0.324200
vt 0.398400 0.089800
vt 0.507800 0.324200
vt 0.382800 0.132800
vt 0.007800 0.003900
vt 0.007800 0.132800
vt 0.382800 0.003900
vt 0.382800 0.261700
vt 0.007800 0.394500
vt 0.007800 0.261700
vt 0.382800 0.394500
vt 0.382800 0.394500
vt 0.007800 0.394500
vt 0.007800 0.261700
vt 0.382800 0.394500
vt 0.382800 0.261700
vt 0.007800 0.394500
vt 0.007800 0.394500
vt 0.382800 0.394500
vt 0.382800 0.261700
vt 0.007800 0.394500
vt 0.007800 0.261700
vt 0.382800 0.132800
vt 0.382800 0.394500
vt 0.007800 0.132800
vt 0.507800 0.113300
vt 0.398400 0.003900
vt 0.398400 0.113300
vt 0.507800 0.003900
vt 0.507800 0.203100
vt 0.398400 0.089800
vt 0.398400 0.203100
vt 0.507800 0.089800
vt 0.507800 0.203100
vt 0.398400 0.089800
vt 0.398400 0.203100
vt 0.507800 0.089800
vt 0.507800 0.203100
vt 0.398400 0.089800
vt 0.398400 0.203100
vt 0.507800 0.089800
vt 0.507800 0.203100
vt 0.398400 0.089800
vt 0.398400 0.203100
vt 0.507800 0.089800
vt 0.507800 0.203100
vt 0.398400 0.089800
vt 0.398400 0.203100
vt 0.507800 0.324200
vt 0.507800 0.089800
vt 0.398400 0.324200
vt 0.007800 0.261700
vt 0.382800 0.132800
vt 0.382800 0.261700
vt 0.007800 0.394500
vt 0.007800 0.132800
vt 0.382800 0.394500
vt 0.382800 0.261700
vt 0.007800 0.394500
vt 0.007800 0.261700
vt 0.382800 0.394500
vt 0.382800 0.394500
vt 0.007800 0.394500
vt 0.007800 0.261700
vt 0.382800 0.394500
vt 0.382800 0.261700
vt 0.007800 0.394500
vt 0.007800 0.394500
vt 0.382800 0.394500
vt 0.007800 0.003900
vt 0.382800 0.132800
vt 0.382800 0.003900
vt 0.007800 0.132800
vt 0.523400 0.191400
vt 0.632800 0.003900
vt 0.523400 0.003900
vt 0.632800 0.191400
vt 0.851600 0.996100
vt 0.789100 0.996100
vt 0.789100 0.687500
vt 0.726600 0.996100
vt 0.132800 0.503900
vt 0.132800 0.566400
vt 0.640600 0.566400
vt 0.632800 0.503900
vt 0.648400 0.628900
vt 0.140600 0.628900
vt 0.132800 0.566400
vt 0.640600 0.566400
vt 0.851600 0.996100
vt 0.789100 0.996100
vt 0.789100 0.687500
vt 0.726600 0.996100
vt 0.109400 0.503900
vt 0.117200 0.566400
vt 0.671900 0.566400
vt 0.648400 0.503900
vt 0.687500 0.628900
vt 0.125000 0.628900
vt 0.117200 0.566400
vt 0.671900 0.566400
vt 0.851600 0.996100
vt 0.789100 0.996100
vt 0.789100 0.687500
vt 0.726600 0.996100
vt 0.085900 0.503900
vt 0.101600 0.566400
vt 0.703100 0.566400
vt 0.656300 0.503900
vt 0.726600 0.628900
vt 0.109400 0.628900
vt 0.101600 0.566400
vt 0.703100 0.566400
vt 0.757800 0.445300
vt 0.757800 0.554700
vt 0.882800 0.500000
vt 0.757800 0.445300
vt 0.757800 0.554700
vt 0.882800 0.500000
vt 0.757800 0.445300
vt 0.757800 0.554700
vt 0.882800 0.500000
vt 0.992200 0.996100
vt 0.867200 0.996100
vt 0.992200 0.343800
vt 0.867200 0.996100
vt 0.992200 0.996100
vt 0.992200 0.996100
vt 0.867200 0.996100
vt 0.992200 0.343800
vt 0.867200 0.996100
vt 0.992200 0.996100
vt 0.992200 0.996100
vt 0.867200 0.996100
vt 0.992200 0.343800
vt 0.867200 0.996100
vt 0.992200 0.996100
vt 0.757800 0.445300
vt 0.882800 0.500000
vt 0.757800 0.554700
vt 0.757800 0.445300
vt 0.882800 0.500000
vt 0.757800 0.554700
vt 0.757800 0.445300
vt 0.882800 0.500000
vt 0.757800 0.554700
vt 0.882800 0.500000
vt 0.882800 0.500000
vt 0.882800 0.500000
vt 0.882800 0.500000
vt 0.882800 0.500000
vt 0.882800 0.500000
vt 0.789100 0.996100
vt 0.726600 0.996100
vt 0.789100 0.687500
vt 0.851600 0.996100
vt 0.640600 0.503900
vt 0.140600 0.503900
vt 0.125000 0.566400
vt 0.125000 0.566400
vt 0.640600 0.566400
vt 0.109400 0.628900
vt 0.632800 0.628900
vt 0.640600 0.566400
vt 0.789100 0.996100
vt 0.726600 0.996100
vt 0.789100 0.687500
vt 0.851600 0.996100
vt 0.085900 0.503900
vt 0.656300 0.503900
vt 0.679700 0.566400
vt 0.679700 0.566400
vt 0.093800 0.566400
vt 0.703100 0.628900
vt 0.117200 0.628900
vt 0.093800 0.566400
vt 0.789100 0.996100
vt 0.726600 0.996100
vt 0.789100 0.687500
vt 0.851600 0.996100
vt 0.726600 0.503900
vt 0.085900 0.503900
vt 0.046900 0.566400
vt 0.046900 0.566400
vt 0.718800 0.566400
vt 0.007800 0.628900
vt 0.695300 0.628900
vt 0.718800 0.566400
vt 0.757800 0.445300
vt 0.882800 0.500000
vt 0.757800 0.554700
vt 0.757800 0.445300
vt 0.882800 0.500000
vt 0.757800 0.554700
vt 0.757800 0.445300
vt 0.882800 0.500000
vt 0.757800 0.554700
vt 0.867200 0.996100
vt 0.992200 0.996100
vt 0.992200 0.343800
vt 0.992200 0.996100
vt 0.867200 0.996100
vt 0.867200 0.996100
vt 0.992200 0.996100
vt 0.992200 0.343800
vt 0.992200 0.996100
vt 0.867200 0.996100
vt 0.867200 0.996100
vt 0.992200 0.996100
vt 0.992200 0.343800
vt 0.992200 0.996100
vt 0.867200 0.996100
vt 0.757800 0.445300
vt 0.757800 0.554700
vt 0.882800 0.500000
vt 0.757800 0.445300
vt 0.757800 0.554700
vt 0.882800 0.500000
vt 0.757800 0.445300
vt 0.757800 0.554700
vt 0.882800 0.500000
vt 0.882800 0.500000
vt 0.882800 0.500000
vt 0.882800 0.500000
vt 0.882800 0.500000
vt 0.882800 0.500000
vt 0.882800 0.500000
vn -0.6667 0.3333 -0.6667
vn 0.6667 0.6666 -0.3333
vn 0.4474 -0.0255 -0.8940
vn -0.8322 -0.0158 -0.5543
vn 0.0019 -0.4781 0.8783
vn -0.8202 -0.1304 0.5570
vn 0.9346 -0.1546 0.3204
vn 0.6667 0.6667 -0.3334
vn -0.6667 0.3333 -0.6666
vn -0.8351 0.5389 0.1107
vn 0.6667 0.6667 -0.3333
vn -0.8351 0.5389 0.1108
vn 0.9298 0.3482 0.1197
vn 0.9346 -0.1546 0.3203
vn 0.4474 -0.0254 -0.8940
vn 0.9297 0.3482 0.1198
vn 0.0075 0.9550 0.2966
vn 0.9298 0.3481 0.1197
vn -0.8201 -0.1304 0.5571
vn 0.0029 -0.1691 0.9856
vn 0.7077 0.4242 -0.5650
vn -0.3238 -0.0623 -0.9441
vn -0.7077 0.4002 -0.5822
vn 0.8075 -0.0389 -0.5886
vn 0.7077 0.3506 -0.6134
vn -0.7077 0.3250 -0.6274
vn 0.7077 0.2722 -0.6520
vn -0.7077 0.3249 -0.6273
vn -0.7077 0.2451 -0.6626
vn 0.7077 0.1902 -0.6804
vn -0.7077 0.2452 -0.6626
vn -0.7077 0.1623 -0.6876
vn 0.7077 0.1055 -0.6986
vn -0.7077 0.0764 -0.7024
vn 0.7077 0.0182 -0.7063
vn -0.7077 -0.0110 -0.7064
vn -0.7077 -0.0111 -0.7064
vn 0.7078 -0.3573 0.6093
vn 0.8075 -0.0388 -0.5886
vn 0.3547 -0.9305 0.0915
vn 0.7078 -0.2715 0.6521
vn 0.7078 -0.1816 0.6827
vn 0.7079 -0.0869 0.7010
vn 0.7078 0.0081 0.7064
vn 0.7078 0.1038 0.6987
vn -0.7078 -0.3847 0.5925
vn 0.3547 -0.9305 0.0916
vn 0.7078 -0.3573 0.6094
vn -0.8350 -0.5476 0.0539
vn -0.7078 -0.3007 0.6392
vn 0.7078 -0.2715 0.6522
vn -0.7078 -0.3847 0.5924
vn -0.7078 -0.2120 0.6738
vn -0.7079 -0.1191 0.6962
vn 0.7078 -0.1816 0.6826
vn 0.7079 -0.0868 0.7010
vn -0.7078 -0.2120 0.6739
vn -0.7078 -0.0233 0.7060
vn -0.7078 0.0717 0.7027
vn -0.7078 -0.0232 0.7060
vn -0.3238 -0.0624 -0.9441
vn 0.8799 0.4346 0.1918
vn -0.0068 -0.7331 -0.6801
vn -0.0382 -0.0203 -0.9991
vn -0.8771 0.4378 0.1975
vn 0.8800 0.4346 0.1918
vn -0.8771 0.4379 0.1975
vn -0.0383 -0.0203 -0.9991
vn -0.0032 -0.3003 -0.9538
vn 0.8539 0.5012 -0.1402
vn 0.8562 -0.4963 0.1433
vn 0.8563 -0.4963 0.1433
vn -0.0061 -0.9610 0.2763
vn -0.0032 0.3029 0.9530
vn -0.0022 0.9618 -0.2737
vn -0.8564 0.4968 -0.1408
vn -0.8587 -0.4918 0.1439
vn 0.8776 0.4698 0.0957
vn -0.0068 -0.8294 -0.5587
vn -0.0344 -0.1086 -0.9935
vn -0.8748 0.4737 0.1012
vn 0.8776 0.4697 0.0958
vn -0.0344 -0.1085 -0.9935
vn -0.8748 0.4737 0.1013
vn -0.0032 -0.4769 -0.8790
vn 0.8553 0.4632 -0.2323
vn 0.8563 -0.4592 0.2364
vn -0.0033 -0.4769 -0.8789
vn 0.8562 -0.4593 0.2364
vn -0.0040 -0.8898 0.4563
vn -0.0032 0.4795 0.8776
vn -0.0023 0.8916 -0.4528
vn -0.8578 0.4587 -0.2320
vn -0.8587 -0.4548 0.2362
vn 0.8754 0.4828 -0.0250
vn -0.0069 -0.9183 -0.3957
vn -0.0305 -0.2578 -0.9657
vn -0.8728 0.4877 -0.0200
vn -0.0068 -0.9184 -0.3957
vn -0.8727 0.4878 -0.0200
vn -0.0305 -0.2579 -0.9657
vn -0.0032 -0.6516 -0.7586
vn 0.8553 0.4031 -0.3255
vn 0.8584 -0.3951 0.3272
vn -0.0032 -0.6515 -0.7586
vn -0.0023 -0.7719 0.6358
vn -0.0032 0.6542 0.7563
vn -0.0023 0.7741 -0.6331
vn -0.8578 0.3988 -0.3243
vn -0.8608 -0.3907 0.3261
vn 0.8584 -0.3951 0.3273
vn -0.0030 -0.8263 -0.5632
vn 0.9976 -0.0391 0.0563
vn -0.0467 -0.5695 0.8207
vn -0.9977 -0.0386 0.0557
vn -0.0030 -0.8264 -0.5631
vn -0.0468 -0.5695 0.8207
vn -0.0030 0.7470 0.6648
vn -0.0468 -0.5695 0.8206
vn -0.0030 0.7469 0.6649
vn -0.0048 -0.9234 -0.3839
vn 0.9965 -0.0315 0.0771
vn -0.0798 -0.3922 0.9164
vn -0.9967 -0.0331 0.0740
vn -0.0077 0.8524 0.5228
vn -0.0797 -0.3922 0.9164
vn -0.0060 -0.9866 -0.1631
vn 0.9952 -0.0212 0.0960
vn -0.0653 -0.2148 0.9745
vn -0.9954 -0.0206 0.0937
vn -0.0652 -0.2148 0.9745
vn -0.0060 0.9401 0.3408
vn -0.0652 -0.2147 0.9745
vn 0.9952 -0.0212 0.0959
vn -0.0023 -0.9610 0.2764
vn -0.0023 -0.8898 0.4563
vn 0.8563 -0.4593 0.2364
vn -0.0029 0.4794 0.8776
vn -0.0033 0.6542 0.7563
vn -0.0000 -0.7910 -0.6118
vn -0.8771 0.4567 0.1486
vn -0.0000 -0.0670 -0.9978
vn 0.8770 0.4569 0.1487
vn -0.0000 -0.3904 -0.9207
vn -0.0000 -0.9299 0.3677
vn -0.8580 -0.4771 0.1905
vn 0.8580 -0.4771 0.1905
vn -0.8569 0.4802 -0.1876
vn -0.0000 0.3917 0.9201
vn -0.0000 0.9302 -0.3670
vn 0.0000 0.3916 0.9201
vn 0.8569 0.4801 -0.1876
vn 0.0000 -0.8758 -0.4826
vn -0.8749 0.4828 0.0381
vn 0.0000 -0.1731 -0.9849
vn 0.8749 0.4827 0.0381
vn 0.0000 -0.5634 -0.8262
vn -0.0000 -0.8396 0.5431
vn -0.8578 -0.4301 0.2813
vn 0.8578 -0.4302 0.2813
vn -0.8544 0.4391 -0.2778
vn -0.8578 -0.4302 0.2813
vn 0.0000 0.5675 0.8234
vn -0.8544 0.4390 -0.2778
vn -0.0000 0.8423 -0.5389
vn 0.8544 0.4391 -0.2778
vn -0.0000 -0.9496 -0.3134
vn -0.8691 0.4832 -0.1061
vn -0.0000 -0.2823 -0.9593
vn 0.8691 0.4832 -0.1061
vn 0.0000 -0.7382 -0.6745
vn -0.0000 -0.6913 0.7226
vn -0.8586 -0.3530 0.3717
vn 0.0000 -0.7382 -0.6746
vn 0.8586 -0.3530 0.3717
vn -0.8565 0.3595 -0.3704
vn 0.0000 0.7399 0.6727
vn -0.8564 0.3595 -0.3705
vn 0.0002 0.6937 -0.7202
vn 0.8565 0.3595 -0.3705
vn -0.9974 -0.0349 0.0631
vn 0.0029 -0.8775 -0.4795
vn 0.0443 -0.4842 0.8738
vn 0.0029 0.8043 0.5942
vn 0.9975 -0.0345 0.0623
vn -0.9960 -0.0279 0.0847
vn -0.0000 -0.9595 -0.2819
vn 0.0000 -0.3128 0.9498
vn 0.0000 0.8986 0.4388
vn 0.9960 -0.0279 0.0846
vn 0.9960 -0.0279 0.0847
vn -0.9943 -0.0102 0.1059
vn 0.0000 -0.9994 -0.0346
vn 0.0000 -0.0947 0.9955
vn 0.0000 0.9723 0.2339
vn 0.9943 -0.0101 0.1059
vn 0.9943 -0.0101 0.1058
vn 0.0000 -0.9299 0.3678
vn 0.0000 -0.8397 0.5431
vn 0.0000 -0.6913 0.7225
vn -0.0000 -0.3904 -0.9206
vn 0.8569 0.4802 -0.1877
vn 0.8580 -0.4770 0.1905
vn 0.8578 -0.4301 0.2813
vn -0.0000 -0.7383 -0.6745
vn 0.8565 0.3594 -0.3705
vn 0.8587 -0.3530 0.3717
vn 0.8586 -0.3530 0.3716
vn 0.8580 -0.4771 0.1906
usemtl TEX_w2dswb1l
s 1
f 1/1/1 2/2/2 3/3/3
f 1/1/1 3/3/3 4/4/4
f 5/5/5 6/6/6 7/7/7
f 2/8/8 1/9/9 8/10/10
f 2/8/11 8/10/12 9/11/13
f 7/12/14 3/13/15 2/14/11
f 7/12/14 2/14/11 9/15/16
f 8/16/12 10/17/17 9/18/18
f 1/19/9 4/20/4 6/21/19
f 8/22/10 1/19/9 6/21/19
f 6/21/6 5/23/5 8/22/10
f 11/24/20 8/22/10 5/23/5
f 5/23/5 9/15/16 11/24/20
f 11/25/20 9/26/18 10/17/17
f 10/17/17 8/16/12 11/25/20
f 7/12/14 9/15/16 5/23/5
f 12/27/21 13/28/22 14/29/23
f 13/28/22 12/27/21 15/30/24
f 16/31/25 14/32/23 17/33/26
f 14/32/23 16/31/25 12/34/21
f 18/35/27 17/36/28 19/37/29
f 17/36/28 18/35/27 16/38/25
f 20/39/30 19/40/31 21/41/32
f 19/40/31 20/39/30 18/42/27
f 22/43/33 21/44/32 23/45/34
f 21/44/32 22/43/33 20/46/30
f 24/47/35 23/48/34 25/49/36
f 25/49/37 3/50/3 24/47/35
f 24/47/35 22/51/33 23/48/34
f 25/49/37 4/52/4 3/50/3
f 26/53/38 15/54/39 12/55/21
f 15/54/39 26/53/38 27/56/40
f 28/57/41 12/58/21 16/59/25
f 16/59/25 29/60/42 28/57/41
f 28/57/41 26/61/38 12/58/21
f 16/59/25 18/62/27 29/60/42
f 30/63/43 18/64/27 20/65/30
f 20/65/30 31/66/44 30/63/43
f 30/63/43 29/67/42 18/64/27
f 20/65/30 22/68/33 31/66/44
f 32/69/45 22/70/33 24/71/35
f 24/71/35 7/72/14 32/69/45
f 32/69/45 31/73/44 22/70/33
f 24/71/35 3/74/3 7/72/14
f 33/75/46 27/76/47 26/77/48
f 27/76/47 33/75/46 34/78/49
f 35/79/50 26/80/38 28/81/51
f 26/80/38 35/79/50 33/82/52
f 36/83/53 28/84/41 29/85/42
f 28/84/41 36/83/53 35/86/50
f 37/87/54 29/88/55 30/89/56
f 29/88/55 37/87/54 36/90/57
f 38/91/58 30/92/43 31/93/44
f 30/92/43 38/91/58 37/94/54
f 39/95/59 31/96/44 32/97/45
f 32/97/45 6/98/19 39/95/59
f 39/95/59 38/99/60 31/96/44
f 32/97/45 7/100/14 6/98/19
f 14/101/23 34/102/49 33/103/46
f 33/103/46 17/104/26 14/101/23
f 14/101/23 13/105/61 34/102/49
f 33/103/46 35/106/50 17/104/26
f 19/107/31 35/108/50 36/109/53
f 36/109/53 21/110/32 19/107/31
f 19/107/31 17/111/26 35/108/50
f 36/109/53 37/112/54 21/110/32
f 23/113/34 37/114/54 38/115/58
f 38/115/60 25/116/36 23/113/34
f 23/113/34 21/117/32 37/114/54
f 38/115/60 39/118/59 25/116/36
f 4/119/4 39/120/59 6/121/19
f 39/120/59 4/119/4 25/122/36
f 13/123/61 27/124/47 34/125/49
f 27/124/47 13/123/61 15/126/24
f 40/127/62 41/128/63 42/129/64
f 43/130/65 40/127/66 42/129/64
f 41/128/63 43/130/67 42/129/68
f 44/131/69 45/132/70 46/133/71
f 44/131/69 46/133/72 47/134/73
f 48/135/74 45/132/70 49/136/75
f 49/136/75 50/137/76 48/135/74
f 51/138/77 48/135/74 50/137/76
f 50/137/76 44/131/69 51/138/77
f 47/134/73 51/138/77 44/131/69
f 45/132/70 48/135/74 46/133/71
f 52/139/78 53/140/79 54/141/80
f 55/142/81 52/139/82 54/141/83
f 53/140/79 55/142/84 54/141/80
f 56/143/85 57/144/86 58/145/87
f 56/143/88 58/145/89 59/146/90
f 60/147/91 57/144/86 61/148/92
f 61/148/92 62/149/93 60/147/91
f 63/150/94 60/147/91 62/149/93
f 62/149/93 56/143/88 63/150/94
f 59/146/90 63/150/94 56/143/88
f 57/144/86 60/147/91 58/145/89
f 64/151/95 65/152/96 66/153/97
f 67/154/98 64/151/95 66/153/97
f 65/152/99 67/154/100 66/153/101
f 68/155/102 69/156/103 70/157/104
f 68/155/105 70/157/104 71/158/106
f 72/159/107 69/156/103 73/160/108
f 73/160/108 74/161/109 72/159/107
f 75/162/110 72/159/107 74/161/109
f 74/161/109 68/155/105 75/162/110
f 71/158/106 75/162/110 68/155/105
f 69/156/103 72/159/107 70/157/111
f 44/163/69 49/164/75 45/165/70
f 56/166/88 61/167/92 57/168/86
f 68/169/105 73/170/108 69/171/103
f 76/172/112 77/173/113 78/174/114
f 79/175/115 76/172/116 78/174/117
f 80/176/118 79/175/115 78/174/119
f 77/173/113 80/176/120 78/174/114
f 81/177/121 82/178/122 83/179/123
f 84/180/124 81/177/121 83/179/123
f 85/181/125 84/180/124 83/179/123
f 82/178/122 85/181/125 83/179/126
f 86/182/127 87/183/128 88/184/129
f 89/185/130 86/182/127 88/184/131
f 90/186/132 89/185/130 88/184/133
f 87/183/134 90/186/132 88/184/129
f 47/187/135 46/188/72 48/189/74
f 59/190/136 58/191/137 60/192/138
f 71/193/106 70/194/104 72/195/139
f 44/163/69 50/196/76 49/164/75
f 56/166/88 62/197/93 61/167/92
f 68/169/105 74/198/109 73/170/108
f 47/187/73 48/189/74 51/199/77
f 59/190/90 60/192/91 63/200/94
f 71/193/106 72/195/107 75/201/110
f 91/202/140 93/203/141 92/204/142
f 92/204/142 94/205/143 91/202/140
f 94/205/143 92/204/142 93/203/141
f 95/206/144 96/207/145 97/208/146
f 96/207/145 95/206/144 98/209/147
f 99/210/148 95/206/144 97/208/146
f 97/208/146 100/211/149 99/210/148
f 101/212/150 99/210/148 100/211/149
f 100/211/151 102/213/152 101/212/150
f 103/214/153 105/215/154 104/216/155
f 104/216/155 106/217/156 103/214/153
f 106/217/156 104/216/155 105/215/154
f 107/218/157 108/219/158 109/220/159
f 108/219/158 107/218/157 110/221/160
f 111/222/161 107/218/157 109/220/159
f 109/220/162 112/223/163 111/222/164
f 113/224/165 111/222/161 112/223/163
f 112/223/163 114/225/166 113/224/165
f 115/226/167 117/227/168 116/228/169
f 116/228/169 118/229/170 115/226/167
f 118/229/170 116/228/169 117/227/168
f 119/230/171 120/231/172 121/232/173
f 120/231/172 119/230/174 122/233/175
f 123/234/176 119/230/171 121/232/173
f 121/232/173 124/235/177 123/234/178
f 125/236/179 123/234/176 124/235/177
f 124/235/177 126/237/180 125/236/179
f 95/238/144 99/239/148 101/240/150
f 107/241/157 111/242/161 113/243/165
f 119/244/171 123/245/176 125/246/179
f 127/247/181 129/248/182 128/249/183
f 128/249/183 130/250/184 127/247/181
f 131/251/185 128/249/183 129/248/182
f 130/250/184 128/249/183 131/251/185
f 132/252/186 134/253/187 133/254/188
f 133/254/188 135/255/189 132/252/186
f 136/256/190 133/254/188 134/253/187
f 135/255/189 133/254/188 136/256/191
f 137/257/192 139/258/193 138/259/194
f 138/259/194 140/260/195 137/257/192
f 141/261/196 138/259/194 139/258/193
f 140/260/195 138/259/194 141/261/197
f 96/262/198 100/263/149 97/264/146
f 108/265/199 112/266/163 109/267/162
f 120/268/200 124/269/177 121/270/173
f 95/206/201 102/213/202 98/209/203
f 102/213/152 100/211/151 98/209/147
f 107/218/157 114/225/166 110/221/204
f 114/225/166 112/223/163 110/221/204
f 119/230/205 126/237/206 122/233/207
f 126/237/180 124/235/177 122/233/208
f 95/238/144 101/240/150 102/271/152
f 107/241/157 113/243/165 114/272/166
f 119/244/171 125/246/179 126/273/180
f 96/262/198 98/274/209 100/263/149
f 108/265/199 110/275/160 112/266/163
f 120/268/200 122/276/175 124/269/177
o MDL_w2dswb1l_bod00
v 0.005900 -0.241600 -0.010000
v -0.005900 -0.286600 -0.018000
v -0.005900 -0.241600 -0.010000
v 0.005900 -0.286600 -0.018000
v 0.005900 -0.286600 0.058000
v -0.005900 -0.241600 0.050000
v -0.005900 -0.286600 0.058000
v 0.005900 -0.241600 0.050000
v -0.005900 -0.186600 -0.015000
v 0.005900 -0.186600 -0.015000
v 0.000000 -0.186600 0.014100
v 0.005900 -0.319600 0.001100
v -0.005900 -0.319600 0.039100
v -0.005900 -0.319600 0.001100
v 0.005900 -0.319600 0.039100
v -0.005900 -0.041600 0.018100
v 0.005900 -0.041600 0.018100
v 0.000000 -0.048700 0.047000
v 0.000000 -0.006600 0.070000
v -0.005900 -0.286600 0.020000
v 0.005900 -0.286600 0.020000
v 0.019800 -0.312600 0.035000
v -0.020000 -0.286600 0.050000
v -0.020000 -0.312600 0.035000
v 0.019800 -0.286600 0.050000
v 0.019800 -0.312600 0.005000
v -0.020000 -0.312600 0.005000
v 0.019800 -0.286600 -0.010000
v -0.020000 -0.286600 -0.010000
v 0.019800 -0.260700 0.005000
v -0.020000 -0.260700 0.005000
v 0.019800 -0.260700 0.035000
v -0.020000 -0.260700 0.035000
v -0.040000 -0.286600 0.020000
v 0.039800 -0.286600 0.020000
vt 0.750000 0.003900
vt 0.703100 0.074200
vt 0.703100 0.003900
vt 0.750000 0.074200
vt 0.750000 0.003900
vt 0.703100 0.074200
vt 0.703100 0.003900
vt 0.750000 0.074200
vt 0.750000 0.074200
vt 0.703100 0.160200
vt 0.750000 0.160200
vt 0.703100 0.074200
vt 0.773400 0.214800
vt 0.781300 0.128900
vt 0.960900 0.128900
vt 0.867200 0.214800
vt 0.750000 0.074200
vt 0.703100 0.003900
vt 0.703100 0.074200
vt 0.750000 0.003900
vt 0.703100 0.003900
vt 0.750000 0.003900
vt 0.773400 0.222700
vt 0.726600 0.437500
vt 0.773400 0.437500
vt 0.726600 0.222700
vt 0.882800 0.222700
vt 0.789100 0.437500
vt 0.789100 0.222700
vt 0.882800 0.437500
vt 0.789100 0.437500
vt 0.570300 0.199200
vt 0.523400 0.199200
vt 0.546900 0.285200
vt 0.679700 0.285200
vt 0.585900 0.199200
vt 0.679700 0.199200
vt 0.585900 0.199200
vt 0.773400 0.214800
vt 0.960900 0.128900
vt 0.781300 0.128900
vt 0.789100 0.222700
vt 0.875000 0.058600
vt 0.937500 0.003900
vt 0.992200 0.058600
vt 0.812500 0.003900
vt 0.765600 0.058600
vt 0.875000 0.058600
vt 0.765600 0.058600
vt 0.992200 0.058600
vt 0.937500 0.003900
vt 0.812500 0.003900
vt 0.226600 0.722700
vt 0.007800 0.636700
vt 0.007800 0.722700
vt 0.226600 0.636700
vt 0.226600 0.722700
vt 0.007800 0.636700
vt 0.007800 0.722700
vt 0.226600 0.636700
vt 0.226600 0.722700
vt 0.007800 0.636700
vt 0.007800 0.722700
vt 0.226600 0.636700
vt 0.226600 0.722700
vt 0.007800 0.636700
vt 0.007800 0.722700
vt 0.226600 0.636700
vt 0.226600 0.722700
vt 0.007800 0.636700
vt 0.007800 0.722700
vt 0.226600 0.636700
vt 0.226600 0.722700
vt 0.007800 0.636700
vt 0.007800 0.722700
vt 0.226600 0.636700
vt 0.710900 0.394500
vt 0.523400 0.449200
vt 0.523400 0.339800
vt 0.710900 0.293000
vt 0.523400 0.339800
vt 0.710900 0.394500
vt 0.523400 0.449200
vt 0.710900 0.293000
vt 0.523400 0.449200
vt 0.710900 0.496100
vt 0.523400 0.339800
vt 0.523400 0.449200
vt 0.710900 0.496100
vt 0.523400 0.339800
vt 0.750000 0.074200
vt 0.703100 0.074200
vt 0.750000 0.074200
vt 0.703100 0.074200
vt 0.726600 0.160200
vn 0.6034 0.0340 -0.7967
vn -0.5760 -0.0435 -0.8163
vn -0.8343 0.0235 -0.5508
vn 0.5760 -0.2381 -0.7820
vn 0.4696 -0.1512 0.8698
vn -0.7769 0.2211 0.5895
vn -0.7286 -0.1173 0.6748
vn 0.8712 0.2094 0.4441
vn -0.7503 0.0575 -0.6586
vn 0.7471 0.1370 -0.6504
vn 0.0000 0.3806 0.9247
vn 0.6029 -0.7539 -0.2609
vn -0.5004 -0.7491 0.4342
vn -0.6029 -0.6035 -0.5218
vn 0.7562 -0.5661 0.3281
vn 0.7471 0.1369 -0.6505
vn -0.7969 0.2948 -0.5273
vn 0.9146 0.2691 -0.3018
vn 0.0000 -0.3609 0.9326
vn -0.0000 0.9512 -0.3086
vn 0.8712 0.2093 0.4440
vn -1.0000 0.0000 0.0000
vn -0.5004 -0.7490 0.4343
vn 1.0000 0.0000 0.0000
vn 0.7563 -0.5661 0.3281
vn 0.3949 -0.7259 0.5631
vn -0.3948 -0.1239 0.9104
vn -0.3949 -0.8505 0.3474
vn 0.3948 0.1255 0.9101
vn 0.3949 -0.8505 -0.3474
vn -0.3949 -0.7259 -0.5632
vn 0.3948 -0.7259 0.5632
vn 0.3948 -0.1239 -0.9104
vn -0.3948 0.1255 -0.9102
vn 0.3943 0.7268 -0.5624
vn -0.3943 0.8510 -0.3469
vn 0.3948 -0.1238 -0.9104
vn 0.3943 0.8510 0.3469
vn -0.3943 0.7268 0.5624
vn 0.3948 0.1255 0.9102
vn -0.3948 -0.1238 0.9104
vn -1.0000 0.0008 0.0000
vn 1.0000 0.0008 -0.0000
vn 1.0000 0.0008 0.0001
vn 0.3948 -0.7259 0.5631
vn -0.7286 -0.1172 0.6748
usemtl TEX_w2dswb1l
s 1
f 142/277/210 143/278/211 144/279/212
f 143/278/211 142/277/210 145/280/213
f 146/281/214 147/282/215 148/283/216
f 147/282/215 146/281/214 149/284/217
f 142/285/210 150/286/218 151/287/219
f 150/286/218 142/285/210 144/288/212
f 150/289/218 144/290/212 147/291/215
f 147/291/215 152/292/220 150/289/218
f 153/293/221 154/294/222 155/295/223
f 154/294/222 153/293/221 156/296/224
f 145/280/213 155/297/223 143/278/211
f 155/297/223 145/280/213 153/298/221
f 151/299/225 157/300/226 158/301/227
f 157/300/226 151/299/225 150/302/218
f 152/303/220 157/304/226 150/305/218
f 157/304/226 152/303/220 159/306/228
f 158/307/227 159/306/228 152/303/220
f 158/308/227 157/309/226 160/310/229
f 160/311/229 157/312/226 159/313/228
f 159/313/228 158/314/227 160/311/229
f 151/315/219 152/292/220 149/316/230
f 149/316/230 142/317/210 151/315/219
f 152/303/220 151/318/219 158/307/227
f 161/319/231 147/291/215 144/290/212
f 161/319/231 154/320/232 148/321/216
f 154/320/232 161/319/231 155/322/223
f 161/319/231 143/323/211 155/322/223
f 143/323/211 161/319/231 144/290/212
f 148/321/216 147/291/215 161/319/231
f 162/324/233 142/317/210 149/316/230
f 142/317/210 162/324/233 145/325/213
f 162/324/233 146/326/214 156/327/234
f 162/324/233 156/327/234 153/328/221
f 162/324/233 153/328/221 145/325/213
f 146/326/214 162/324/233 149/316/217
f 163/329/235 164/330/236 165/331/237
f 164/330/236 163/329/235 166/332/238
f 167/333/239 165/334/237 168/335/240
f 165/334/237 167/333/239 163/336/241
f 169/337/242 168/338/240 170/339/243
f 168/338/240 169/337/242 167/340/239
f 171/341/244 170/342/243 172/343/245
f 170/342/243 171/341/244 169/344/246
f 173/345/247 172/346/245 174/347/248
f 172/346/245 173/345/247 171/348/244
f 166/349/249 174/350/248 164/351/250
f 174/350/248 166/349/249 173/352/247
f 175/353/251 170/354/243 168/355/240
f 168/355/240 165/356/237 175/353/251
f 166/357/249 176/358/252 173/359/247
f 176/358/252 166/357/249 163/360/241
f 176/358/252 169/361/246 171/362/244
f 171/362/244 173/359/247 176/358/252
f 175/353/251 164/363/250 174/364/248
f 174/364/248 172/365/245 175/353/251
f 176/358/252 167/366/239 169/361/246
f 167/366/239 176/358/253 163/360/254
f 175/353/251 172/365/245 170/354/243
f 175/353/251 165/356/237 164/363/250
f 154/294/222 146/367/214 148/368/255
f 146/367/214 154/294/222 156/296/224
f 147/369/215 149/370/230 152/371/220
