# Blender v2.79 (sub 0) OBJ File: ''
# www.blender.org
mtllib w2dswa4l.mtl
o MDL_w2dswa4l_bod00
v -0.007800 -0.392200 0.141200
v 0.007500 -0.359700 -0.008100
v -0.007800 -0.359700 -0.008100
v 0.007500 -0.392200 0.141200
v 0.000000 -0.398500 0.170600
v 0.006600 -0.662600 0.082500
v 0.007500 -0.637200 -0.040900
v 0.007500 -0.859100 -0.077200
v 0.007500 -0.922900 0.026600
v -0.009100 -0.662600 0.082500
v -0.007800 -0.637200 -0.040900
v -0.007800 -0.859100 -0.077200
v -0.007800 -0.922900 0.026600
v -0.001200 -0.669100 0.111900
v 0.000000 -0.945100 0.051600
v 0.000000 -0.460100 -0.043700
v 0.000000 -0.589100 -0.047200
v 0.025300 -0.586300 -0.028400
v -0.025600 -0.583800 -0.028400
v -0.025600 -0.457900 -0.025000
v -0.015900 -0.457200 0.005000
v 0.025300 -0.457900 -0.025000
v 0.015600 -0.456900 0.005000
v 0.015600 -0.583800 0.001900
v 0.025300 -0.364100 -0.017800
v 0.000000 -0.365400 -0.036600
v 0.015600 -0.362600 0.012200
v -0.025600 -0.364100 -0.017800
v -0.015900 -0.362600 0.012200
v -0.015900 -0.583800 0.001900
v 0.000000 -0.712600 -0.060900
v 0.025300 -0.714100 -0.040900
v -0.025600 -0.715400 -0.040900
v 0.015600 -0.719700 -0.008800
v -0.015900 -0.719700 -0.008800
v 0.000000 -0.852200 -0.110600
v 0.025300 -0.854100 -0.090600
v -0.025600 -0.856000 -0.090600
v 0.015600 -0.856300 -0.055300
v -0.015900 -0.856300 -0.055300
v 0.025300 -0.897900 -0.076300
v 0.000000 -0.962900 0.009700
v 0.000000 -0.911900 -0.088700
v 0.025300 -0.946300 0.020000
v 0.015600 -0.919400 0.036900
v -0.015900 -0.919400 0.036900
v -0.025600 -0.946300 0.020000
v -0.025600 -0.897900 -0.076300
v -0.019700 -0.939700 0.013400
v -0.000300 -0.951900 0.005000
v -0.000300 -0.984700 0.156600
v 0.018800 -0.939700 0.013400
v 0.011300 -0.920400 0.026900
v -0.012200 -0.920400 0.026900
v -0.054100 -0.801000 0.010000
v -0.018400 -0.765100 -0.033100
v -0.036900 -0.781900 0.025000
v -0.031600 -0.783500 -0.050600
v -0.043100 -0.757200 -0.055300
v -0.031600 -0.739100 -0.041900
v -0.054100 -0.757900 0.022500
v -0.069400 -0.776900 0.007500
v 0.019100 -0.764700 -0.034100
v 0.035600 -0.781600 0.023700
v 0.053100 -0.800400 0.008400
v 0.032500 -0.738800 -0.043100
v 0.032500 -0.782900 -0.051900
v 0.045000 -0.756600 -0.056900
v 0.068400 -0.776300 0.005300
v 0.053100 -0.757200 0.020900
v -0.044700 -0.818800 0.150000
v 0.041300 -0.818500 0.149100
v -0.054100 -0.676900 0.037800
v -0.018400 -0.650400 -0.011600
v -0.036900 -0.655400 0.049100
v -0.031600 -0.671600 -0.025000
v -0.043100 -0.647900 -0.034700
v -0.031600 -0.626600 -0.025300
v -0.054100 -0.631900 0.041900
v -0.069400 -0.653500 0.030600
v 0.019100 -0.650100 -0.012500
v 0.035600 -0.655100 0.047800
v 0.053100 -0.676600 0.036200
v 0.032500 -0.626300 -0.026200
v 0.032500 -0.671300 -0.026200
v 0.045000 -0.647600 -0.036200
v 0.068400 -0.653500 0.028800
v 0.053100 -0.631900 0.040300
v -0.044700 -0.666600 0.179100
v 0.041300 -0.666300 0.177800
v -0.054100 -0.518800 0.048100
v -0.018400 -0.502600 -0.005300
v -0.036900 -0.495400 0.054700
v -0.031600 -0.526300 -0.014400
v -0.043100 -0.506000 -0.028400
v -0.031600 -0.482200 -0.023700
v -0.054100 -0.474100 0.043100
v -0.069400 -0.497600 0.036600
v 0.019100 -0.502600 -0.006300
v 0.035600 -0.495400 0.053400
v 0.053100 -0.518800 0.046600
v 0.032500 -0.482200 -0.025000
v 0.032500 -0.526300 -0.015600
v 0.045000 -0.506000 -0.030000
v 0.068400 -0.497600 0.034400
v 0.053100 -0.474400 0.041600
v -0.044700 -0.480400 0.184400
v 0.041300 -0.480400 0.183100
v -0.020900 -0.858800 -0.077800
v -0.050900 -0.855700 -0.008100
v -0.013700 -0.873500 -0.082500
v -0.012800 -0.848500 -0.077800
v -0.020900 -0.571300 -0.028100
v -0.050900 -0.577200 0.055000
v -0.013700 -0.586300 -0.021900
v -0.012800 -0.561000 -0.017200
v -0.022800 -0.437200 -0.017200
v -0.050900 -0.426600 0.055000
v -0.013700 -0.450100 -0.017200
v -0.012800 -0.425100 -0.020000
v 0.050600 -0.855700 -0.008100
v 0.013400 -0.873500 -0.082500
v 0.020600 -0.858800 -0.077800
v 0.012500 -0.848500 -0.077800
v 0.050600 -0.577200 0.055000
v 0.013400 -0.586300 -0.021900
v 0.020600 -0.571300 -0.028100
v 0.012500 -0.561000 -0.017200
v 0.050600 -0.426600 0.055000
v 0.013400 -0.450100 -0.017200
v 0.022500 -0.437200 -0.017200
v 0.012500 -0.425100 -0.020000
v 0.000000 -0.379400 -0.053800
v 0.033800 -0.410400 -0.003400
v 0.033800 -0.393800 -0.030300
v -0.000300 -0.388200 0.011600
v -0.034100 -0.410400 -0.003400
v -0.034100 -0.393800 -0.030300
v 0.022800 -0.386600 0.032200
v -0.023100 -0.386600 0.032200
v 0.011900 -0.371600 0.071900
v -0.012200 -0.371600 0.071900
v 0.021600 -0.340400 -0.031900
v 0.000000 -0.328200 0.013100
v -0.021900 -0.340400 -0.031900
v 0.021600 -0.199700 -0.020300
v -0.021900 -0.199700 -0.020300
v 0.000000 -0.214100 0.023400
v -0.016200 -0.089100 0.037800
v 0.015900 -0.089100 0.037800
v 0.000000 -0.106000 0.062500
v 0.000000 0.001800 0.088100
vt 0.085900 0.640600
vt 0.476600 0.656300
vt 0.476600 0.640600
vt 0.085900 0.656300
vt 0.007800 0.648400
vt 0.476600 0.636700
vt 0.085900 0.312500
vt 0.476600 0.312500
vt 0.085900 0.636700
vt 0.476600 0.007800
vt 0.085900 0.007800
vt 0.085900 0.312500
vt 0.476600 0.636700
vt 0.476600 0.312500
vt 0.476600 0.007800
vt 0.085900 0.007800
vt 0.085900 0.636700
vt 0.007800 0.636700
vt 0.007800 0.312500
vt 0.007800 0.007800
vt 0.679700 0.816400
vt 0.695300 0.613300
vt 0.773400 0.613300
vt 0.695300 0.613300
vt 0.593800 0.816400
vt 0.500000 0.816400
vt 0.593800 0.816400
vt 0.500000 0.816400
vt 0.601600 0.609400
vt 0.601600 0.992200
vt 0.515600 0.992200
vt 0.398400 0.992200
vt 0.515600 0.992200
vt 0.398400 0.992200
vt 0.437500 0.816400
vt 0.601600 0.609400
vt 0.546900 0.609400
vt 0.343800 0.992200
vt 0.789100 0.410200
vt 0.882800 0.410200
vt 0.789100 0.410200
vt 0.703100 0.410200
vt 0.703100 0.410200
vt 0.648400 0.410200
vt 0.906300 0.203100
vt 0.992200 0.210900
vt 0.906300 0.203100
vt 0.828100 0.187500
vt 0.828100 0.187500
vt 0.765600 0.175800
vt 0.890600 0.152300
vt 0.804700 0.003900
vt 0.953100 0.128900
vt 0.742200 0.019500
vt 0.671900 0.039100
vt 0.671900 0.039100
vt 0.625000 0.058600
vt 0.742200 0.019500
vt 0.890600 0.152300
vt 0.062500 0.996100
vt 0.109400 0.996100
vt 0.101600 0.664100
vt 0.164100 0.996100
vt 0.210900 0.996100
vt 0.078100 0.996100
vt 0.015600 0.996100
vt 0.015600 0.664100
vt 0.289100 0.851600
vt 0.226600 0.722700
vt 0.226600 0.851600
vt 0.289100 0.726600
vt 0.359400 0.734400
vt 0.289100 0.726600
vt 0.289100 0.851600
vt 0.359400 0.851600
vt 0.226600 0.722700
vt 0.289100 0.851600
vt 0.226600 0.851600
vt 0.289100 0.726600
vt 0.289100 0.726600
vt 0.359400 0.734400
vt 0.359400 0.851600
vt 0.289100 0.851600
vt 0.289100 0.683600
vt 0.226600 0.687500
vt 0.359400 0.675800
vt 0.289100 0.683600
vt 0.109400 0.996100
vt 0.007800 0.996100
vt 0.109400 0.664100
vt 0.210900 0.996100
vt 0.015600 0.996100
vt 0.093800 0.996100
vt 0.015600 0.664100
vt 0.093800 0.996100
vt 0.109400 0.996100
vt 0.210900 0.996100
vt 0.109400 0.664100
vt 0.007800 0.996100
vt 0.015600 0.996100
vt 0.093800 0.996100
vt 0.015600 0.664100
vt 0.093800 0.996100
vt 0.289100 0.851600
vt 0.226600 0.722700
vt 0.226600 0.851600
vt 0.289100 0.726600
vt 0.359400 0.734400
vt 0.289100 0.726600
vt 0.289100 0.851600
vt 0.359400 0.851600
vt 0.226600 0.722700
vt 0.289100 0.851600
vt 0.226600 0.851600
vt 0.289100 0.726600
vt 0.289100 0.726600
vt 0.359400 0.734400
vt 0.359400 0.851600
vt 0.289100 0.851600
vt 0.289100 0.683600
vt 0.226600 0.687500
vt 0.359400 0.675800
vt 0.289100 0.683600
vt 0.109400 0.996100
vt 0.007800 0.996100
vt 0.109400 0.664100
vt 0.210900 0.996100
vt 0.015600 0.996100
vt 0.093800 0.996100
vt 0.015600 0.664100
vt 0.093800 0.996100
vt 0.109400 0.996100
vt 0.210900 0.996100
vt 0.109400 0.664100
vt 0.007800 0.996100
vt 0.015600 0.996100
vt 0.093800 0.996100
vt 0.015600 0.664100
vt 0.093800 0.996100
vt 0.289100 0.851600
vt 0.226600 0.722700
vt 0.226600 0.851600
vt 0.289100 0.726600
vt 0.359400 0.734400
vt 0.289100 0.726600
vt 0.289100 0.851600
vt 0.359400 0.851600
vt 0.226600 0.722700
vt 0.289100 0.851600
vt 0.226600 0.851600
vt 0.289100 0.726600
vt 0.289100 0.726600
vt 0.359400 0.734400
vt 0.359400 0.851600
vt 0.289100 0.851600
vt 0.289100 0.683600
vt 0.226600 0.687500
vt 0.359400 0.675800
vt 0.289100 0.683600
vt 0.109400 0.996100
vt 0.007800 0.996100
vt 0.109400 0.664100
vt 0.210900 0.996100
vt 0.015600 0.996100
vt 0.093800 0.996100
vt 0.015600 0.664100
vt 0.093800 0.996100
vt 0.109400 0.996100
vt 0.210900 0.996100
vt 0.109400 0.664100
vt 0.007800 0.996100
vt 0.015600 0.996100
vt 0.093800 0.996100
vt 0.015600 0.664100
vt 0.093800 0.996100
vt 0.101600 0.996100
vt 0.187500 0.996100
vt 0.101600 0.675800
vt 0.023400 0.996100
vt 0.101600 0.996100
vt 0.187500 0.996100
vt 0.101600 0.675800
vt 0.023400 0.996100
vt 0.101600 0.996100
vt 0.187500 0.996100
vt 0.101600 0.675800
vt 0.023400 0.996100
vt 0.101600 0.675800
vt 0.187500 0.996100
vt 0.101600 0.996100
vt 0.023400 0.996100
vt 0.101600 0.675800
vt 0.187500 0.996100
vt 0.101600 0.996100
vt 0.023400 0.996100
vt 0.101600 0.675800
vt 0.187500 0.996100
vt 0.101600 0.996100
vt 0.023400 0.996100
vt 0.515600 0.355500
vt 0.453100 0.394500
vt 0.453100 0.429700
vt 0.515600 0.472700
vt 0.453100 0.429700
vt 0.453100 0.394500
vt 0.453100 0.500000
vt 0.453100 0.500000
vt 0.515600 0.531300
vt 0.453100 0.484400
vt 0.453100 0.582000
vt 0.515600 0.582000
vt 0.671900 0.152300
vt 0.476600 0.308600
vt 0.476600 0.242200
vt 0.515600 0.136700
vt 0.546900 0.097700
vt 0.671900 0.230500
vt 0.476600 0.339800
vt 0.453100 0.183600
vt 0.671900 0.152300
vt 0.476600 0.242200
vt 0.515600 0.136700
vt 0.453100 0.183600
vt 0.937500 0.793000
vt 0.992200 0.566400
vt 0.992200 0.793000
vt 0.937500 0.566400
vt 0.843800 0.773400
vt 0.843800 0.566400
vt 0.937500 0.566400
vt 0.937500 0.793000
vt 0.992200 0.984400
vt 0.937500 0.984400
vt 0.937500 0.984400
vt 0.843800 0.957000
vt 0.187500 0.996100
vt 0.023400 0.996100
vt 0.109400 0.730500
vt 0.109400 0.996100
vt 0.453100 0.582000
vn -0.5460 0.8012 0.2448
vn 0.7076 0.6899 0.1528
vn -0.8937 0.4393 0.0909
vn 0.7004 0.6744 0.2337
vn 0.0023 0.5437 0.8393
vn 0.7075 0.6900 0.1527
vn 0.9919 -0.0268 0.1244
vn 1.0000 -0.0010 0.0071
vn 0.7004 0.6745 0.2337
vn 1.0000 0.0010 0.0044
vn 0.9919 -0.0234 0.1251
vn -0.9921 -0.0267 0.1223
vn -0.8938 0.4393 0.0909
vn -0.9999 0.0014 -0.0102
vn -1.0000 -0.0014 -0.0064
vn -0.9917 -0.0317 0.1245
vn 0.0022 0.5437 0.8393
vn 0.0016 -0.2127 0.9771
vn 0.0022 -0.2131 0.9770
vn 0.0022 0.5437 0.8392
vn -0.5460 0.8012 0.2447
vn 0.0031 0.0429 -0.9991
vn 0.9517 0.0157 -0.3067
vn 0.0035 0.0776 -0.9970
vn -0.9503 0.0157 -0.3110
vn -0.9510 0.0183 -0.3087
vn -0.9503 0.0157 -0.3111
vn -0.5885 -0.0445 0.8073
vn -0.9510 0.0183 -0.3086
vn 0.9519 0.0181 -0.3060
vn 0.5886 -0.0338 0.8077
vn 0.5917 -0.0499 0.8046
vn 0.9517 0.0156 -0.3067
vn 0.5887 -0.0338 0.8077
vn 0.9519 0.0180 -0.3059
vn 0.0028 0.0756 -0.9971
vn 0.9522 0.0234 -0.3046
vn 0.5878 -0.0616 0.8067
vn 0.0028 0.0757 -0.9971
vn 0.9519 0.0181 -0.3059
vn -0.9513 0.0236 -0.3073
vn -0.7616 -0.0492 0.6462
vn -0.5919 -0.0386 0.8051
vn 0.9527 0.0573 -0.2984
vn -0.0021 0.2618 -0.9651
vn -0.9524 0.0567 -0.2995
vn 0.9517 0.0156 -0.3066
vn 0.6014 -0.1944 0.7749
vn 0.9527 0.0573 -0.2983
vn -0.6004 -0.1439 0.7866
vn 0.9539 0.0374 -0.2979
vn 0.1454 -0.0761 -0.9864
vn -0.9172 -0.0223 -0.3977
vn 0.6015 -0.1945 0.7749
vn 0.7546 0.3427 0.5597
vn -0.7599 0.1192 0.6390
vn 0.6015 -0.1944 0.7749
vn -0.6005 -0.1439 0.7866
vn -0.7599 0.1191 0.6390
vn 0.8567 -0.3414 -0.3867
vn 0.0026 -0.9840 -0.1779
vn -0.1409 -0.5872 -0.7971
vn 0.7732 -0.4084 0.4852
vn 0.7545 0.3427 0.5597
vn 0.3671 0.0009 0.9302
vn -0.1409 -0.5873 -0.7971
vn 0.8567 -0.3415 -0.3867
vn 0.7545 0.3426 0.5597
vn -0.3528 0.5016 0.7899
vn -0.6361 -0.4705 0.6115
vn -0.3528 0.5015 0.7899
vn -0.8918 -0.3501 -0.2866
vn 0.0026 -0.9841 -0.1779
vn -0.8918 -0.3501 -0.2867
vn -0.1409 -0.5873 -0.7970
vn -0.6361 -0.4706 0.6115
vn -0.9371 -0.3487 0.0174
vn 0.0037 -0.9774 -0.2114
vn 0.0110 -0.4277 0.9039
vn 0.9386 -0.3446 0.0169
vn 0.5918 0.6999 0.3999
vn 0.0109 -0.4276 0.9039
vn 0.5917 0.6999 0.3999
vn -0.5918 0.6993 0.4010
vn 0.0110 -0.4275 0.9039
vn -0.0268 -0.9669 -0.2538
vn 0.5577 -0.4472 0.6993
vn 0.9665 0.0950 0.2386
vn -0.0201 -0.8035 -0.5949
vn -0.6236 0.2697 -0.7337
vn 0.1997 0.8352 0.5124
vn -0.2863 0.9299 0.2310
vn 0.1997 0.8352 0.5123
vn -0.2863 0.9299 0.2309
vn -0.9954 0.0260 -0.0924
vn -0.6236 0.2697 -0.7338
vn -0.6235 0.2698 -0.7338
vn -0.5678 -0.2161 0.7943
vn 0.0268 -0.9671 -0.2531
vn -0.9715 0.0981 0.2157
vn -0.2184 0.9758 0.0130
vn -0.5677 -0.2162 0.7943
vn 0.0218 -0.9986 0.0490
vn 0.6211 0.1114 -0.7758
vn 0.9975 0.0142 -0.0696
vn 0.2838 0.9282 0.2408
vn 0.0218 -0.9986 0.0491
vn -0.5678 -0.2162 0.7943
vn 0.0217 -0.9986 0.0491
vn -0.2184 0.9758 0.0129
vn 0.2838 0.9281 0.2408
vn -0.2185 0.9758 0.0130
vn -0.3058 -0.2574 0.9166
vn 0.3266 -0.2935 0.8984
vn 0.0269 -0.9671 -0.2531
vn 0.0268 -0.9671 -0.2530
vn 0.3267 -0.2934 0.8984
vn -0.0290 -0.9980 -0.0560
vn 0.5551 -0.3043 0.7741
vn 0.9679 0.1336 0.2127
vn -0.0160 -0.9095 -0.4154
vn -0.6217 0.1038 -0.7764
vn 0.2009 0.9191 0.3389
vn -0.2862 0.9575 0.0359
vn 0.2010 0.9191 0.3389
vn -0.6216 0.1038 -0.7764
vn -0.9953 0.0105 -0.0962
vn -0.2861 0.9575 0.0359
vn -0.6217 0.1038 -0.7763
vn -0.5698 -0.0596 0.8196
vn 0.0263 -0.9982 -0.0536
vn -0.9716 0.1386 0.1920
vn -0.2199 0.9568 -0.1900
vn 0.0263 -0.9982 -0.0537
vn 0.0172 -0.9695 0.2445
vn 0.6219 -0.0582 -0.7809
vn 0.9975 0.0047 -0.0705
vn 0.2875 0.9565 0.0491
vn 0.0171 -0.9695 0.2445
vn -0.5698 -0.0595 0.8196
vn -0.2199 0.9569 -0.1900
vn 0.6220 -0.0582 -0.7809
vn -0.3067 -0.0956 0.9470
vn 0.2875 0.9565 0.0490
vn 0.3251 -0.0923 0.9412
vn -0.9715 0.1386 0.1921
vn 0.3251 -0.0924 0.9412
vn 0.2874 0.9565 0.0491
vn -0.0243 -0.9885 0.1494
vn 0.5561 -0.1405 0.8191
vn 0.9670 0.1784 0.1821
vn 0.5562 -0.1405 0.8191
vn -0.0243 -0.9885 0.1493
vn -0.0125 -0.9769 -0.2133
vn -0.6223 -0.0734 -0.7794
vn 0.1971 0.9700 0.1421
vn -0.2929 0.9427 -0.1599
vn -0.6222 -0.0733 -0.7794
vn -0.9953 -0.0128 -0.0960
vn -0.6223 -0.0733 -0.7794
vn -0.5694 0.1133 0.8142
vn 0.0243 -0.9881 0.1521
vn -0.9708 0.1785 0.1603
vn -0.2167 0.8953 -0.3892
vn -0.5694 0.1132 0.8142
vn 0.0131 -0.9009 0.4338
vn 0.6206 -0.2300 -0.7496
vn 0.9975 -0.0049 -0.0710
vn 0.2894 0.9458 -0.1474
vn 0.6206 -0.2301 -0.7496
vn -0.2167 0.8953 -0.3893
vn -0.9708 0.1785 0.1602
vn 0.2894 0.9458 -0.1475
vn -0.2166 0.8953 -0.3893
vn -0.3050 0.0982 0.9473
vn -0.3049 0.0981 0.9473
vn 0.3301 0.1272 0.9353
vn 0.0244 -0.9881 0.1522
vn 0.0243 -0.9880 0.1522
vn 0.3300 0.1273 0.9353
vn -0.9057 0.1498 -0.3965
vn -0.0020 -0.9728 0.2317
vn -0.9342 0.1868 -0.3040
vn 0.2779 0.9281 0.2478
vn -0.9352 0.1333 -0.3281
vn 0.1467 -0.9716 0.1859
vn -0.9808 0.1552 -0.1184
vn 0.3215 0.8735 0.3656
vn -0.9325 -0.0139 -0.3609
vn 0.1604 -0.9113 0.3792
vn -0.9761 -0.0127 -0.2169
vn 0.2342 0.9623 0.1382
vn 0.9342 0.1868 -0.3040
vn 0.0020 -0.9728 0.2317
vn 0.9057 0.1498 -0.3965
vn -0.2779 0.9281 0.2478
vn 0.9342 0.1869 -0.3040
vn 0.9799 0.1614 -0.1176
vn -0.1467 -0.9716 0.1859
vn 0.9352 0.1333 -0.3282
vn -0.3215 0.8735 0.3657
vn 0.9352 0.1332 -0.3282
vn -0.3215 0.8735 0.3656
vn 0.9760 -0.0066 -0.2178
vn -0.1604 -0.9113 0.3792
vn 0.9325 -0.0139 -0.3609
vn -0.2342 0.9623 0.1382
vn 0.9760 -0.0066 -0.2177
vn -0.2342 0.9623 0.1383
vn 0.0013 -0.5728 -0.8197
vn 0.9210 -0.1027 -0.3757
vn 0.0209 -0.9996 -0.0208
vn 0.0012 -0.9698 0.2440
vn -0.0185 -0.9996 -0.0190
vn -0.9204 -0.1032 -0.3771
vn 0.0013 -0.5729 -0.8196
vn 0.8264 -0.3713 0.4233
vn -0.8262 -0.3718 0.4233
vn -0.0186 -0.9996 -0.0190
vn 0.0012 -0.9698 0.2439
vn 0.6999 -0.1325 0.7019
vn -0.6984 -0.1298 0.7038
vn 0.9283 0.2961 -0.2247
vn 0.6999 -0.1325 0.7018
vn 0.0013 -0.5729 -0.8197
vn 0.0027 0.6802 0.7330
vn -0.6984 -0.1299 0.7038
vn -0.8758 0.2949 -0.3821
vn -0.9204 -0.1032 -0.3770
vn 0.5069 0.2522 -0.8243
vn -0.8758 0.2950 -0.3821
vn -0.8530 0.1650 -0.4951
vn 0.0031 -0.2264 0.9740
vn -0.8530 0.1649 -0.4951
vn -0.8521 0.3129 -0.4195
vn 0.5069 0.2521 -0.8243
vn 0.9696 0.1868 -0.1581
vn 0.0040 -0.2853 0.9584
vn 0.9696 0.1869 -0.1581
vn 0.5068 0.2522 -0.8243
vn 0.0148 0.9373 0.3482
vn 0.0040 -0.2852 0.9584
vn 0.0148 0.9373 0.3483
usemtl TEX_w2dswa4
s 1
f 1/1/1 2/2/2 3/3/3
f 2/2/2 1/1/1 4/4/4
f 5/5/5 4/4/4 1/1/1
f 2/6/6 6/7/7 7/8/8
f 6/7/7 2/6/2 4/9/9
f 8/10/10 6/7/7 9/11/11
f 6/7/7 8/10/10 7/8/8
f 10/12/12 3/13/13 11/14/14
f 11/14/14 12/15/15 10/12/12
f 13/16/16 10/12/12 12/15/15
f 10/12/12 1/17/1 3/13/13
f 6/7/7 5/18/17 14/19/18
f 14/19/18 15/20/19 6/7/7
f 9/11/11 6/7/7 15/20/19
f 6/7/7 4/9/4 5/18/17
f 5/18/17 10/12/12 14/19/18
f 10/12/12 5/18/20 1/17/21
f 15/20/19 10/12/12 13/16/16
f 10/12/12 15/20/19 14/19/18
f 16/21/22 18/22/23 17/23/24
f 17/23/24 19/24/25 16/21/22
f 20/25/26 16/21/22 19/24/25
f 19/24/27 21/26/28 20/25/29
f 18/22/23 16/21/22 22/27/30
f 22/27/30 23/28/31 18/22/23
f 24/29/32 18/22/33 23/28/34
f 22/27/35 26/30/36 25/31/37
f 25/31/37 27/32/38 22/27/35
f 23/28/34 22/27/35 27/32/38
f 26/30/39 22/27/40 16/21/22
f 16/21/22 20/25/26 26/30/39
f 28/33/41 26/30/39 20/25/26
f 20/25/29 29/34/42 28/33/41
f 23/35/34 30/36/43 24/37/32
f 30/36/43 23/35/34 21/26/28
f 27/38/38 21/26/28 23/35/34
f 21/26/28 27/38/38 29/34/42
f 19/24/27 30/36/43 21/26/28
f 20/25/29 21/26/28 29/34/42
f 17/23/24 32/39/44 31/40/45
f 31/40/45 33/41/46 17/23/24
f 19/24/27 17/23/24 33/41/46
f 33/41/46 30/36/43 19/24/27
f 32/39/44 17/23/24 18/22/47
f 18/22/47 24/29/32 32/39/44
f 34/42/48 32/39/49 24/29/32
f 24/37/32 35/43/50 34/44/48
f 35/43/50 24/37/32 30/36/43
f 33/41/46 35/43/50 30/36/43
f 31/40/45 37/45/51 36/46/52
f 36/46/52 38/47/53 31/40/45
f 33/41/46 31/40/45 38/47/53
f 38/47/53 35/43/50 33/41/46
f 37/45/51 31/40/45 32/39/49
f 32/39/49 34/42/54 37/45/51
f 39/48/55 37/45/51 34/42/54
f 34/44/54 40/49/56 39/50/55
f 40/49/56 34/44/57 35/43/58
f 38/47/53 40/49/59 35/43/50
f 41/51/60 42/52/61 43/53/62
f 42/52/61 41/51/60 44/54/63
f 39/48/64 44/54/63 41/51/60
f 44/54/63 39/48/64 45/55/65
f 41/51/60 36/46/52 37/45/51
f 36/46/52 41/51/60 43/53/66
f 37/45/51 39/48/55 41/51/67
f 39/50/68 46/56/69 45/57/65
f 46/56/69 39/50/68 40/49/59
f 40/49/56 47/58/70 46/56/71
f 47/58/70 40/49/56 48/59/72
f 42/52/73 48/59/74 43/53/75
f 48/59/74 42/52/73 47/58/76
f 43/53/62 38/47/53 36/46/52
f 38/47/53 43/53/62 48/59/72
f 40/49/56 38/47/53 48/59/72
f 42/52/61 44/54/63 47/58/70
f 44/54/63 45/55/65 47/58/70
f 45/55/65 46/56/69 47/58/70
f 49/60/77 50/61/78 51/62/79
f 50/61/78 52/63/80 51/62/79
f 52/63/80 53/64/81 51/62/82
f 53/65/83 54/66/84 51/67/79
f 54/66/84 49/60/77 51/62/85
f 55/68/86 56/69/87 57/70/88
f 56/69/87 55/68/86 58/71/89
f 59/72/90 58/71/89 55/68/86
f 57/70/88 60/73/91 61/74/92
f 60/73/93 57/70/88 56/69/87
f 61/74/94 59/72/90 62/75/95
f 59/72/96 61/74/92 60/73/93
f 55/68/86 62/75/95 59/72/97
f 63/76/98 65/77/99 64/78/100
f 64/78/100 66/79/101 63/76/98
f 65/77/99 63/76/102 67/80/103
f 67/80/103 68/81/104 65/77/99
f 69/82/105 65/77/99 68/81/104
f 68/81/104 70/83/106 69/82/105
f 56/69/87 67/84/107 63/85/108
f 63/85/108 60/73/93 56/69/87
f 67/84/109 56/69/87 58/71/89
f 58/71/89 68/86/104 67/84/109
f 66/79/110 64/78/100 70/83/111
f 70/83/111 68/81/104 66/79/110
f 60/73/93 63/85/108 66/87/112
f 66/87/112 59/72/96 60/73/93
f 59/72/90 66/87/110 68/86/104
f 68/86/104 58/71/89 59/72/90
f 62/88/95 55/89/86 71/90/113
f 71/90/113 61/91/94 62/88/95
f 57/92/88 61/93/92 71/94/113
f 71/94/113 55/95/86 57/92/88
f 69/96/105 70/97/111 72/98/114
f 72/98/114 65/99/115 69/96/105
f 64/100/100 65/101/116 72/102/117
f 72/102/117 70/103/111 64/100/100
f 73/104/118 74/105/119 75/106/120
f 74/105/119 73/104/118 76/107/121
f 77/108/122 76/107/121 73/104/118
f 75/106/120 78/109/123 79/110/124
f 78/109/125 75/106/120 74/105/119
f 79/110/124 77/108/126 80/111/127
f 77/108/122 79/110/128 78/109/123
f 73/104/118 80/111/127 77/108/129
f 81/112/130 83/113/131 82/114/132
f 82/114/132 84/115/133 81/112/130
f 83/113/134 81/112/130 85/116/135
f 85/116/135 86/117/136 83/113/134
f 87/118/137 83/113/134 86/117/136
f 86/117/136 88/119/138 87/118/137
f 74/105/119 85/120/139 81/121/140
f 81/121/140 78/109/125 74/105/119
f 85/120/139 74/105/119 76/107/121
f 76/107/121 86/122/136 85/120/139
f 84/115/133 82/114/132 88/119/138
f 88/119/138 86/117/136 84/115/133
f 78/109/123 81/121/130 84/123/141
f 84/123/141 77/108/122 78/109/123
f 77/108/122 84/123/133 86/122/142
f 86/122/142 76/107/121 77/108/122
f 80/124/127 73/125/118 89/126/143
f 89/126/143 79/127/124 80/124/127
f 75/128/120 79/129/124 89/130/143
f 89/130/143 73/131/118 75/128/120
f 87/132/137 88/133/144 90/134/145
f 90/134/145 83/135/134 87/132/137
f 82/136/146 83/137/131 90/138/147
f 90/138/147 88/139/148 82/136/146
f 91/140/149 92/141/150 93/142/151
f 92/141/152 91/140/153 94/143/154
f 95/144/155 94/143/154 91/140/153
f 93/142/151 96/145/156 97/146/157
f 96/145/156 93/142/151 92/141/152
f 97/146/157 95/144/158 98/147/159
f 95/144/160 97/146/157 96/145/156
f 91/140/149 98/147/159 95/144/160
f 99/148/161 101/149/162 100/150/163
f 100/150/163 102/151/164 99/148/161
f 101/149/162 99/148/165 103/152/166
f 103/152/166 104/153/167 101/149/162
f 105/154/168 101/149/162 104/153/167
f 104/153/167 106/155/169 105/154/168
f 92/141/152 103/156/166 99/157/165
f 99/157/165 96/145/156 92/141/152
f 103/156/166 92/141/152 94/143/154
f 94/143/154 104/158/170 103/156/166
f 102/151/171 100/150/172 106/155/173
f 106/155/173 104/153/167 102/151/171
f 96/145/156 99/157/161 102/159/171
f 102/159/171 95/144/160 96/145/156
f 95/144/155 102/159/174 104/158/167
f 104/158/167 94/143/154 95/144/155
f 98/160/159 91/161/149 107/162/175
f 107/162/175 97/163/157 98/160/159
f 93/164/151 97/165/157 107/166/176
f 107/166/176 91/167/149 93/164/151
f 105/168/168 106/169/173 108/170/177
f 108/170/177 101/171/178 105/168/168
f 100/172/163 101/173/179 108/174/180
f 108/174/180 106/175/173 100/172/163
f 109/176/181 111/177/182 110/178/183
f 110/178/183 112/179/184 109/176/181
f 112/179/184 110/178/183 111/177/182
f 113/180/185 115/181/186 114/182/187
f 114/182/187 116/183/188 113/180/185
f 116/183/188 114/182/187 115/181/186
f 117/184/189 119/185/190 118/186/191
f 118/186/191 120/187/192 117/184/189
f 120/187/192 118/186/191 119/185/190
f 121/188/193 122/189/194 123/190/195
f 122/189/194 121/188/193 124/191/196
f 121/188/197 123/190/195 124/191/196
f 125/192/198 126/193/199 127/194/200
f 126/193/199 125/192/198 128/195/201
f 125/192/198 127/194/202 128/195/203
f 129/196/204 130/197/205 131/198/206
f 130/197/205 129/196/204 132/199/207
f 129/196/208 131/198/206 132/199/209
f 133/200/210 135/201/211 134/202/212
f 134/202/212 136/203/213 133/200/210
f 137/204/214 138/205/215 133/200/216
f 134/202/212 139/206/217 136/203/213
f 140/207/218 137/204/219 136/203/220
f 136/208/213 139/209/217 141/210/221
f 141/210/221 142/211/222 136/208/213
f 143/212/223 141/213/224 139/214/217
f 139/214/217 135/215/211 143/212/223
f 133/216/225 143/212/223 135/215/211
f 141/213/224 143/212/223 144/217/226
f 144/217/226 142/218/227 141/213/224
f 139/214/217 134/219/212 135/215/211
f 145/220/228 142/218/227 144/217/226
f 142/218/227 145/220/228 140/221/218
f 140/221/218 138/222/229 137/223/214
f 145/220/228 138/222/229 140/221/218
f 133/216/225 145/220/228 143/212/223
f 145/220/228 133/216/225 138/222/229
f 146/224/230 145/225/231 147/226/232
f 145/225/231 146/224/230 143/227/223
f 148/228/233 143/227/223 146/224/230
f 143/227/223 148/228/233 144/229/226
f 145/230/228 144/229/226 148/228/233
f 148/228/233 147/231/234 145/230/228
f 149/232/235 146/224/236 147/226/232
f 146/224/236 149/232/235 150/233/237
f 149/234/235 148/228/233 151/235/238
f 148/228/233 149/234/235 147/231/232
f 150/233/239 148/228/233 146/224/240
f 148/228/233 150/233/239 151/235/238
f 150/236/239 149/237/235 152/238/241
f 149/237/235 151/239/242 152/238/241
f 151/239/242 150/236/239 152/238/243
f 142/240/222 140/207/218 136/203/213
f 137/204/214 133/200/210 136/203/213
