# Blender v2.79 (sub 0) OBJ File: ''
# www.blender.org
mtllib w2dswa5l.mtl
o MDL_w2dswa5l_bod00
v -0.032800 -0.267000 -0.035300
v 0.033800 -0.298600 -0.069400
v -0.033800 -0.298600 -0.069400
v 0.032800 -0.267000 -0.035300
v -0.032200 -0.234500 0.004100
v 0.031900 -0.234500 0.004100
v 0.016900 -0.323900 0.014700
v 0.016900 -0.316100 0.046600
v 0.017200 -0.232900 0.090600
v 0.016900 -0.372000 -0.026600
v -0.017200 -0.372000 -0.026600
v -0.017200 -0.323900 0.014700
v -0.017200 -0.316100 0.046600
v 0.033800 -0.387600 -0.100300
v -0.033800 -0.387600 -0.100300
v 0.016900 -0.418900 -0.020000
v 0.025600 -0.467300 -0.068800
v -0.025900 -0.467300 -0.068800
v 0.014700 -0.493200 -0.008400
v -0.017200 -0.418900 -0.020000
v 0.014700 -0.428200 0.019400
v -0.015000 -0.493200 -0.008400
v -0.015000 -0.428200 0.019400
v -0.010000 -0.463900 0.034700
v -0.017200 -0.232900 0.090600
v 0.009700 -0.463900 0.034700
v 0.014700 -0.404200 0.048400
v 0.010600 -0.414800 0.074100
v 0.014700 -0.362000 0.062200
v 0.009700 -0.348600 0.083100
v -0.010000 -0.348600 0.083100
v -0.015000 -0.362000 0.062200
v -0.015000 -0.404200 0.048400
v -0.010000 -0.414800 0.074100
v -0.017200 -0.432300 0.097800
v 0.016900 -0.358200 0.105900
v -0.017200 -0.358200 0.105900
v 0.016900 -0.432300 0.097800
v -0.017200 -0.496700 0.041300
v 0.016900 -0.496700 0.041300
v 0.018100 -0.335100 0.082200
v 0.016900 -0.412300 0.069100
v 0.018100 -0.456100 0.033400
v 0.024400 -0.500400 -0.020000
v -0.018100 -0.335100 0.082200
v -0.018100 -0.412300 0.069100
v -0.018100 -0.456100 0.033400
v -0.017200 -0.320400 0.154100
v 0.014700 -0.277600 0.129700
v -0.015000 -0.277600 0.129700
v 0.016900 -0.320400 0.154100
v 0.016900 -0.554800 0.012800
v 0.016900 -0.606400 -0.035000
v -0.017200 -0.606400 -0.035000
v -0.024400 -0.500400 -0.020000
v -0.017200 -0.554800 0.012800
v -0.005900 -0.717000 -0.022200
v 0.022200 -0.844800 -0.161900
v 0.005900 -0.717000 -0.022200
v -0.022200 -0.844800 -0.161900
v 0.022200 -0.454500 -0.114700
v 0.005900 -0.610100 -0.044700
v 0.022200 -0.646100 -0.151300
v 0.005900 -0.679500 -0.044400
v -0.005900 -0.610100 -0.044700
v 0.005900 -0.564500 -0.009700
v -0.005900 -0.679500 -0.044400
v -0.022200 -0.646100 -0.151300
v -0.022200 -0.454500 -0.114700
v -0.005900 -0.564500 -0.009700
v 0.022200 -0.326100 -0.069400
v 0.010000 -0.479200 0.000900
v -0.010000 -0.479500 0.000900
v -0.022200 -0.326100 -0.069400
v 0.009400 -0.333600 0.085000
v 0.008100 -0.236100 0.081900
v 0.009100 -0.307300 0.139700
v -0.009400 -0.307300 0.139700
v -0.008400 -0.236100 0.081900
v -0.010300 -0.396100 0.142800
v 0.010000 -0.396100 0.142800
v -0.010300 -0.502300 0.081600
v 0.010000 -0.502300 0.081900
v -0.005900 -0.552300 0.006600
v 0.005900 -0.552000 0.006600
v 0.010000 -0.403900 0.072200
v 0.009100 -0.302600 0.039100
v -0.010000 -0.403900 0.072200
v -0.009700 -0.333600 0.085000
v -0.009100 -0.302600 0.039100
v 0.007200 -0.351400 0.043700
v -0.005300 -0.376700 0.065000
v 0.007200 -0.376700 0.065000
v -0.005300 -0.351400 0.043700
v 0.007200 -0.296700 0.035900
v -0.005300 -0.296700 0.035900
v 0.000900 -0.379800 0.015300
v 0.000900 -0.424800 0.037200
v 0.000900 -0.341100 -0.016200
v -0.000600 -0.510100 0.062800
v 0.008400 -0.497000 0.074400
v 0.000300 -0.558200 0.119700
v -0.009700 -0.497300 0.074100
v -0.000300 -0.484200 0.085600
v -0.000600 -0.425400 0.122800
v 0.008400 -0.409500 0.129100
v 0.000300 -0.458900 0.218400
v -0.009700 -0.409800 0.129100
v -0.000300 -0.393600 0.135300
v -0.000600 -0.442300 0.111600
v 0.008400 -0.433200 0.116900
v 0.000300 -0.459200 0.145600
v -0.009700 -0.433600 0.116900
v -0.000300 -0.424500 0.122200
v -0.000600 -0.489200 0.081600
v 0.008400 -0.480700 0.087500
v 0.000300 -0.515100 0.115300
v -0.009700 -0.480700 0.087500
v -0.000300 -0.472000 0.093400
v -0.000300 -0.538600 0.020300
v 0.006300 -0.532900 0.028400
v 0.000000 -0.578200 0.045600
v -0.006900 -0.532900 0.028400
v -0.000300 -0.527300 0.036600
v -0.000300 -0.527900 0.036200
v 0.006300 -0.523200 0.045300
v 0.000000 -0.613900 0.080300
v -0.006900 -0.523200 0.045000
v -0.000300 -0.518900 0.054100
v -0.000300 -0.520400 0.048700
v 0.006300 -0.518600 0.052800
v 0.000000 -0.537900 0.060300
v -0.006900 -0.518600 0.052800
v -0.000300 -0.516400 0.056900
v -0.000300 -0.514200 0.055300
v 0.005600 -0.510700 0.060600
v 0.000000 -0.542300 0.077200
v -0.006300 -0.510700 0.060600
v -0.000300 -0.507300 0.065600
v -0.000300 -0.474500 0.093100
v 0.005600 -0.469200 0.096900
v 0.000000 -0.493600 0.121300
v -0.006300 -0.469200 0.096900
v -0.000300 -0.463900 0.100600
v -0.000600 -0.470100 0.095000
v 0.008400 -0.452300 0.105600
v 0.000300 -0.515700 0.177800
v -0.009700 -0.452600 0.105300
v -0.000300 -0.434800 0.115900
v -0.000600 -0.367900 0.137200
v 0.008400 -0.355100 0.136900
v 0.000300 -0.355400 0.160900
v -0.009700 -0.355100 0.136900
v -0.000300 -0.342300 0.136900
v -0.000600 -0.392900 0.133800
v 0.008400 -0.381700 0.134100
v 0.000300 -0.393900 0.190300
v -0.009700 -0.382000 0.134100
v -0.000300 -0.370700 0.134400
v 0.001200 -0.697600 -0.015600
v 0.001200 -0.707300 -0.030600
v 0.001200 -0.700100 -0.034700
v 0.001200 -0.682300 -0.012800
v 0.001200 -0.688900 -0.042200
v 0.001200 -0.669800 -0.024400
v 0.001200 -0.675700 -0.046600
v 0.001200 -0.664800 -0.047200
v 0.001200 -0.651400 -0.019100
v 0.001200 -0.651700 -0.046900
v 0.001200 -0.630700 -0.025600
v 0.001200 -0.643600 -0.046600
v 0.001200 -0.619200 -0.049700
v 0.001200 -0.619200 -0.025000
v 0.001200 -0.611400 -0.046600
v 0.004100 -0.252900 0.125300
v 0.004100 -0.286100 0.117800
v 0.004100 -0.272000 0.107500
v 0.004100 -0.254800 0.108800
v 0.004100 -0.262300 0.100300
v 0.004100 -0.235400 0.104100
v 0.004100 -0.252300 0.091300
v -0.005300 -0.281100 0.113100
v -0.005300 -0.260400 0.124100
v -0.005300 -0.267000 0.102800
v -0.005300 -0.248200 0.112200
v -0.005300 -0.257600 0.095600
v -0.005300 -0.241100 0.098400
v -0.005300 -0.247300 0.086600
v -0.002800 -0.702000 -0.031600
v -0.002800 -0.691400 -0.010900
v -0.002800 -0.691100 -0.039400
v -0.002800 -0.673200 -0.017500
v -0.002800 -0.679800 -0.047200
v -0.002800 -0.670100 -0.046300
v -0.002800 -0.662600 -0.028800
v -0.002800 -0.660700 -0.046300
v -0.002800 -0.652900 -0.046600
v -0.002800 -0.637300 -0.016200
v -0.002800 -0.638200 -0.047500
v -0.002800 -0.628900 -0.046900
v -0.002800 -0.625100 -0.026600
v -0.002800 -0.615700 -0.047200
v 0.010000 -0.483600 0.025000
v -0.010000 -0.483600 0.025000
v -0.000300 -0.015100 0.039100
v 0.017500 0.001100 -0.015600
v -0.018100 0.001100 -0.015600
v 0.017800 -0.202900 -0.005300
v 0.008100 -0.245100 0.040000
v 0.019100 -0.267900 -0.028400
v 0.000000 -0.203600 0.023700
v 0.017500 -0.060100 -0.000900
v -0.000300 -0.060400 0.022500
v -0.018100 -0.202900 -0.005300
v -0.008400 -0.245100 0.040000
v -0.019100 -0.267900 -0.028400
v -0.018100 -0.060100 -0.000900
vt 0.898400 0.058600
vt 0.750000 0.003900
vt 0.750000 0.058600
vt 0.898400 0.003900
vt 0.445300 0.828100
vt 0.445300 0.789100
vt 0.304700 0.789100
vt 0.804700 0.960900
vt 0.531300 0.851600
vt 0.632800 0.980500
vt 0.617200 0.800800
vt 0.984400 0.800800
vt 0.343800 0.859400
vt 0.382800 0.789100
vt 0.531300 0.828100
vt 0.531300 0.789100
vt 0.382800 0.828100
vt 0.304700 0.789100
vt 0.304700 0.828100
vt 0.531300 0.851600
vt 0.460900 0.996100
vt 0.343800 0.859400
vt 0.632800 0.980500
vt 0.804700 0.960900
vt 0.523400 0.003900
vt 0.523400 0.058600
vt 0.156300 0.941400
vt 0.460900 0.996100
vt 0.250000 0.816400
vt 0.156300 0.941400
vt 0.531300 0.828100
vt 0.382800 0.789100
vt 0.382800 0.828100
vt 0.531300 0.789100
vt 0.007800 0.839800
vt 0.085900 0.714800
vt 0.500000 0.761700
vt 0.406300 0.789100
vt 0.406300 0.761700
vt 0.500000 0.789100
vt 0.250000 0.816400
vt 0.007800 0.839800
vt 0.296900 0.773400
vt 0.085900 0.714800
vt 0.296900 0.773400
vt 0.226600 0.695300
vt 0.531300 0.789100
vt 0.304700 0.789100
vt 0.304700 0.828100
vt 0.531300 0.828100
vt 0.578100 0.828100
vt 0.578100 0.789100
vt 0.617200 0.800800
vt 0.984400 0.800800
vt 0.335900 0.789100
vt 0.335900 0.828100
vt 0.335900 0.789100
vt 0.335900 0.761700
vt 0.226600 0.695300
vt 0.429700 0.753900
vt 0.437500 0.679700
vt 0.546900 0.773400
vt 0.648400 0.722700
vt 0.007800 0.933600
vt 0.070300 0.996100
vt 0.007800 0.996100
vt 0.070300 0.933600
vt 0.445300 0.828100
vt 0.531300 0.789100
vt 0.531300 0.828100
vt 0.445300 0.789100
vt 0.312500 0.828100
vt 0.312500 0.789100
vt 0.437500 0.679700
vt 0.429700 0.753900
vt 0.648400 0.722700
vt 0.546900 0.773400
vt 0.992200 0.949200
vt 0.914100 0.972700
vt 0.992200 0.972700
vt 0.914100 0.949200
vt 0.992200 0.914100
vt 0.914100 0.914100
vt 0.585900 0.585900
vt 0.765600 0.718800
vt 0.773400 0.660200
vt 0.578100 0.648400
vt 0.343800 0.601600
vt 0.421900 0.652300
vt 0.226600 0.687500
vt 0.851600 0.734400
vt 0.992200 0.773400
vt 0.992200 0.734400
vt 0.851600 0.773400
vt 0.843800 0.734400
vt 0.843800 0.773400
vt 0.578100 0.648400
vt 0.773400 0.660200
vt 0.765600 0.718800
vt 0.585900 0.585900
vt 0.421900 0.652300
vt 0.343800 0.601600
vt 0.906300 0.632800
vt 0.976600 0.710900
vt 0.945300 0.710900
vt 0.921900 0.628900
vt 0.164100 0.574200
vt 0.046900 0.601600
vt 0.015600 0.585900
vt 0.226600 0.687500
vt 0.187500 0.578100
vt 0.914100 0.996100
vt 0.992200 0.902300
vt 0.914100 0.902300
vt 0.992200 0.996100
vt 0.992200 0.773400
vt 0.773400 0.734400
vt 0.773400 0.773400
vt 0.992200 0.734400
vt 0.710900 0.742200
vt 0.710900 0.769500
vt 0.773400 0.773400
vt 0.992200 0.890600
vt 0.914100 0.937500
vt 0.992200 0.937500
vt 0.914100 0.890600
vt 0.773400 0.734400
vt 0.968800 0.773400
vt 0.968800 0.734400
vt 0.507800 0.027300
vt 0.250000 0.058600
vt 0.507800 0.039100
vt 0.250000 0.003900
vt 0.148400 0.449200
vt 0.304700 0.273400
vt 0.078100 0.210900
vt 0.296900 0.203100
vt 0.078100 0.003900
vt 0.460900 0.300800
vt 0.484400 0.300800
vt 0.468800 0.261700
vt 0.484400 0.371100
vt 0.492200 0.335900
vt 0.468800 0.335900
vt 0.507800 0.371100
vt 0.007800 0.210900
vt 0.078100 0.210900
vt 0.148400 0.449200
vt 0.007800 0.003900
vt 0.078100 0.003900
vt 0.296900 0.203100
vt 0.445300 0.269500
vt 0.007800 0.457000
vt 0.210900 0.554700
vt 0.414100 0.480500
vt 0.375000 0.347700
vt 0.304700 0.273400
vt 0.375000 0.347700
vt 0.335900 0.152300
vt 0.335900 0.152300
vt 0.414100 0.480500
vt 0.210900 0.554700
vt 0.007800 0.566400
vt 0.468800 0.425800
vt 0.453100 0.566400
vt 0.617200 0.488300
vt 0.468800 0.312500
vt 0.492200 0.281300
vt 0.468800 0.281300
vt 0.492200 0.312500
vt 0.468800 0.339800
vt 0.492200 0.339800
vt 0.468800 0.367200
vt 0.492200 0.367200
vt 0.468800 0.402300
vt 0.492200 0.402300
vt 0.617200 0.375000
vt 0.414100 0.324200
vt 0.578100 0.226600
vt 0.414100 0.468800
vt 0.414100 0.324200
vt 0.617200 0.375000
vt 0.617200 0.488300
vt 0.468800 0.425800
vt 0.453100 0.566400
vt 0.414100 0.468800
vt 0.429700 0.441400
vt 0.445300 0.429700
vt 0.437500 0.382800
vt 0.414100 0.382800
vt 0.781300 0.168000
vt 0.945300 0.191400
vt 0.945300 0.168000
vt 0.781300 0.191400
vt 0.609400 0.168000
vt 0.609400 0.191400
vt 0.773400 0.144500
vt 0.773400 0.222700
vt 0.937500 0.140600
vt 0.773400 0.222700
vt 0.617200 0.128900
vt 0.625000 0.250000
vt 0.937500 0.242200
vt 0.937500 0.242200
vt 0.625000 0.250000
vt 0.804700 0.574200
vt 0.906300 0.574200
vt 0.882800 0.343800
vt 0.906300 0.574200
vt 0.992200 0.574200
vt 0.968800 0.574200
vt 0.867200 0.574200
vt 0.882800 0.347700
vt 0.906300 0.574200
vt 0.781300 0.574200
vt 0.671900 0.277300
vt 0.734400 0.277300
vt 0.671900 0.406300
vt 0.734400 0.277300
vt 0.796900 0.277300
vt 0.703100 0.277300
vt 0.750000 0.277300
vt 0.757800 0.410200
vt 0.750000 0.277300
vt 0.804700 0.277300
vt 0.835900 0.578100
vt 0.890600 0.578100
vt 0.914100 0.421900
vt 0.890600 0.578100
vt 0.960900 0.578100
vt 0.664100 0.277300
vt 0.734400 0.277300
vt 0.726600 0.460900
vt 0.734400 0.277300
vt 0.804700 0.277300
vt 0.812500 0.578100
vt 0.890600 0.578100
vt 0.882800 0.410200
vt 0.890600 0.578100
vt 0.960900 0.578100
vt 0.789100 0.578100
vt 0.843800 0.578100
vt 0.828100 0.468800
vt 0.843800 0.578100
vt 0.906300 0.578100
vt 0.656300 0.277300
vt 0.726600 0.277300
vt 0.718800 0.429700
vt 0.726600 0.277300
vt 0.789100 0.277300
vt 0.656300 0.277300
vt 0.734400 0.277300
vt 0.710900 0.472700
vt 0.734400 0.277300
vt 0.820300 0.277300
vt 0.671900 0.277300
vt 0.734400 0.277300
vt 0.718800 0.429700
vt 0.734400 0.277300
vt 0.796900 0.277300
vt 0.781300 0.578100
vt 0.882800 0.578100
vt 0.867200 0.355500
vt 0.882800 0.578100
vt 0.984400 0.578100
vt 0.937500 0.363300
vt 0.960900 0.281300
vt 0.898400 0.281300
vt 0.898400 0.410200
vt 0.875000 0.566400
vt 0.960900 0.566400
vt 0.953100 0.367200
vt 0.992200 0.281300
vt 0.914100 0.281300
vt 0.757800 0.394500
vt 0.789100 0.281300
vt 0.726600 0.281300
vt 0.960900 0.394500
vt 0.984400 0.281300
vt 0.921900 0.281300
vt 0.687500 0.378900
vt 0.718800 0.281300
vt 0.664100 0.281300
vt 0.914100 0.441400
vt 0.859400 0.562500
vt 0.937500 0.562500
vt 0.765600 0.386700
vt 0.718800 0.277300
vt 0.789100 0.277300
vt 0.765600 0.375000
vt 0.796900 0.281300
vt 0.703100 0.281300
vt 0.804700 0.281300
vt 0.867200 0.386700
vt 0.898400 0.281300
vt 0.789100 0.281300
vt 0.757800 0.371100
vt 0.726600 0.281300
vt 0.898400 0.281300
vt 0.992200 0.281300
vt 0.968800 0.351600
vt 0.664100 0.281300
vt 0.695300 0.363300
vt 0.718800 0.281300
vt 0.789100 0.558600
vt 0.828100 0.433600
vt 0.843800 0.558600
vt 0.734400 0.281300
vt 0.750000 0.339800
vt 0.765600 0.285200
vt 0.867200 0.558600
vt 0.882800 0.429700
vt 0.914100 0.558600
vt 0.937500 0.281300
vt 0.960900 0.355500
vt 0.984400 0.281300
vt 0.375000 0.222700
vt 0.429700 0.128900
vt 0.578100 0.226600
vt 0.375000 0.222700
vt 0.429700 0.128900
vt 0.484400 0.093800
vt 0.414100 0.113300
vt 0.414100 0.074200
vt 0.906300 0.121100
vt 0.992200 0.156300
vt 0.992200 0.046900
vt 0.906300 0.078100
vt 0.562500 0.121100
vt 0.562500 0.078100
vt 0.476600 0.140600
vt 0.476600 0.058600
vt 0.906300 0.121100
vt 0.992200 0.046900
vt 0.992200 0.156300
vt 0.906300 0.101600
vt 0.992200 0.101600
vt 0.992200 0.058600
vt 0.906300 0.070300
vt 0.562500 0.101600
vt 0.562500 0.070300
vt 0.476600 0.101600
vt 0.476600 0.070300
vt 0.562500 0.121100
vt 0.476600 0.140600
vt 0.304700 0.828100
vn -0.6023 0.6016 -0.5246
vn 0.6178 0.5004 -0.6065
vn -0.7890 0.2808 -0.5465
vn 0.7759 0.4913 -0.3957
vn -0.7830 0.5694 -0.2505
vn 0.7763 0.6246 -0.0848
vn 0.6510 -0.6011 0.4635
vn 0.4435 -0.7058 0.5524
vn 0.6578 0.2948 0.6931
vn 0.7371 -0.1315 0.6629
vn -0.6532 -0.3009 0.6948
vn -0.7365 -0.5948 0.3222
vn 0.4435 -0.7058 0.5525
vn -0.6746 -0.5797 0.4570
vn -0.7890 0.2808 -0.5464
vn -0.7829 0.5694 -0.2506
vn -0.6023 0.6017 -0.5245
vn 0.8022 0.0584 -0.5942
vn -0.7975 -0.1306 -0.5890
vn 0.8022 0.0585 -0.5942
vn 0.6178 0.5005 -0.6065
vn 0.7975 0.4264 0.4268
vn -0.7890 0.2809 -0.5464
vn 0.6147 -0.5253 -0.5883
vn -0.6025 -0.6830 -0.4129
vn 0.6148 -0.5253 -0.5883
vn -0.7975 -0.1305 -0.5890
vn 0.8010 0.4211 0.4255
vn 0.8330 -0.5419 -0.1122
vn -0.7855 0.2469 0.5675
vn -0.7855 0.2470 0.5675
vn 0.7733 0.6034 -0.1947
vn -0.9466 -0.3225 -0.0018
vn -0.9466 -0.3225 -0.0017
vn -0.8550 0.5153 0.0591
vn -0.9874 -0.0796 0.1369
vn 0.6579 0.2947 0.6931
vn -0.4171 0.4141 0.8091
vn -0.6746 -0.5798 0.4570
vn -0.7829 0.5694 -0.2505
vn -0.4171 0.4141 0.8090
vn -0.9465 -0.3226 -0.0017
vn 0.7733 0.6035 -0.1947
vn 0.9884 -0.0934 0.1196
vn 0.7677 0.2937 -0.5695
vn 0.9844 -0.0582 0.1659
vn 0.6113 0.6020 -0.5137
vn 0.7430 0.6299 -0.2261
vn -0.7554 0.6105 -0.2380
vn 0.6113 0.6020 -0.5138
vn -0.3500 0.5028 -0.7904
vn -0.7893 0.4274 -0.4409
vn 0.7733 0.6034 -0.1948
vn -0.8549 0.5153 0.0592
vn -0.3499 0.5028 -0.7904
vn -0.9860 -0.0897 0.1406
vn -0.8550 0.5153 0.0592
vn -0.9874 -0.0796 0.1368
vn -0.7554 0.6105 -0.2379
vn -0.7123 -0.2171 0.6674
vn 0.7244 -0.2332 0.6487
vn -0.7220 -0.4124 0.5555
vn 0.7168 -0.3457 0.6056
vn -0.6785 -0.4174 0.6045
vn 0.7717 -0.3151 0.5525
vn 0.7280 0.3478 -0.5908
vn 0.7239 0.2255 -0.6520
vn 0.5737 0.5789 -0.5794
vn 0.7703 0.3960 -0.4999
vn -0.7223 0.2402 -0.6485
vn -0.7274 0.3410 -0.5954
vn 0.5737 0.5790 -0.5794
vn -0.7234 0.5166 -0.4581
vn -0.7274 0.3411 -0.5954
vn -0.7223 0.2401 -0.6486
vn -0.7123 -0.2172 0.6674
vn -0.7234 0.5167 -0.4580
vn -0.6423 0.0753 0.7628
vn 0.7159 0.5995 0.3579
vn -0.4574 0.8344 -0.3076
vn 0.3951 -0.4126 0.8208
vn 0.5232 -0.5129 0.6806
vn -0.5744 -0.7511 0.3256
vn 0.6207 -0.3016 -0.7237
vn -0.7695 0.2357 -0.5935
vn -0.5246 -0.4492 0.7232
vn -0.7221 -0.4124 0.5555
vn -0.6422 0.0754 0.7628
vn -0.7223 0.2401 -0.6485
vn 0.3951 -0.4125 0.8208
vn -0.5246 -0.4491 0.7232
vn 0.7717 -0.3152 0.5524
vn -0.5744 -0.7510 0.3257
vn -0.7696 0.2358 -0.5935
vn -0.2995 -0.1240 0.9460
vn 0.8176 -0.5487 -0.1744
vn 0.5235 -0.0966 0.8465
vn 0.8176 -0.5488 -0.1744
vn -0.2995 -0.1239 0.9460
vn -0.9496 -0.3099 -0.0478
vn 0.9335 0.0777 -0.3501
vn 0.6727 -0.1577 0.7229
vn 0.7602 0.1002 -0.6419
vn 0.6725 0.2398 0.7001
vn -0.6735 -0.2969 0.6769
vn 0.6726 -0.1577 0.7230
vn 0.6676 -0.4509 0.5924
vn 0.6725 0.2399 0.7001
vn -0.6714 0.1254 0.7304
vn 0.5235 -0.0965 0.8465
vn -0.7603 0.0657 -0.6462
vn -0.7483 0.1603 -0.6437
vn -0.8529 -0.3149 0.4164
vn 0.9335 0.0776 -0.3501
vn 0.4645 0.2947 -0.8351
vn 0.9944 -0.0469 0.0949
vn -0.6735 -0.2970 0.6769
vn -0.8529 -0.3148 0.4165
vn -0.7483 0.1604 -0.6437
vn 0.5235 -0.0965 0.8466
vn -0.9944 -0.0469 0.0948
vn -0.7428 0.2227 -0.6314
vn 0.4645 0.2946 -0.8351
vn 0.4645 0.2946 -0.8352
vn 0.9515 -0.2518 -0.1766
vn 0.7039 0.4531 0.5471
vn 0.7226 0.1763 0.6684
vn -0.7223 0.3184 0.6139
vn 0.7039 0.4530 0.5471
vn -0.8921 0.2930 0.3440
vn 0.7226 0.1762 0.6684
vn -0.5696 -0.1188 0.8133
vn 0.5662 -0.2712 0.7784
vn -0.7170 -0.4458 0.5358
vn 0.7120 -0.5271 0.4639
vn -0.4363 -0.7619 0.4788
vn 0.7012 -0.6120 0.3658
vn 0.5661 -0.2712 0.7784
vn 1.0000 0.0046 0.0001
vn 0.4494 -0.7389 -0.5020
vn 0.9944 -0.0468 0.0949
vn 0.6676 -0.4509 0.5925
vn -1.0000 0.0047 -0.0027
vn -0.8351 -0.4530 -0.3120
vn -0.8921 0.2930 0.3441
vn -0.7101 -0.5791 -0.4004
vn -0.7428 0.2228 -0.6314
vn -0.7101 -0.5792 -0.4004
vn 0.9515 -0.2518 -0.1765
vn 0.8590 0.2529 0.4452
vn -0.4666 0.5696 0.6766
vn 0.7482 0.4273 0.5075
vn -0.8571 0.1445 0.4944
vn 0.4652 0.1249 0.8764
vn 0.4652 0.1250 0.8764
vn -0.7438 0.0944 0.6617
vn -0.0013 -0.5356 -0.8445
vn 0.8589 0.2530 0.4452
vn -0.0011 -0.5287 -0.8488
vn -0.0011 -0.4460 -0.8950
vn -0.4666 0.5697 0.6766
vn 0.4652 0.1250 0.8763
vn 0.0075 -0.7636 -0.6457
vn 0.9942 -0.0749 0.0766
vn 0.0488 -0.6882 0.7238
vn -0.9912 -0.0901 0.0970
vn 0.0489 -0.6883 0.7238
vn 0.0137 0.4186 0.9081
vn 0.0487 -0.6882 0.7238
vn 0.0061 -0.9437 -0.3307
vn 0.9969 -0.0367 0.0701
vn 0.0633 -0.4196 0.9055
vn -0.9952 -0.0378 0.0907
vn 0.0147 0.7862 0.6178
vn 0.0633 -0.4195 0.9055
vn 0.0146 0.7863 0.6177
vn 0.0123 -0.8953 -0.4453
vn 0.9786 -0.1205 0.1669
vn 0.0572 -0.5807 0.8121
vn -0.9674 -0.1464 0.2064
vn 0.0124 -0.8953 -0.4454
vn 0.0168 0.5592 0.8288
vn -0.9674 -0.1465 0.2065
vn 0.0571 -0.5807 0.8121
vn 0.9786 -0.1205 0.1670
vn 0.0169 0.5592 0.8289
vn 0.0021 -0.7929 -0.6094
vn 0.9835 -0.1282 0.1280
vn 0.0575 -0.6748 0.7357
vn -0.9746 -0.1455 0.1705
vn 0.0574 -0.6749 0.7357
vn 0.0228 0.4531 0.8912
vn 0.9835 -0.1281 0.1280
vn -0.0002 -0.5384 -0.8427
vn 0.9914 -0.1132 0.0649
vn 0.0040 -0.8672 0.4979
vn -0.9898 -0.1238 0.0711
vn -0.0002 -0.5383 -0.8427
vn 0.0017 0.1741 0.9847
vn 0.0040 -0.8672 0.4980
vn 0.9914 -0.1133 0.0649
vn 0.0017 0.1742 0.9847
vn 0.0060 -0.4563 -0.8898
vn 0.9978 -0.0552 0.0365
vn -0.0029 -0.8843 0.4668
vn -0.9975 -0.0654 0.0271
vn 0.0060 -0.4562 -0.8898
vn -0.0030 -0.8843 0.4668
vn -0.0065 0.2658 0.9640
vn -0.9975 -0.0653 0.0272
vn -0.0030 -0.8843 0.4669
vn 0.0008 -0.5525 -0.8335
vn 0.9567 -0.2711 0.1061
vn 0.0053 -0.9308 0.3655
vn -0.9487 -0.2942 0.1158
vn 0.0053 -0.9308 0.3654
vn 0.0015 0.1562 0.9877
vn -0.9487 -0.2942 0.1159
vn 0.9567 -0.2711 0.1060
vn 0.0015 0.1563 0.9877
vn 0.0052 -0.9308 0.3655
vn 0.0045 -0.6147 -0.7888
vn 0.9877 -0.1273 0.0910
vn 0.0289 -0.8159 0.5775
vn -0.9845 -0.1434 0.1006
vn 0.0046 -0.6147 -0.7888
vn 0.0288 -0.8159 0.5774
vn 0.0053 0.3147 0.9492
vn -0.9845 -0.1435 0.1006
vn 0.0054 0.3146 0.9492
vn 0.0043 -0.8279 -0.5608
vn 0.9869 -0.1007 0.1258
vn 0.0275 -0.6259 0.7794
vn -0.9835 -0.1133 0.1407
vn 0.0276 -0.6259 0.7794
vn 0.0058 0.5718 0.8204
vn -0.9836 -0.1133 0.1406
vn 0.0057 0.5718 0.8204
vn 0.0060 -0.8759 -0.4824
vn 0.9964 -0.0472 0.0703
vn 0.0452 -0.5355 0.8433
vn -0.9945 -0.0544 0.0898
vn 0.0059 -0.8759 -0.4824
vn 0.0453 -0.5355 0.8433
vn 0.0126 0.6076 0.7941
vn 0.0127 0.6077 0.7941
vn 0.0130 -0.8846 0.4661
vn 0.9475 -0.0064 0.3197
vn 0.0415 0.0038 0.9991
vn -0.9230 0.0091 0.3847
vn 0.0130 -0.8847 0.4661
vn 0.0415 0.0037 0.9991
vn 0.0262 0.8777 0.4784
vn 0.0414 0.0038 0.9991
vn 0.0094 -0.9998 -0.0179
vn 0.9902 -0.0177 0.1388
vn 0.0646 -0.1149 0.9913
vn -0.9850 -0.0181 0.1714
vn 0.0095 -0.9998 -0.0179
vn 0.0646 -0.1148 0.9913
vn 0.0147 0.9236 0.3831
vn -0.9850 -0.0182 0.1714
vn 0.9901 -0.0178 0.1389
vn 1.0000 -0.0000 0.0000
vn -1.0000 -0.0000 0.0000
vn 0.9996 -0.0275 -0.0090
vn -0.9996 -0.0254 -0.0137
vn -0.4362 -0.7619 0.4787
vn 0.4209 -0.3959 -0.8162
vn 0.5447 -0.3305 0.7707
vn -0.9105 -0.4010 -0.1005
vn -0.8134 -0.2135 0.5411
vn -0.4749 -0.3031 0.8262
vn -0.7158 -0.2713 -0.6435
vn -0.2106 -0.2789 -0.9370
vn -0.8893 0.1095 0.4440
vn -0.0355 0.0571 -0.9977
vn -0.9106 -0.4010 -0.1005
vn 0.4208 -0.3958 -0.8162
vn 0.9187 -0.2678 0.2902
vn -0.2105 -0.2788 -0.9370
vn 0.7142 -0.2727 -0.6447
vn 0.7142 -0.2727 -0.6446
vn 0.7662 -0.2256 0.6018
vn 0.9187 -0.2677 0.2902
vn 0.7662 -0.2257 0.6017
vn -0.4749 -0.3032 0.8262
vn 0.8613 0.1121 0.4956
vn -0.8893 0.1094 0.4440
vn -0.7158 -0.2712 -0.6435
vn -0.2106 -0.2788 -0.9370
vn 0.9188 -0.2677 0.2902
vn 0.8613 0.1122 0.4956
vn -0.6023 0.6017 -0.5246
usemtl TEX_w2dswa5
s 1
f 1/1/1 2/2/2 3/3/3
f 2/2/2 1/1/1 4/4/4
f 5/5/5 6/6/6 4/7/4
f 6/8/6 7/9/7 4/10/4
f 7/9/7 6/8/6 8/11/8
f 9/12/9 8/11/8 6/8/6
f 4/10/4 7/9/7 10/13/10
f 7/14/7 11/15/11 10/16/10
f 11/15/11 7/14/7 12/17/12
f 8/18/13 12/17/12 7/14/7
f 12/17/12 8/18/13 13/19/14
f 12/20/12 3/21/15 11/22/11
f 3/21/15 12/20/12 1/23/1
f 12/20/12 5/24/16 1/23/17
f 3/3/3 14/25/18 15/26/19
f 14/25/20 3/3/3 2/2/21
f 14/27/20 2/28/21 10/13/10
f 10/13/10 16/29/22 14/27/20
f 11/22/11 3/21/23 15/30/19
f 15/31/19 17/32/24 18/33/25
f 17/32/26 15/31/27 14/34/18
f 17/35/26 14/27/18 16/29/28
f 16/29/28 19/36/29 17/35/26
f 10/37/10 20/38/30 16/39/22
f 20/38/31 10/37/10 11/40/11
f 20/41/31 11/22/11 15/30/19
f 15/30/19 18/42/25 20/41/31
f 19/36/29 16/29/28 21/43/32
f 20/41/31 18/42/25 22/44/33
f 22/44/34 23/45/35 20/41/30
f 23/45/35 22/44/34 24/46/36
f 8/47/8 9/48/37 25/49/38
f 8/47/8 25/49/38 13/50/14
f 25/51/38 6/6/6 5/5/16
f 6/6/6 25/51/38 9/52/9
f 13/53/39 5/24/40 12/20/12
f 5/24/40 13/53/39 25/54/41
f 18/33/25 19/55/29 22/56/42
f 19/55/29 18/33/25 17/32/26
f 16/39/28 23/57/35 21/58/43
f 23/57/35 16/39/28 20/38/30
f 26/59/44 19/36/29 21/43/32
f 21/43/32 27/60/45 26/59/44
f 28/61/46 26/59/44 27/60/45
f 27/60/45 29/62/47 28/61/46
f 30/63/48 28/61/46 29/62/47
f 31/64/49 29/65/50 32/66/51
f 29/65/47 31/64/49 30/67/48
f 33/68/52 21/69/53 23/70/54
f 21/69/32 33/68/52 27/71/45
f 32/72/55 27/71/45 33/68/52
f 27/71/45 32/72/55 29/73/47
f 34/74/56 23/45/57 24/46/58
f 23/45/57 34/74/56 33/75/52
f 31/76/59 33/75/52 34/74/56
f 33/75/52 31/76/49 32/77/55
f 35/78/60 36/79/61 37/80/62
f 36/79/61 35/78/60 38/81/63
f 39/82/64 38/81/63 35/78/60
f 38/81/63 39/82/64 40/83/65
f 38/84/63 41/85/66 36/86/61
f 41/85/66 38/84/63 42/87/67
f 40/88/65 42/87/67 38/84/63
f 42/87/67 40/88/65 43/89/68
f 44/90/69 43/89/68 40/88/65
f 42/91/67 45/92/70 41/93/66
f 45/92/70 42/91/67 46/94/71
f 43/95/72 46/94/71 42/91/67
f 46/94/71 43/95/72 47/96/73
f 46/97/74 37/98/62 45/99/75
f 37/98/62 46/97/74 35/100/76
f 47/101/77 35/100/76 46/97/74
f 35/100/76 47/101/77 39/102/64
f 48/103/78 49/104/79 50/105/80
f 49/104/79 48/103/78 51/106/81
f 52/107/82 54/108/83 53/109/84
f 53/109/84 44/90/69 52/107/82
f 40/88/65 52/107/82 44/90/69
f 47/101/77 55/110/85 39/102/64
f 54/108/83 52/107/82 56/111/86
f 51/112/81 37/113/87 36/114/61
f 37/113/87 51/112/81 48/115/88
f 50/116/80 41/117/66 45/118/89
f 41/117/66 50/116/80 49/119/79
f 48/103/88 45/99/70 37/98/62
f 45/99/70 48/103/88 50/105/80
f 49/104/79 36/86/61 41/85/66
f 36/86/61 49/104/79 51/106/90
f 53/120/84 54/121/83 55/122/85
f 55/110/85 56/111/91 39/102/64
f 56/123/86 40/124/92 39/125/64
f 40/124/65 56/123/86 52/126/82
f 44/127/69 53/120/84 55/122/85
f 55/122/85 47/128/77 44/127/69
f 54/108/93 56/111/86 55/110/94
f 44/127/69 47/128/77 43/129/68
f 57/130/95 58/131/96 59/132/97
f 58/131/98 57/130/99 60/133/100
f 61/134/101 62/135/102 63/136/103
f 63/136/103 62/135/102 64/137/104
f 64/137/104 58/138/98 63/136/103
f 65/139/105 62/140/106 66/141/107
f 57/142/99 64/143/108 67/144/109
f 64/143/108 57/142/99 59/145/110
f 63/146/103 68/147/111 69/148/112
f 68/147/111 58/149/98 60/150/100
f 60/150/100 67/151/109 68/147/111
f 68/147/111 63/146/103 58/149/98
f 65/139/105 66/141/107 70/152/113
f 63/146/103 69/148/112 61/153/114
f 71/154/115 72/155/116 61/134/101
f 66/156/107 62/135/102 61/134/101
f 65/157/117 70/158/118 69/148/119
f 57/159/99 67/151/109 60/150/100
f 68/147/111 65/157/117 69/148/119
f 65/157/117 68/147/111 67/151/109
f 67/144/109 62/140/102 65/139/117
f 62/140/102 67/144/109 64/143/104
f 59/160/120 58/138/98 64/137/104
f 70/158/118 73/161/121 69/148/119
f 69/148/119 74/162/122 71/163/123
f 69/148/112 71/163/124 61/153/101
f 75/164/125 76/165/126 77/166/127
f 78/167/128 76/168/129 79/169/130
f 76/168/129 78/167/128 77/170/131
f 80/171/132 77/170/131 78/167/128
f 77/170/131 80/171/132 81/172/133
f 82/173/134 81/172/133 80/171/132
f 81/172/133 82/173/134 83/174/135
f 84/175/136 83/174/135 82/173/134
f 83/174/135 84/175/136 85/176/137
f 81/177/138 86/178/139 77/166/127
f 86/178/139 81/177/138 83/179/135
f 86/178/139 75/164/125 77/166/127
f 87/180/140 76/165/126 75/164/125
f 72/155/141 66/156/142 61/134/101
f 88/181/143 80/182/132 78/183/128
f 89/184/144 88/181/143 78/183/128
f 79/185/145 89/184/144 78/183/128
f 89/184/144 79/185/145 90/186/146
f 73/161/121 74/162/147 69/148/119
f 89/187/144 90/188/148 87/189/140
f 89/187/144 87/189/140 75/190/149
f 91/191/150 92/192/151 93/193/152
f 92/192/151 91/191/150 94/194/153
f 95/195/154 94/194/153 91/191/150
f 94/194/153 95/195/155 96/196/156
f 97/197/157 91/198/158 98/199/159
f 98/199/159 94/200/153 97/197/157
f 99/201/160 97/197/157 94/200/153
f 94/200/153 96/202/156 99/201/160
f 98/199/159 91/198/158 93/203/152
f 98/199/159 92/204/161 94/200/153
f 99/201/160 91/198/158 97/197/157
f 91/198/158 99/201/160 95/205/162
f 100/206/163 101/207/164 102/208/165
f 103/209/166 100/206/163 102/208/167
f 104/210/168 103/209/166 102/208/169
f 101/207/164 104/210/168 102/208/165
f 105/211/170 106/212/171 107/213/172
f 108/214/173 105/211/170 107/213/172
f 109/215/174 108/214/173 107/213/175
f 106/212/171 109/215/176 107/213/172
f 110/216/177 111/217/178 112/218/179
f 113/219/180 110/216/181 112/218/179
f 114/220/182 113/219/183 112/218/184
f 111/217/185 114/220/186 112/218/179
f 115/221/187 116/222/188 117/223/189
f 118/224/190 115/221/187 117/223/191
f 119/225/192 118/224/190 117/223/191
f 116/222/193 119/225/192 117/223/191
f 120/226/194 121/227/195 122/228/196
f 123/229/197 120/226/198 122/228/196
f 124/230/199 123/229/197 122/228/200
f 121/227/201 124/230/202 122/228/196
f 125/231/203 126/232/204 127/233/205
f 128/234/206 125/231/207 127/233/208
f 129/235/209 128/234/210 127/233/208
f 126/232/204 129/235/209 127/233/211
f 130/236/212 131/237/213 132/238/214
f 133/239/215 130/236/212 132/238/216
f 134/240/217 133/239/218 132/238/216
f 131/237/219 134/240/220 132/238/221
f 135/241/222 136/242/223 137/243/224
f 138/244/225 135/241/226 137/243/227
f 139/245/228 138/244/229 137/243/227
f 136/242/223 139/245/230 137/243/227
f 140/246/231 141/247/232 142/248/233
f 143/249/234 140/246/231 142/248/235
f 144/250/236 143/249/237 142/248/233
f 141/247/232 144/250/238 142/248/233
f 145/251/239 146/252/240 147/253/241
f 148/254/242 145/251/243 147/253/244
f 149/255/245 148/254/242 147/253/244
f 146/252/240 149/255/246 147/253/241
f 150/256/247 151/257/248 152/258/249
f 153/259/250 150/256/251 152/258/252
f 154/260/253 153/259/250 152/258/249
f 151/257/248 154/260/253 152/258/254
f 155/261/255 156/262/256 157/263/257
f 158/264/258 155/261/259 157/263/260
f 159/265/261 158/264/262 157/263/260
f 156/262/263 159/265/261 157/263/260
f 160/266/264 161/267/264 162/268/264
f 163/269/265 164/270/265 162/271/265
f 165/272/264 166/273/264 167/274/264
f 168/275/264 167/276/264 169/277/264
f 170/278/264 171/279/264 172/280/264
f 173/281/264 172/282/264 174/283/264
f 175/284/264 176/285/264 177/286/264
f 178/287/264 177/288/264 179/289/264
f 180/290/265 181/291/265 179/292/265
f 182/293/265 183/294/265 184/295/265
f 184/296/265 185/297/265 186/298/264
f 186/299/264 188/300/264 187/301/264
f 189/302/265 190/303/265 191/304/265
f 191/305/265 192/306/265 193/307/265
f 194/308/265 195/309/265 196/310/265
f 197/311/265 198/312/265 199/313/265
f 200/314/265 201/315/265 202/316/265
f 203/317/266 83/179/135 85/318/137
f 86/178/139 83/179/135 203/317/266
f 82/319/134 204/320/267 84/321/268
f 204/320/267 82/319/134 88/181/143
f 80/182/132 88/181/143 82/319/134
f 205/322/269 207/323/270 206/324/271
f 208/325/272 210/326/273 209/327/274
f 209/327/274 211/328/275 208/325/272
f 212/329/276 208/325/272 211/328/275
f 211/328/275 213/330/277 212/329/276
f 206/331/278 212/329/276 213/330/277
f 213/330/277 205/332/279 206/331/278
f 214/333/280 211/328/281 215/334/282
f 215/334/283 216/335/284 214/333/285
f 214/336/280 216/337/286 210/338/287
f 210/338/287 208/339/272 214/336/280
f 217/340/288 214/336/280 208/339/272
f 208/339/272 212/341/289 217/340/288
f 207/342/270 217/340/288 212/341/289
f 212/341/289 206/343/271 207/342/270
f 215/334/283 211/328/281 209/327/290
f 213/330/277 211/328/291 214/333/292
f 214/333/292 217/344/293 213/330/277
f 205/332/269 213/330/277 217/344/293
f 217/344/293 207/345/270 205/332/269
f 4/10/4 10/13/10 2/28/21
f 5/5/5 4/7/4 1/346/294
