{
    "forge_marker": 1,
    "variants": {
    "type": {{
		"1"; {
			"model": "rcraft:w2dkn01l.obj"
		},
		"2"; {
			"model": "rcraft:w2dkn02l.obj"
		},
		"3"; {
			"model": "rcraft:w2dkn03l.obj"
		},
		"4"; {
			"model": "rcraft:w2dkn04l.obj"
		},
		"5"; {
			"model": "rcraft:w2dkn05l.obj"
		},
		"6"; {
			"model": "rcraft:w2dkn06l.obj"
		},
		"7"; {
			"model": "rcraft:w2dkn07l.obj"
		},
		"8"; {
			"model": "rcraft:w2dkn08l.obj"
		},
		"9"; {
			"model": "rcraft:w2dkn09l.obj"
		},
		"10"; {
			"model": "rcraft:w2dknx1l.obj"
		},
		"11"; {
			"model": "rcraft:w2dknx2l.obj"
		}
    }}
	},
	{
		"transform": {
		  "rotation": [0, 90, 0, 0],
		  "translation": [-0.65, 0.6, -0.7],
		  "scale": [ 1.3, 1.3, 1.3 ]
	    }  
	}
}
