{
    "forge_marker": 1,
    "variants": {
    "type": {{
		"1"; {
			"model": "rcraft:w21st01.obj"
		},
		"2"; {
			"model": "rcraft:w21st02.obj"
		},
		"3"; {
			"model": "rcraft:w21st03.obj"
		},
		"4"; {
			"model": "rcraft:w21st04.obj"
		},
		"5"; {
			"model": "rcraft:w21st05.obj"
		},
		"6"; {
			"model": "rcraft:w21st06.obj"
		},
		"7"; {
			"model": "rcraft:w21st07.obj"
		},
		"8"; {
			"model": "rcraft:w21stx1.obj"
		},
		"9"; {
			"model": "rcraft:w21stx2.obj"
		}
    }}
	},
	{
		"transform": {
		  "rotation": [0, 90, 0, 0],
		  "translation": [-0.50, 0.8, -0.45],
		  "scale": [ 1.0, 1.0, 1.0 ]
	  } 
	}
}
